"key","quote_source_post_discussion_id","posts_dataset_id","posts_timestamp","posts_author_id","quote_source_author_id","posts_native_post_id","quote_source_timestamp","post_text_id","Word_Count","quote_source_post_id","post_text","quote_source_text_id","Dialog_Turn","posts_discussion_id","quote_source_post_dataset_id","Fullquote_text","discussion_url","quote_source_native_post_id","posts_post_id"
"1-373_25_24_1",373,1,"2003-07-07 23:06:00",331,25,11551,"2003-07-07 19:15:00",23875,57,24,"You must be joking. Scores of people whose ""guilt"" was ""undeniable"" under such criteria were later undeniably proven innocent (a far stronger refutation than necessary).
And think of the incentives you would create: kill in maximum secrecy (and plan it carefully), and never confess!",23874,1,373,1,"I would say at least two witnesses, or an open confession in a courtroom (not to a police officer or intererrator).","http://www.4forums.com/political/crime-debates/642-capital-punishement.html",11527,25
"1-373_26_25_1",373,1,"2003-07-08 07:17:00",25,331,11603,"2003-07-07 23:06:00",23876,69,25,"Can you give some examples?
And then if a jury determines that they are guilty, they get life in prison instead of death.
Also, I fogot to metion anything about DNA testing. I believe DNA testing should also be used whenever possible. However, if there is any doubt about the DNA testing, then once agan, life inprisonment not death.",23875,1,373,1,"You must be joking. Scores of people whose ""guilt"" was ""undeniable"" under such criteria were later undeniably proven innocent (a far stronger refutation than necessary).","http://www.4forums.com/political/crime-debates/642-capital-punishement.html",11551,26
"1-373_27_26_1",373,1,"2003-07-08 10:07:00",331,25,11617,"2003-07-08 07:17:00",23877,199,26,"Not specific cases matching your criteria (I don't keep a database of death penalty cases), but it is not hard to find them. Just go to Google Directory, Society / Issues / Death penalty, and you'll find plenty of info.
That many defendants confess heinous crimes they never committed is notorious (a recently publicized example: the ""Central Park Jogger"" case). That witnesses lie or are simply in error is even better known.
Sure, but if you assume that death is a harsher penalty than life, then this is clearly an unfair scheme, and makes confession outright suicidal. On the other hand, if you don't assume that, what is the point of the death penalty at all?
Of course, but it is useful only in limited cases, e.g. involving rape or a struggle between the murderer and the victim. But in cases like Oklahoma City bombing or the Beltway sniper - where the greatest number of people can agree on the appropriateness of death penalty in principle - there is no help from such tests.",23876,1,373,1,"Can you give some examples?","http://www.4forums.com/political/crime-debates/642-capital-punishement.html",11603,27
"1-373_28_27_1",373,1,"2003-07-08 11:18:00",25,331,11624,"2003-07-08 10:07:00",23878,73,27,"I did that and I found nothing with cases that match that criteria. All I found was viewpoints on it.
The ""Central Park Jogger"" case involved a person who confessed who probably was guilty. 
Oh, and by the way, the criteria that I mentioned earlier was enough to kill someone for treason, so why shouldn't it be enough to kill someone for another crime?",23877,1,373,1,"Not specific cases matching your criteria (I don't keep a database of death penalty cases), but it is not hard to find them. Just go to Google Directory, Society / Issues / Death penalty, and you'll find plenty of info.","http://www.4forums.com/political/crime-debates/642-capital-punishement.html",11617,28
"1-373_29_28_1",373,1,"2003-07-08 14:30:00",331,25,11653,"2003-07-08 11:18:00",23879,132,28,"Now that I have mentioned it, the Central Park Jogger case would fit the criteria had it been a murder case. The kids confessed and testified against each other.
Many sites link to info about specific cases. It would certainly take time to find one matching your criteria since they would not be cataloged that way. The point is that it is obvious that each error mentioned happens (and quite often), and it should be obvious that they can, and do, combine and happen together.
Well, it involved one who is guilty and confessed years later, and several who were completely innocent, but confessed and served many years.
This I don't understand. Can you clarify?",23878,1,373,1,"I did that and I found nothing with cases that match that criteria. All I found was viewpoints on it.","http://www.4forums.com/political/crime-debates/642-capital-punishement.html",11624,29
"1-373_30_29_1",373,1,"2003-07-08 16:18:00",25,331,11660,"2003-07-08 14:30:00",23880,75,29,"And had the death penalty been in effect, those kids might have died.
Our founding fathers, who believed that many guilty should go free lest one innocent person be convicted, also stated that to convict someone of treason (which used to be a capital offense), you needed either two witnesses or a confession. That was what I used to develop my criteria for proof of guilt.",23879,1,373,1,"Well, it involved one who is guilty and confessed years later, and several who were completely innocent, but confessed and served many years.","http://www.4forums.com/political/crime-debates/642-capital-punishement.html",11653,30
"1-373_31_30_1",373,1,"2003-07-08 18:23:00",331,25,11672,"2003-07-08 16:18:00",23881,56,30,"Oh, I see. But that is a minimum requirement, not an assessment of what constitutes ""undeniable proof"".
My main point is that a true undeniable proof of guilt is an unreachable ideal. No matter how well the justice system works, we will always risk convicting innocent people.",23880,1,373,1,"Our founding fathers, who believed that many guilty should go free lest one innocent person be convicted, also stated that to convict someone of treason (which used to be a capital offense), you needed either two witnesses or a confession. That was what I used to develop my criteria for proof of guilt.","http://www.4forums.com/political/crime-debates/642-capital-punishement.html",11660,31
