"key","quote_source_post_discussion_id","posts_dataset_id","posts_timestamp","posts_author_id","quote_source_author_id","posts_native_post_id","quote_source_timestamp","post_text_id","Word_Count","quote_source_post_id","post_text","quote_source_text_id","Dialog_Turn","posts_discussion_id","quote_source_post_dataset_id","Fullquote_text","discussion_url","quote_source_native_post_id","posts_post_id"
"1-4756_73_72_1",4756,1,"2006-12-10 13:57:00",164,226,242807,"2006-12-10 13:38:00",373845,42,72,"Ghandi's math is a little off in this case. One eye for another eye between two people would still leave each person with one eye. Therefore, nobody is left blinded; they simply would have inferior depth perception.",373844,1,4756,1,"And furthermore, Ghandi said ""An eye for an eye leaves everyone blind"".","http://www.4forums.com/political/crime-debates/7033-attack-against-death-penalty.html",242802,73
"1-4756_76_73_1",4756,1,"2006-12-10 21:26:00",226,164,242848,"2006-12-10 13:57:00",373848,36,73,"Yet how many eyes were lost? What if there wasn't two people? What if they took out both eyes? There are too many variables for you to make an assertion like that.",373845,1,4756,1,"Ghandi's math is a little off in this case. One eye for another eye between two people would still leave each person with one eye. Therefore, nobody is left blinded; they simply would have inferior depth perception.","http://www.4forums.com/political/crime-debates/7033-attack-against-death-penalty.html",242807,76
"1-4756_78_76_1",4756,1,"2006-12-11 10:59:00",164,226,242870,"2006-12-10 21:26:00",373850,165,76,"No, there aren't too many variables. If you examine the phrase ""an eye for an eye"" you can logically deduct several things. The most obvious is there are only two eyes involved in the equation. ""An eye (1) for an eye (1)."" 1 eye + 1 eye = 2 eyes. Since this expression is supposed to teach us a lesson regarding how we treat other people (not ourselves), we can also conclude that there are at least two people (most likely only two people, but certainly never just one person). Every normal person has two eye. Therefore, if one person with two eyes trades ""an eye"" for ""an eye"" with another person with two eyes, each person is left with a single eye. Thus, neither person is blind, and the expression is incorrect.",373848,1,4756,1,"Yet how many eyes were lost? What if there wasn't two people? What if they took out both eyes? There are too many variables for you to make an assertion like that.","http://www.4forums.com/political/crime-debates/7033-attack-against-death-penalty.html",242848,78
"1-4756_81_78_1",4756,1,"2006-12-11 17:10:00",226,164,242902,"2006-12-11 10:59:00",373853,101,78,"But lets say the offender poked out both of someone's eyes? Then it would mean two eyes. So if 2(1eye + 1eye) = X, then X would Equal 4 eyes, which would make both persons blind.
But lets say the offender decides to poke out both eyes? What then? Then obviously, everyone will end up blind eventually.
I just disproved that. Even if what you said is true, two eyes were lost in the process. Which means that 1 eye extra was lost.",373850,1,4756,1,"No, there aren't too many variables. If you examine the phrase ""an eye for an eye"" you can logically deduct several things. The most obvious is there are only two eyes involved in the equation. ""An eye (1) for an eye (1)."" 1 eye + 1 eye = 2 eyes.","http://www.4forums.com/political/crime-debates/7033-attack-against-death-penalty.html",242870,81
"1-4756_84_81_1",4756,1,"2006-12-12 05:19:00",164,226,242968,"2006-12-11 17:10:00",373856,85,81,"You didn't disprove anything. All you did was create new terms to the equation. You could have just as easily said ""But what if each person was a cyclops?"" If you add in your own conditions, you can make the equation anything you want. This entire expression hinges on the equality between exchanging one eye for another. ""An eye for an eye"" does not mean ""maybe sometimes both eyes for both eyes.""",373853,1,4756,1,"But lets say the offender poked out both of someone's eyes? Then it would mean two eyes. So if 2(1eye + 1eye) = X, then X would Equal 4 eyes, which would make both persons blind.
But lets say the offender decides to poke out both eyes? What then? Then obviously, everyone will end up blind eventually.
I just disproved that. Even if what you said is true, two eyes were lost in the process. Which means that 1 eye extra was lost.","http://www.4forums.com/political/crime-debates/7033-attack-against-death-penalty.html",242902,84
"1-4756_88_84_1",4756,1,"2006-12-12 15:34:00",226,164,243092,"2006-12-12 05:19:00",373860,28,84,"I just disproved the whole thing! Fine, what would happen if I poked both of your eyes out? Its one eye for one eye.",373856,1,4756,1,"You didn't disprove anything. All you did was create new terms to the equation. You could have just as easily said ""But what if each person was a cyclops?"" If you add in your own conditions, you can make the equation anything you want. This entire expression hinges on the equality between exchanging one eye for another. ""An eye for an eye"" does not mean ""maybe sometimes both eyes for both eyes.""","http://www.4forums.com/political/crime-debates/7033-attack-against-death-penalty.html",242968,88
"1-4756_89_88_1",4756,1,"2006-12-12 16:51:00",164,226,243107,"2006-12-12 15:34:00",373861,77,88,"If you poked both of my eyes out, you would still have two eyes. Therefore, ""everyone"" is not blind, just me. Besides, poking out both of my eyes is not trading an eye for an eye, as the expression outlines. Trust me, I am correct on this one. You are better off using the other cliche ""Two wrongs don't make a right.""",373860,1,4756,1,"I just disproved the whole thing! Fine, what would happen if I poked both of your eyes out? Its one eye for one eye.","http://www.4forums.com/political/crime-debates/7033-attack-against-death-penalty.html",243092,89
"1-4756_91_89_1",4756,1,"2006-12-12 17:46:00",226,164,243116,"2006-12-12 16:51:00",373863,192,89,"I believe I am right. If I trade you one apple for a banana, what would you give me if I traded you two apples. Well first lets examine the intention of the phrase. I believe he meant ""And eye for an eye mentality can leave more people hurt than necessary.
Lets do this mathematically.
Let X= Eye poked out by criminal
Let Y= Eye poked out by excecutioner or punisher or whatever.
Let N= However many eyes are remaining
If x-y= 2 eyes, one from each person, then you can logically conclude that 
if two eyes were put out by the criminal, then the equation would be
2(x-y)= N
If x-y=2, then you can logically conclude if that whole statement was doubled, then the answer would be 2x-2y=N, which would make x and y each two eyes and thus making the answer 4 eyes when the equation is doubled. 4 eyes would leave both persons blind unless a third party is envolved.",373861,1,4756,1,"If you poked both of my eyes out, you would still have two eyes. Therefore, ""everyone"" is not blind, just me. Besides, poking out both of my eyes is not trading an eye for an eye, as the expression outlines. Trust me, I am correct on this one. You are better off using the other cliche ""Two wrongs don't make a right.""","http://www.4forums.com/political/crime-debates/7033-attack-against-death-penalty.html",243107,91
"1-4756_79_77_2",4756,1,"2006-12-11 11:11:00",164,226,242873,"2006-12-10 21:30:00",373851,59,77,"How exactly does this prove that reality is not largely based on perception? If anything, you have just proved my point.
But it will be, no matter how much you think it shouldn't.
Of course not. Sometimes I wonder if you even understand what you post, at least on this topic.",373849,2,4756,1,"On the contrary. In your america, murdering children is acceptable. Not the america with the 50 states, George W. Bush as the president, etc. Thats the america I live in.","http://www.4forums.com/political/crime-debates/7033-attack-against-death-penalty.html",242849,79
"1-4756_82_79_2",4756,1,"2006-12-11 17:24:00",226,164,242905,"2006-12-11 11:11:00",373854,126,79,"Thats aside from the point. The point I'm trying to make is that murdering children is illegal, which is not a perception or a different reality. It just Is.
Of course, i'm only voicing my opinion.
It seems that you don't understand a thing. I meant that abortion is not black and white. You can't really just tell people to ""quit"" having sex. You can't just stop doing something. Just like I said, the jews just couldn't ""escape"" from the nazis, inmates can't just escape from jail like its easy, and people can't just do things. Its hard for them, and you don't know your circumstances.",373851,2,4756,1,"How exactly does this prove that reality is not largely based on perception? If anything, you have just proved my point.","http://www.4forums.com/political/crime-debates/7033-attack-against-death-penalty.html",242873,82
"1-4756_83_82_2",4756,1,"2006-12-12 05:04:00",164,226,242967,"2006-12-11 17:24:00",373855,237,82,"You don't perceive an embryo to be a human life, but some people do. To both of you, this is reality, and it is based mostly on perception. Two people are looking at the same exact thing and they each see something different.
You are completely wrong. You act as if people aren't in control of their actions. What on earth do you mean, ""You can't just stop doing something.""? Everybody who has quit smoking cold turkey defies that statement, myself included. Then you turn around and say ""...people can't just do things."" Well, which one is it? Is it people can't stop or can't do? Either way, you seek to absolve people of personal responsibility. Maybe we should use this reasoning to excuse all human behavior? ""Well, Bob isn't really a bad guy, he just couldn't manage to stop molesting those kids."" People are responsible for what they do, and if the consequences of the behavior they choose leads to the creation of a new human life, they should not have the right to end it. Perhaps you are so young that sex seems exciting and new and you really think people can't help it. I assure you, they can.",373854,2,4756,1,"Thats aside from the point. The point I'm trying to make is that murdering children is illegal, which is not a perception or a different reality. It just Is.","http://www.4forums.com/political/crime-debates/7033-attack-against-death-penalty.html",242905,83
"1-4756_87_83_2",4756,1,"2006-12-12 15:28:00",226,164,243091,"2006-12-12 05:04:00",373859,221,83,"Then good for them, but science shows that embryos are not children.
Oh, i misunderstood. Even still, am embryo is not scientifically a child.
You are not in their circumstances and don't know what its like for them.
Also same with everyone who hasn't. People are different, thats why we have choice. So the people who can quit go along their way, and the people that cant have an emergency safety net.
First things first, i don't ""turn around"". Second, its both.
Not at all. I seek to protect people from burdens and forced opinons of others onto their own personal lives.
Of course not, but if that human life is living like a parasite off of someone else, and that person has no way of getting it off him/her except for an abortion, then they do. Anyone has a right to remove any parasitic infection or cancer from his/her body, no matter what kind of life it is.
Maybe so, but then how come abortion laws haven't worked before? How come many people have abortions each year? I doubt its just because their evil irresponsible people.",373855,2,4756,1,"You don't perceive an embryo to be a human life, but some people do.","http://www.4forums.com/political/crime-debates/7033-attack-against-death-penalty.html",242967,87
"1-4756_90_87_2",4756,1,"2006-12-12 17:19:00",164,226,243114,"2006-12-12 15:28:00",373862,223,87,"This statement is correct, though meaningless. I said an embryo is ""a human life."" You refute by saying an embryo is not a child. There is no comparison here, as not all ""human lives"" are ""children."" The fact that science doesn't consider an embryo a child doesn't mean an embryo isn't a human life.
Nobody knows what it is like to be anybody else. Does this mean we should eliminate all laws, as we shouldn't have the right to enforce any laws on people when we don't understand what it is like to be in their situation?
That's fine for smoking. However, I don't agree that ending a human life should be a valid ""emergency safety net"" in this case. 
It is too bad that you think an embryo in a state you lived through is a ""burden"" and a ""parasite"" that should be treated like an ""infection or cancer."" The thing that really puzzles me is you are against late-term abortion. This means that there is actually a specific moment in time when an embryo transforms from a parasitic lump of DNA to a human being with rights, in your opinion.",373859,2,4756,1,"Then good for them, but science shows that embryos are not children.","http://www.4forums.com/political/crime-debates/7033-attack-against-death-penalty.html",243091,90
"1-4756_92_90_2",4756,1,"2006-12-12 17:51:00",226,164,243119,"2006-12-12 17:19:00",373864,159,90,"If I'm not mistaken, we were talking about ""murdering children"".
May I see some proof?
Are you purposely trying to confuse me? You just said that a human life IS a child.
Of course not, but the line must be drawn somewhere. Abortion criminalization goes waay too far.
It really depends on what kind of human life. As in, a kidney is a human life, but so am I. What we need to determine is, which is an embryo?
Whats the problem. It meets the defonition of both, regardless of your goody two shoes opinion.
Yes. When it develops intelligence, it is a human being and can be consider a person. Even if it has a very tiny shread of intelligence, it is then that it becomes a sentinent being that can be treated with rights.",373862,2,4756,1,"This statement is correct, though meaningless. I said an embryo is ""a human life."" You refute by saying an embryo is not a child.","http://www.4forums.com/political/crime-debates/7033-attack-against-death-penalty.html",243114,92
