"key","quote_source_post_discussion_id","posts_dataset_id","posts_timestamp","posts_author_id","quote_source_author_id","posts_native_post_id","quote_source_timestamp","post_text_id","Word_Count","quote_source_post_id","post_text","quote_source_text_id","Dialog_Turn","posts_discussion_id","quote_source_post_dataset_id","Fullquote_text","discussion_url","quote_source_native_post_id","posts_post_id"
"1-7933_127_126_1",7933,1,"2008-10-10 17:25:00",258,412,327337,"2008-10-10 16:47:00",650239,54,126,"One person falsely convicted and executed is sufficient cause to eliminate the DP.
Being locked in an 8x12 for the rest of one's life hardly qualifies as being taken care of. Besides which, it cost less to incarcerate someone for life than it does to execute him/her.",650238,1,7933,1,"Something opponents of the death penalty don't seem to understand; not everybody sentenced to death has been falsely convicted. And until I see some stats of just how many people are wrongly convicted, I'm not changing my position that the death penalty is a good idea.
Let's face simple facts here. The people who qualify for the death penalty are charged with committing some considerably heinous crime(s) that society has deemed unacceptable. That means they're not fit to remain free amongst society, and I don't see why they deserve to be taken care of for the rest of their lives by American tax payers. The death penalty is the only acceptable answer in this case.","http://www.4forums.com/political/crime-debates/11312-death-penalty.html",327336,127
"1-7933_130_127_1",7933,1,"2008-10-10 20:25:00",412,258,327356,"2008-10-10 17:25:00",650242,10,127,"So anything short of 100% perfection is absolutely unacceptable?",650239,1,7933,1,"One person falsely convicted and executed is sufficient cause to eliminate the DP.","http://www.4forums.com/political/crime-debates/11312-death-penalty.html",327337,130
"1-7933_132_130_1",7933,1,"2008-10-11 02:19:00",258,412,327373,"2008-10-10 20:25:00",650244,30,130,"When it comes to the taking of innocent life in my name by the state...ABSOLUTELY!!!!
I am surprised that anyone would have it any other way.",650242,1,7933,1,"So anything short of 100% perfection is absolutely unacceptable?","http://www.4forums.com/political/crime-debates/11312-death-penalty.html",327356,132
"1-7933_139_132_1",7933,1,"2008-10-11 05:41:00",412,258,327400,"2008-10-11 02:19:00",650251,40,132,"The police have been known to wind up killing innocent people over misinformation. Are you saying that we should do away with armed police officers for the same reason that one innocent life is too precious to lose?",650244,1,7933,1,"When it comes to the taking of innocent life in my name by the state...ABSOLUTELY!!!!","http://www.4forums.com/political/crime-debates/11312-death-penalty.html",327373,139
"1-7933_142_139_1",7933,1,"2008-10-11 09:22:00",258,412,327436,"2008-10-11 05:41:00",650254,97,139,"Don't try to play silly word games, OK; I'll respect you more that way.
The British Police have managed quite well without firearms for two centuries now.
For us, since the gun nuts won't allow that here, I suggest that any cop who kills a person who is later shown to be innocent should be immediately dismissed from the force and that he/she be made personally liable for any civil judgment that is rendered.
We have had enough Amadou Diallos, Sean Bells, and Frank Lovatos.",650251,1,7933,1,"The police have been known to wind up killing innocent people over misinformation. Are you saying that we should do away with armed police officers for the same reason that one innocent life is too precious to lose?","http://www.4forums.com/political/crime-debates/11312-death-penalty.html",327400,142
"1-7933_196_191_2",7933,1,"2008-10-20 10:58:00",2904,258,329022,"2008-10-19 19:58:00",650308,109,191,"A list of crime deterrents compilated just for you, they are- .357 magnum, .44 magnum, .500 magnum(My personal favorite), 9mm, .40 caliber, 12 guage, 20 guage, and 10 and 16 guages. These stop criminals ""dead"" in their tracks. If I use any of these, the criminal cant ever repeat his crime. But with your prefered "" non lethal"" means of self defense, a repeat is highly likely, as our judicial system believes in just giving a criminal a slap on the wrist.",650303,2,7933,1,"Crime stats: http://www.disastercenter.com/crime/uscrime.htm","http://www.4forums.com/political/crime-debates/11312-death-penalty.html",328930,196
"1-7933_197_196_2",7933,1,"2008-10-20 13:01:00",258,2904,329067,"2008-10-20 10:58:00",650309,38,196,"Neither our Consitution nor the laws made under it give to any individual a right to private justice.
I suspect you are writing what you do simply to see if others will descend to your level.",650308,2,7933,1,"A list of crime deterrents compilated just for you, they are- .357 magnum, .44 magnum, .500 magnum(My personal favorite), 9mm, .40 caliber, 12 guage, 20 guage, and 10 and 16 guages. These stop criminals ""dead"" in their tracks. If I use any of these, the criminal cant ever repeat his crime. But with your prefered "" non lethal"" means of self defense, a repeat is highly likely, as our judicial system believes in just giving a criminal a slap on the wrist.","http://www.4forums.com/political/crime-debates/11312-death-penalty.html",329022,197
"1-7933_198_197_2",7933,1,"2008-10-20 15:37:00",2904,258,329103,"2008-10-20 13:01:00",650310,67,197,"I only said they were crime deterents, and if I ""were forced"" to use them, the outcome would be permanent, unlike non lethal means. Being forced to use them would be self defense, choosing to use them after the fact is justice. I know, you disagree with my view of justice, we have already covered this.",650309,2,7933,1,"Neither our Consitution nor the laws made under it give to any individual a right to private justice.
I suspect you are writing what you do simply to see if others will descend to your level.","http://www.4forums.com/political/crime-debates/11312-death-penalty.html",329067,198
"1-7933_199_198_2",7933,1,"2008-10-21 05:23:00",258,2904,329152,"2008-10-20 15:37:00",650311,145,198,"Here in my state, an inmate was just released after 10 years in prison for a murder that even the prosecutor says he did not commit.
As I asked you previously, what if the victim had been a member of your family and you had extracted private justice?
What would your widow tell your daughter if the members of the released man's family had taken you out for murdering their child/husband/brother?
Do you get that there was no crime that he could have repeated, because he didn't commit one in the first place?emoticonXAngry
Do you get that we are not living in the days of the Hatfields and the McCoys?emoticonXAngry
Do you get that, if he had been executed that it would have been a judicially sanctioned murder?emoticonXAngry",650310,2,7933,1,"I only said they were crime deterents, and if I ""were forced"" to use them, the outcome would be permanent, unlike non lethal means. Being forced to use them would be self defense, choosing to use them after the fact is justice. I know, you disagree with my view of justice, we have already covered this.","http://www.4forums.com/political/crime-debates/11312-death-penalty.html",329103,199
"1-7933_200_199_2",7933,1,"2008-10-21 09:15:00",2904,258,329183,"2008-10-21 05:23:00",650312,86,199,"First of all, I would not take any action against anyone unless I either saw it for myself( the crime), or the rapist, or murderer were positively identified by more than one witness. As much as I love my child, people do lie, and just because a family member made an acusation does not always make it so. I would have to be absolutely certain that the man accused is the one who actually did it.",650311,2,7933,1,"Here in my state, an inmate was just released after 10 years in prison for a murder that even the prosecutor says he did not commit.
As I asked you previously, what if the victim had been a member of your family and you had extracted private justice?
What would your widow tell your daughter if the members of the released man's family had taken you out for murdering their child/husband/brother?
Do you get that there was no crime that he could have repeated, because he didn't commit one in the first place?emoticonXAngry
Do you get that we are not living in the days of the Hatfields and the McCoys?emoticonXAngry
Do you get that, if he had been executed that it would have been a judicially sanctioned murder?emoticonXAngry","http://www.4forums.com/political/crime-debates/11312-death-penalty.html",329152,200
"1-7933_52_50_3",7933,1,"2008-07-03 17:09:00",1069,412,314999,"2008-07-03 16:53:00",650164,59,50,"...you could have accepted that nothing is 100% perfect and imprisoned the criminal for life, instead. That way should they be later acquitted it is never too late.
We made the system. That means we can always improve on it, unless it is perfect. Clearly this is not yet the case.",650162,3,7933,1,"It's absolutely impossible to try and improve on the system, because it's beyond our capacity","http://www.4forums.com/political/crime-debates/11312-death-penalty.html",314995,52
"1-7933_53_52_3",7933,1,"2008-07-03 18:36:00",412,1069,315017,"2008-07-03 17:09:00",650165,63,52,"Unacceptable when you consider the people we're talking about in this discussion.
There's simply no way to improve on the system, it's as good as it's gonna get and that's the long and short of it. Human being aren't perfect and can't be made perfect. Anything we touch is going to be imperfect in one area or another.",650164,3,7933,1,"...you could have accepted that nothing is 100% perfect and imprisoned the criminal for life, instead. That way should they be later acquitted it is never too late.","http://www.4forums.com/political/crime-debates/11312-death-penalty.html",314999,53
"1-7933_54_53_3",7933,1,"2008-07-03 18:44:00",1069,412,315020,"2008-07-03 18:36:00",650166,86,53,"What, the people who are occasionally entirely innocent?
Or the murderers who killed someone because they did something that the murderer considered worthy of punishment by death? See my hypocrisy point, still out there.
I've given you a way to improve on it - abolish it, and use one that is not hypocritical and does not risk killing innocent people.
Are you so desperate to kill criminals that you don't mind murdering innocents? That's lynch mob mentality.",650165,3,7933,1,"Unacceptable when you consider the people we're talking about in this discussion.","http://www.4forums.com/political/crime-debates/11312-death-penalty.html",315017,54
"1-7933_55_54_3",7933,1,"2008-07-03 19:29:00",412,1069,315040,"2008-07-03 18:44:00",650167,90,54,"Child rapists is who we're discussing. These are the people that deserve to die for their crimes.
Unacceptable. Paying for the permanent housing and care of a person that is beyond all hopes of rehabilitation is absolutely, 100% unacceptable as an option.
Lynch mob mentality is the bypassing of the justice system entirely and doing what they perceive as ""right"". What I'm supporting is the death of people the justice system has ruled as being bad enough that they're worth killing.",650166,3,7933,1,"What, the people who are occasionally entirely innocent?
Or the murderers who killed someone because they did something that the murderer considered worthy of punishment by death? See my hypocrisy point, still out there.","http://www.4forums.com/political/crime-debates/11312-death-penalty.html",315020,55
"1-7933_56_55_3",7933,1,"2008-07-04 05:09:00",1069,412,315077,"2008-07-03 19:29:00",650168,117,55,"Firstly, prove 'beyond all hope of rehabilitation'. Especially given that you have accepted that some innocent people are executed. Secondly, it is often more expensive to execute than to incarcerate for life.
No, you're trying to trying to change the justice system so that it reclassifies paedophiles as 'worth killing'. See your first post in this topic. That's attempting to do what you perceive as right, despite the fact that you will kill innocents on the way (which is arguably a breach of justice).
If you were wrongfully arrested for child abuse, would you support your own death penalty?",650167,3,7933,1,"Unacceptable. Paying for the permanent housing and care of a person that is beyond all hopes of rehabilitation is absolutely, 100% unacceptable as an option.","http://www.4forums.com/political/crime-debates/11312-death-penalty.html",315040,56
"1-7933_57_56_3",7933,1,"2008-07-04 07:22:00",412,1069,315088,"2008-07-04 05:09:00",650169,73,56,"Look at their recidivism rates.
The First Amendment says we have a right to petition the government for a redress of grievances. One of the many grievances I have is that child rapists don't qualify for the death penalty unless the child that gets raped is also killed.
I'm sick and tired of scumbags raping kids and being allowed out of prison only to rape again, it's unacceptable.",650168,3,7933,1,"Firstly, prove 'beyond all hope of rehabilitation'. Especially given that you have accepted that some innocent people are executed. Secondly, it is often more expensive to execute than to incarcerate for life.","http://www.4forums.com/political/crime-debates/11312-death-penalty.html",315077,57
"1-7933_58_57_3",7933,1,"2008-07-06 10:26:00",1069,412,315344,"2008-07-04 07:22:00",650170,57,57,"Page link
2.5%... That's 97.5% who are not 'beyond hope'. Disproportionate reaction?
Then be honest about your intentions, rather than saying you are just 'trying to support the justice system'.
Then lock them up for life. How does this give them the opportunity to rape again?",650169,3,7933,1,"Look at their recidivism rates.","http://www.4forums.com/political/crime-debates/11312-death-penalty.html",315088,58
