"key","quote_source_post_discussion_id","posts_dataset_id","posts_timestamp","posts_author_id","quote_source_author_id","posts_native_post_id","quote_source_timestamp","post_text_id","Word_Count","quote_source_post_id","post_text","quote_source_text_id","Dialog_Turn","posts_discussion_id","quote_source_post_dataset_id","Fullquote_text","discussion_url","quote_source_native_post_id","posts_post_id"
"1-823_4_3_1",823,1,"2003-12-08 09:33:00",577,277,26241,"2003-12-08 00:17:00",61500,30,3,"Easy for you to say, would you feel differently if it was you or, maybe your mother who slipped ""through the cracks"" in the system?",61499,1,823,1,"If after all of this an innocent person slips through the cracks and is executed, so be it.","http://www.4forums.com/political/crime-debates/1367-when-should-we-execute.html",26179,4
"1-823_5_4_1",823,1,"2003-12-08 10:42:00",277,577,26258,"2003-12-08 09:33:00",61501,99,4,"The point is, I think the benefits outweigh the cost. Yes, an innocent person may be executed once in a while, but we do not do it intentionally, we only execute those who have been found guilty in a court of law and lost all of their appeals. As far as me, I'll take my chances, I think the odds are in my favor. Again, does anyone have any facts of how often an innocent person is executed? Do we know how many have already been executed?",61500,1,823,1,"Easy for you to say, would you feel differently if it was you or, maybe your mother who slipped ""through the cracks"" in the system?","http://www.4forums.com/political/crime-debates/1367-when-should-we-execute.html",26241,5
"1-823_7_5_1",823,1,"2003-12-08 12:00:00",577,277,26277,"2003-12-08 10:42:00",61503,30,5,"I would be willing to bet that you think odds are in your favor because you are an Anglo American male. Check this out: http://www.justicedenied.org/executed.htm. Or this http://www.innocenceproject.org/.",61501,1,823,1,"As far as me, I'll take my chances, I think the odds are in my favor. Again, does anyone have any facts of how often an innocent person is executed? Do we know how many have already been executed?","http://www.4forums.com/political/crime-debates/1367-when-should-we-execute.html",26258,7
"1-823_11_7_1",823,1,"2003-12-09 11:23:00",277,577,26482,"2003-12-08 12:00:00",61507,16,7,"You sure about that? I don't remember ever mentioning my race / ethnic origin.",61503,1,823,1,"I would be willing to bet that you think odds are in your favor because you are an Anglo American male. Check this out: http://www.justicedenied.org/executed.htm. Or this http://www.innocenceproject.org/.","http://www.4forums.com/political/crime-debates/1367-when-should-we-execute.html",26277,11
"1-823_18_11_1",823,1,"2003-12-09 16:49:00",577,277,26536,"2003-12-09 11:23:00",61514,108,11,"No, I am not sure... Your cocksure attitude intimating that there is not much chance you could end up falsly convicted and excecuted makes me wonder if the reason for that attitude is that you fall into the category of middle class Anglo. According to the ALCU, ""36 percent of death row inmates are black, although African Americans constitute only 12 percent of the U.S. population. But the race of the victim turns out to be an even more decisive factor in capital sentencing decisions. Almost all death sentences (82%) in this country involve white victims.""",61507,1,823,1,"You sure about that? I don't remember ever mentioning my race / ethnic origin.","http://www.4forums.com/political/crime-debates/1367-when-should-we-execute.html",26482,18
"1-823_21_18_1",823,1,"2003-12-10 09:29:00",277,577,26644,"2003-12-09 16:49:00",61517,128,18,"Well, show me the statistics on how many people have been falsely convicted and put to death, then maybe I will start to worry about it. As it stands in this country, it seems that I have a better chance of being killed by terrorists, the flu, anthrax, etc... If you can show that there is a significant risk of this happening to me, maybe I will start to worry just a little. And I am not sure what you are trying to show with your racial statistics, what is the overall point? Are you intimating (good word by the way :) ) that blacks receive the death penalty more often than white people?",61514,1,823,1,"No, I am not sure... Your cocksure attitude intimating that there is not much chance you could end up falsly convicted and excecuted makes me wonder if the reason for that attitude is that you fall into the category of middle class Anglo. According to the ALCU, ""36 percent of death row inmates are black, although African Americans constitute only 12 percent of the U.S. population. But the race of the victim turns out to be an even more decisive factor in capital sentencing decisions. Almost all death sentences (82%) in this country involve white victims.""","http://www.4forums.com/political/crime-debates/1367-when-should-we-execute.html",26536,21
"1-823_25_21_1",823,1,"2003-12-10 17:09:00",577,277,26740,"2003-12-10 09:29:00",61521,115,21,"Yes, I am. Per-capita. 
...and yes, Lev is correct in his interpretation of my reason for posting the quote. 
Also, the race of the victim is significant in that a white victim produces the death penalty much more often than a non-white victim. The point of including this information is to highlight the sick racism in the juristic system in this country. Most of the African Americans I know are very aware of the problem, that ""driving while black"" is a good enough reason for the police (in many instances) to pull over/harrass/arrest....ad infinitum.",61517,1,823,1,"And I am not sure what you are trying to show with your racial statistics, what is the overall point? Are you intimating (good word by the way :) ) that blacks receive the death penalty more often than white people?","http://www.4forums.com/political/crime-debates/1367-when-should-we-execute.html",26644,25
