Filename,key
1-173_68_67__69_70_74_77_79_81_87_1,1-173_68_67__69_70_74_77_79_81_87_1_user9.pyr
1-342_9_8__12_13_15_16_1,1-342_9_8__12_13_15_16_1_user7.pyr
1-483_2_1__3_5_6_7_8_10_11_12_13_19_24_31_42_1,1-483_2_1__3_5_6_7_8_10_11_12_13_19_24_31_42_1_user9.pyr
1-546_20_19__24_27_28_29_33_34_1,1-546_20_19__24_27_28_29_33_34_1_user7.pyr
1-546_140_139__141_142_143_144_145_146_2,1-546_140_139__141_142_143_144_145_146_2_user9.pyr
1-546_230_229__231_232_233_234_235_3,1-546_230_229__231_232_233_234_235_3_user7.pyr
1-671_3_2__4_5_6_7_8_9_10_11_13_14_1,1-671_3_2__4_5_6_7_8_9_10_11_13_14_1_user7.pyr
1-690_2_1__3_4_5_7_1,1-690_2_1__3_4_5_7_1_user8.pyr
1-737_78_77__80_81_82_83_84_1,1-737_78_77__80_81_82_83_84_1_user9.pyr
1-764_66_63__67_70_74_75_2,1-764_66_63__67_70_74_75_2_user8.pyr
1-1103_28_27__29_30_31_32_33_34_1,1-1103_28_27__29_30_31_32_33_34_1_user9.pyr
1-1543_41_40__44_47_49_51_1,1-1543_41_40__44_47_49_51_1_user8.pyr
1-3320_45_44__46_47_48_49_1,1-3320_45_44__46_47_48_49_1_user9.pyr
1-3449_16_6__18_19_20_21_23_24_1,1-3449_16_6__18_19_20_21_23_24_1_user9.pyr
1-8003_38_37__39_40_41_42_43_45_47_49_1,1-8003_38_37__39_40_41_42_43_45_47_49_1_user9.pyr
1-8099_19_16__23_24_27_31_2,1-8099_19_16__23_24_27_31_2_user8.pyr
1-8143_42_37__45_50_55_56_1,1-8143_42_37__45_50_55_56_1_user8.pyr
1-8543_111_109__114_131_132_135_139_147_148_1,1-8543_111_109__114_131_132_135_139_147_148_1_user9.pyr
1-8543_123_121__129_130_133_134_2,1-8543_123_121__129_130_133_134_2_user9.pyr
1-8543_150_143__151_153_156_160_162_164_3,1-8543_150_143__151_153_156_160_162_164_3_user9.pyr
