"weight","label","contrib","key_user","id"
"5","Ability to reproduce is implied in  marriage definition","{'contrib4': u'Most associate marriage with producing offspring, hence it is deemed important in the cultural definition', 'contrib1': u'The cultural definition includes reproduction', 'contrib0': u'Believes that ability to reproduce is implied in definition', 'contrib3': u'that a monogamous pair of individuals will reproduce', 'contrib2': u'love and the intension to reproduce being implied'}","1-10349_9_5__17_40_43_50_52_1_user7.pyr","68"
"5","Marriage definition excludes homosexuals","{'contrib4': u'They believe that in order for homosexuals to be included, the definition and cultural meaning of marriage would have to change to accommodate it', 'contrib1': u'Homosexual marriage has never been an explicit or implicit part of those definitions', 'contrib0': u'S1 States that the current definition of marriage specifically excludes homosexuals', 'contrib3': u'Saying that homosexual couples are not a part of either definition', 'contrib2': u'both limiting marriage to heterosexual couples'}","1-10349_9_5__17_40_43_50_52_1_user7.pyr","48"
"5","Marriage definition is ""man and woman that are not underage, not related, not already married""","{'contrib4': u'S1 argues that the cultural meaning of marriage is a formalization of a mating pair', 'contrib1': u'Marriage is a formalized mating pair', 'contrib0': u'the current definition is ""two people that are not underage, or opposite genders, same species, not closely related and not already married""', 'contrib3': u'S1 states that the legal definition of marriage is a contract between a man and a woman, who are not related, with no regard to love, or the intention of reproduction', 'contrib2': u'he uses the term mating mating pairs'}","1-10349_9_5__17_40_43_50_52_1_user7.pyr","49"
"5","Marriage definition is a personal belief rather than culture","{'contrib4': u'S2 disagrees with and questions the cultural definition given by S1', 'contrib1': u'S2 argues that S1 is exercising a subjective definition', 'contrib0': u'S2 Ask who agve S1 right to define cultural meanings', 'contrib3': u""They argue that many do not share S1's definition of marriage"", 'contrib2': u'S2 believes that personal opinions are subjective'}","1-10349_9_5__17_40_43_50_52_1_user7.pyr","55"
"5","Reproduction has no bearing on the definition of marriage","{'contrib4': u'He challenges the cultural definition with the example of a 65 and 68 year old getting married', 'contrib1': u""Further, there are instances of accepted marriage which violate S1's provided definitions"", 'contrib0': u'refers to lack of reproductive abilities of an elderly person and a younger person marrying', 'contrib3': u'uses the example that people well over the age of reproduction are not only legally capable of getting married, but also suffer no special stigma for doing so', 'contrib2': u'Using a hypothetical marriage between a 65 year old woman and a 68 year old man as an example'}","1-10349_9_5__17_40_43_50_52_1_user7.pyr","53"
"4","Marriage definition is a commitment between two people who love one another","{'contrib1': u'Instead, love, the emotional connection is what is most important', 'contrib0': u'S2 defines marriage as a commitment between two people who love one another', 'contrib3': u'He feels that the main factor in marriage is not reproduction but love and commitment between two individuals', 'contrib2': u'They believe what defines marriage is love between two people who desire a commitment between themselves'}","1-10349_9_5__17_40_43_50_52_1_user7.pyr","70"
"4","Marriage has a specific and deeply embedded definition within culture","{'contrib1': u'S1 is focused on the definition of marriage and the cultural definition', 'contrib0': u'S1 argues that marriage has a specific and deeply embedded definition within culture', 'contrib3': u'legal definition can be decided any way', 'contrib2': u'S1 further states that the only connection between, mating couples and marriage, are cultural'}","1-10349_9_5__17_40_43_50_52_1_user7.pyr","63"
"3","Gay marriage harms no one","{'contrib1': u'without a harm involved', 'contrib0': u'Claims that those that oppose gay marriage are opposing something that harms no one', 'contrib2': u'on which they pose no threat to those who are enjoying the status quo'}","1-10349_9_5__17_40_43_50_52_1_user7.pyr","59"
"3","Marriage rights of the minority are limited","{'contrib1': u'should not be used as the basis to limit the rights of the minority', 'contrib0': u""are trying to limit other's actions"", 'contrib2': u'He finds it unfair that a group of people are being excluded from an institution'}","1-10349_9_5__17_40_43_50_52_1_user7.pyr","62"
