"key","quote_source_post_discussion_id","posts_dataset_id","posts_timestamp","posts_author_id","quote_source_author_id","posts_native_post_id","quote_source_timestamp","post_text_id","Word_Count","quote_source_post_id","post_text","quote_source_text_id","Dialog_Turn","posts_discussion_id","quote_source_post_dataset_id","Fullquote_text","discussion_url","quote_source_native_post_id","posts_post_id"
"1-10106_9_8_1",10106,1,"2010-09-07 21:35:00",91,1443,411789,"2010-09-07 13:19:00",457917,117,8,"That's an idiotic assertion. How can a search for knowledge be an effort to deny your petty god? What would be the purpose of searching for knowledge that denies your petty god?

Ben Stein lied to you. Those people in Stein's movie weren't fired because of their beliefs. They were fired because they refused to do the job that they were hired to do, or they were incompetent. Take for example, William Dembski, who was let go by Baylor University (a Baptist affiliated university) because he didn't do what he was hired to do.
I notice that you don't support your assertion with examples.",457916,1,10106,1,"In a way.
I do believe scientists are sincere in their search for knowledge, but there is so much in the effort of finding things just to try to deny God.
Yes, there are many people thrown out of their positions or denied tenure if they teach I.D.(.) I encourage you to watch the movie ""Expelled"" that Ben Stein made, even if it is only to see the people who have been fired for their beliefs.","http://www.4forums.com/political/creation-intelligent-design-vs-evolution/14596-there-really-scientific-conspiracy-suppress-trvth.html",411758,9
"1-10106_12_9_1",10106,1,"2010-09-08 12:03:00",1443,91,411817,"2010-09-07 21:35:00",457920,120,9,"This is the kind of person I was talking about. (Thanks for proving my point Data).

I know what you mean, my parents told me Harry Potter was evil because of the witchcraft, then my dad saw one of the movies and loved it so much we own all of them and we read all the books.
But as Data has shown, there are those who use ""science"" so they can deny God. Most of the science that does this is unbased while most other facets of science show His glory even without mentioning Him.

They were hired to teach a class, not to teach evolution.",457917,1,10106,1,"That's an idiotic assertion. How can a search for knowledge be an effort to deny your petty god? What would be the purpose of searching for knowledge that denies your petty god?

Ben Stein lied to you. Those people in Stein's movie weren't fired because of their beliefs. They were fired because they refused to do the job that they were hired to do, or they were incompetent. Take for example, William Dembski, who was let go by Baylor University (a Baptist affiliated university) because he didn't do what he was hired to do.
I notice that you don't support your assertion with examples.","http://www.4forums.com/political/creation-intelligent-design-vs-evolution/14596-there-really-scientific-conspiracy-suppress-trvth.html",411789,12
"1-10106_17_12_1",10106,1,"2010-09-08 15:00:00",91,1443,411845,"2010-09-08 12:03:00",457925,179,12,"Apparently you didn't notice that he didn't say that he was searching for ways to deny your god. He said that he took pleasure when the results debunked the wholly babble and creationism.

Again, that's not what he said. Personally, when I was doing science there never was any intent to deny your petty god. However, it was always funny when creationists squealed at the results of science.

What a load of nonsense. So science can show the glory of a mythical being without mentioning him, and it can also debunk the existence of that mythical being, also without mentioning him. You're so logical.

And they were fired for not teaching that class. I personally know of an English teacher who taught creationism in his English classes. He was let go. Of course, only an XXXXX would try to teach that the earth is only 6,000 years old in a earth science class. It takes intentional ignorance to deny evolution.",457920,1,10106,1,"This is the kind of person I was talking about. (Thanks for proving my point Data).

I know what you mean, my parents told me Harry Potter was evil because of the witchcraft, then my dad saw one of the movies and loved it so much we own all of them and we read all the books.
But as Data has shown, there are those who use ""science"" so they can deny God. Most of the science that does this is unbased while most other facets of science show His glory even without mentioning Him.

They were hired to teach a class, not to teach evolution.","http://www.4forums.com/political/creation-intelligent-design-vs-evolution/14596-there-really-scientific-conspiracy-suppress-trvth.html",411817,17
"1-10106_19_17_1",10106,1,"2010-09-10 12:17:00",1443,91,412000,"2010-09-08 15:00:00",457927,72,17,"The only thing is that they don't debunk creationism. So to take pleasure in something that looks like it might, is to have been searching for it in the first place.

I just don't like ""theories"" that are mere speculation to be taken and taught as fact.

No, I meant without a base.

It takes ignorance to deny something that has no proof?",457925,1,10106,1,"Apparently you didn't notice that he didn't say that he was searching for ways to deny your god. He said that he took pleasure when the results debunked the wholly babble and creationism.

Again, that's not what he said. Personally, when I was doing science there never was any intent to deny your petty god. However, it was always funny when creationists squealed at the results of science.

What a load of nonsense. So science can show the glory of a mythical being without mentioning him, and it can also debunk the existence of that mythical being, also without mentioning him. You're so logical.

And they were fired for not teaching that class. I personally know of an English teacher who taught creationism in his English classes. He was let go. Of course, only an XXXXX would try to teach that the earth is only 6,000 years old in a earth science class. It takes intentional ignorance to deny evolution.","http://www.4forums.com/political/creation-intelligent-design-vs-evolution/14596-there-really-scientific-conspiracy-suppress-trvth.html",411845,19
"1-10106_30_19_1",10106,1,"2010-09-11 07:09:00",91,1443,412105,"2010-09-10 12:17:00",457938,246,19,"Now you're just trying to be funny.

Yep. You're just trying to be funny.

Thank god that scientific theories are not just mere speculation. Ever hear of the theory of gravity? I know. You're going to display your profound ignorance of scientific topics by telling us that ""gravity is a law."" Wrong again. Newton formulated the first theory of gravity that was based on a consistant observation. The observation is the law and the theory explains why. Same with evolution. The theories are explanations of observations of evolution.
On the other hand, there are no observations or explanations of ""creation."" Just immaginings based on the mythology of nomadic, bronze age herdsmen.

Then, by saying ""unbased"" you actually meant to talk gibberish. In fact, the theories of evolution are based on observations of changes the genetic makeup of populations of living things.

You display yet more ignorance of what science is and how it works. Of course, there isn't even a hint of evidence of creationism. It's pretty silly to fall back on magic for anything that you don't understand. To believe in young earth creationism means that one must deny physics, geology, astrophysics, astronomy, biology - in fact, all of science but elementry chemistry. Wow! Talk about ignorance.",457927,1,10106,1,"The only thing is that they don't debunk creationism. So to take pleasure in something that looks like it might, is to have been searching for it in the first place.

I just don't like ""theories"" that are mere speculation to be taken and taught as fact.

No, I meant without a base.

It takes ignorance to deny something that has no proof?","http://www.4forums.com/political/creation-intelligent-design-vs-evolution/14596-there-really-scientific-conspiracy-suppress-trvth.html",412000,30
"1-10106_171_169_2",10106,1,"2010-12-17 15:51:00",500,237,419343,"2010-12-17 15:28:00",458079,29,169,"You are the only one in this discussion that shows a predominant lack of logic or reason. Your position has been proven wrong, get over it .",458077,2,10106,1,"Depends on how you define 'win', nothing I asserted was refuted if that qualifies as 'won'; but no real attempt was made either.
It's like someone saying ""the sky is blue"" and then claiming he won an argument when no one contradicted his statement.
I can promise you that anyone reasonably proficient in logic could review this thread and have some serious criticisms on what you think is an argument.
I invite any of you (one at a time of course) who believe I have said something incorrect that has been refuted on this thread to a formal debate where I take the resolution that I did not.
You can't imagine how sure I am that would someone you disagreed with behave as you are now you would attribute it to their inability to think logically or ignorance.. for I have seen it. When it became clear fartigle could not support anything he said to you, he resorted to name calling; various informal fallacies and eventually quit.
Did you 'beat' his arguments? How do you know you weren't a floor?","http://www.4forums.com/political/creation-intelligent-design-vs-evolution/14596-there-really-scientific-conspiracy-suppress-trvth.html",419340,171
"1-10106_172_171_2",10106,1,"2010-12-17 15:51:00",237,500,419344,"2010-12-17 15:51:00",458080,73,171,"I updated my post after you responded, if you truly wish to test what you seem to think was an argument in this thread PM me and I will start a post in the formal debate area.

It hasn't, not even in the slightest.
If you aren't lying through your teeth you will be willing to put that statement to the test minus the rhetoric in formal debate.",458079,2,10106,1,"You are the only one in this discussion that shows a predominant lack of logic or reason. Your position has been proven wrong, get over it .","http://www.4forums.com/political/creation-intelligent-design-vs-evolution/14596-there-really-scientific-conspiracy-suppress-trvth.html",419343,172
"1-10106_174_172_2",10106,1,"2010-12-17 16:34:00",500,237,419346,"2010-12-17 15:51:00",458082,37,172,"I'm not going to play your childish game in a formal debate thread, you have been proven wrong, get over it, take your loss like a man and move on to brighter days...",458080,2,10106,1,"I updated my post after you responded, if you truly wish to test what you seem to think was an argument in this thread PM me and I will start a post in the formal debate area.

It hasn't, not even in the slightest.
If you aren't lying through your teeth you will be willing to put that statement to the test minus the rhetoric in formal debate.","http://www.4forums.com/political/creation-intelligent-design-vs-evolution/14596-there-really-scientific-conspiracy-suppress-trvth.html",419344,174
"1-10106_175_174_2",10106,1,"2010-12-17 17:09:00",237,500,419349,"2010-12-17 16:34:00",458083,6,174,"Childish game of formal debate :p",458082,2,10106,1,"I'm not going to play your childish game in a formal debate thread, you have been proven wrong, get over it, take your loss like a man and move on to brighter days...","http://www.4forums.com/political/creation-intelligent-design-vs-evolution/14596-there-really-scientific-conspiracy-suppress-trvth.html",419346,175
"1-10106_176_175_2",10106,1,"2010-12-17 17:19:00",500,237,419351,"2010-12-17 17:09:00",458084,52,175,"With you there is no such thing as a "" Formal"" debate. Good luck in your Debate with Sir Bennedict.. If he decided to take you up on it I'm buying popcorn and front row seats. That should be better than a one sided Football game.....emoticonXAgree",458083,2,10106,1,"Childish game of formal debate :p","http://www.4forums.com/political/creation-intelligent-design-vs-evolution/14596-there-really-scientific-conspiracy-suppress-trvth.html",419349,176
"1-10106_255_253_3",10106,1,"2010-12-21 14:18:00",500,237,419590,"2010-12-21 14:00:00",458163,129,253,"So what you're saying is that Behe, as well as all the others who use IC to support ID got it wrong?.. 
I found this interesting.. Even the Courts disagree with you..lol.. Note the part where he says that IC is CENTRAL to ID... 
Kitzmiller v. Dover Area School District - Wikipedia, the free encyclopedia
Kitzmiller v. Dover Area School District

I personally don't know, I don't care...the Term IC refers to Creationism whether it can proven or not, the leading ID'ers consistently try to use IC to support their position. If you disagree I suggest you take it up with the ones who came up with the term to begin with.",458161,3,10106,1,"No 'this all' is because some people would rather play the part of foolish partisan rather than admit the simplest thing.
In case you forgot, 'this all' started when it was claimed that I must be a creationist because espouse IC. 'this all' is about whether or not that is the case.
The only way that could be the case is if IC forced via logic any who accept it to the conclusion of creationism.
Which means the crucial premise that will decide 'all this' is whether or not one can support ID with IC.

and my claim was that it cannot be.

lol","http://www.4forums.com/political/creation-intelligent-design-vs-evolution/14596-there-really-scientific-conspiracy-suppress-trvth.html",419588,255
"1-10106_257_255_3",10106,1,"2010-12-21 16:30:00",237,500,419600,"2010-12-21 14:18:00",458165,191,255,"I can't help but giggle because no matter how many times I say the same thing it never sinks in.
IDrs think that defeating evolution supports ID. They got that wrong.
IDrs and ICers think that IC defeats evolution. They got that right.
However; no sane person claims to go from IC to ID directly, they would have to be tottally ignorant of what IC is.

Be it a single feverish fool in a funny farm or the whole world crying against it, logic has no equal.

Ah the death knell of all arguments 'it is so whether it can be proven or not'.

I would be taking it up with ken millar and dawkins too if they were members of political debate forums.

Regardless the burden of proof still lies with the affirmative position.

I have not held you to greater than that 'you cannot argue for IC without supporting ID' => 'IC supports ID' => 'IC can support ID'.

What are you talking about?",458163,3,10106,1,"So what you're saying is that Behe, as well as all the others who use IC to support ID got it wrong?.. 
I found this interesting.. Even the Courts disagree with you..lol.. Note the part where he says that IC is CENTRAL to ID... 
Kitzmiller v. Dover Area School District - Wikipedia, the free encyclopedia
Kitzmiller v. Dover Area School District

I personally don't know, I don't care...the Term IC refers to Creationism whether it can proven or not, the leading ID'ers consistently try to use IC to support their position. If you disagree I suggest you take it up with the ones who came up with the term to begin with.","http://www.4forums.com/political/creation-intelligent-design-vs-evolution/14596-there-really-scientific-conspiracy-suppress-trvth.html",419590,257
"1-10106_258_257_3",10106,1,"2010-12-21 17:13:00",500,237,419602,"2010-12-21 16:30:00",458166,167,257,"First of all why not call them what they are.. ID'ers = Creationists. Anything a Creationist finds that can defeat evolution he/she will claim that it supports their belief. You say that IC defeats Evolution and that they got that right, So that means if Evolution is not possible then Creation is the only other explanation for life. Which in turn means that If IC can defeat Evolution then it MUST support Intelligent design. Intelligent Design= Creation, you can't really believe there is any difference. So if you believe in your own mind that IC defeats Evolution, as you imply in the above quote, then IC does in fact support ID.. which is Really just another way to say Creation. 
So are you a creationist or an Evolutionist? you can spin it however you like but you can only be one or the other, there is no in between.",458165,3,10106,1,"I can't help but giggle because no matter how many times I say the same thing it never sinks in.
IDrs think that defeating evolution supports ID. They got that wrong.
IDrs and ICers think that IC defeats evolution. They got that right.
However; no sane person claims to go from IC to ID directly, they would have to be tottally ignorant of what IC is.

Be it a single feverish fool in a funny farm or the whole world crying against it, logic has no equal.

Ah the death knell of all arguments 'it is so whether it can be proven or not'.

I would be taking it up with ken millar and dawkins too if they were members of political debate forums.

Regardless the burden of proof still lies with the affirmative position.

I have not held you to greater than that 'you cannot argue for IC without supporting ID' => 'IC supports ID' => 'IC can support ID'.

What are you talking about?","http://www.4forums.com/political/creation-intelligent-design-vs-evolution/14596-there-really-scientific-conspiracy-suppress-trvth.html",419600,258
"1-10106_259_258_3",10106,1,"2010-12-21 18:55:00",237,500,419607,"2010-12-21 17:13:00",458167,37,258,"All creationist are IDrs but not all IDrs are creationist.

I know.

Really, how do you propose to support that dichotomy?

Why? The choice between two wrongs should not be made.",458166,3,10106,1,"First of all why not call them what they are.. ID'ers = Creationists. Anything a Creationist finds that can defeat evolution he/she will claim that it supports their belief. You say that IC defeats Evolution and that they got that right, So that means if Evolution is not possible then Creation is the only other explanation for life. Which in turn means that If IC can defeat Evolution then it MUST support Intelligent design. Intelligent Design= Creation, you can't really believe there is any difference. So if you believe in your own mind that IC defeats Evolution, as you imply in the above quote, then IC does in fact support ID.. which is Really just another way to say Creation. 
So are you a creationist or an Evolutionist? you can spin it however you like but you can only be one or the other, there is no in between.","http://www.4forums.com/political/creation-intelligent-design-vs-evolution/14596-there-really-scientific-conspiracy-suppress-trvth.html",419602,259
"1-10106_260_259_3",10106,1,"2010-12-21 19:18:00",500,237,419608,"2010-12-21 18:55:00",458168,218,259,"You are Wrong, Intelligent Design implies a creator, whether that be some alien being or a supernatural invisible man it implies a Creator. Creationists came up with the term intelligent design in an attempt to introduce creation into the realm of science so they could in effect teach ""Creation"" in schools. You can make your claim until you're blue but it doesn't change reality. 

I don't have to. When discussing the subject of Life and how it exists we are left with two options. We either evolved as evolutionists believe or we were created by some higher being. Play your little word games if you want, it doesn't change this fact either. You're either a Creationist or an Evolutionist, there is no in between. 

So you are saying that both Evolution and Creation are wrong? I would love to hear your explanation of Life without involving either a creator or Evolution.. And before you go trying to use IC as a stand alone explanation for life don't bother. Anyone with half a brain knows that IC is not a stand alone explanation. you're just being ridiculous and twisting words to fit your position, but the facts are obvious.",458167,3,10106,1,"All creationist are IDrs but not all IDrs are creationist.

I know.

Really, how do you propose to support that dichotomy?

Why? The choice between two wrongs should not be made.","http://www.4forums.com/political/creation-intelligent-design-vs-evolution/14596-there-really-scientific-conspiracy-suppress-trvth.html",419607,260
"1-10106_86_81_4",10106,1,"2010-12-12 16:47:00",237,1648,418958,"2010-12-12 08:12:00",457994,42,81,"IC is to ID as natural selection is to fuel intake valves.

I just did.

Lol

Ah if only you could use propaganda analogies to win debates how utterly destroyed would be my arguments by the brilliant British humor...",457989,4,10106,1,"IC is to ID as natural selection is to evolution. you cant argue for IC and then turn around and say you refuse to argue for ID. IC is a tool used by ID advocates to make ID ""work"" (even though its rather a lack of something happening.)","http://www.4forums.com/political/creation-intelligent-design-vs-evolution/14596-there-really-scientific-conspiracy-suppress-trvth.html",418927,86
"1-10106_88_86_4",10106,1,"2010-12-12 18:24:00",1648,237,418961,"2010-12-12 16:47:00",457996,76,86,"i just facepalmed so hard, my face went right through!

read that again, freedie. i dont think you quite understand the concept of the analogy prose ""__ is to __ as __ is to __""
then again, it is apparent from your arguments that you dont know a shread about the topic at hand - maybe you dont know anything about fuel intake valves either.

no need.",457994,4,10106,1,"IC is to ID as natural selection is to fuel intake valves.

I just did.

Lol

Ah if only you could use propaganda analogies to win debates how utterly destroyed would be my arguments by the brilliant British humor...","http://www.4forums.com/political/creation-intelligent-design-vs-evolution/14596-there-really-scientific-conspiracy-suppress-trvth.html",418958,88
"1-10106_89_88_4",10106,1,"2010-12-12 19:23:00",237,1648,418963,"2010-12-12 18:24:00",457997,72,88,"You shouldn't do that, it doesn't sound healthy :p

You were attempting to indicate that IC is integral to any comprehensive theory of intelligent design.
I responded in the same form indicating that this is not true, that IC has nothing at all to do with any theory of ID and is in fact totally limited by it's own terms and subject to evolution.

Desire at least.",457996,4,10106,1,"i just facepalmed so hard, my face went right through!

read that again, freedie. i dont think you quite understand the concept of the analogy prose ""__ is to __ as __ is to __""
then again, it is apparent from your arguments that you dont know a shread about the topic at hand - maybe you dont know anything about fuel intake valves either.

no need.","http://www.4forums.com/political/creation-intelligent-design-vs-evolution/14596-there-really-scientific-conspiracy-suppress-trvth.html",418961,89
"1-10106_90_89_4",10106,1,"2010-12-12 23:15:00",1648,237,418972,"2010-12-12 19:23:00",457998,195,89,"disagree. the term ""irriducible complexity"" is constantly used in ID circles by all ID advocates. youll never find an ID advocate that doesnt use IC to defend their position. in fact, IC is the #1 objective argument for ID advocates. i would hesitate to call what you seem to be calling ""irriducible complexity"" if you refer it to being an evolutionary tool; i would call your argument ""ridiculous"". what you are guessing evolution does is so improbable, is not recognized by any geneticist, and is a really huge leap in the genome - which is greatly frowned at and rejected by our knowledge of genetics, that i find my new term specifically designed for you to be quite adequate. your argument is a massive appeal to odds. if you are prepared to call what you argue for ""irriducible complexity"" i would suggest readying yourself to defend ID, because it is the engine of ID.

no need to use comedy to defeat your arguments - words will do, its quite easy enough.",457997,4,10106,1,"You shouldn't do that, it doesn't sound healthy :p

You were attempting to indicate that IC is integral to any comprehensive theory of intelligent design.
I responded in the same form indicating that this is not true, that IC has nothing at all to do with any theory of ID and is in fact totally limited by it's own terms and subject to evolution.

Desire at least.","http://www.4forums.com/political/creation-intelligent-design-vs-evolution/14596-there-really-scientific-conspiracy-suppress-trvth.html",418963,90
"1-10106_92_90_4",10106,1,"2010-12-13 10:21:00",237,1648,419002,"2010-12-12 23:15:00",458000,173,90,"I do not care, so is Darwin's name; that must mean Darwin is an integral part of ID.

You're kidding right?
The ID movement predates Behes book by a decade at least.
Furthermore you cannot support ID with IC.

.
lol
Blurting an assertion along with several other assertions does not support the first bennedict.

I understood you the first time.

ROFL, you realize those two paragraphs are contradictory to each other right?
1. He has never supported any creationism
2. He is obviously a creationist
You basically admitted that the standard by which you identify creationist is 'those who deny evolution'.
BTW I never choose Christianity, if ever being a christian is a measure of a creationist then Darwin was one.

Than how can anyone know that I am a creationist?

Find and example.
You are probably having trouble using words precisely and have mistake two similar statements for two identical statements.",457998,4,10106,1,"disagree. the term ""irriducible complexity"" is constantly used in ID circles by all ID advocates. youll never find an ID advocate that doesnt use IC to defend their position. in fact, IC is the #1 objective argument for ID advocates. i would hesitate to call what you seem to be calling ""irriducible complexity"" if you refer it to being an evolutionary tool; i would call your argument ""ridiculous"". what you are guessing evolution does is so improbable, is not recognized by any geneticist, and is a really huge leap in the genome - which is greatly frowned at and rejected by our knowledge of genetics, that i find my new term specifically designed for you to be quite adequate. your argument is a massive appeal to odds. if you are prepared to call what you argue for ""irriducible complexity"" i would suggest readying yourself to defend ID, because it is the engine of ID.

no need to use comedy to defeat your arguments - words will do, its quite easy enough.","http://www.4forums.com/political/creation-intelligent-design-vs-evolution/14596-there-really-scientific-conspiracy-suppress-trvth.html",418972,92
"1-10106_96_92_4",10106,1,"2010-12-13 14:16:00",1648,237,419012,"2010-12-13 10:21:00",458004,178,92,"sigh.
Darwin's name is used by ID advocates as an attack on evolution, never to support their own ""theory"". you have to think a bit harder before answering and throwing up strawmen. like i said, IC is used by ID advocates, and to satisfy your endless crave for absolute straight answers without the need for implications that seeminly anyone apart from you can catch up on, ID advocates use IC to support their idea.

you cant escape what's true. ID advocates use IC as their main argument in support of their ""theory"". observe any ID advocate and youll hear ""____ is so complex, it couldnt have evolved through a gradual process."" i cant believe im having to catch you up on this...
despite the fact that Behe is an advocate of intelligent design... and he came up with IC to support ID. well done, freedie.

you seem flustered, freedom. are you flustered?",458000,4,10106,1,"I do not care, so is Darwin's name; that must mean Darwin is an integral part of ID.

You're kidding right?
The ID movement predates Behes book by a decade at least.
Furthermore you cannot support ID with IC.

.
lol
Blurting an assertion along with several other assertions does not support the first bennedict.

I understood you the first time.

ROFL, you realize those two paragraphs are contradictory to each other right?
1. He has never supported any creationism
2. He is obviously a creationist
You basically admitted that the standard by which you identify creationist is 'those who deny evolution'.
BTW I never choose Christianity, if ever being a christian is a measure of a creationist then Darwin was one.

Than how can anyone know that I am a creationist?

Find and example.
You are probably having trouble using words precisely and have mistake two similar statements for two identical statements.","http://www.4forums.com/political/creation-intelligent-design-vs-evolution/14596-there-really-scientific-conspiracy-suppress-trvth.html",419002,96
"1-10106_238_237_5",10106,1,"2010-12-21 10:10:00",237,1648,419557,"2010-12-21 09:57:00",458146,44,237,"Is it so long their argument that you cannot reiterate it?
If you want me to argue against this so called logical connection you need to at the very least state what it is supposed to be.

Nothing to my knowledge.",458145,5,10106,1,"your question was ""can IC be used to support ID"" and the answer clearly is yes, it can, and ID proponents are doing it all the time. its not just that they claim the two are connected, the connection is in their very argument.
if IC cannot support ID, as you claim, what does support ID? because it seems to me that if IC is not connected to ID, ID has absolutely nothing supporting it.","http://www.4forums.com/political/creation-intelligent-design-vs-evolution/14596-there-really-scientific-conspiracy-suppress-trvth.html",419556,238
"1-10106_242_238_5",10106,1,"2010-12-21 10:54:00",1648,237,419565,"2010-12-21 10:10:00",458150,89,238,"i would agree with the last statement. so would Behe be fighting a losing battle if IC could not be used to support ID? since he uses the argument in defense of ID?
the statements by Behe and others were posted in #139. an irreducibly complex system ""bespeaks design"", and examples have been ""deliberately designed by an intelligent agent"". this wraps up perfectly how the IC argument can be drawn to a designer in support of intelligent design.",458146,5,10106,1,"Is it so long their argument that you cannot reiterate it?
If you want me to argue against this so called logical connection you need to at the very least state what it is supposed to be.

Nothing to my knowledge.","http://www.4forums.com/political/creation-intelligent-design-vs-evolution/14596-there-really-scientific-conspiracy-suppress-trvth.html",419557,242
"1-10106_243_242_5",10106,1,"2010-12-21 11:14:00",237,1648,419566,"2010-12-21 10:54:00",458151,25,242,"If he could use IC to support ID he would not be 'fighting a losing battle'.

with the magic bespeaks word?",458150,5,10106,1,"i would agree with the last statement. so would Behe be fighting a losing battle if IC could not be used to support ID? since he uses the argument in defense of ID?
the statements by Behe and others were posted in #139. an irreducibly complex system ""bespeaks design"", and examples have been ""deliberately designed by an intelligent agent"". this wraps up perfectly how the IC argument can be drawn to a designer in support of intelligent design.","http://www.4forums.com/political/creation-intelligent-design-vs-evolution/14596-there-really-scientific-conspiracy-suppress-trvth.html",419565,243
"1-10106_244_243_5",10106,1,"2010-12-21 11:28:00",1648,237,419567,"2010-12-21 11:14:00",458152,12,243,"you know what the word ""bespeaks"" means, right?",458151,5,10106,1,"If he could use IC to support ID he would not be 'fighting a losing battle'.

with the magic bespeaks word?","http://www.4forums.com/political/creation-intelligent-design-vs-evolution/14596-there-really-scientific-conspiracy-suppress-trvth.html",419566,244
"1-10106_245_244_5",10106,1,"2010-12-21 11:34:00",237,1648,419570,"2010-12-21 11:28:00",458153,13,244,"Yes but I have never seen it prove anything by itself before.",458152,5,10106,1,"you know what the word ""bespeaks"" means, right?","http://www.4forums.com/political/creation-intelligent-design-vs-evolution/14596-there-really-scientific-conspiracy-suppress-trvth.html",419567,245
"1-10106_246_245_5",10106,1,"2010-12-21 11:35:00",1648,237,419571,"2010-12-21 11:34:00",458154,24,245,"well, Dembski uses it in a quote, and its clear that he is using Behe's argument of IC to support ID.",458153,5,10106,1,"Yes but I have never seen it prove anything by itself before.","http://www.4forums.com/political/creation-intelligent-design-vs-evolution/14596-there-really-scientific-conspiracy-suppress-trvth.html",419570,246
"1-10106_247_246_5",10106,1,"2010-12-21 11:46:00",237,1648,419572,"2010-12-21 11:35:00",458155,4,246,"How could he?",458154,5,10106,1,"well, Dembski uses it in a quote, and its clear that he is using Behe's argument of IC to support ID.","http://www.4forums.com/political/creation-intelligent-design-vs-evolution/14596-there-really-scientific-conspiracy-suppress-trvth.html",419571,247
"1-10106_248_247_5",10106,1,"2010-12-21 11:58:00",1648,237,419575,"2010-12-21 11:46:00",458156,20,247,"thats a question to ask Sir William Albert Dembski Ph.D, Senior Fellow of the Discovery Institute.",458155,5,10106,1,"How could he?","http://www.4forums.com/political/creation-intelligent-design-vs-evolution/14596-there-really-scientific-conspiracy-suppress-trvth.html",419572,248
"1-10106_249_248_5",10106,1,"2010-12-21 12:13:00",237,1648,419577,"2010-12-21 11:58:00",458157,17,248,"Sir william albert demski did not claim that I must be a creationist, you did.",458156,5,10106,1,"thats a question to ask Sir William Albert Dembski Ph.D, Senior Fellow of the Discovery Institute.","http://www.4forums.com/political/creation-intelligent-design-vs-evolution/14596-there-really-scientific-conspiracy-suppress-trvth.html",419575,249
"1-10106_250_249_5",10106,1,"2010-12-21 12:53:00",1648,237,419580,"2010-12-21 12:13:00",458158,18,249,"what does that have to do with anything? Dembski made the claim that IC supports ID.",458157,5,10106,1,"Sir william albert demski did not claim that I must be a creationist, you did.","http://www.4forums.com/political/creation-intelligent-design-vs-evolution/14596-there-really-scientific-conspiracy-suppress-trvth.html",419577,250
"1-10106_251_250_5",10106,1,"2010-12-21 13:09:00",237,1648,419581,"2010-12-21 12:53:00",458159,14,250,"As I said I only ask that you support what you have claimed.",458158,5,10106,1,"what does that have to do with anything? Dembski made the claim that IC supports ID.","http://www.4forums.com/political/creation-intelligent-design-vs-evolution/14596-there-really-scientific-conspiracy-suppress-trvth.html",419580,251
"1-10106_252_251_5",10106,1,"2010-12-21 13:22:00",1648,237,419584,"2010-12-21 13:09:00",458160,145,251,"so this is all to disprove my claim that i called you a creationist?
this is absurd. that is a totally different topic. my claim was that IC is used to support ID.
if you get hurt feelings by me calling you a creationist, dont associate yourself with creationist arguments, ie irreducible complexity. ID is creationism with pseudo-scientific skin, thats a given. IC is an argument used by ID advocates to support the claims made by ID. so, we can conclude that IC is a pseudo-scientific creationist argument, if thats what you want me to say, but all this is ridiculous. if you dont want me to call you a creationist, substantiate your claim that IC has nothing to do with ID. so far, you have not.",458159,5,10106,1,"As I said I only ask that you support what you have claimed.","http://www.4forums.com/political/creation-intelligent-design-vs-evolution/14596-there-really-scientific-conspiracy-suppress-trvth.html",419581,252
"1-10106_253_252_5",10106,1,"2010-12-21 14:00:00",237,1648,419588,"2010-12-21 13:22:00",458161,119,252,"No 'this all' is because some people would rather play the part of foolish partisan rather than admit the simplest thing.
In case you forgot, 'this all' started when it was claimed that I must be a creationist because espouse IC. 'this all' is about whether or not that is the case.
The only way that could be the case is if IC forced via logic any who accept it to the conclusion of creationism.
Which means the crucial premise that will decide 'all this' is whether or not one can support ID with IC.

and my claim was that it cannot be.

lol",458160,5,10106,1,"so this is all to disprove my claim that i called you a creationist? this is absurd. that is a totally different topic.","http://www.4forums.com/political/creation-intelligent-design-vs-evolution/14596-there-really-scientific-conspiracy-suppress-trvth.html",419584,253
"1-10106_320_318_6",10106,1,"2011-02-02 17:01:00",500,1648,423653,"2011-02-02 14:35:00",458228,212,318,"Yeah we kind of disagree on this a bit, but that's ok. I understand where you're coming from, I just don't see it that way. Like you said, the purpose of science is to explain mysteries. Evolution is one of those mysteries and there are religious Scientists who have done great work in the field. But for me the real mystery is the Origin of Life. As long as religion stands in the way I personally don't believe we will ever really know, we may not either way. A religious person may now believe in evolution , and they may even speak out against Creationism, but they still believe there is an imaginary being in the sky watching over us as we move through life. Many of those same "" Scientists "" when asked where they came from will still say "" GOD ""... So they are not really scientists in my opinion. 
And then there is the faction that have jumped on board with Evolution so they can mix with the reality of the world. I think that they honestly believe this will help them one day push ""God"" back into our schools.",458226,6,10106,1,"thats where i partially disagree with you, Xcal. there are plenty of good evolutionists, evolutionists who teach evolution, who fight against creationism, who do research, who help the theory along... who also believe in a God. is this hypocritical? i think so, on the religious side. but i really cannot complain, these people are excellent scientists and evolutionists - among the best we have. their contributions to science far outweigh their mere hypocrisy of a religious belief.","http://www.4forums.com/political/creation-intelligent-design-vs-evolution/14596-there-really-scientific-conspiracy-suppress-trvth.html",423632,320
"1-10106_322_320_6",10106,1,"2011-02-02 17:57:00",1648,500,423658,"2011-02-02 17:01:00",458230,120,320,"well, a scientist shouldnt be accredited as a scientist based on his/her beliefs that have nothing to do with their work, no?
they cant substantiate God, and since science requires substantiation, their belief in God is unscientific, and therefore they believe in something that is unscientific, which is not very scientific of them, yes, and thats where i see the hypocricy in their beliefs. but their beliefs apart from science dont affect their scientific credentials. would you call a believer in God with a Ph.D in biology from Harvard, now a professor of biology at Harvard not really a scientist? i wouldnt.",458228,6,10106,1,"Yeah we kind of disagree on this a bit, but that's ok. I understand where you're coming from, I just don't see it that way. Like you said, the purpose of science is to explain mysteries. Evolution is one of those mysteries and there are religious Scientists who have done great work in the field. But for me the real mystery is the Origin of Life. As long as religion stands in the way I personally don't believe we will ever really know, we may not either way. A religious person may now believe in evolution , and they may even speak out against Creationism, but they still believe there is an imaginary being in the sky watching over us as we move through life. Many of those same "" Scientists "" when asked where they came from will still say "" GOD ""... So they are not really scientists in my opinion. 
And then there is the faction that have jumped on board with Evolution so they can mix with the reality of the world. I think that they honestly believe this will help them one day push ""God"" back into our schools.","http://www.4forums.com/political/creation-intelligent-design-vs-evolution/14596-there-really-scientific-conspiracy-suppress-trvth.html",423653,322
"1-10106_323_322_6",10106,1,"2011-02-02 18:04:00",500,1648,423659,"2011-02-02 17:57:00",458231,102,322,"I wouldn't either, but I would question his ability to think rationally. So what you're saying is that in order to do his Job he would have to think like a scientist while at work, but when he gets off work he can "" Dumb"" himself down a bit to go back to irrational thought?.. 
I just don't see how Science and religion can exist in one mind. They are complete opposites . but that's my opinion , I will admit I am a bit Biased because of my feelings about organized religion ....emoticonXHoho",458230,6,10106,1,"well, a scientist shouldnt be accredited as a scientist based on his/her beliefs that have nothing to do with their work, no?
they cant substantiate God, and since science requires substantiation, their belief in God is unscientific, and therefore they believe in something that is unscientific, which is not very scientific of them, yes, and thats where i see the hypocricy in their beliefs. but their beliefs apart from science dont affect their scientific credentials. would you call a believer in God with a Ph.D in biology from Harvard, now a professor of biology at Harvard not really a scientist? i wouldnt.","http://www.4forums.com/political/creation-intelligent-design-vs-evolution/14596-there-really-scientific-conspiracy-suppress-trvth.html",423658,323
"1-10106_324_323_6",10106,1,"2011-02-02 19:27:00",1648,500,423664,"2011-02-02 18:04:00",458232,101,323,"now that, we can agree on.
however, you have to think, when were talking about science vs religion, we arent talking about every religious person, were talking about those religious people who attack science and try to resort the world to religious dogma. a person who is religious but doesnt attack science in any way - may even be pro-science - is not affecting the situation at all. we're after the fundies.
whether youre against religion as a whole, which i certainly am as well, is a different matter.",458231,6,10106,1,"I wouldn't either, but I would question his ability to think rationally. So what you're saying is that in order to do his Job he would have to think like a scientist while at work, but when he gets off work he can "" Dumb"" himself down a bit to go back to irrational thought?.. 
I just don't see how Science and religion can exist in one mind. They are complete opposites . but that's my opinion , I will admit I am a bit Biased because of my feelings about organized religion ....emoticonXHoho","http://www.4forums.com/political/creation-intelligent-design-vs-evolution/14596-there-really-scientific-conspiracy-suppress-trvth.html",423659,324
"1-10106_325_324_6",10106,1,"2011-02-02 19:37:00",500,1648,423665,"2011-02-02 19:27:00",458233,61,324,"You mean there are religious people who Don't attack Science?....Damn I should get out more..lol..
Bro, I live in the Middle of the Bible Belt , where George W. was The second coming of GOD and Mike Huckabee was a preacher before he got into politics.. I don't know a religious Scientist.",458232,6,10106,1,"now that, we can agree on.
however, you have to think, when were talking about science vs religion, we arent talking about every religious person, were talking about those religious people who attack science and try to resort the world to religious dogma. a person who is religious but doesnt attack science in any way - may even be pro-science - is not affecting the situation at all. we're after the fundies.
whether youre against religion as a whole, which i certainly am as well, is a different matter.","http://www.4forums.com/political/creation-intelligent-design-vs-evolution/14596-there-really-scientific-conspiracy-suppress-trvth.html",423664,325
"1-10106_326_325_6",10106,1,"2011-02-02 19:54:00",1648,500,423667,"2011-02-02 19:37:00",458234,5,325,"to Canada with you!",458233,6,10106,1,"You mean there are religious people who Don't attack Science?....Damn I should get out more..lol..
Bro, I live in the Middle of the Bible Belt , where George W. was The second coming of GOD and Mike Huckabee was a preacher before he got into politics.. I don't know a religious Scientist.","http://www.4forums.com/political/creation-intelligent-design-vs-evolution/14596-there-really-scientific-conspiracy-suppress-trvth.html",423665,326
