"key","quote_source_post_discussion_id","posts_dataset_id","posts_timestamp","posts_author_id","quote_source_author_id","posts_native_post_id","quote_source_timestamp","post_text_id","Word_Count","quote_source_post_id","post_text","quote_source_text_id","Dialog_Turn","posts_discussion_id","quote_source_post_dataset_id","Fullquote_text","discussion_url","quote_source_native_post_id","posts_post_id"
"1-10118_10_9_1",10118,1,"2010-09-16 13:11:00",746,319,412585,"2010-09-16 13:04:00",459113,53,9,":)
Creationists debate on this forum in the same ways as you do..they express their opinions.
If attempting to debate with them is pointless then dont debate...is that a problem?
The rest of your post is BS and not worth debating...I know how you feelemoticonXDonno",459112,1,10118,1,"Creationists do not come here to debate.
Indeed as Benedict points out in the OP, attempting to is rather pointless.
the question then is what are they here for?
They are almost invariably adolescent males, they are flooded with testosterone and desperate to challenge for dominance - carrying out the dictates of their genetic instructions.
As such their first post is invariably a general challenge, same as that of any vertebrate male. Bellow, beat your chest, puff your self up, roll in your own scent.
What will instantly deflate them is humour, sharpest blade in the kit. 
Ridicule prevents them from claiming dominance.
That is why they leave in days.","http://www.4forums.com/political/creation-intelligent-design-vs-evolution/14620-debating-creationist.html",412583,10
"1-10118_11_10_1",10118,1,"2010-09-16 13:28:00",319,746,412589,"2010-09-16 13:11:00",459114,28,10,"I've been here since 2004 and I've yet to see a scientificly literate creationist.
Do let us know if one crawls out of the ooze.emoticonXGood",459113,1,10118,1,":)
Creationists debate on this forum in the same ways as you do..they express their opinions.
If attempting to debate with them is pointless then dont debate...is that a problem?
The rest of your post is BS and not worth debating...I know how you feelemoticonXDonno","http://www.4forums.com/political/creation-intelligent-design-vs-evolution/14620-debating-creationist.html",412585,11
"1-10118_12_11_1",10118,1,"2010-09-16 13:37:00",746,319,412592,"2010-09-16 13:28:00",459115,36,11,"So what?
If they believe the moon is made from green cheese they are as entitled to express that a much as you have to.. cough..teach them otherwise or ignore them.",459114,1,10118,1,"I've been here since 2004 and I've yet to see a scientificly literate creationist.
Do let us know if one crawls out of the ooze.emoticonXGood","http://www.4forums.com/political/creation-intelligent-design-vs-evolution/14620-debating-creationist.html",412589,12
"1-10118_13_12_1",10118,1,"2010-09-16 13:45:00",319,746,412597,"2010-09-16 13:37:00",459116,64,12,"You can't teach them anything. However you can communicate in a manner they will understand.
If they believe the moon is made of green cheese you can show them samples of lunar rock and the spectrograph analysis and it won't make a scrap of difference. Make it clear that what they've said is ridiculous and the point has been communicated.",459115,1,10118,1,"So what?
If they believe the moon is made from green cheese they are as entitled to express that a much as you have to.. cough..teach them otherwise or ignore them.","http://www.4forums.com/political/creation-intelligent-design-vs-evolution/14620-debating-creationist.html",412592,13
"1-10118_14_13_1",10118,1,"2010-09-16 13:52:00",746,319,412598,"2010-09-16 13:45:00",459117,13,13,"Thats fine and a long way from driving them off the forum.",459116,1,10118,1,"You can't teach them anything. However you can communicate in a manner they will understand.
If they believe the moon is made of green cheese you can show them samples of lunar rock and the spectrograph analysis and it won't make a scrap of difference. Make it clear that what they've said is ridiculous and the point has been communicated.","http://www.4forums.com/political/creation-intelligent-design-vs-evolution/14620-debating-creationist.html",412597,14
