"key","quote_source_post_discussion_id","posts_dataset_id","posts_timestamp","posts_author_id","quote_source_author_id","posts_native_post_id","quote_source_timestamp","post_text_id","Word_Count","quote_source_post_id","post_text","quote_source_text_id","Dialog_Turn","posts_discussion_id","quote_source_post_dataset_id","Fullquote_text","discussion_url","quote_source_native_post_id","posts_post_id"
"1-10618_41_39_1",10618,1,"2011-10-26 17:21:00",237,1648,441748,"2011-10-26 08:44:00",485081,23,39,"Then your professor admits evolution does not explain the advancement of life, for that advancement constitutes a massive increase in complexity.",485079,1,10618,1,"I just noticed this.
Kay, you need to retake evolutionary biology 101. Never has evolutionary theory, since Darwin's day, taught us that species go from simple to complex; maybe in the first couple million years of multicellular evolution, but since then, no. To quote one of my profs, ""organisms are delicate reflections of their environment"". Organisms don't get more complex, they adapt to environmental changes to better suit it.
On top of that, you have a misunderstanding of the second law of thermodynamics. It applies to entities in a closed environment. The Earth, and the various ecosystems which comprise it, is far from closed. Also, pertaining to the point I've made above, environments on Earth are always changing. This is because the Earth is definitely an open environment.
Your question of ""where did DNA come from?"" and the subsequent conclusion of there being a designer is an unfalsifiable assumption, and thus fails one of the major objectives of a scientific theory. I am not interested in nonscientific, unsupported assertions, and the scientific community won't be either, and that's why ID is deemed ""pseudoscience"".","http://www.4forums.com/political/creation-intelligent-design-vs-evolution/15668-question.html",441713,41
"1-10618_43_41_1",10618,1,"2011-10-27 07:13:00",1648,237,441790,"2011-10-26 17:21:00",485083,128,41,"YOU have a misunderstanding of evolution as well. The reason Darwin never used the word ""evolution"" was because at the time, evolution meant advancement, and that isn't what he meant. No scientifically literate individual will claim that evolution explains the ""advancement of life"", because evolution has never claimed such a thing. Like I said, evolution is far easier than people think; all it is is a change in allele frequencies in a population. A large punctuation may occur, and that's probably what you're talking about, and that would account for your misunderstanding. The implications of evolution are far reaching, and they are based on the basic principle that I've mentioned.",485081,1,10618,1,"Then your professor admits evolution does not explain the advancement of life, for that advancement constitutes a massive increase in complexity.","http://www.4forums.com/political/creation-intelligent-design-vs-evolution/15668-question.html",441748,43
"1-10618_44_43_1",10618,1,"2011-10-27 09:44:00",237,1648,441799,"2011-10-27 07:13:00",485084,166,43,"I doubt that.

Good. I noticed he spent an inordinate amount of time on scenarios involving diversity between homologous populations living in isolation from each other (speciation in progress) imagine that :p

Glad to know I'm scientifically literate. Observe the following logic:
1. Life has advanced greatly from a single celled organism
2. Evolution is the process by which a single simple ancestor generated all known life.
3. Evolution is the process which advanced life greatly.
1 + 2 necessitates 3, if 3 is false than either 1 or 2 must be as well. Claiming 1 is false is akin to that something is nothing (clear contradiction) XXXX coming up in other threads. Leaving only 2.
What has my so called ID, creationist theocratic, ignorant self been asserting about evolution all this time? 2, apparently the only thing a scientifically literate person can think emoticonXGood",485083,1,10618,1,"YOU have a misunderstanding of evolution as well. The reason Darwin never used the word ""evolution"" was because at the time, evolution meant advancement, and that isn't what he meant. No scientifically literate individual will claim that evolution explains the ""advancement of life"", because evolution has never claimed such a thing. Like I said, evolution is far easier than people think; all it is is a change in allele frequencies in a population. A large punctuation may occur, and that's probably what you're talking about, and that would account for your misunderstanding. The implications of evolution are far reaching, and they are based on the basic principle that I've mentioned.","http://www.4forums.com/political/creation-intelligent-design-vs-evolution/15668-question.html",441790,44
"1-10618_45_44_1",10618,1,"2011-10-27 12:11:00",1648,237,441816,"2011-10-27 09:44:00",485085,115,44,"Evolution is not a process which advances a species from generation to generation. Nor would I argue, that species are becoming more advanced, via evolution or not, with the exception of the first couple million years of multicellular evolution. The only reason I am saying this is to illustrate how deeply uneducated you are when it comes to evolutionary theory. To think that my professor, and other evolutionists would claim that evolution is a process of improvement within a species from one gen to the next would be a misunderstanding of evolutionary theory, the argument for evolution and a sheer lack of education on your part.",485084,1,10618,1,"I doubt that.

Good. I noticed he spent an inordinate amount of time on scenarios involving diversity between homologous populations living in isolation from each other (speciation in progress) imagine that :p

Glad to know I'm scientifically literate. Observe the following logic:
1. Life has advanced greatly from a single celled organism
2. Evolution is the process by which a single simple ancestor generated all known life.
3. Evolution is the process which advanced life greatly.
1 + 2 necessitates 3, if 3 is false than either 1 or 2 must be as well. Claiming 1 is false is akin to that something is nothing (clear contradiction) XXXX coming up in other threads. Leaving only 2.
What has my so called ID, creationist theocratic, ignorant self been asserting about evolution all this time? 2, apparently the only thing a scientifically literate person can think emoticonXGood","http://www.4forums.com/political/creation-intelligent-design-vs-evolution/15668-question.html",441799,45
"1-10618_46_45_1",10618,1,"2011-10-27 14:52:00",237,1648,441833,"2011-10-27 12:11:00",485086,126,45,"As demonstrated by IC analysis.

Sounds like ignorance speaking there, there has been advancement for a very long time. Mammals aren't just fancy shaped lizards, we're superior to most cold-blooded life as can be seen clearly both in the present and in the fossil record.

ROFL, well you have two audiences for that; you've got the evolutionist who've already decided to ignore or quit on me; and then you've got me.
You're not doing a very good job on me, and those evolutionist are already convinced.

Yet for hundreds of pages self-described evolutionist refused to accept my conclusion which was just that, because indeed they did think evolution explained the advancement of life.",485085,1,10618,1,"Evolution is not a process which advances a species from generation to generation. Nor would I argue, that species are becoming more advanced, via evolution or not, with the exception of the first couple million years of multicellular evolution. The only reason I am saying this is to illustrate how deeply uneducated you are when it comes to evolutionary theory. To think that my professor, and other evolutionists would claim that evolution is a process of improvement within a species from one gen to the next would be a misunderstanding of evolutionary theory, the argument for evolution and a sheer lack of education on your part.","http://www.4forums.com/political/creation-intelligent-design-vs-evolution/15668-question.html",441816,46
