"key","quote_source_post_discussion_id","posts_dataset_id","posts_timestamp","posts_author_id","quote_source_author_id","posts_native_post_id","quote_source_timestamp","post_text_id","Word_Count","quote_source_post_id","post_text","quote_source_text_id","Dialog_Turn","posts_discussion_id","quote_source_post_dataset_id","Fullquote_text","discussion_url","quote_source_native_post_id","posts_post_id"
"1-10747_46_45_1",10747,1,"2012-02-23 18:39:00",237,1033,449750,"2012-02-22 20:06:00",491475,6,45,"Not a label, you?",491474,1,10747,1,"If you are not an IDer and not a creationist then what are you?","http://www.4forums.com/political/creation-intelligent-design-vs-evolution/15941-santorum-wants-public-schools-teach-creationism.html",449701,46
"1-10747_47_46_1",10747,1,"2012-02-23 18:53:00",1033,237,449753,"2012-02-23 18:39:00",491476,14,46,"Some how I knew you couldn’t answer the question.",491475,1,10747,1,"Not a label, you?","http://www.4forums.com/political/creation-intelligent-design-vs-evolution/15941-santorum-wants-public-schools-teach-creationism.html",449750,47
"1-10747_49_47_1",10747,1,"2012-02-24 09:39:00",237,1033,449780,"2012-02-23 18:53:00",491478,50,47,"Lol, I've answered the question a dozen times; you just don't like the answer because it doesn't fit into your false dichotomy. I am a human being. Want to ask am more specific question?

If a chuckle is all one can manage that is...",491476,1,10747,1,"Some how I knew you couldn’t answer the question.","http://www.4forums.com/political/creation-intelligent-design-vs-evolution/15941-santorum-wants-public-schools-teach-creationism.html",449753,49
"1-10747_61_49_1",10747,1,"2012-02-26 10:00:00",1033,237,449880,"2012-02-24 09:39:00",491490,8,49,"YES, are you man or woman?",491478,1,10747,1,"Lol, I've answered the question a dozen times; you just don't like the answer because it doesn't fit into your false dichotomy. I am a human being. Want to ask am more specific question?

If a chuckle is all one can manage that is...","http://www.4forums.com/political/creation-intelligent-design-vs-evolution/15941-santorum-wants-public-schools-teach-creationism.html",449780,61
"1-10747_62_61_1",10747,1,"2012-02-26 10:41:00",237,1033,449884,"2012-02-26 10:00:00",491491,36,61,"I have given that answer on this forum before, so you may find it on your own; but I do not see what possible relevance it could have so I will not answer.",491490,1,10747,1,"YES, are you man or woman?","http://www.4forums.com/political/creation-intelligent-design-vs-evolution/15941-santorum-wants-public-schools-teach-creationism.html",449880,62
"1-10747_63_62_1",10747,1,"2012-02-26 12:55:00",1033,237,449899,"2012-02-26 10:41:00",491492,37,62,"Yes freedom, just like every question ever asked you.
Frankly I don't care what you are, I just wanted to see if you would give out personal information, apparently you already have.",491491,1,10747,1,"I have given that answer on this forum before, so you may find it on your own; but I do not see what possible relevance it could have so I will not answer.","http://www.4forums.com/political/creation-intelligent-design-vs-evolution/15941-santorum-wants-public-schools-teach-creationism.html",449884,63
"1-10747_64_63_1",10747,1,"2012-02-26 13:41:00",237,1033,449908,"2012-02-26 12:55:00",491493,13,63,"That a bit of an extrapolation if you ask me :p

Why?",491492,1,10747,1,"Yes freedom, just like every question ever asked you.
Frankly I don't care what you are, I just wanted to see if you would give out personal information, apparently you already have.","http://www.4forums.com/political/creation-intelligent-design-vs-evolution/15941-santorum-wants-public-schools-teach-creationism.html",449899,64
"1-10747_69_64_1",10747,1,"2012-02-28 06:42:00",1033,237,449959,"2012-02-26 13:41:00",491498,7,64,"It indicates that you are narcissistic.",491493,1,10747,1,"That a bit of an extrapolation if you ask me :p

Why?","http://www.4forums.com/political/creation-intelligent-design-vs-evolution/15941-santorum-wants-public-schools-teach-creationism.html",449908,69
"1-10747_70_69_1",10747,1,"2012-02-28 07:19:00",237,1033,449960,"2012-02-28 06:42:00",491499,12,69,"Does giving it out mean I'm narcissistic or keeping it hidden?",491498,1,10747,1,"It indicates that you are narcissistic.","http://www.4forums.com/political/creation-intelligent-design-vs-evolution/15941-santorum-wants-public-schools-teach-creationism.html",449959,70
"1-10747_71_70_1",10747,1,"2012-02-28 07:57:00",1033,237,449962,"2012-02-28 07:19:00",491500,8,70,"Giving it out means you are narcissistic.",491499,1,10747,1,"Does giving it out mean I'm narcissistic or keeping it hidden?","http://www.4forums.com/political/creation-intelligent-design-vs-evolution/15941-santorum-wants-public-schools-teach-creationism.html",449960,71
"1-10747_72_71_1",10747,1,"2012-02-28 08:09:00",237,1033,449963,"2012-02-28 07:57:00",491501,74,71,"Ah, well it did come up for somewhat of a valid reason before (unlike your curiosity on my psychology).
Do you play these kind of games with people you meet in real life? If I had given you the answer you would have called me a narcissist; I didn't and you implied that 'just as always' I am unwilling to answer questions in good faith.",491500,1,10747,1,"Giving it out means you are narcissistic.","http://www.4forums.com/political/creation-intelligent-design-vs-evolution/15941-santorum-wants-public-schools-teach-creationism.html",449962,72
"1-10747_73_72_1",10747,1,"2012-02-28 08:30:00",1033,237,449964,"2012-02-28 08:09:00",491502,27,72,"I am not curious, I already knew you were narcissistic, that’s obvious, I just wanted you to confirm it.",491501,1,10747,1,"Ah, well it did come up for somewhat of a valid reason before (unlike your curiosity on my psychology).
Do you play these kind of games with people you meet in real life? If I had given you the answer you would have called me a narcissist; I didn't and you implied that 'just as always' I am unwilling to answer questions in good faith.","http://www.4forums.com/political/creation-intelligent-design-vs-evolution/15941-santorum-wants-public-schools-teach-creationism.html",449963,73
"1-10747_74_73_1",10747,1,"2012-02-28 08:56:00",237,1033,449965,"2012-02-28 08:30:00",491503,26,73,"Your desire to confirm my psychology is not any better a reason, but congratulations you've once again extricated yourself with a well timed insult.",491502,1,10747,1,"I am not curious, I already knew you were narcissistic, that’s obvious, I just wanted you to confirm it.","http://www.4forums.com/political/creation-intelligent-design-vs-evolution/15941-santorum-wants-public-schools-teach-creationism.html",449964,74
