"key","quote_source_post_discussion_id","posts_dataset_id","posts_timestamp","posts_author_id","quote_source_author_id","posts_native_post_id","quote_source_timestamp","post_text_id","Word_Count","quote_source_post_id","post_text","quote_source_text_id","Dialog_Turn","posts_discussion_id","quote_source_post_dataset_id","Fullquote_text","discussion_url","quote_source_native_post_id","posts_post_id"
"1-11019_72_70_1",11019,1,"2012-07-31 06:47:00",550,1987,460316,"2012-07-30 21:21:00",501588,28,70,"Liberals vs. Conservatives
The heart of the wise inclines to the right, but the heart of the fool to the left. - Ecclesiastes 10:2",501586,1,11019,1,"Abel was a shepherd, concerned for each individual in his flock, always moving, looking for fresh pasture, with time for poetry. [Liberal]
Cain was a farmer, mechanizing his income, reducing his produce to numbers and weighed quantities, stuck in one place. [Conservative]
The dreamer vs. the machinist. Which is better for the human soul?
emoticonXAngel","http://www.4forums.com/political/creation-intelligent-design-vs-evolution/18983-did-adam-have-belly-button.html",460298,72
"1-11019_76_72_1",11019,1,"2012-07-31 09:52:00",1987,550,460339,"2012-07-31 06:47:00",501592,100,72,"Ecclesiastes 10:2 is actually 
""The heart of the wise inclines to his right, and the heart of the fool to his left. 
We all have to find our own place, and not succumb to dogma from one extreme or the other. The process begins within each person. 
""The Right"" in Ecclesiastes has nothing to do with the pompous social Darwinism tarted up in snake handler robes and squealing absolutes about ""Leftist"" or ""Communiss"" that passes for ""The Right"" in 21st century politics.
emoticonXAngel",501588,1,11019,1,"Liberals vs. Conservatives
The heart of the wise inclines to the right, but the heart of the fool to the left. - Ecclesiastes 10:2","http://www.4forums.com/political/creation-intelligent-design-vs-evolution/18983-did-adam-have-belly-button.html",460316,76
"1-11019_77_76_1",11019,1,"2012-07-31 10:35:00",550,1987,460341,"2012-07-31 09:52:00",501593,35,76,"Depends on which translation is being used. I like the one I quoted better.

Does that mean when you find the truth you don't seriously buy into it?
p.s. Obama sucks.",501592,1,11019,1,"Ecclesiastes 10:2 is actually
""The heart of the wise inclines to his right, and the heart of the fool to his left.","http://www.4forums.com/political/creation-intelligent-design-vs-evolution/18983-did-adam-have-belly-button.html",460339,77
"1-11019_78_77_1",11019,1,"2012-07-31 11:37:00",1987,550,460346,"2012-07-31 10:35:00",501594,112,77,"I'm not using a translation, I'm reading it in Hebrew. ""S'molo"" and ""yemino"" mean his right, his left. Your tourist guide is wrong, no matter what you ""like better.""

NO, it means that all experience is relative. It drives you absolutist snake handlers insane, but it's true that reality is nuanced. Imagining that there is a final answer, and that you know it, is pagan idolatry.

People who supported Bush aren't smart enough to play with pointed scissors or operate a toaster, let alone weigh in on ""who sucks.""",501593,1,11019,1,"Depends on which translation is being used. I like the one I quoted better.

Does that mean when you find the truth you don't seriously buy into it?
p.s. Obama sucks.","http://www.4forums.com/political/creation-intelligent-design-vs-evolution/18983-did-adam-have-belly-button.html",460341,78
"1-11019_79_78_1",11019,1,"2012-07-31 13:28:00",550,1987,460354,"2012-07-31 11:37:00",501595,63,78,"Sorry, sport, but the translation I used came from Hebrew scholars also. 

Are you RELATIVELY sure of that or ABSOLUTELY sure of that?? ROTFLOL!

Shows how stupid you are for making that claim. Bush was smart enough to outwit Gore and Kerry to win the presidency, so that doesn't say much for your butt-head heroes.",501594,1,11019,1,"I'm not using a translation, I'm reading it in Hebrew. ""S'molo"" and ""yemino"" mean his right, his left. Your tourist guide is wrong, no matter what you ""like better.""

NO, it means that all experience is relative. It drives you absolutist snake handlers insane, but it's true that reality is nuanced. Imagining that there is a final answer, and that you know it, is pagan idolatry.

People who supported Bush aren't smart enough to play with pointed scissors or operate a toaster, let alone weigh in on ""who sucks.""","http://www.4forums.com/political/creation-intelligent-design-vs-evolution/18983-did-adam-have-belly-button.html",460346,79
"1-11019_80_79_1",11019,1,"2012-07-31 14:40:00",1987,550,460358,"2012-07-31 13:28:00",501596,72,79,"Well, their supposed ""scholarship"" is as full of rubbish as you are. The ""O"" ending on Hebrew words indicates a male possessive. Your wishful thinking can't change grammar. 
Oh, but that's right, you Repuglican dittobaggers can just decide what's ""true"" according to your whim.
Doesn't make you any less of an idiot than your imbecile idol, Dubya.",501595,1,11019,1,"Sorry, sport, but the translation I used came from Hebrew scholars also. 

Are you RELATIVELY sure of that or ABSOLUTELY sure of that?? ROTFLOL!

Shows how stupid you are for making that claim. Bush was smart enough to outwit Gore and Kerry to win the presidency, so that doesn't say much for your butt-head heroes.","http://www.4forums.com/political/creation-intelligent-design-vs-evolution/18983-did-adam-have-belly-button.html",460354,80
"1-11019_81_80_1",11019,1,"2012-07-31 15:24:00",550,1987,460362,"2012-07-31 14:40:00",501597,54,80,"Doesn't change a thing, carp breath.

<Flush>
Educate yourself on who the lying snake is.
Short List of Obama's Lies
List of Obama's Lies | Barack Obama Lies
And you meat heads wolfed it right down!
How Obama Got Elected
How Obama Got Elected - YouTube
Imbeciles.",501596,1,11019,1,"Well, their supposed ""scholarship"" is as full of rubbish as you are. The ""O"" ending on Hebrew words indicates a male possessive. Your wishful thinking can't change grammar. 
Oh, but that's right, you Repuglican dittobaggers can just decide what's ""true"" according to your whim.
Doesn't make you any less of an idiot than your imbecile idol, Dubya.","http://www.4forums.com/political/creation-intelligent-design-vs-evolution/18983-did-adam-have-belly-button.html",460358,81
