"key","quote_source_post_discussion_id","posts_dataset_id","posts_timestamp","posts_author_id","quote_source_author_id","posts_native_post_id","quote_source_timestamp","post_text_id","Word_Count","quote_source_post_id","post_text","quote_source_text_id","Dialog_Turn","posts_discussion_id","quote_source_post_dataset_id","Fullquote_text","discussion_url","quote_source_native_post_id","posts_post_id"
"1-2333_42_41_1",2333,1,"2004-11-10 03:24:00",1169,661,76731,"2004-11-10 01:30:00",90561,75,41,"What tool did they use to determine the age of the earth?. Is it the same tool they used to date a living shellfish and find it to be thousands of yrs old...
""The earth has been scientifically and accurately and its very old"". This sounds like another absolute to me, when i believe from what the evolutionists are saying that there can not be any absolutes?",90560,1,2333,1,"Completely untrue. It is widely acknowledged because it explains the geology of the Earth. Evolution has nothing to do with it.

Untrue. It has been done. You don't like the result, because it contradicts a fairy tale you hold to be true, but that is irrelevent. The Earth has been aged scientifically and accurately and it is very old.","http://www.4forums.com/political/creation-intelligent-design-vs-evolution/3679-warning-sticker-textbooks.html",76713,42
"1-2333_43_42_1",2333,1,"2004-11-10 04:08:00",661,1169,76735,"2004-11-10 03:24:00",90562,131,42,"See the thing is Stormboy, this sort of comment from you reafirms my view that you are stupid and believe the lies and propoganda that creation ""experts"" spout. For example, if someone informed you that screwdrivers where a useless tool because they had tried to screw a lightbulb into its socket with one and broke the bulb, would you:
(a) accept that the screwdriver was a useless tool?
(b) conclude that the person was more than a little deranged?
So when someone uses a tool that is known to not work on aquatic samples, for very well understood reasons, to test an aquatic sample do you blame the tool and not the imbecile wielding it?",90561,1,2333,1,"What tool did they use to determine the age of the earth?. Is it the same tool they used to date a living shellfish and find it to be thousands of yrs old...
""The earth has been scientifically and accurately and its very old"". This sounds like another absolute to me, when i believe from what the evolutionists are saying that there can not be any absolutes?","http://www.4forums.com/political/creation-intelligent-design-vs-evolution/3679-warning-sticker-textbooks.html",76731,43
"1-2333_44_43_1",2333,1,"2004-11-10 04:46:00",1169,661,76741,"2004-11-10 04:08:00",90563,109,43,"How can you come to the conclusion that i am stupid from that, misinformed maybe, but stupid?.
You might want to watch how easily you throw your insults around champ... One day it just may end up in the wrong direction and you may end up in a very unpleasant posi and when that day comes, who is going to be feeling stupid?
By the way i choose b. It takes a man with their head on their shoulders to be able to recieve correction. Thankyou
I would still like to look more into how they actually date the earth",90562,1,2333,1,"See the thing is Stormboy, this sort of comment from you reafirms my view that you are stupid and believe the lies and propoganda that creation ""experts"" spout. For example, if someone informed you that screwdrivers where a useless tool because they had tried to screw a lightbulb into its socket with one and broke the bulb, would you:
(a) accept that the screwdriver was a useless tool?
(b) conclude that the person was more than a little deranged?
So when someone uses a tool that is known to not work on aquatic samples, for very well understood reasons, to test an aquatic sample do you blame the tool and not the imbecile wielding it?","http://www.4forums.com/political/creation-intelligent-design-vs-evolution/3679-warning-sticker-textbooks.html",76735,44
"1-2333_45_44_1",2333,1,"2004-11-10 04:51:00",661,1169,76743,"2004-11-10 04:46:00",90564,13,44,"My apologies. I accept that I was being unnecessarily rude there.",90563,1,2333,1,"How can you come to the conclusion that i am stupid from that, misinformed maybe, but stupid?.
You might want to watch how easily you throw your insults around champ... One day it just may end up in the wrong direction and you may end up in a very unpleasant posi and when that day comes, who is going to be feeling stupid?
By the way i choose b. It takes a man with their head on their shoulders to be able to recieve correction. Thankyou
I would still like to look more into how they actually date the earth","http://www.4forums.com/political/creation-intelligent-design-vs-evolution/3679-warning-sticker-textbooks.html",76741,45
"1-2333_46_45_1",2333,1,"2004-11-10 05:07:00",1169,661,76744,"2004-11-10 04:51:00",90565,3,45,"Apology accepted!",90564,1,2333,1,"My apologies. I accept that I was being unnecessarily rude there.","http://www.4forums.com/political/creation-intelligent-design-vs-evolution/3679-warning-sticker-textbooks.html",76743,46
