"key","quote_source_post_discussion_id","posts_dataset_id","posts_timestamp","posts_author_id","quote_source_author_id","posts_native_post_id","quote_source_timestamp","post_text_id","Word_Count","quote_source_post_id","post_text","quote_source_text_id","Dialog_Turn","posts_discussion_id","quote_source_post_dataset_id","Fullquote_text","discussion_url","quote_source_native_post_id","posts_post_id"
"1-2721_62_60_1",2721,1,"2005-02-19 06:47:00",81,291,92254,"2005-02-18 22:26:00",106250,50,60,"Your personal life is irrelavent to the matter at hand.
You either have evidence, or you don't. I predict then if you present it, it will be a rerun of the typical creationist junk that has been seen, and discredited numerous amounts of time.",106248,1,2721,1,"I wasn't trying to distract you. 

So maybe I shouldn't have included ""oaf."" I still respect myself very much so. Thank you kindly.

It has nothing whatsoever to do with pride. I would glady give my life for my beliefs. I meant it only to make a point, but you want to make a whole issue out of it.

I've been in the Gulf war and almost lost my life, so don't tell me I don't know what it's like. I was discharged at 100% disability from the military.
I've been in other situations I don't care to list here or feel necessary to list here. 

There you go assuming again. emoticonXWow","http://www.4forums.com/political/creation-intelligent-design-vs-evolution/4240-evo-what.html",92237,62
"1-2721_63_62_1",2721,1,"2005-02-19 08:31:00",291,81,92273,"2005-02-19 06:47:00",106251,35,62,"You should read all the post before you make an statement. Pandion is the one who brought personal lives into the conversation, which was between me and him by the way. :)",106250,1,2721,1,"Your personal life is irrelavent to the matter at hand.
You either have evidence, or you don't. I predict then if you present it, it will be a rerun of the typical creationist junk that has been seen, and discredited numerous amounts of time.","http://www.4forums.com/political/creation-intelligent-design-vs-evolution/4240-evo-what.html",92254,63
"1-2721_67_63_1",2721,1,"2005-02-19 12:47:00",81,291,92315,"2005-02-19 08:31:00",106255,68,63,"Actually, you did. You kept on claiming 'Would you bet your life on it'. I would say that is 1) the avoidence technique known as distraction, and 2) bringing personality into it.
That is how I read it, of course.
How.. about that evidence.. feel free to show it when you actually have some.",106251,1,2721,1,"You should read all the post before you make an statement. Pandion is the one who brought personal lives into the conversation, which was between me and him by the way. :)","http://www.4forums.com/political/creation-intelligent-design-vs-evolution/4240-evo-what.html",92273,67
"1-2721_68_67_1",2721,1,"2005-02-19 13:20:00",291,81,92316,"2005-02-19 12:47:00",106256,62,67,"Did you not read the post above this one. Did I direct the question at you. No, I did not. I wasn't trying to distract anyone dude, get a grip. I asked the question for my own darn reason, not for you to know. The question was only for Duo_Maxwell. emoticonXFrazzled",106255,1,2721,1,"Actually, you did. You kept on claiming 'Would you bet your life on it'. I would say that is 1) the avoidence technique known as distraction, and 2) bringing personality into it.
That is how I read it, of course.
How.. about that evidence.. feel free to show it when you actually have some.","http://www.4forums.com/political/creation-intelligent-design-vs-evolution/4240-evo-what.html",92315,68
"1-2721_87_68_1",2721,1,"2005-02-20 07:58:00",81,291,92470,"2005-02-19 13:20:00",106275,37,68,"You posted it in a public forum. You do know the concept of a public forum don't you?? You know.. where multiple people can see what you write and make comments on it??",106256,1,2721,1,"Did you not read the post above this one. Did I direct the question at you. No, I did not. I wasn't trying to distract anyone dude, get a grip. I asked the question for my own darn reason, not for you to know. The question was only for Duo_Maxwell. emoticonXFrazzled","http://www.4forums.com/political/creation-intelligent-design-vs-evolution/4240-evo-what.html",92316,87
"1-2721_91_87_1",2721,1,"2005-02-20 10:00:00",291,81,92496,"2005-02-20 07:58:00",106279,26,87,"It may be a public forum, but there are times when you shouldn't intrude on a discussion. It's just common sense courtesy. :)",106275,1,2721,1,"You posted it in a public forum. You do know the concept of a public forum don't you?? You know.. where multiple people can see what you write and make comments on it??","http://www.4forums.com/political/creation-intelligent-design-vs-evolution/4240-evo-what.html",92470,91
"1-2721_92_88_2",2721,1,"2005-02-20 10:25:00",513,291,92501,"2005-02-20 09:50:00",106280,55,88,"1 BWWHHAHAHAHHAHAHAHAHAHHAHAHAHAHAHAHAHAHAHAHAHA
Comedy Gold. Your funny. Keep on believing a lunatic who thought he was the son of God. emoticonXRolleyes
2. Jesus didn't perform any mircales either. A book written after the fact says he did. A book that is, in many cases, wrong and contradictory.",106276,2,2721,1,"Dude, your arguments are flimsy at best. Who said I get all of my knowledge from christianity, but there is knowledge there. Oh course I wouldn't believe you were the messiah, you have the wrong attitude and I doubt you could perform any miracles. Jesus would go around saying he is the Son of God. There is so much more to it than you than you wrote.
:)","http://www.4forums.com/political/creation-intelligent-design-vs-evolution/4240-evo-what.html",92492,92
"1-2721_95_92_2",2721,1,"2005-02-20 10:42:00",291,513,92508,"2005-02-20 10:25:00",106283,19,92,"Your making the assertion, so prove it. You should however take it to the Religion Forum emoticonXAngel",106280,2,2721,1,"1 BWWHHAHAHAHHAHAHAHAHAHHAHAHAHAHAHAHAHAHAHAHAHA
Comedy Gold. Your funny. Keep on believing a lunatic who thought he was the son of God. emoticonXRolleyes
2. Jesus didn't perform any mircales either. A book written after the fact says he did. A book that is, in many cases, wrong and contradictory.","http://www.4forums.com/political/creation-intelligent-design-vs-evolution/4240-evo-what.html",92501,95
"1-2721_96_95_2",2721,1,"2005-02-20 10:48:00",513,291,92510,"2005-02-20 10:42:00",106284,110,95,"I did prove it. I explained easily why science is better than imaginary metaphysics. You don't understand Occam's Razor. I cannot help you there.
There is no proof for miracles, they cannot be duplicated, they cannot be falsified. There is no method of validating them.
The only cases of evidence are anecdotal, and anecdotal evidence is spurious and not admissible.
I have already proven how it's contradictory in many cases already.
The Idea of Creation and God are easily shaved away by the Razor, because they are complex explanations that are unnecessary to explain any given phenomenon.",106283,2,2721,1,"Your making the assertion, so prove it. You should however take it to the Religion Forum emoticonXAngel","http://www.4forums.com/political/creation-intelligent-design-vs-evolution/4240-evo-what.html",92508,96
"1-2721_98_96_2",2721,1,"2005-02-20 12:54:00",291,513,92543,"2005-02-20 10:48:00",106286,28,96,"Just because there is no factual proof Jesus performed miracles doesn't mean they didn't occur. There are no proven absolute truths for christianity or evolution. emoticonXAngel",106284,2,2721,1,"I did prove it. I explained easily why science is better than imaginary metaphysics. You don't understand Occam's Razor. I cannot help you there.
There is no proof for miracles, they cannot be duplicated, they cannot be falsified. There is no method of validating them.
The only cases of evidence are anecdotal, and anecdotal evidence is spurious and not admissible.
I have already proven how it's contradictory in many cases already.
The Idea of Creation and God are easily shaved away by the Razor, because they are complex explanations that are unnecessary to explain any given phenomenon.","http://www.4forums.com/political/creation-intelligent-design-vs-evolution/4240-evo-what.html",92510,98
"1-2721_100_98_2",2721,1,"2005-02-20 14:30:00",513,291,92570,"2005-02-20 12:54:00",106288,134,98,"Just because there is no evidence that I am God, doesn't meant that I am not God. However, to believe I am God with no factual evidence is absurd, as is Christianity and all religions, actually.
I never said they didn't occure. I said it's stupid to believe in them because there is no evidence. If you honestly cannot differentiate between a rational belief based on  fact  and an irrational concept that only exists either in your head or without facts to back it up, then you admitt you are incapable of separating a good theory from a bad theory.
Are you praising the fact that you should believe in something with no proof, just because you cannot prove it didn't happen?",106286,2,2721,1,"Just because there is no factual proof Jesus performed miracles doesn't mean they didn't occur. There are no proven absolute truths for christianity or evolution. emoticonXAngel","http://www.4forums.com/political/creation-intelligent-design-vs-evolution/4240-evo-what.html",92543,100
"1-2721_102_100_2",2721,1,"2005-02-20 17:39:00",291,513,92595,"2005-02-20 14:30:00",106290,27,100,"I have all the proof I need, just because it doesn't meet your standard doesn't matter. Sounds like a personal problem to me. emoticonXAngel",106288,2,2721,1,"Just because there is no evidence that I am God, doesn't meant that I am not God. However, to believe I am God with no factual evidence is absurd, as is Christianity and all religions, actually.
I never said they didn't occure. I said it's stupid to believe in them because there is no evidence. If you honestly cannot differentiate between a rational belief based on  fact  and an irrational concept that only exists either in your head or without facts to back it up, then you admitt you are incapable of separating a good theory from a bad theory.
Are you praising the fact that you should believe in something with no proof, just because you cannot prove it didn't happen?","http://www.4forums.com/political/creation-intelligent-design-vs-evolution/4240-evo-what.html",92570,102
