"key","quote_source_post_discussion_id","posts_dataset_id","posts_timestamp","posts_author_id","quote_source_author_id","posts_native_post_id","quote_source_timestamp","post_text_id","Word_Count","quote_source_post_id","post_text","quote_source_text_id","Dialog_Turn","posts_discussion_id","quote_source_post_dataset_id","Fullquote_text","discussion_url","quote_source_native_post_id","posts_post_id"
"1-584_4_1_1",584,1,"2003-09-15 15:56:00",887,31,15445,"2003-09-15 04:35:00",22998,226,1,"Mont, I grow weary of dealing with this creationist strawman about the way in which Archaeoraptor was received by the scientific community, and subsequent rejection of the taxon as invalid. I will explain the situation to you one last time. ""Archaeoraptor liaoningensis"" was presented without formal description in peer reviewed literature as a nomen nudum, in a 1999 National Geographic article. The article was mainly a photo-shoot, and explicity denied being a rigorous treatment following the protocol of the ICZN. It was during this nebulous period that the paleontological community, upon further review, demonstrated that ""Archaeoraptor"" was a chimera, and therefore the taxon was invalid. Note that not only had the scientific community left the taxon as a nomen nudum, but furthermore, the very evolutionary biologists supposedly promulgating ""Archaeoraptor"" as sine qua non proof of theropod origin, and NOT creationists, who exposed ""Archaeoraptor"" as a nomen dubium. Therefore, the entire creationist strawman account of the history of this specimen, so zealously parroted by the likes of Jonathan Sarfati and AIG is quite simply the most specious of distortions. Only in creationist spew, has ""Archaeoraptor"" ever been so euphorically treated as is claimed.
Vindex Urvogel",22995,1,584,1,"Here are some embarrassments that evolutionaries have had to gloss-over...
Archaeoraptor
http://www.dinohunters.com/History/Microraptor.htm
","http://www.4forums.com/political/creation-intelligent-design-vs-evolution/975-legacy-broken-dreams.html",15360,4
"1-584_7_4_1",584,1,"2003-09-15 16:04:00",31,887,15451,"2003-09-15 15:56:00",23001,161,4,"Then, don't deal with it. Isn't that simple.
emoticonXBye 
There is a lot of arrogance displayed from posters on your side...
""I've already dealt with this argument""
""I've grown tired of debating this""
""You are bothering me""
It is rather too centred on self.
I am not writing these things directly to annoy YOU or take up YOUR time
I'm sorry that YOU would think that my whole reason for arguing is to convince YOU particulary.
Sorry, but I don't even know YOU...
so if YOU are being bothered, don't read my posts which are quite clearly marked as being authored by ""MONTALBAN""... just skip past them.
(This is of course the product of a godless society that allows the individual to be the supreme arbiter of good and evil; the ultimate authority in the world - self-centred world)",22998,1,584,1,"Mont, I grow weary of dealing with this creationist strawman blah blah blah blah
Vindex Urvogel","http://www.4forums.com/political/creation-intelligent-design-vs-evolution/975-legacy-broken-dreams.html",15445,7
"1-584_9_7_1",584,1,"2003-09-15 17:33:00",887,31,15469,"2003-09-15 16:04:00",23003,112,7,"Not at all, mont. You presented a deliberate lie about the reception and treatment of ""Archaeoraptor"" on the part of the scientific community. I called you on the distortion by detailing the 'actual' facts of the ""Archaeoraptor"" issue (which makes your assertion that I simply ignored the issue and do not deal with it supremely amusing). Either retract the claim, or substantiate it, and keep your preaching about godless society and ad hominems borne from refusal to present anything 'but' strawmen, out of the thread--as they have no business here. 
Vindex Urvogel",23001,1,584,1,"Then, don't deal with it. Isn't that simple.
emoticonXBye 
There is a lot of arrogance displayed from posters on your side...
""I've already dealt with this argument""
""I've grown tired of debating this""
""You are bothering me""
It is rather too centred on self.
I am not writing these things directly to annoy YOU or take up YOUR time
I'm sorry that YOU would think that my whole reason for arguing is to convince YOU particulary.
Sorry, but I don't even know YOU...
so if YOU are being bothered, don't read my posts which are quite clearly marked as being authored by ""MONTALBAN""... just skip past them.
(This is of course the product of a godless society that allows the individual to be the supreme arbiter of good and evil; the ultimate authority in the world - self-centred world)","http://www.4forums.com/political/creation-intelligent-design-vs-evolution/975-legacy-broken-dreams.html",15451,9
"1-584_11_9_1",584,1,"2003-09-15 18:07:00",31,887,15477,"2003-09-15 17:33:00",23005,197,9,"Eh? On another thread I think I said quite clearly that it was a fake. I also said I didn't know who presented it as fake... it may have been you that said scientists followed it up, and I accepted this explanation.
But, it remains evidence of frauds and fakes, which I am quite happy to include in a list of frauds and fakes. And the people who presented it were evolutionaries, so it is still a valid point to list it here.
Even here I said ""Of course, some writers will be at pains to point out that evolutionaries un-covered these frauds.""
So your argument is that if an evolutionary presents a fake, and it is found out to be a fake by another evolutionary, they cancel each other out, and should never be heard of again?
And, you are starting to get agressive.
Am I forcing you to read my posts? Perhaps again this is further proof of the arrogance of posters on your side.
What happened to 'free speech'?",23003,1,584,1,"Not at all, mont. You presented a deliberate lie about the reception and treatment of ""Archaeoraptor"" on the part of the scientific community. I called you on the distortion by detailing the 'actual' facts of the ""Archaeoraptor"" issue (which makes your assertion that I simply ignored the issue and do not deal with it supremely amusing). Either retract the claim, or substantiate it, and keep your preaching about godless society and ad hominems borne from refusal to present anything 'but' strawmen, out of the thread--as they have no business here. 
Vindex Urvogel","http://www.4forums.com/political/creation-intelligent-design-vs-evolution/975-legacy-broken-dreams.html",15469,11
"1-584_12_11_1",584,1,"2003-09-15 18:11:00",887,31,15478,"2003-09-15 18:07:00",23006,124,11,"You presented the case of Archaeoraptor in a long list of other cases which you have claimed were engineered by overzealous scientists seeking to promulgate evolution at the expense of reality. ""Archaeoraptor"" was a debacle only to the National Geographic, it was never a significant issue to the scientific community, which is accustomed to a nomen nudum turning into a nomen dubium all the time--it is indeed quite common in paleontology. I furthermore would call to your attention that in a moderated forum, ""free speech"" is in fact restricted. Individuals using a moderated forum which is based on certain protocols, are not free to say anything they wish. 
Vindex Urvogel",23005,1,584,1,"Eh? I think I said quite clearly that it was a fake. I also said I didn't know who presented it as fake... it may have been you that said scientists followed it up, and I accepted this explanation.
But, it remains evidence of frauds and fakes, which I am quite happy to include in a list of frauds and fakes.
And, you are starting to get agressive. Am I forcing you to read my posts?
Perhaps again this is further proof of the arrogance of posters on your side.
What happened to 'free speech'?","http://www.4forums.com/political/creation-intelligent-design-vs-evolution/975-legacy-broken-dreams.html",15477,12
