"key","quote_source_post_discussion_id","posts_dataset_id","posts_timestamp","posts_author_id","quote_source_author_id","posts_native_post_id","quote_source_timestamp","post_text_id","Word_Count","quote_source_post_id","post_text","quote_source_text_id","Dialog_Turn","posts_discussion_id","quote_source_post_dataset_id","Fullquote_text","discussion_url","quote_source_native_post_id","posts_post_id"
"1-6050_189_187_1",6050,1,"2007-04-30 06:28:00",421,568,260946,"2007-04-30 06:14:00",253067,65,187,"It isn't my job or intent to try to make you believe as I do charlie. In the end we all travel this journey of life alone so believe what you will and good luck with that. I also find it interesting that your avatar represents the bleached white skull of a dead bull. Could that be some prophetic irony ? emoticonXGood",253065,1,6050,1,"And look what it's done to you.

That's what I used to think. They only agree because you want them to. It's easy to rationalise using alleged perspective, but there's a plethora of contradictions and anomalies available for perusal on the 'net.

Simply because you said the rainbow meant destruction by fire (which it didn't). In my previous post I've put it down to semantics.

Agreed that it's nothing further from the truth. But I didn't say that. Look at the punctuation.
As for the rest of your interpretation of Revelation, I have no problem in essentially agreeing with you to a large extent in that is what the Bible is saying. The slight problem is the veracity of the claims... emoticonXBanghead","http://www.4forums.com/political/creation-intelligent-design-vs-evolution/8816-literal-flood-scientifically-possible.html",260943,189
"1-6050_190_189_1",6050,1,"2007-04-30 07:35:00",568,421,260959,"2007-04-30 06:28:00",253068,144,189,"The last few exchanges are easily summed up, Arch. On the contrary, I learned plenty about the Bible and Christianity. I revelled in it. The real learning comes when you stand outside the box and look in, and analyse dispassionately. No one wants to die if they've got their marbles and health. In those circumstances, very few want to choose when and how to die. I want to live forever. There's a lot to learn. Learning would never cease. A lot of people want that. But not to the point of self-delusion.
The real world is here and now.

At least you've got a sense of humour. But I find it infinitely more tasteful than the tortured body of a man hanging from the murder weapon.",253067,1,6050,1,"It isn't my job or intent to try to make you believe as I do charlie. In the end we all travel this journey of life alone so believe what you will and good luck with that. I also find it interesting that your avatar represents the bleached white skull of a dead bull. Could that be some prophetic irony ? emoticonXGood","http://www.4forums.com/political/creation-intelligent-design-vs-evolution/8816-literal-flood-scientifically-possible.html",260946,190
"1-6050_192_190_1",6050,1,"2007-04-30 08:02:00",421,568,260968,"2007-04-30 07:35:00",253070,133,190,"Are you saving money and investing for retirement Charlie ? How about auto and health insurance in case of an accident or illness, do you prepare for that future possibility ? Then why isn't preparing for our eternal future just as important as spiritual beings ? And more importantly, how is preparing for that time denying or avoiding ""the real world in the here and now"" ? You make no sense for one who claims to have studied the truth.

I haven't noticed any avatars on this site of Jesus hanging on the Cross. Can you point it out please ? Mine represents the ""Lion of Judah"" who as you can plainly see is very much alive and well, and beautiful too. emoticonXAngel",253068,1,6050,1,"The last few exchanges are easily summed up, Arch. On the contrary, I learned plenty about the Bible and Christianity. I revelled in it. The real learning comes when you stand outside the box and look in, and analyse dispassionately. No one wants to die if they've got their marbles and health. In those circumstances, very few want to choose when and how to die. I want to live forever. There's a lot to learn. Learning would never cease. A lot of people want that. But not to the point of self-delusion.
The real world is here and now.

At least you've got a sense of humour. But I find it infinitely more tasteful than the tortured body of a man hanging from the murder weapon.","http://www.4forums.com/political/creation-intelligent-design-vs-evolution/8816-literal-flood-scientifically-possible.html",260959,192
"1-6050_194_192_1",6050,1,"2007-04-30 08:28:00",568,421,260974,"2007-04-30 08:02:00",253072,132,192,"It makes no sense to you, Arch, because you think you have found The Truth. Nothing outside of that will influence you. The Truth is a prison for the mind. Yes, I studied The Truth for years. As ultimately there wasn't a shred of evidence for it, apart from wishful thinking, getting out was supreme sense.

Did I infer that? I see crucifixes adorning necks every day. Look at me; I'm a Christian. Or else it's a hypocritical sham. Every day I see roadside crucifixes - sometimes up to 4m high - and shrines. The reference wasn't directed at you, Arch, but the Christian in general and their use of sick imagery.",253070,1,6050,1,"... Then why isn't preparing for our eternal future just as important as spiritual beings ? And more importantly, how is preparing for that time denying or avoiding ""the real world in the here and now"" ? You make no sense for one who claims to have studied the truth.","http://www.4forums.com/political/creation-intelligent-design-vs-evolution/8816-literal-flood-scientifically-possible.html",260968,194
"1-6050_195_194_1",6050,1,"2007-04-30 08:45:00",421,568,260977,"2007-04-30 08:28:00",253073,159,194,"I don't think I know the truth charlie, I know it. The Holy Spirit of God which indwells me assures me of my eternal standing as His child. You are perfect evidence of the difference between studying The Truth and Knowing It. Had you truly possessed the Holy Spirit and knew the Lord, you wouldn't be rejecting Him as foolishness now.

Yes you did infer it since my original statement was referring to avatars and had nothing to do with Crosses in general. You should have been more clear about generic crosses you see in your everyday travels. Also, it's worth pointing out that the Cross isn't a symbol of death as you see it but is a symbol of resurrection and eternal life. I'm really starting to doubt you ever went to any type of Bible College as you have no understanding about what is even believed.",253072,1,6050,1,"It makes no sense to you, Arch, because you think you have foundThe Truth. Nothing outside of that will influence you. The Truth is a prison for the mind. Yes, I studied The Truth for years. As ultimately there wasn't a shred of evidence for it, apart from wishful thinking, getting out was supreme sense.","http://www.4forums.com/political/creation-intelligent-design-vs-evolution/8816-literal-flood-scientifically-possible.html",260974,195
"1-6050_197_195_1",6050,1,"2007-04-30 09:55:00",568,421,260984,"2007-04-30 08:45:00",253075,176,195,"@ Archangel - I've tried to be polite and at least try and educate you, but in this I have singularly failed. 

This is self-opinionated and staggering arrogance of the first order, and wouldn't be uttered by a true Christian who knew the Bible. Did you never read Matt. 24:13? He that endures to the end is the one that will be saved. You've already decided that you've got eternal standing before the end.
Secondly, whilst tough debate is not for the squeamish and those of delicate sensibilities, you regularly pen spiteful comments in your replies (as evidenced to other posters in this thread.) That is not in the true spirit of debate either, even allowing some leeway.
By your example it is difficult to conclude that you are an ambassador for Christ (2 Cor. 5: 20) and that a belief in God is worth pursuing. You have all the appearances of an internet troll.",253073,1,6050,1,"I don't think I know the truth charlie, I know it. The Holy Spirit of God which indwells me assures me of my eternal standing as His child. You are perfect evidence of the difference between studying The Truth and Knowing It. Had you truly possessed the Holy Spirit and knew the Lord, you wouldn't be rejecting Him as foolishness now.

Yes you did infer it since my original statement was referring to avatars and had nothing to do with Crosses in general. You should have been more clear about generic crosses you see in your everyday travels. Also, it's worth pointing out that the Cross isn't a symbol of death as you see it but is a symbol of resurrection and eternal life. I'm really starting to doubt you ever went to any type of Bible College as you have no understanding about what is even believed.","http://www.4forums.com/political/creation-intelligent-design-vs-evolution/8816-literal-flood-scientifically-possible.html",260977,197
"1-6050_307_305_2",6050,1,"2007-09-19 06:28:00",710,1420,284560,"2007-09-19 06:12:00",253185,123,305,"Lots of us don't take the Old Testament too seriously as anything more than a set of morality and origins tales dating from the Bronze Age or even earlier. In the light of scientific knowledge, it would be pretty silly to take them as scientific descriptions of prehistoric events, and where they contradict reality, such as in the tale of Noah's Ark, they need to be discounted as anything more than a myth.
It's not that myths don't have some heuristic value, but they shouldn't be taken too literally, otherwise we would have to regard Aesop's fables as all literally true. And I don't think even bibliolaters would want to go that far.",253183,2,6050,1,"I guess that could be true, however it is very un-like the God described in the Bible. In fact, the God in the Bible tells his followers NOT to follow blindly (perhaps the biggest mistake of the Christians in the world today) but to test and prove. The Bible says ""come let us reason together"". Even the creation account in Genesis commands man to master the earth. To master a thing you must understand it. 
Additionally it is of paramount importantance to any Christian that the Bible backup it's claims. If it cannot be trusted as ""the word of God"", but rather as some run-of-the-mill do-good book, then how can the Christian be certain that what they believe in is truth, or a bunch of hocus pocus? Afterall, the VERY SAME book that claims that God created the earth aproximately 6000 years ago also claims that Jesus was the son of God, and you should believe in Him. If one of these claims can be proven incorrect, how can the other be trusted?","http://www.4forums.com/political/creation-intelligent-design-vs-evolution/8816-literal-flood-scientifically-possible.html",284555,307
"1-6050_311_307_2",6050,1,"2007-09-19 07:19:00",1420,710,284569,"2007-09-19 06:28:00",253189,227,307,"Creationists use geneoligical records in the Bible which go from creation to Jesus Christ in about 4004 years. As a matter of historical record, most agree that Jesus was on the earth about 2000 years ago (perhaps 2007 years ago?), hence approximately 6000 years. 

Two points here; first, that is not what the Bible claims itself to be. It claims itself to be the infallible Word of God. Secondly, the truth is unaffected by popular opinion. With new evidence, or better interpretation of existing evidence comes a change in the popular perception of the truth. Each of us has an opinion on the truth based on our worldview. That worldview effects how we process or interpret the evidence we see. 
Consider: creationists and evolutionists have the same rocks, the same fossils, the same ""evidence"". Both interpret that evidence differently to support their presuppositions in light of their understanding of the world in which they live -- basically filtered through the lens of their worldview. 
For the creationist, the Bible is their list of presuppositions. For the evolutionist, materialism, naturalism, and uniformitarianism are the underlying presuppositions. Presuppositions are required for interpretation of evidence who's formation was unobserved.",253185,2,6050,1,"Lots of us don't take the Old Testament too seriously as anything more than a set of morality and origins tales dating from the Bronze Age or even earlier. In the light of scientific knowledge, it would be pretty silly to take them as scientific descriptions of prehistoric events, and where they contradict reality, such as in the tale of Noah's Ark, they need to be discounted as anything more than a myth.
It's not that myths don't have some heuristic value, but they shouldn't be taken too literally, otherwise we would have to regard Aesop's fables as all literally true. And I don't think even bibliolaters would want to go that far.","http://www.4forums.com/political/creation-intelligent-design-vs-evolution/8816-literal-flood-scientifically-possible.html",284560,311
"1-6050_312_311_2",6050,1,"2007-09-19 07:31:00",710,1420,284575,"2007-09-19 07:19:00",253190,23,311,"Unfortunately, the worldview of the Creationist is based on mythology; the world view of the scientist is based on empiricism.",253189,2,6050,1,"Creationists use geneoligical records in the Bible which go from creation to Jesus Christ in about 4004 years. As a matter of historical record, most agree that Jesus was on the earth about 2000 years ago (perhaps 2007 years ago?), hence approximately 6000 years. 

Two points here; first, that is not what the Bible claims itself to be. It claims itself to be the infallible Word of God. Secondly, the truth is unaffected by popular opinion. With new evidence, or better interpretation of existing evidence comes a change in the popular perception of the truth. Each of us has an opinion on the truth based on our worldview. That worldview effects how we process or interpret the evidence we see. 
Consider: creationists and evolutionists have the same rocks, the same fossils, the same ""evidence"". Both interpret that evidence differently to support their presuppositions in light of their understanding of the world in which they live -- basically filtered through the lens of their worldview. 
For the creationist, the Bible is their list of presuppositions. For the evolutionist, materialism, naturalism, and uniformitarianism are the underlying presuppositions. Presuppositions are required for interpretation of evidence who's formation was unobserved.","http://www.4forums.com/political/creation-intelligent-design-vs-evolution/8816-literal-flood-scientifically-possible.html",284569,312
"1-6050_315_312_2",6050,1,"2007-09-19 08:07:00",1420,710,284582,"2007-09-19 07:31:00",253193,220,312,"I guess a creationist might ask how many empiricle evolutionists were present at the formation of the universe to observe it, or how many observed the first forms of life, or how many eyewitnesses there were to observe the first stages of evolution. 
A creationist might wonder how any empiracle process can be based on such little observation. A creationist might point out the number of ""missing links"", and wonder how something that is missing and unobserved can be considered empiracle. 
To the creationist, the evolutionary worldview looks like the mythos, and their creationist view is supported not only by their interpretation of the evidence, but by eyewitness testimony (the Bible claiming to be the Word of God). 

The creationist models have the sea floor lowering over time, while mountainous regions lift, yes. There are deep crevaces in the middle of the pacific ocean. IF the earth were to rip open and enough water the cover the whole earth came out, there would be a void where the water came from. Additionally, there would be a lot of weight on the crust pushing it downward into the void. 

Actually, most creationists would argue that. see http://www.answersingenesis.org/tj/v18/i1/oldearth.asp",253190,2,6050,1,"Unfortunately, the worldview of the Creationist is based on mythology; the world view of the scientist is based on empiricism.","http://www.4forums.com/political/creation-intelligent-design-vs-evolution/8816-literal-flood-scientifically-possible.html",284575,315
"1-6050_329_315_2",6050,1,"2007-09-19 11:15:00",710,1420,284609,"2007-09-19 08:07:00",253207,181,315,"I guess a scientist might ask how many Creationists there were as eyewitnesses to god writing the book of Genesis. History leaves its mark in geology and biology. Scientists read and interpret it. All Creationist do is read their bibles, which will teach them nothing about history.

A scientist might wonder how Creationists have the cheek to pontificate about science when they know so little biology, geology or even plain physics. A scientist might point out how many mistakes there are in the bible if it is read literally.

A scientist would conclude a Creationist can't tell logos from mythos and keeps mixing them up to preserve a discredited literalist interpretation of their bible. Where were the so-called eyewitnesses who saw all this creatin' goin' on?

Creationist ""models"" are pure fiction with no science to back them up. They exist solely to explain away the vast errors found in literal interpretations of the bible. They are good for a laugh, but no more.",253193,2,6050,1,"I guess a creationist might ask how many empiricle evolutionists were present at the formation of the universe to observe it, or how many observed the first forms of life, or how many eyewitnesses there were to observe the first stages of evolution. 
A creationist might wonder how any empiracle process can be based on such little observation. A creationist might point out the number of ""missing links"", and wonder how something that is missing and unobserved can be considered empiracle. 
To the creationist, the evolutionary worldview looks like the mythos, and their creationist view is supported not only by their interpretation of the evidence, but by eyewitness testimony (the Bible claiming to be the Word of God). 

The creationist models have the sea floor lowering over time, while mountainous regions lift, yes. There are deep crevaces in the middle of the pacific ocean. IF the earth were to rip open and enough water the cover the whole earth came out, there would be a void where the water came from. Additionally, there would be a lot of weight on the crust pushing it downward into the void. 

Actually, most creationists would argue that. see http://www.answersingenesis.org/tj/v18/i1/oldearth.asp","http://www.4forums.com/political/creation-intelligent-design-vs-evolution/8816-literal-flood-scientifically-possible.html",284582,329
