"key","quote_source_post_discussion_id","posts_dataset_id","posts_timestamp","posts_author_id","quote_source_author_id","posts_native_post_id","quote_source_timestamp","post_text_id","Word_Count","quote_source_post_id","post_text","quote_source_text_id","Dialog_Turn","posts_discussion_id","quote_source_post_dataset_id","Fullquote_text","discussion_url","quote_source_native_post_id","posts_post_id"
"1-6751_116_114_1",6751,1,"2007-05-12 20:22:00",698,421,262825,"2007-05-12 20:06:00",285402,201,114,"This has quite a lot to do with what you have claimed as to critical thinking. Obviously you have shown none. So, in your view, bringing up any sort of evidence that contradicts your claims are ""troll""ing. emoticonXBanghead You shouldn't be so sensitive, Archangel. As to me not registering, I like to investigate boards first to see if they are even worth posting in, not to mention the fact that the others had you aptly handled in that issue.

So, what, did you accidentally cut and paste the link? do you have a sort of twitch that causes you to type in random addresses that go to hoax sites and then copy and paste them here? If not, then you purposely posted them here, and you are being dishonsest for claiming otherwise. There is no dishonesty in pointing out your errors, although I am not suprised to see that you think so - such a mindset is typical of religious fanatics.
I'm not trying to insult you, Archangel, I am just being brutally honest with you.",285400,1,6751,1,"Try and stay on topic Oreo, and current too. And why should I rehash month old debates with a troll who didn't even bother registering to participate in the debate ? I will say this though, You're as dishonest as those who accused me of purposely posting hoaxes. But believe what you like as it has no affect on my life at all. emoticonXAngel","http://www.4forums.com/political/creation-intelligent-design-vs-evolution/9770-creationists-dishonesty.html",262822,116
"1-6751_117_116_1",6751,1,"2007-05-12 20:30:00",421,698,262827,"2007-05-12 20:22:00",285403,17,116,"Sure you're not. Believe what you like, your opinion is meaningless to me.emoticonXGood",285402,1,6751,1,"This has quite a lot to do with what you have claimed as to critical thinking. Obviously you have shown none. So, in your view, bringing up any sort of evidence that contradicts your claims are ""troll""ing. emoticonXBanghead You shouldn't be so sensitive, Archangel. As to me not registering, I like to investigate boards first to see if they are even worth posting in, not to mention the fact that the others had you aptly handled in that issue.

So, what, did you accidentally cut and paste the link? do you have a sort of twitch that causes you to type in random addresses that go to hoax sites and then copy and paste them here? If not, then you purposely posted them here, and you are being dishonsest for claiming otherwise. There is no dishonesty in pointing out your errors, although I am not suprised to see that you think so - such a mindset is typical of religious fanatics.
I'm not trying to insult you, Archangel, I am just being brutally honest with you.","http://www.4forums.com/political/creation-intelligent-design-vs-evolution/9770-creationists-dishonesty.html",262825,117
"1-6751_118_117_1",6751,1,"2007-05-12 20:39:00",698,421,262829,"2007-05-12 20:30:00",285404,13,117,"And why is that, Archangel? Because I am an atheist?",285403,1,6751,1,"Sure you're not. Believe what you like, your opinion is meaningless to me.emoticonXGood","http://www.4forums.com/political/creation-intelligent-design-vs-evolution/9770-creationists-dishonesty.html",262827,118
"1-6751_119_118_1",6751,1,"2007-05-12 20:52:00",421,698,262831,"2007-05-12 20:39:00",285405,77,118,"Yes. You have nothing to offer that is edifying or positive. You preach a gospel of death and self. If you were at least seeking the truth it would be different, but you seem very committed to atheism and that means we will never relate to each other. I feel sorry for your condition but understand you will only strike back at any attempt I made to reach out to you.",285404,1,6751,1,"And why is that, Archangel? Because I am an atheist?","http://www.4forums.com/political/creation-intelligent-design-vs-evolution/9770-creationists-dishonesty.html",262829,119
"1-6751_120_119_1",6751,1,"2007-05-12 21:07:00",698,421,262837,"2007-05-12 20:52:00",285406,68,119,"By changing one word: ""atheism"" to ""christianity"", this exact statement could be made about you.
Here, I'll show you:
Unlike what I have seen of you, however, a person's personal belief doesn't affect whether or not their opinions are meaningless to me - how they argue and whether or not they use falsehoods, etc. DOES.",285405,1,6751,1,"Yes. You have nothing to offer that is edifying or positive. You preach a gospel of death and self. If you were at least seeking the truth it would be different, but you seem very committed to atheism and that means we will never relate to each other. I feel sorry for your condition but understand you will only strike back at any attempt I made to reach out to you.","http://www.4forums.com/political/creation-intelligent-design-vs-evolution/9770-creationists-dishonesty.html",262831,120
"1-6751_121_120_1",6751,1,"2007-05-12 21:10:00",421,698,262838,"2007-05-12 21:07:00",285407,6,120,"See what I mean ? emoticonXGood",285406,1,6751,1,"By changing one word: ""atheism"" to ""christianity"", this exact statement could be made about you.
Here, I'll show you:
Unlike what I have seen of you, however, a person's personal belief doesn't affect whether or not their opinions are meaningless to me - how they argue and whether or not they use falsehoods, etc. DOES.","http://www.4forums.com/political/creation-intelligent-design-vs-evolution/9770-creationists-dishonesty.html",262837,121
