"key","quote_source_post_discussion_id","posts_dataset_id","posts_timestamp","posts_author_id","quote_source_author_id","posts_native_post_id","quote_source_timestamp","post_text_id","Word_Count","quote_source_post_id","post_text","quote_source_text_id","Dialog_Turn","posts_discussion_id","quote_source_post_dataset_id","Fullquote_text","discussion_url","quote_source_native_post_id","posts_post_id"
"1-6883_3_2_1",6883,1,"2007-05-25 18:48:00",2581,428,264704,"2007-05-25 18:39:00",292888,12,2,"do you ever get tired of contributing nothing but brain-dead rhetoric?",292887,1,6883,1,"Do you ever get tired of posting garbage, watching it get refuted and then running away like a coward?","http://www.4forums.com/political/creation-intelligent-design-vs-evolution/9930-toe-constructed-fraud-premise.html",264702,3
"1-6883_4_3_1",6883,1,"2007-05-25 19:07:00",428,2581,264712,"2007-05-25 18:48:00",292889,69,3,"I'm sure others will see the irony in this post and laugh quite loudly.
Do I need to remind you of the erosion claims you've made that you keep avoiding? 
Please answer me this:
A baby bird died and fell do the ground. A time capsule my great, great, great grandfather buried was eroded to the surface.
Which one is older?",292888,1,6883,1,"do you ever get tired of contributing nothing but brain-dead rhetoric?","http://www.4forums.com/political/creation-intelligent-design-vs-evolution/9930-toe-constructed-fraud-premise.html",264704,4
"1-6883_5_4_1",6883,1,"2007-05-25 20:47:00",2581,428,264731,"2007-05-25 19:07:00",292890,18,4,"depends on when the baby bird died.
run along little boy..let the adults debate.",292889,1,6883,1,"I'm sure others will see the irony in this post and laugh quite loudly.
Do I need to remind you of the erosion claims you've made that you keep avoiding? 
Please answer me this:
A baby bird died and fell do the ground. A time capsule my great, great, great grandfather buried was eroded to the surface.
Which one is older?","http://www.4forums.com/political/creation-intelligent-design-vs-evolution/9930-toe-constructed-fraud-premise.html",264712,5
"1-6883_6_5_1",6883,1,"2007-05-25 22:27:00",428,2581,264743,"2007-05-25 20:47:00",292891,48,5,"Four seconds ago.

Like the adults that understand what EROSION means? Or perhaps what the word STRATA? or maybe the concepts of FLUID MECHANICS? 
You'll run away from all your threads. Because you're a creationist. That's what you do: flee.",292890,1,6883,1,"depends on when the baby bird died.
run along little boy..let the adults debate.","http://www.4forums.com/political/creation-intelligent-design-vs-evolution/9930-toe-constructed-fraud-premise.html",264731,6
"1-6883_7_6_1",6883,1,"2007-05-25 22:50:00",2581,428,264746,"2007-05-25 22:27:00",292892,11,6,"why don't you address my OP, smart guy..?",292891,1,6883,1,"Four seconds ago.

Like the adults that understand what EROSION means? Or perhaps what the word STRATA? or maybe the concepts of FLUID MECHANICS? 
You'll run away from all your threads. Because you're a creationist. That's what you do: flee.","http://www.4forums.com/political/creation-intelligent-design-vs-evolution/9930-toe-constructed-fraud-premise.html",264743,7
