"key","quote_source_post_discussion_id","posts_dataset_id","posts_timestamp","posts_author_id","quote_source_author_id","posts_native_post_id","quote_source_timestamp","post_text_id","Word_Count","quote_source_post_id","post_text","quote_source_text_id","Dialog_Turn","posts_discussion_id","quote_source_post_dataset_id","Fullquote_text","discussion_url","quote_source_native_post_id","posts_post_id"
"1-6959_33_27_1",6959,1,"2007-06-24 17:29:00",2391,567,270590,"2007-06-24 12:22:00",297295,82,27,"l
**
Your logical fallacy here is the infamous, 'argument from authority'. The fact that a lot of people with college degrees happen to disagree with me simply does not make their opinions correct, and my opinion wrong. You don't like that fact, but it is a logical principle, a matter of fact, nonethelees. Truth is not about popularity and celebrities. It's about evidence, and your crew has none.",297289,1,6959,1,"E
Thats nice, its also dead wrong. And the degree to which you are wrong is astounding. As to thinking people rejecting the core of NDS, lets just say that given the number of nobel prize winners in genetics and associated sciences (Including please note both Haldane AND Fisher) IMHO there is a rather large body of scientific opinion of the higherst repute which contradicts your statement. Now I realize that you can and do outhink any individual nobel prize winner - thats obvious from the tenor and high quality of your reasoning, but I not willing to concede that you have outthought the whole packj of em, not to mention the entire Darwin, Wallace, Huxley etc etc etc crowd!","http://www.4forums.com/political/creation-intelligent-design-vs-evolution/10021-evolution-ns-fitness-get-another-kick-teeth.html",270516,33
"1-6959_35_33_1",6959,1,"2007-06-24 18:14:00",567,2391,270601,"2007-06-24 17:29:00",297297,104,33,"Nope its about verifiable facts and supportable intrepretations. The individuals I referenced were all masterful at both the facts and the intrepretation and thier work has survived scrutiny and testing by many scientists. Your concepts simply do not have that patina - and I might add that arguing ""I AM THE AUTHORITY"" is weaker than the argument to well known and established authorities! So far as I can see the only support for your theory is your claim to BE an authority and to be right. Absent good and sufficient support this is not at all convincing.",297295,1,6959,1,"l
**
Your logical fallacy here is the infamous, 'argument from authority'. The fact that a lot of people with college degrees happen to disagree with me simply does not make their opinions correct, and my opinion wrong. You don't like that fact, but it is a logical principle, a matter of fact, nonethelees. Truth is not about popularity and celebrities. It's about evidence, and your crew has none.","http://www.4forums.com/political/creation-intelligent-design-vs-evolution/10021-evolution-ns-fitness-get-another-kick-teeth.html",270590,35
"1-6959_44_35_1",6959,1,"2007-06-25 19:02:00",2391,567,270841,"2007-06-24 18:14:00",297306,174,35,"**
Sez u. Duh. Bet you can't specify any of these imagined ""verifiable facts"", nor any of the hard evidence supposedly supporting these ""supportable interpretations"", can you?

**
Yeah, I'm sure their followers admired them almost as much as their mothers did.

**
I don't need a 'patina', since I'm not arguing from my own authority, but from the authority of fact and reason.

**
Which is precisely why I have never ever argued that ""I AM THE AUTHORITY"". That's just another of your little hallucinations. What I have argued is that fact and logic have an authority that trumps your dogma's false authority every time.

**
Anyone who has been following our dialogue will have noticed by now that you
have trouble seeing anything that does not conform to your own pre-formed
expectations.

**
The facts and the reasoning are sufficient to any mind that is not prejudiced against them.",297297,1,6959,1,"Nope its about verifiable facts and supportable intrepretations. The individuals I referenced were all masterful at both the facts and the intrepretation and thier work has survived scrutiny and testing by many scientists. Your concepts simply do not have that patina - and I might add that arguing ""I AM THE AUTHORITY"" is weaker than the argument to well known and established authorities! So far as I can see the only support for your theory is your claim to BE an authority and to be right. Absent good and sufficient support this is not at all convincing.","http://www.4forums.com/political/creation-intelligent-design-vs-evolution/10021-evolution-ns-fitness-get-another-kick-teeth.html",270601,44
"1-6959_45_44_1",6959,1,"2007-06-25 19:23:00",567,2391,270849,"2007-06-25 19:02:00",297307,86,44,"""
Actually not, your facts (which you tend to distort) are not in general supportive of your reasoning, at least not in the standard sense of driving one to the conclusions you reach. I could see you getting the import of the publshed material wrong once, but you have done it EVERY TIME so far. A mistake is one thing, a deliberate pattern of distortion made with the hope of getting away with it is quite another.",297306,1,6959,1,"**
Sez u. Duh. Bet you can't specify any of these imagined ""verifiable facts"", nor any of the hard evidence supposedly supporting these ""supportable interpretations"", can you?

**
Yeah, I'm sure their followers admired them almost as much as their mothers did.

**
I don't need a 'patina', since I'm not arguing from my own authority, but from the authority of fact and reason.

**
Which is precisely why I have never ever argued that ""I AM THE AUTHORITY"". That's just another of your little hallucinations. What I have argued is that fact and logic have an authority that trumps your dogma's false authority every time.

**
Anyone who has been following our dialogue will have noticed by now that you
have trouble seeing anything that does not conform to your own pre-formed
expectations.

**
The facts and the reasoning are sufficient to any mind that is not prejudiced against them.","http://www.4forums.com/political/creation-intelligent-design-vs-evolution/10021-evolution-ns-fitness-get-another-kick-teeth.html",270841,45
"1-6959_46_45_1",6959,1,"2007-06-25 21:12:00",2391,567,270883,"2007-06-25 19:23:00",297308,64,45,"**
Sez u.

**
Sez u.

**
Ah, so then you are morally culpable for all your lies and distortions. I was hoping that stuff was rooted in either congenital stupidity or dogmatic ignorance, but apparently not. You've known what you were doing all along, but your conscience didn't stop you. For shame, sir!",297307,1,6959,1,"""
Actually not, your facts (which you tend to distort) are not in general supportive of your reasoning, at least not in the standard sense of driving one to the conclusions you reach. I could see you getting the import of the publshed material wrong once, but you have done it EVERY TIME so far. A mistake is one thing, a deliberate pattern of distortion made with the hope of getting away with it is quite another.","http://www.4forums.com/political/creation-intelligent-design-vs-evolution/10021-evolution-ns-fitness-get-another-kick-teeth.html",270849,46
