"key","quote_source_post_discussion_id","posts_dataset_id","posts_timestamp","posts_author_id","quote_source_author_id","posts_native_post_id","quote_source_timestamp","post_text_id","Word_Count","quote_source_post_id","post_text","quote_source_text_id","Dialog_Turn","posts_discussion_id","quote_source_post_dataset_id","Fullquote_text","discussion_url","quote_source_native_post_id","posts_post_id"
"1-6977_200_197_1",6977,1,"2007-07-17 14:31:00",2391,567,274068,"2007-07-17 10:16:00",298201,121,197,"**
You still don't grasp that 'darwinism' includes all evolutionary models, including fisherism, in which biological change in morphology and behaviour over time is essentially attributable to accidental changes in clusters of inherited particles.
I forget Darwin's word for his theoretical particles. Gemmules, was it?

**
What, you don't know the difference between 'simple' and 'complex'?!? Consult your nearest dictionary.

**
It is allopoietic, as it relies entirely upon a living cell and/or random accident for its organization and regeneration. And although I'm no microbiologist, compared to living systems such as cells, viruses seem pretty darn simple to me.",298198,1,6977,1,"Thats simply false. You will find little or no molecular biology concepts within the NDS. The ideas did not exist in a well formed mode when NDS was assembled. MOST darwinists have in fact known much of molecular biology - even including such as SJG.
And please for the sake of clarity distinguish simple chemical systems from complex ones for us. Is a virus a simple chemical system or is it complex. Is it allopoietic or otherwise?","http://www.4forums.com/political/creation-intelligent-design-vs-evolution/10046-what-random-mutation.html",274020,200
"1-6977_203_200_1",6977,1,"2007-07-17 16:21:00",567,2391,274104,"2007-07-17 14:31:00",298204,13,200,"All of life relies on living cells for its organization and regenerration.",298201,1,6977,1,"**
You still don't grasp that 'darwinism' includes all evolutionary models, including fisherism, in which biological change in morphology and behaviour over time is essentially attributable to accidental changes in clusters of inherited particles.
I forget Darwin's word for his theoretical particles. Gemmules, was it?

**
What, you don't know the difference between 'simple' and 'complex'?!? Consult your nearest dictionary.

**
It is allopoietic, as it relies entirely upon a living cell and/or random accident for its organization and regeneration. And although I'm no microbiologist, compared to living systems such as cells, viruses seem pretty darn simple to me.","http://www.4forums.com/political/creation-intelligent-design-vs-evolution/10046-what-random-mutation.html",274068,203
"1-6977_205_203_1",6977,1,"2007-07-17 18:41:00",2391,567,274127,"2007-07-17 16:21:00",298206,25,203,"**
No they don't. Living cells organize and regenerate themselves--they don't ask other cells to do it for them. DUH!!",298204,1,6977,1,"All of life relies on living cells for its organization and regenerration.","http://www.4forums.com/political/creation-intelligent-design-vs-evolution/10046-what-random-mutation.html",274104,205
"1-6977_206_205_1",6977,1,"2007-07-17 18:54:00",567,2391,274130,"2007-07-17 18:41:00",298207,51,205,"Oh really? So where are all these spontaneously generated cells hanging out. Every celll is derived from at least one often two previously existing cells and without those non-self cells they would never come to be. Cells do not create tehmselves any more than hydrogen atoms do!",298206,1,6977,1,"**
No they don't. Living cells organize and regenerate themselves--they don't ask other cells to do it for them. DUH!!","http://www.4forums.com/political/creation-intelligent-design-vs-evolution/10046-what-random-mutation.html",274127,206
"1-6977_207_206_1",6977,1,"2007-07-18 03:59:00",2391,567,274180,"2007-07-17 18:54:00",298208,208,206,"**
I'm sorry, but I've now lost what little respect I had left for your intellect/integrity.
Nothing creates itself out of nothing, ex nihilo, but some things do organize, direct themselves, and serve their own ends. You, as always, are attempting to either dishonestly distort the argument, in this case idiotically or mendaciously corrupting the meaning of 'autopoiesis', or you understand autopoiesis and and autopoietic systems about as well as a stick of kindling wood might do.
Whether you are deliberately and maliciously dishonest, or too intellectually challenged to be able to comprehend anything that doesn't come with pictures, makes no difference to me. You just aren't up to a level where you are worth wasting my time on.
And if the baboons who contribute infantile garbage to this forum wish to crow about 'running away', when I'm simply once more walking away in disgust, then let them. I've been disgusted with them for a long time, and their opinions mean as much to me as do the opinions of a string of cow patties drying in the sun, somewhere.",298207,1,6977,1,"Oh really? So where are all these spontaneously generated cells hanging out. Every celll is derived from at least one often two previously existing cells and without those non-self cells they would never come to be. Cells do not create tehmselves any more than hydrogen atoms do!","http://www.4forums.com/political/creation-intelligent-design-vs-evolution/10046-what-random-mutation.html",274130,207
"1-6977_208_207_1",6977,1,"2007-07-18 07:28:00",567,2391,274214,"2007-07-18 03:59:00",298209,162,207,"My goal is not to gain your respect, its to determine the truth or not of your ideas.

Thats nice but has nothing to do with the issue of whether cells rely only upon themselves for their creation - a stand you took and I refute.

Nope. Your original statement was clear. I repeat it here:

Duh indeed. Living cells do not organize themselves, they depend on previously existing living cells to provide the initial organizational work and that process is genetically governed.

Yes I am sure you are above all such concerns as a refutation from little old chemist99a. However as humble a critic of your ideas as I might be its difficult for you to claim you did not say that which you did say.

I presume that debating tactic is something you learned during exam weak at your alma mater? Did it improve your grades?",298208,1,6977,1,"**
I'm sorry, but I've now lost what little respect I had left for your intellect/integrity.
Nothing creates itself out of nothing, ex nihilo, but some things do organize, direct themselves, and serve their own ends. You, as always, are attempting to either dishonestly distort the argument, in this case idiotically or mendaciously corrupting the meaning of 'autopoiesis', or you understand autopoiesis and and autopoietic systems about as well as a stick of kindling wood might do.
Whether you are deliberately and maliciously dishonest, or too intellectually challenged to be able to comprehend anything that doesn't come with pictures, makes no difference to me. You just aren't up to a level where you are worth wasting my time on.
And if the baboons who contribute infantile garbage to this forum wish to crow about 'running away', when I'm simply once more walking away in disgust, then let them. I've been disgusted with them for a long time, and their opinions mean as much to me as do the opinions of a string of cow patties drying in the sun, somewhere.","http://www.4forums.com/political/creation-intelligent-design-vs-evolution/10046-what-random-mutation.html",274180,208
