"key","quote_source_post_discussion_id","posts_dataset_id","posts_timestamp","posts_author_id","quote_source_author_id","posts_native_post_id","quote_source_timestamp","post_text_id","Word_Count","quote_source_post_id","post_text","quote_source_text_id","Dialog_Turn","posts_discussion_id","quote_source_post_dataset_id","Fullquote_text","discussion_url","quote_source_native_post_id","posts_post_id"
"1-7011_159_158_1",7011,1,"2007-08-20 05:41:00",568,421,279425,"2007-08-20 04:58:00",299796,62,158,"Nicely summed, Archie. A personal God to you and you alone. Your personal God does nothing whatsoever to benefit anybody else. How can anybody else benefit?
It just confirms that, being personal, it's all purely in your imagination, and you're afraid to face reality. You need the comfort of a personal God.",299795,1,7011,1,"...God is a personal God, and a concerned and loving Father who cares and responds to our needs at a moments notice.","http://www.4forums.com/political/creation-intelligent-design-vs-evolution/10083-miracles.html",279419,159
"1-7011_160_159_1",7011,1,"2007-08-20 06:22:00",421,568,279427,"2007-08-20 05:41:00",299797,100,159,"So you're saying that I am the only born again believer on Earth charlie ? I and I alone claim that God is who I say He is ? You have one high opinion of me charlie not to realize that there are hundreds of millions of born again believers on Earth right now. It is a typical debating method to minimize ones opponant in order to weaken the strength of their stance but nobody is dumb enough to believe that I am the only believer there is, so you just succeeded in minimizing your own credibility.",299796,1,7011,1,"Nicely summed, Archie. A personal God to you and you alone. Your personal God does nothing whatsoever to benefit anybody else. How can anybody else benefit?
It just confirms that, being personal, it's all purely in your imagination, and you're afraid to face reality. You need the comfort of a personal God.","http://www.4forums.com/political/creation-intelligent-design-vs-evolution/10083-miracles.html",279425,160
"1-7011_164_160_1",7011,1,"2007-08-20 10:16:00",568,421,279451,"2007-08-20 06:22:00",299801,116,160,"OK, Archie, what don't you understand by the terms:

Your God. No-one else's. The fact that millions world-wide seek solace and an emotional crutch in an imagined deity of their own making (however common the foundation) only strengthens my argument. There is nothing to suggest that any of your experiences are other than anecdotal, being totally unverifiable or testable.

a. nobody said or even hinted that you were the only believer there is. You persistently air your own viewpoint as the only valid one because your God is your personal God.;
b. your quote above is an exceptionally transparent strawman.",299797,1,7011,1,"So you're saying that I am the only born again believer on Earth charlie ? I and I alone claim that God is who I say He is ? You have one high opinion of me charlie not to realize that there are hundreds of millions of born again believers on Earth right now. It is a typical debating method to minimize ones opponant in order to weaken the strength of their stance but nobody is dumb enough to believe that I am the only believer there is, so you just succeeded in minimizing your own credibility.","http://www.4forums.com/political/creation-intelligent-design-vs-evolution/10083-miracles.html",279427,164
"1-7011_166_164_1",7011,1,"2007-08-20 13:20:00",421,568,279472,"2007-08-20 10:16:00",299803,135,164,"Sorry, but that statement clearly implies that God is a personal God to me alone and nobody else. If that isn't what you meant to say then learn how to communicate more clearly.

You insult me and all believer again charlie, and you deceive yourself further by assuming that our submission to a Holy God is an emotional crutch in an imagined deity. And again with the testable and verifiable requirements as if you can find the God who created everything in a test tube. How sad and wanting I find you to be charlie. A true empty vessel.

Oh really ? I'm exaggerating what you said ? Here is your quote, read it for yourself and tell me how I should have interpreted this.

",299801,1,7011,1,"OK, Archie, what don't you understand by the terms: ""A personal God to you, and you alone.""","http://www.4forums.com/political/creation-intelligent-design-vs-evolution/10083-miracles.html",279451,166
"1-7011_176_166_1",7011,1,"2007-08-21 01:17:00",568,421,279655,"2007-08-20 13:20:00",299813,93,166,"I'll ask again, Archie, what don't you understand by the term personal God? Do you know what the term personal actually means? A personal God is personal to you, nobody else. Millions of people have their own personal God. But it's personal to them. That's why you chose to use the term personal.
So once again you are playing at being obtuse and introducing strawmen into what could be an interesting debate, but being made nonsensical by you and your unproven aberrations.",299803,1,7011,1,"Sorry, but that statement clearly implies that God is a personal God to me alone and nobody else. If that isn't what you meant to say then learn how to communicate more clearly.

You insult me and all believer again charlie, and you deceive yourself further by assuming that our submission to a Holy God is an emotional crutch in an imagined deity. And again with the testable and verifiable requirements as if you can find the God who created everything in a test tube. How sad and wanting I find you to be charlie. A true empty vessel.

Oh really ? I'm exaggerating what you said ? Here is your quote, read it for yourself and tell me how I should have interpreted this.

","http://www.4forums.com/political/creation-intelligent-design-vs-evolution/10083-miracles.html",279472,176
"1-7011_178_176_1",7011,1,"2007-08-21 05:01:00",421,568,279672,"2007-08-21 01:17:00",299815,86,176,"I see what you are implying charlie. God is ""A"" personal God, not ""MY"" personal God. But you already knew and understood very well that is what I said in my description of our relationship. But you have wasted this bandwidth arguing this non issue. And you claim I am introducing a strawman ? You waste my time with meaningless minutia and then claim to seek an interesting debate. Can you comprehend the word hypocrite ?",299813,1,7011,1,"I'll ask again, Archie, what don't you understand by the term personal God? Do you know what the term personal actually means? A personal God is personal to you, nobody else. Millions of people have their own personal God. But it's personal to them. That's why you chose to use the term personal.
So once again you are playing at being obtuse and introducing strawmen into what could be an interesting debate, but being made nonsensical by you and your unproven aberrations.","http://www.4forums.com/political/creation-intelligent-design-vs-evolution/10083-miracles.html",279655,178
"1-7011_181_178_1",7011,1,"2007-08-21 05:37:00",568,421,279678,"2007-08-21 05:01:00",299818,228,178,"(My bold above.)
I can certainly comprehend the word hypocrite. Here's a definition:

Sums you up perfectly, Arch.
Anyway, I digress. How do you differentiate between a personal God, and my personal God? Here's a small selection from your recent posts referencing a personal God. Who's is this personal God, if not yours?

You're so keen to spout about your personal relationship with God, a relationship you can't demonstrate beyond the fanciful and anecdotal, a relationship which seems to give you the right to be arrogant, conceited, haughty and condescending to those who seek to challenge your assertions.
I'll say it again, Arch, no-one here doubts that what you think happened to you is anything but your own interpretation. No-one denies that you firmly believe that. But what you keep refusing to answer is WHY we should believe you. How does your experience benefit us? How do your anecdotes prove that God and angels exist? Fanciful imaginings are not proof of anything and don't leave room for any sort of manoeuvre in trying to debate the issue.
If you don't want to debate fanciful imaginings or subject yourself to intellectual criticism on a debating forum, why bring it up?",299815,1,7011,1,"I see what you are implying charlie. God is ""A"" personal God, not ""MY"" personal God. But you already knew and understood very well that is what I said in my description of our relationship. But you have wasted this bandwidth arguing this non issue. And you claim I am introducing a strawman ? You waste my time with meaningless minutia and then claim to seek an interesting debate. Can you comprehend the word hypocrite ?","http://www.4forums.com/political/creation-intelligent-design-vs-evolution/10083-miracles.html",279672,181
