"key","quote_source_post_discussion_id","posts_dataset_id","posts_timestamp","posts_author_id","quote_source_author_id","posts_native_post_id","quote_source_timestamp","post_text_id","Word_Count","quote_source_post_id","post_text","quote_source_text_id","Dialog_Turn","posts_discussion_id","quote_source_post_dataset_id","Fullquote_text","discussion_url","quote_source_native_post_id","posts_post_id"
"1-7243_2_1_1",7243,1,"2007-09-15 19:13:00",567,2581,284059,"2007-09-15 19:01:00",312547,146,1,"Once more the challenge is answered. The conversion of codon 6 for the B chain of hemoglobin from a triplet coding glutamic acid to a triplet coding for valine. This point mutation makes the hetrozygous phenotype significantly resistant to malaria and thus confers a benefit. QED.

OK now lets check off the categories. 
1] The change is in fact morphological as the morphology (structure) of hemoglobin has been altered.\
2] The change is new - it happened sometime in the past, but before it happened it did not exist\
3] Hemoglobin is an existing body part as are red blood cells.
4] The fact that the change is at the molecular level or is visible externally is irrelevant to the argument in play so it represents a false criterion.",312546,1,7243,1,"I challenge evolutionists to show me ONE mutation ever documented in the history of science that has created a new, beneficial, selectable morphological addition to an existing body part....(one that alters physical, outward appearance in a beneficial way.) 
There are mutations that duplicate existing structures, mutations that reduce existing structures, mutations that deform organisms, and mutations that cause disease and death....Unfortunately for Darwinists, however, mutations can add nothing beneficial to the observable phenotype, which is the cornerstone of ToE.
Knowing this, it is my honest opinion that the theory of evolution is little more than a wacky metaphysical belief, much like astrology or palm reading.
The floor is open!","http://www.4forums.com/political/creation-intelligent-design-vs-evolution/10383-official-challenge-returns.html",284058,2
"1-7243_3_2_1",7243,1,"2007-09-15 19:16:00",2581,567,284060,"2007-09-15 19:13:00",312548,41,2,"read my challenge and try again. ""resistance"" is not this:
new, beneficial, selectable morphological addition to an existing body part....(one that alters physical, outward appearance in a beneficial way.) ",312547,1,7243,1,"Once more the challenge is answered. The conversion of codon 6 for the B chain of hemoglobin from a triplet coding glutamic acid to a triplet coding for valine. This point mutation makes the hetrozygous phenotype significantly resistant to malaria and thus confers a benefit. QED.

OK now lets check off the categories. 
1] The change is in fact morphological as the morphology (structure) of hemoglobin has been altered.\
2] The change is new - it happened sometime in the past, but before it happened it did not exist\
3] Hemoglobin is an existing body part as are red blood cells.
4] The fact that the change is at the molecular level or is visible externally is irrelevant to the argument in play so it represents a false criterion.","http://www.4forums.com/political/creation-intelligent-design-vs-evolution/10383-official-challenge-returns.html",284059,3
"1-7243_4_3_1",7243,1,"2007-09-15 19:33:00",567,2581,284061,"2007-09-15 19:16:00",312549,144,3,"Of course it is. Its new, its beneficial, its morphological {ask the parasite if you don't believe me} and hemoglobin is/was an existing body part. Its a part and its part of the body just as much as your nose is. As to outward appearance consider the difference between an infected normal who is exhibiing the effects of malaria and an infected but resistant phenotype which is NOT exhibiting those same outward signs. Or do you consider the susceptible phenotype lyng there sick as a dog and the resistant phenotype watching in pity not to be an outward appearance????? Which of the two is more likely to find and breed with a desirable mate and have children? You think the one thats dying has a good shot at that do ya?",312548,1,7243,1,"read my challenge and try again. ""resistance"" is not this:
new, beneficial, selectable morphological addition to an existing body part....(one that alters physical, outward appearance in a beneficial way.) ","http://www.4forums.com/political/creation-intelligent-design-vs-evolution/10383-official-challenge-returns.html",284060,4
"1-7243_6_4_1",7243,1,"2007-09-15 20:00:00",2581,567,284063,"2007-09-15 19:33:00",312551,214,4,"why can't you get this through your head?...sickle cell results in a DEFECT in structure:
http://www.dukemednews.org/news/article.php?id=564
In a first step toward an effective treatment for sickle cell anemia, researchers at Duke University Medical Center have shown that they can use a new type of gene therapy to correct the defect in human blood cells
http://en.wikipedia.org/wiki/Sickle_cell
Sickle-cell disease is a group of genetic disorders caused by sickle hemoglobin (Hgb S or Hb S). In many forms of the disease, the red blood cells change shape, upon deoxygenation because of polymerization of the abnormal sickle hemoglobin. This process damages the red blood cell membrane, and can cause the cells to become stuck in blood vessels
http://www.stopsicklecell.com/
Sickle cell disease is caused by a genetic defect in the globin gene
you have failed, failed, and failed again -- every time you bring up this nonsense you just add to the failures.
here's my challenge again:
I challenge evolutionists to show me ONE mutation ever documented in the history of science that has created a new, beneficial, selectable morphological addition to an existing body part....(one that alters physical, outward appearance in a beneficial way.) ",312549,1,7243,1,"Of course it is. Its new, its beneficial, its morphological {ask the parasite if you don't believe me} and hemoglobin is/was an existing body part. Its a part and its part of the body just as much as your nose is. As to outward appearance consider the difference between an infected normal who is exhibiing the effects of malaria and an infected but resistant phenotype which is NOT exhibiting those same outward signs. Or do you consider the susceptible phenotype lyng there sick as a dog and the resistant phenotype watching in pity not to be an outward appearance????? Which of the two is more likely to find and breed with a desirable mate and have children? You think the one thats dying has a good shot at that do ya?","http://www.4forums.com/political/creation-intelligent-design-vs-evolution/10383-official-challenge-returns.html",284061,6
"1-7243_8_6_1",7243,1,"2007-09-15 20:09:00",567,2581,284065,"2007-09-15 20:00:00",312553,33,6,"Been there did that, like I said you left too many loopholes. Narrow it down a bit more if you don't mind making it even less relevant of course.
http://video.google.com/videoplay?do...77907195969915",312551,1,7243,1,"I challenge evolutionists to show me ONE mutation ever documented in the history of science that has created a new, beneficial, selectable morphological addition to an existing body part....(one that alters physical, outward appearance in a beneficial way.)  ","http://www.4forums.com/political/creation-intelligent-design-vs-evolution/10383-official-challenge-returns.html",284063,8
"1-7243_22_17_2",7243,1,"2007-09-15 21:06:00",567,2581,284080,"2007-09-15 20:47:00",312567,121,17,"So please explain in detail how the Dapnina system actually works! I wait with bated breath for you explanation of how genetic plasticity dependent on the secretion of a specific trigger compound by the predator is non-material and involves intelligence, and just how the secretion of similar compounds by the spiky Daphnia which maintain the effect contradicts materialism in any way. Good luck. Consider it a challenge. I leave it up to you to chase the relevant papers down in the literature. I have done it in the past and know what I am talking about. If you simply ignore them I will beat you badly about the head with them as necessary.",312562,2,7243,1,"No, an advantageous structure is not an ""abnormal structure. Get real.
See, I can answer my own challenge....I can show how new structures and modifications are generated -- the only problem is it contradicts the materialist/randomness/accidental requirement of darwinists: ","http://www.4forums.com/political/creation-intelligent-design-vs-evolution/10383-official-challenge-returns.html",284075,22
"1-7243_24_22_2",7243,1,"2007-09-15 21:11:00",2581,567,284082,"2007-09-15 21:06:00",312569,95,22,"who cares how it works.....when you were in school and answered math problems on paper, did your teacher come around and ask to look inside your brain to figure out what the mechanism was so she could verify how you got the right answer right? No!...the proof was right there in front of her....who cares how the answer was arrived at.
Ultimately life has no mechanism -- at least no scientific mechanism that can be measured. Life goes against science at every turn.",312567,2,7243,1,"So please explain in detail how the Dapnina system actually works! I wait with bated breath for you explanation of how genetic plasticity dependent on the secretion of a specific trigger compound by the predator is non-material and involves intelligence, and just how the secretion of similar compounds by the spiky Daphnia which maintain the effect contradicts materialism in any way. Good luck. Consider it a challenge. I leave it up to you to chase the relevant papers down in the literature. I have done it in the past and know what I am talking about. If you simply ignore them I will beat you badly about the head with them as necessary.","http://www.4forums.com/political/creation-intelligent-design-vs-evolution/10383-official-challenge-returns.html",284080,24
"1-7243_26_24_2",7243,1,"2007-09-15 21:27:00",567,2581,284084,"2007-09-15 21:11:00",312571,163,24,"Well if you don't know how it works how can you make a claim that it proves your case! If you don't know how it works you have no proof of what you are claiming at all. If I were to say I did not care how the sickle cell trait system and malaria interacted and still used it to prove my case what would your response be? Would you accept my claim without dispute, would it be proof of my contention. No way - you would be on me like a duck on a junebug. You had bloody well care about how systems you claim as proof of a hypothetical mechanism work - else be laughed off the stage at even a grammer school argument! 
I can see Newton saying well these orbital data prove my point - but I don't care or know how it works!!!!!! High credibility - I think not.",312569,2,7243,1,"who cares how it works.....when you were in school and answered math problems on paper, did your teacher come around and ask to look inside your brain to figure out what the mechanism was so she could verify how you got the right answer right? No!...the proof was right there in front of her....who cares how the answer was arrived at.
Ultimately life has no mechanism -- at least no scientific mechanism that can be measured. Life goes against science at every turn.","http://www.4forums.com/political/creation-intelligent-design-vs-evolution/10383-official-challenge-returns.html",284082,26
"1-7243_28_26_2",7243,1,"2007-09-15 21:34:00",2581,567,284086,"2007-09-15 21:27:00",312573,102,26,"The difference is the results of the experiment are self-explanatory in that it's obvious that the newly-generated structure was a result of an interaction between the organism and predator(s). Therefore, randomness is ruled out, which is all that's required to undermine the foundation of darwinism and materialism. How it might have happened might be fun for scientists to sort out, but I have no real interest in it....partially because it is clear that mental processes were ultimately responsible, and mental processes cannot be fully understood anyway, so why bother?",312571,2,7243,1,"Well if you don't know how it works how can you make a claim that it proves your case! If you don't know how it works you have no proof of what you are claiming at all. If I were to say I did not care how the sickle cell trait system and malaria interacted and still used it to prove my case what would your response be? Would you accept my claim without dispute, would it be proof of my contention. No way - you would be on me like a duck on a junebug. You had bloody well care about how systems you claim as proof of a hypothetical mechanism work - else be laughed off the stage at even a grammer school argument! 
I can see Newton saying well these orbital data prove my point - but I don't care or know how it works!!!!!! High credibility - I think not.","http://www.4forums.com/political/creation-intelligent-design-vs-evolution/10383-official-challenge-returns.html",284084,28
"1-7243_31_28_2",7243,1,"2007-09-15 21:48:00",567,2581,284089,"2007-09-15 21:34:00",312576,233,28,"I did not say the response was random. Indeed its clearly a wide spread non-mutaional process which affects a fair fraction of the population in question. But its also not an evolutionary change is it? Or don't you know (or care?) how it works yet? And sorting it out is essential if you wish to make claims about how it works which you are in fact doing. And if you have no interest in the key proof of your argument you are not treating the issue in a serious way are you. Talk about playing games. You apparently prefer to make claims of proof based on things which you know little or nothing about - how easy that must make it - till someone points that out of course. 
And you think mental processes are responsible yet I will bet that you have never even seen a live daphnia let alone examined ones brain or taught one to perform circus tricks, or coverse!
You argument ends of course with the immortal words...

So now you admit that its due to mental processes but you have no understanding of those processes and you are too lazy intellectually to examine the very observations which you have oddly enough chosen to make the centerpiece of how you belive life functions. WOW",312573,2,7243,1,"The difference is the results of the experiment are self-explanatory in that it's obvious that the newly-generated structure was a result of an interaction between the organism and predator(s). Therefore, randomness is ruled out, which is all that's required to undermine the foundation of darwinism and materialism. How it might have happened might be fun for scientists to sort out, but I have no real interest in it....partially because it is clear that mental processes were ultimately responsible, and mental processes cannot be fully understood anyway, so why bother?","http://www.4forums.com/political/creation-intelligent-design-vs-evolution/10383-official-challenge-returns.html",284086,31
"1-7243_34_31_2",7243,1,"2007-09-15 22:09:00",2581,567,284095,"2007-09-15 21:48:00",312579,23,31,"not, I'm not lazy at all...I'm just not interested......I don't even like science. It bores me.",312576,2,7243,1,"I did not say the response was random. Indeed its clearly a wide spread non-mutaional process which affects a fair fraction of the population in question. But its also not an evolutionary change is it? Or don't you know (or care?) how it works yet? And sorting it out is essential if you wish to make claims about how it works which you are in fact doing. And if you have no interest in the key proof of your argument you are not treating the issue in a serious way are you. Talk about playing games. You apparently prefer to make claims of proof based on things which you know little or nothing about - how easy that must make it - till someone points that out of course. 
And you think mental processes are responsible yet I will bet that you have never even seen a live daphnia let alone examined ones brain or taught one to perform circus tricks, or coverse!
You argument ends of course with the immortal words...

So now you admit that its due to mental processes but you have no understanding of those processes and you are too lazy intellectually to examine the very observations which you have oddly enough chosen to make the centerpiece of how you belive life functions. WOW","http://www.4forums.com/political/creation-intelligent-design-vs-evolution/10383-official-challenge-returns.html",284089,34
"1-7243_35_34_2",7243,1,"2007-09-15 22:11:00",567,2581,284096,"2007-09-15 22:09:00",312580,55,34,"Yes its abundantly clear that you know little or nothing about the subjects of your posts. Ignorance is not a pretty sight. Scientific ignorance is a disgusting one. Deliberate and uncaring scientific ignorance cannot be looked upon without using a mirror of some sort lest ones own brain turn to stone.",312579,2,7243,1,"not, I'm not lazy at all...I'm just not interested......I don't even like science. It bores me.","http://www.4forums.com/political/creation-intelligent-design-vs-evolution/10383-official-challenge-returns.html",284095,35
"1-7243_38_35_2",7243,1,"2007-09-15 22:23:00",2581,567,284099,"2007-09-15 22:11:00",312583,57,35,"chemist, I may not have a love for science like you do but there is more to life than science -- I know that may be hard for you to digest...but life is more than chemicals and molecules. I have other pleasures and hobbies than always sticking my nose in science books.",312580,2,7243,1,"Yes its abundantly clear that you know little or nothing about the subjects of your posts. Ignorance is not a pretty sight. Scientific ignorance is a disgusting one. Deliberate and uncaring scientific ignorance cannot be looked upon without using a mirror of some sort lest ones own brain turn to stone.","http://www.4forums.com/political/creation-intelligent-design-vs-evolution/10383-official-challenge-returns.html",284096,38
