"key","quote_source_post_discussion_id","posts_dataset_id","posts_timestamp","posts_author_id","quote_source_author_id","posts_native_post_id","quote_source_timestamp","post_text_id","Word_Count","quote_source_post_id","post_text","quote_source_text_id","Dialog_Turn","posts_discussion_id","quote_source_post_dataset_id","Fullquote_text","discussion_url","quote_source_native_post_id","posts_post_id"
"1-7587_3_2_1",7587,1,"2008-01-24 15:41:00",89,421,298569,"2008-01-24 13:51:00",329229,176,2,"Was it really, or is that just something you made up? Care to provide a useful link, one that might support your claim?
As for how long this will last, that depends on how they decide to allocate their resources. They've been bilking the gullible for years, so they've got a fair wad of cash. If they really want to keep this going, they probably can for quite a while. Of course, every dollar they waste here is a dollar they can't use to try to buy an election or in advertising. I'm not sure that they can really do much more damage just by having their fantasies ""reviewed"" by those who have also bought into their fantasies; the number of people who will be suckered by this that haven't already been suckered can't be that large. (knock on wood :) ) I say if they want to throw their money away, more power to 'em!",329228,1,7587,1,"The same bet was made about how long answers in Genesis would last, and it has been going for years now.
http://www.answersingenesis.org/","http://www.4forums.com/political/creation-intelligent-design-vs-evolution/10849-arj-launch.html",298560,3
"1-7587_4_3_1",7587,1,"2008-01-24 16:59:00",421,89,298572,"2008-01-24 15:41:00",329230,104,3,"The fact is kronus that i was just responding to Ripskar asking if, and I quote: ""Anyone fancy a sweepstake on how long this insanity will take to go belly up?"" You see, he didn't offer a link that gave odds on his opinion so neither do I have to. But I'm sure that when http://answersingenesis.com came on line, atheists and anti christian bigots all over the internet took bets they would fail just as ripskar is doing now with the creation of this new site. It's just a common sense deduction dontya know.",329229,1,7587,1,"Was it really, or is that just something you made up? Care to provide a useful link, one that might support your claim?
As for how long this will last, that depends on how they decide to allocate their resources. They've been bilking the gullible for years, so they've got a fair wad of cash. If they really want to keep this going, they probably can for quite a while. Of course, every dollar they waste here is a dollar they can't use to try to buy an election or in advertising. I'm not sure that they can really do much more damage just by having their fantasies ""reviewed"" by those who have also bought into their fantasies; the number of people who will be suckered by this that haven't already been suckered can't be that large. (knock on wood :) ) I say if they want to throw their money away, more power to 'em!","http://www.4forums.com/political/creation-intelligent-design-vs-evolution/10849-arj-launch.html",298569,4
"1-7587_12_4_1",7587,1,"2008-01-25 04:35:00",89,421,298619,"2008-01-24 16:59:00",329238,51,4,"I know exactly what you were saying. And it seems I was right, you have nothing to back up your claim that people were betting that it would fail. It's just something you're ""sure"" of, i.e. something you made up. Like I figured.",329230,1,7587,1,"The fact is kronus that i was just responding to Ripskar asking if, and I quote: ""Anyone fancy a sweepstake on how long this insanity will take to go belly up?"" You see, he didn't offer a link that gave odds on his opinion so neither do I have to. But I'm sure that when http://answersingenesis.com came on line, atheists and anti christian bigots all over the internet took bets they would fail just as ripskar is doing now with the creation of this new site. It's just a common sense deduction dontya know.","http://www.4forums.com/political/creation-intelligent-design-vs-evolution/10849-arj-launch.html",298572,12
"1-7587_13_12_1",7587,1,"2008-01-25 05:57:00",421,89,298629,"2008-01-25 04:35:00",329239,95,12,"You mean just as Ripskar did, and then pandion after him? And since when is giving ones opinion making something up on a debate forum? And why are you taking basic statements I make and attacking me as if this is a relevant issue at all, while completely ignoring the fact that both ripskar and pandion made the same bet type statement? Have you no sense of fair play at all? Or are you just here to troll after me and nit pick every obscure statement I make?",329238,1,7587,1,"I know exactly what you were saying. And it seems I was right, you have nothing to back up your claim that people were betting that it would fail. It's just something you're ""sure"" of, i.e. something you made up. Like I figured.","http://www.4forums.com/political/creation-intelligent-design-vs-evolution/10849-arj-launch.html",298619,13
"1-7587_14_13_1",7587,1,"2008-01-25 06:30:00",89,421,298632,"2008-01-25 05:57:00",329240,115,13,"Not in the least. Ripskar did in fact, right here right now, predict the failure of this new publication. There's no question about that, we saw it happen. Your claim that the other website was predicted to fail? We have no evidence of that, you have in fact all but confirmed that you just guessed that such predicitons were made.

When you present it as fact.

You presented your imaginary data in refutation of Ripskar's prediction, that makes it fair game. Face it, you made something up in a debate and got caught, have the integrity to bow out gracefully.",329239,1,7587,1,"You mean just as Ripskar did, and then pandion after him? And since when is giving ones opinion making something up on a debate forum? And why are you taking basic statements I make and attacking me as if this is a relevant issue at all, while completely ignoring the fact that both ripskar and pandion made the same bet type statement? Have you no sense of fair play at all? Or are you just here to troll after me and nit pick every obscure statement I make?","http://www.4forums.com/political/creation-intelligent-design-vs-evolution/10849-arj-launch.html",298629,14
"1-7587_15_14_1",7587,1,"2008-01-25 07:10:00",421,89,298635,"2008-01-25 06:30:00",329241,60,14,"Again, how incredibly shallow and one sided kronus. With your sense of objectivity and fair play, why aren't you insisting that pandion also justify this statement with links to support what he states as facts?

Could it be because you are a, oh I don't know, A HYPOCRITE? Think about it kronus.",329240,1,7587,1,"Not in the least. Ripskar did in fact, right here right now, predict the failure of this new publication. There's no question about that, we saw it happen. Your claim that the other website was predicted to fail? We have no evidence of that, you have in fact all but confirmed that you just guessed that such predicitons were made.

When you present it as fact.

You presented your imaginary data in refutation of Ripskar's prediction, that makes it fair game. Face it, you made something up in a debate and got caught, have the integrity to bow out gracefully.","http://www.4forums.com/political/creation-intelligent-design-vs-evolution/10849-arj-launch.html",298632,15
"1-7587_16_15_1",7587,1,"2008-01-25 07:29:00",89,421,298637,"2008-01-25 07:10:00",329242,98,15,"So I guess you don't have the required integrity to admit when you're wrong. No surprise.
Oh, and you seem to be ignorant of the meaning of the word ""hypocrite"". If I were making up imaginary bets and using them as evidence while critisizing you for doing the same, then I would be a hypocrite. Nothing requires me to comment on every person who doesn't provide links; common sense dictates that efforts should be reserved for the worst offenders, those who have a history of speaking ex-recto.",329241,1,7587,1,"Again, how incredibly shallow and one sided kronus. With your sense of objectivity and fair play, why aren't you insisting that pandion also justify this statement with links to support what he states as facts?

Could it be because you are a, oh I don't know, A HYPOCRITE? Think about it kronus.","http://www.4forums.com/political/creation-intelligent-design-vs-evolution/10849-arj-launch.html",298635,16
"1-7587_140_139_2",7587,1,"2008-01-31 11:23:00",697,421,299509,"2008-01-31 11:12:00",329366,32,139,"Telling you to stop lying and making inane claims is insulting? Well, you could always stop lying and making inane claims. Then the ""insults"" would stop.",329365,2,7587,1,"I was referring to post 127 to Dane in response to his insulting post about me. That post doesn't imply sticking my fingers in my ears at all TQ. It shows that we are from different Worlds though.","http://www.4forums.com/political/creation-intelligent-design-vs-evolution/10849-arj-launch.html",299505,140
"1-7587_142_140_2",7587,1,"2008-01-31 11:27:00",421,697,299512,"2008-01-31 11:23:00",329368,38,140,"I don't lie TQ, but you have proven very clearly that you wouldn't recognize the truth if you tripped over it. Because if you did, we would be on the same side of debates.",329366,2,7587,1,"Telling you to stop lying and making inane claims is insulting? Well, you could always stop lying and making inane claims. Then the ""insults"" would stop.","http://www.4forums.com/political/creation-intelligent-design-vs-evolution/10849-arj-launch.html",299509,142
"1-7587_146_142_2",7587,1,"2008-01-31 11:42:00",697,421,299518,"2008-01-31 11:27:00",329372,148,142,"1)I have but one response to this-what's your siggy say Archie?
2) Once again, I ask that you actually provide evidence of my dishonesty, or apologize. Enough it enough. Exactly how many times do you think you can continue to do this before you are banned? Do you have no shame?

Noooo, I'm pretty sure I'm sane, so I accept reality as it is, without discarding the bits that don't agree with my preconceived notions. In order for us to be on the ""same side"", I would have to pick and chose which bits of reality I happened to agree with, and in which circumstances. This has been pointed out to you amply in this thread by both Peeling and myself (oops, I mean Electrolyte emoticonXRolleyes )",329368,2,7587,1,"I don't lie TQ, but you have proven very clearly that you wouldn't recognize the truth if you tripped over it. Because if you did, we would be on the same side of debates.","http://www.4forums.com/political/creation-intelligent-design-vs-evolution/10849-arj-launch.html",299512,146
"1-7587_148_146_2",7587,1,"2008-01-31 12:09:00",421,697,299521,"2008-01-31 11:42:00",329374,40,146,"Let's just agree to disagree TQ. I don't want to get into it with you again. I'm trying to avoid a confrontation here, and you are trying to provoke one. I wish you well TQ.",329372,2,7587,1,"1)I have but one response to this-what's your siggy say Archie?
2) Once again, I ask that you actually provide evidence of my dishonesty, or apologize. Enough it enough. Exactly how many times do you think you can continue to do this before you are banned? Do you have no shame?

Noooo, I'm pretty sure I'm sane, so I accept reality as it is, without discarding the bits that don't agree with my preconceived notions. In order for us to be on the ""same side"", I would have to pick and chose which bits of reality I happened to agree with, and in which circumstances. This has been pointed out to you amply in this thread by both Peeling and myself (oops, I mean Electrolyte emoticonXRolleyes )","http://www.4forums.com/political/creation-intelligent-design-vs-evolution/10849-arj-launch.html",299518,148
"1-7587_149_148_2",7587,1,"2008-01-31 12:32:00",697,421,299522,"2008-01-31 12:09:00",329375,92,148,"No, cut the ####. You called me dishonest again. You want to do that, provide some evidence. You are not walking away. You think callin me a liar for about the 30th time is ""trying to avoid a confrontation""? You think me telling you to back up your slander is ""trying to provoke one""? Not even close bub. Back it up already, and take your good wishes and stuff them. They mean nothing coming from you.",329374,2,7587,1,"Let's just agree to disagree TQ. I don't want to get into it with you again. I'm trying to avoid a confrontation here, and you are trying to provoke one. I wish you well TQ.","http://www.4forums.com/political/creation-intelligent-design-vs-evolution/10849-arj-launch.html",299521,149
"1-7587_150_149_2",7587,1,"2008-01-31 12:44:00",421,697,299523,"2008-01-31 12:32:00",329376,37,149,"Like I said,

And how do you intend to prevent me from walking away from your irrational attack? Because that is exactly what I am doing. Your threats are meaningless to me. emoticonXGood",329375,2,7587,1,"No, cut the ####. You called me dishonest again. You want to do that, provide some evidence. You are not walking away. You think callin me a liar for about the 30th time is ""trying to avoid a confrontation""? You think me telling you to back up your slander is ""trying to provoke one""? Not even close bub. Back it up already, and take your good wishes and stuff them. They mean nothing coming from you.","http://www.4forums.com/political/creation-intelligent-design-vs-evolution/10849-arj-launch.html",299522,150
"1-7587_151_150_2",7587,1,"2008-01-31 12:57:00",697,421,299524,"2008-01-31 12:44:00",329377,114,150,"You know what? You are absolutely pathetic. 
1) You call me a liar
2) I ask that you either provide evidence of my lying ways, or apologize. I provide proof that you, in fact, have a history of lying.
3) You then accuse me of trying to provoke you (uh, you called me a liar, I asked you to prove it)
4) I again say ""Prove your allegations or apologize""
5) You call me irrational.
You are absolutely, completely pathetic. You are an embarassment to any and all who call themselves Christian.",329376,2,7587,1,"Like I said,

And how do you intend to prevent me from walking away from your irrational attack? Because that is exactly what I am doing. Your threats are meaningless to me. emoticonXGood","http://www.4forums.com/political/creation-intelligent-design-vs-evolution/10849-arj-launch.html",299523,151
"1-7587_152_151_2",7587,1,"2008-01-31 13:14:00",421,697,299530,"2008-01-31 12:57:00",329378,198,151,"Here is what is so hypocritical once again TQ, but fits perfectly with your M.O. Below is my post from above that has set you off on this tirade accusing me of calling you a liar, when in fact that post clearly say's that you wouldn't recognize the truth if you tripped over it. That statement isn't saying you lie but is saying you don't recognize the truth. Go back and look at the original post if you don't believe me, go on, look. 
So in effect TQ, this very tirade and current attack by you is evidence of my past claims of your dishonest debating style. You have attempted to irrationally provoke a confrontation with me under the false pretense of me calling you a liar today, as I have repeatedly said I don't want to get into it with you. And now you are attacking my christianity as I am attempting to make peace with you. And in spite of your sorry attitude I still forgive you and wish you well. See how magnanimous I am trying to be with you? :) 
",329377,2,7587,1,"You know what? You are absolutely pathetic. 
1) You call me a liar
2) I ask that you either provide evidence of my lying ways, or apologize. I provide proof that you, in fact, have a history of lying.
3) You then accuse me of trying to provoke you (uh, you called me a liar, I asked you to prove it)
4) I again say ""Prove your allegations or apologize""
5) You call me irrational.
You are absolutely, completely pathetic. You are an embarassment to any and all who call themselves Christian.","http://www.4forums.com/political/creation-intelligent-design-vs-evolution/10849-arj-launch.html",299524,152
"1-7587_154_152_2",7587,1,"2008-01-31 13:21:00",697,421,299533,"2008-01-31 13:14:00",329380,111,152,"Oh, my mistake, you didn't call me a liar, you just said me and the truth had less than a passing acquaintance and implied I was a liar instead of outright stating it this time. You then, in this very post, state again how I am constantly dishonest. Yeah, I don't know how I ever got the idea that you consistently call me a liar.
Once again, will you apologize for constantly slandering me? Or will you just run away again, as you always do when you are completely and utterly embarassed by your complete lack of integrity?",329378,2,7587,1,"Here is what is so hypocritical once again TQ, but fits perfectly with your M.O. Below is my post from above that has set you off on this tirade accusing me of calling you a liar, when in fact that post clearly say's that you wouldn't recognize the truth if you tripped over it. That statement isn't saying you lie but is saying you don't recognize the truth. Go back and look at the original post if you don't believe me, go on, look. 
So in effect TQ, this very tirade and current attack by you is evidence of my past claims of your dishonest debating style. You have attempted to irrationally provoke a confrontation with me under the false pretense of me calling you a liar today, as I have repeatedly said I don't want to get into it with you. And now you are attacking my christianity as I am attempting to make peace with you. And in spite of your sorry attitude I still forgive you and wish you well. See how magnanimous I am trying to be with you? :) 
","http://www.4forums.com/political/creation-intelligent-design-vs-evolution/10849-arj-launch.html",299530,154
"1-7587_157_154_2",7587,1,"2008-01-31 13:34:00",421,697,299539,"2008-01-31 13:21:00",329383,149,154,"See, there you go again. You get caught being irrational and attacking me unfairly, and as a result you claim victory, claim it is I who is embarrassed?And it is I who owes you an apology? So no TQ, I don't owe you an apology at all. You owe me one. If you will treat me with the same respect I have been treating you with here, we can finally get along. 
But as long as you attack me unfairly I will make my points in debates and not go back and forth attempting to answer to childish retorts. Sorry if that doesn't satisfy your demands, but that is how it will be. You see, you don't control this forum or my free will. So once again, be at peace.",329380,2,7587,1,"Oh, my mistake, you didn't call me a liar, you just said me and the truth had less than a passing acquaintance and implied I was a liar instead of outright stating it this time. You then, in this very post, state again how I am constantly dishonest. Yeah, I don't know how I ever got the idea that you consistently call me a liar.
Once again, will you apologize for constantly slandering me? Or will you just run away again, as you always do when you are completely and utterly embarassed by your complete lack of integrity?","http://www.4forums.com/political/creation-intelligent-design-vs-evolution/10849-arj-launch.html",299533,157
"1-7587_161_157_2",7587,1,"2008-01-31 13:47:00",697,421,299550,"2008-01-31 13:34:00",329387,190,157,"Getting you to answer questions, use logic, stop insulting people, and provide evidence are ""childish retorts"" now, eh?
And take your ""be at peace"" and ""well wishes"" and cram them. I am absolutely, positively, tired of your ####. You spent the last three weeks lying, insulting, jeering and in every way, shape and form violating the TOS of this site, yet you seem to think that because you haven't done that in the past hour, you're suddenly a golden boy. Guess what Archie? Your actions have repercussions. In other words, when you're a proven liar, fraud, and insult artist, you are going to continue being considered a liar, fraud, and insult artist for a long time to come. And accusing others of your faults in no way means they are magically removed from you, no matter what magical sky fairy you believe in, or how many "" emoticonXAngel emoticonXBye or emoticonXGood "" you end your posts with.",329383,2,7587,1,"See, there you go again. You get caught being irrational and attacking me unfairly, and as a result you claim victory, claim it is I who is embarrassed?And it is I who owes you an apology? So no TQ, I don't owe you an apology at all. You owe me one. If you will treat me with the same respect I have been treating you with here, we can finally get along. 
But as long as you attack me unfairly I will make my points in debates and not go back and forth attempting to answer to childish retorts. Sorry if that doesn't satisfy your demands, but that is how it will be. You see, you don't control this forum or my free will. So once again, be at peace.","http://www.4forums.com/political/creation-intelligent-design-vs-evolution/10849-arj-launch.html",299539,161
