"key","quote_source_post_discussion_id","posts_dataset_id","posts_timestamp","posts_author_id","quote_source_author_id","posts_native_post_id","quote_source_timestamp","post_text_id","Word_Count","quote_source_post_id","post_text","quote_source_text_id","Dialog_Turn","posts_discussion_id","quote_source_post_dataset_id","Fullquote_text","discussion_url","quote_source_native_post_id","posts_post_id"
"1-761_11_10_1",761,1,"2003-11-27 03:35:00",54,31,24240,"2003-11-26 22:13:00",31944,11,10,"More likely we're the ones who are using it correctly.",31943,1,761,1,"If you mean that a species is transitional, because it is itself in transition, that is, evolving, then you are not dealing with the word as most evolutionaries use it.
They mean that it suggests that it has characteristics of more than one type.
The problem with evolutionaries and words is that the mis-use them so often.
Another is ancestoral. This suggests something that began current generations, but in evolutionary circles it need not have spawned anything, and might have been a dead-end in evolutionary history.
It would be better if they used the word archaic.","http://www.4forums.com/political/creation-intelligent-design-vs-evolution/1256-darwinism-refuted-not.html",24226,11
"1-761_16_11_1",761,1,"2003-11-27 18:37:00",31,54,24349,"2003-11-27 03:35:00",31949,30,11,"Who's 'we'? Are you one of the evolutionaries too?
What is the correct usage for 'ancestoral' in the term 'ancestoral type'?",31944,1,761,1,"More likely we're the ones who are using it correctly.","http://www.4forums.com/political/creation-intelligent-design-vs-evolution/1256-darwinism-refuted-not.html",24240,16
"1-761_19_16_1",761,1,"2003-11-28 03:41:00",54,31,24384,"2003-11-27 18:37:00",31952,30,16,"There is no such term as ancestoral.
What you mean is ancestral. Inherited or inheritable by established rules of descent. This is how it is used.",31949,1,761,1,"Who's 'we'? Are you one of the evolutionaries too?
What is the correct usage for 'ancestoral' in the term 'ancestoral type'?","http://www.4forums.com/political/creation-intelligent-design-vs-evolution/1256-darwinism-refuted-not.html",24349,19
"1-761_21_19_1",761,1,"2003-11-28 04:24:00",31,54,24394,"2003-11-28 03:41:00",31954,28,19,"Hey -well spotted spelling error.
Are you saying that an ancestral type has to be an ancestor; that is, actually spawning other species?",31952,1,761,1,"There is no such term as ancestoral.
What you mean is ancestral. Inherited or inheritable by established rules of descent. This is how it is used.","http://www.4forums.com/political/creation-intelligent-design-vs-evolution/1256-darwinism-refuted-not.html",24384,21
"1-761_23_21_1",761,1,"2003-11-28 04:38:00",54,31,24400,"2003-11-28 04:24:00",31956,7,21,"You are still not getting it.",31954,1,761,1,"Hey -well spotted spelling error.
Are you saying that an ancestral type has to be an ancestor; that is, actually spawning other species?","http://www.4forums.com/political/creation-intelligent-design-vs-evolution/1256-darwinism-refuted-not.html",24394,23
"1-761_45_44_2",761,1,"2003-12-13 05:12:00",456,54,27220,"2003-12-13 04:57:00",31978,42,44,"When someone has a belief that can’t be proved or disproved, that belief is as valid as the next. Therefore saying that belief is incorrect because it doesn't fit the facts is just as incorrect.",31977,2,761,1,"It dictates, but it doesn't actual prove that you have a so-called soul. In other words ""Don't question, believe"". 

That isn't the function of evolution either. 

You're belief is incorrect. You only base that on belief, I base it on facts. ""Tradition without truth is but an old error.""","http://www.4forums.com/political/creation-intelligent-design-vs-evolution/1256-darwinism-refuted-not.html",27215,45
"1-761_47_45_2",761,1,"2003-12-13 12:02:00",54,456,27251,"2003-12-13 05:12:00",31980,44,45,"Hardly. Believing that the Earth is flat and the sun goes around it doesn't make it so. Beliefs based on facts and reality are far more valid than those based on nothing more than wishful thinking. They are speculation only.",31978,2,761,1,"When someone has a belief that can’t be proved or disproved, that belief is as valid as the next. Therefore saying that belief is incorrect because it doesn't fit the facts is just as incorrect.","http://www.4forums.com/political/creation-intelligent-design-vs-evolution/1256-darwinism-refuted-not.html",27220,47
"1-761_49_47_2",761,1,"2003-12-13 12:36:00",456,54,27257,"2003-12-13 12:02:00",31982,60,47,"I said beliefs that can not be proved. You can prove the earth is not flat and the evidence shows convincingly that the earth goes around the sun. Deeph was talking about his belief that mankind has souls which was what you replied was incorrect, and that you can’t prove or disprove.",31980,2,761,1,"Hardly. Believing that the Earth is flat and the sun goes around it doesn't make it so. Beliefs based on facts and reality are far more valid than those based on nothing more than wishful thinking. They are speculation only.","http://www.4forums.com/political/creation-intelligent-design-vs-evolution/1256-darwinism-refuted-not.html",27251,49
"1-761_50_49_2",761,1,"2003-12-13 14:22:00",54,456,27270,"2003-12-13 12:36:00",31983,43,49,"If it were that easy than why is there still a Flat Earth Society? :)

Why not? We can show that a mind exists. Everything that exists can be measured in one way or another. Energy is energy.",31982,2,761,1,"I said beliefs that can not be proved. You can prove the earth is not flat and the evidence shows convincingly that the earth goes around the sun. Deeph was talking about his belief that mankind has souls which was what you replied was incorrect, and that you can’t prove or disprove.","http://www.4forums.com/political/creation-intelligent-design-vs-evolution/1256-darwinism-refuted-not.html",27257,50
"1-761_51_50_2",761,1,"2003-12-13 15:26:00",456,54,27281,"2003-12-13 14:22:00",31984,35,50,"Don't be Montying around.

What makes you think everything that exist has energy? Maybe just everything we know about has energy.
Okay well I'm open, prove there is no soul.",31983,2,761,1,"If it were that easy than why is there still a Flat Earth Society? :)

Why not? We can show that a mind exists. Everything that exists can be measured in one way or another. Energy is energy.","http://www.4forums.com/political/creation-intelligent-design-vs-evolution/1256-darwinism-refuted-not.html",27270,51
"1-761_53_51_2",761,1,"2003-12-14 04:10:00",54,456,27317,"2003-12-13 15:26:00",31986,33,51,"Even the so-called immaterial has an energy signature. 

First, prove that we do have a soul. Don't act like a theist and try to shift the burden of proof.",31984,2,761,1,"Don't be Montying around.

What makes you think everything that exist has energy? Maybe just everything we know about has energy.
Okay well I'm open, prove there is no soul.","http://www.4forums.com/political/creation-intelligent-design-vs-evolution/1256-darwinism-refuted-not.html",27281,53
"1-761_56_53_2",761,1,"2003-12-14 07:01:00",456,54,27364,"2003-12-14 04:10:00",31989,92,53,"Okay show me how you know that everything that is not material has an energy signature.

I am a theist, why shouldn't I act like one?
But you were the one that said Deeph's belief about humans having a soul was incorrect and that you were basing yours on facts. You made the assertion that you had the facts and I'm asking you to back it up with the facts you mentioned. Deeph admited that it can't be proved, you are implying that it can.",31986,2,761,1,"Even the so-called immaterial has an energy signature. 

First, prove that we do have a soul. Don't act like a theist and try to shift the burden of proof.","http://www.4forums.com/political/creation-intelligent-design-vs-evolution/1256-darwinism-refuted-not.html",27317,56
"1-761_58_56_2",761,1,"2003-12-14 14:42:00",54,456,27418,"2003-12-14 07:01:00",31991,128,56,"Energy is ""immaterial"". Stick your finger in a live socket and find out. :)

In that caes you are acting like one and thus are trying to shift the burden of proof.

In all of this time no one has ever found the so-called soul, and it wasn't from a lack of trying either. Along the way were have learned much of the body and mind instead, but still no soul. 
Say that you had your mind recorded and one day you are killed and they grow you are new body, and then download your mind into it. Would you still have a soul? If they made other copies would they to have your soul?",31989,2,761,1,"Okay show me how you know that everything that is not material has an energy signature.

I am a theist, why shouldn't I act like one?
But you were the one that said Deeph's belief about humans having a soul was incorrect and that you were basing yours on facts. You made the assertion that you had the facts and I'm asking you to back it up with the facts you mentioned. Deeph admited that it can't be proved, you are implying that it can.","http://www.4forums.com/political/creation-intelligent-design-vs-evolution/1256-darwinism-refuted-not.html",27364,58
"1-761_61_58_2",761,1,"2003-12-14 16:14:00",456,54,27440,"2003-12-14 14:42:00",31994,184,58,"I was under the understanding that Einstein proved that energy was just another form of matter.

No I was requesting proof of your statement, not shifting any burden of proof. Deeph had already stated he had no proof. You stated that you had the facts.

Well no one has ever found the explanation for biogenesis either although it’s not from a lack of trying. Does that mean it never happened? There are lots of things that man finds every century. How does not finding something prove there is not that something? Besides how do you find something that is supernatural with natural means?

I never said the soul was tied to the mind. Different people have different beliefs about a soul or lack of. I happen to believe that it is a part of God in us. I don’t know how it ‘works’ and is therefore a mystery to me. But I still believe it.",31991,2,761,1,"Energy is ""immaterial"". Stick your finger in a live socket and find out. :)

In that caes you are acting like one and thus are trying to shift the burden of proof.

In all of this time no one has ever found the so-called soul, and it wasn't from a lack of trying either. Along the way were have learned much of the body and mind instead, but still no soul. 
Say that you had your mind recorded and one day you are killed and they grow you are new body, and then download your mind into it. Would you still have a soul? If they made other copies would they to have your soul?","http://www.4forums.com/political/creation-intelligent-design-vs-evolution/1256-darwinism-refuted-not.html",27418,61
"1-761_64_61_2",761,1,"2003-12-14 16:44:00",54,456,27446,"2003-12-14 16:14:00",31997,195,61,"Didn't say that it wasn't. Engergy and matter are basically the same thing. All have an energy signature of somekind and can be measured.

You're the one who is making an extra-ordinary claim. The existence of a soul.

How is unknown, but it is easy enough to see the results. Where do I look to see a soul?

They've been looking for centuries, even thousands of years and nothing.
Prove that the supernatural exists in the first place. All that exists is part of nature. You think that nature is only to do with the wild.
Nature:
2. A causal agent creating and controlling things in the universe
If you believe in the supernatural than you must also believe in everything said to be supernatural since by your definition you can't disprove, or prove it. So ghosts, werewolves, vampires, and other supernatural things that go bump in the night must exist as well.

If it is a part of god in us than how can we sin if we're a part of god?",31994,2,761,1,"I was under the understanding that Einstein proved that energy was just another form of matter.

No I was requesting proof of your statement, not shifting any burden of proof. Deeph had already stated he had no proof. You stated that you had the facts.

Well no one has ever found the explanation for biogenesis either although it’s not from a lack of trying. Does that mean it never happened? There are lots of things that man finds every century. How does not finding something prove there is not that something? Besides how do you find something that is supernatural with natural means?

I never said the soul was tied to the mind. Different people have different beliefs about a soul or lack of. I happen to believe that it is a part of God in us. I don’t know how it ‘works’ and is therefore a mystery to me. But I still believe it.","http://www.4forums.com/political/creation-intelligent-design-vs-evolution/1256-darwinism-refuted-not.html",27440,64
