"key","quote_source_post_discussion_id","posts_dataset_id","posts_timestamp","posts_author_id","quote_source_author_id","posts_native_post_id","quote_source_timestamp","post_text_id","Word_Count","quote_source_post_id","post_text","quote_source_text_id","Dialog_Turn","posts_discussion_id","quote_source_post_dataset_id","Fullquote_text","discussion_url","quote_source_native_post_id","posts_post_id"
"1-7644_19_18_1",7644,1,"2008-02-16 13:04:00",1439,421,302034,"2008-02-16 12:11:00",332185,78,18,"Please explain how you came to the conclusion that evolution and creation are complete opposites based on a non-literal interpretation of the bible. 
There is evidence of evolution, so I believe it happened. In my heart I believe God exists, so I believe he created the world. Is it really that farfetched to believe that the theories could exist in harmony, and in fact that evolution was a creation of God?",332184,1,7644,1,"The problem with marrying evo and Creation bmittking is that evo stands in direct opposition to the claims of Genesis and the basic concept that an intelligent and personal God spoke creation into being. The two belief systems are as diametrically opposed as night and day and you can't believe one without corrupting the other. 
In order to accept evo you must disregard key elements of Genesis and other scriptural principles which God declares are absolute. I admit I can't explain the so called inconsistencies between what the bible say's and what we ""think"" we know, but I err on the side of trusting God's explanation until He can tell me differently Himself some day. My only other option is to trust Man over God and that is the greatest lessen we learn from the Old Testament, that Israel so mistakenly did so often that destroyed their relationship with God and was defined as faithlessness by Him.","http://www.4forums.com/political/creation-intelligent-design-vs-evolution/10925-whats-point.html",302029,19
"1-7644_20_19_1",7644,1,"2008-02-16 13:19:00",421,1439,302038,"2008-02-16 13:04:00",332186,155,19,"If you are doing what many cultural christians do and accepting what is convenient about both belief systems and marrying them together so as to still be able to claim a type of intellectual spiritualism, then you are deluding yourself by compromising what the Creation story is with man made science, because the whole principle behind true evolution is that man evolved NATURALLY and SPONTANEOUSLY from organic matter billions of years ago. And from that humble beginning in the primordial ooze, all life formed from single celled bacteria or enzymes or whatever. But we weren't created by an intelligent being. So in order to accept evolution you must deny what the bible says about our creation by a loving and personal God.
Unfortunately, that is the choice we have if we are to claim to believe in God. And God doesn't allow us to compromise.",332185,1,7644,1,"Please explain how you came to the conclusion that evolution and creation are complete opposites based on a non-literal interpretation of the bible. 
There is evidence of evolution, so I believe it happened. In my heart I believe God exists, so I believe he created the world. Is it really that farfetched to believe that the theories could exist in harmony, and in fact that evolution was a creation of God?","http://www.4forums.com/political/creation-intelligent-design-vs-evolution/10925-whats-point.html",302034,20
"1-7644_21_20_1",7644,1,"2008-02-16 13:46:00",1439,421,302040,"2008-02-16 13:19:00",332187,50,20,"I am not following my beliefs because it's convenient. I never said I believed in the whole evolution theory, either. I believe that the emergence of life is anything but spontaneous and random, which leads me to believe in a creator. Think about it.",332186,1,7644,1,"If you are doing what many cultural christians do and accepting what is convenient about both belief systems and marrying them together so as to still be able to claim a type of intellectual spiritualism, then you are deluding yourself by compromising what the Creation story is with man made science, because the whole principle behind true evolution is that man evolved NATURALLY and SPONTANEOUSLY from organic matter billions of years ago. And from that humble beginning in the primordial ooze, all life formed from single celled bacteria or enzymes or whatever. But we weren't created by an intelligent being. So in order to accept evolution you must deny what the bible says about our creation by a loving and personal God.
Unfortunately, that is the choice we have if we are to claim to believe in God. And God doesn't allow us to compromise.","http://www.4forums.com/political/creation-intelligent-design-vs-evolution/10925-whats-point.html",302038,21
"1-7644_22_21_1",7644,1,"2008-02-16 14:48:00",421,1439,302054,"2008-02-16 13:46:00",332188,149,21,"Then the good news is that you're not really an evolutionist. You are having a hard time accepting how geological evidence conflicts with Genesis so you attempt to accept both as rational beliefs. And I can respect you for that; but don't compromise what the Torah tells you just for the sake of satisfying the man made science of secular humanists who have no real clue of Mans origins as they do everything they can to prove that we came into being naturally, apart from any participation of a loving and personal God by the name of Adonai, Jehovah and Yahweh. Just remember that it isn't necessary to answer all questions that life throws at us if we have confidence that our heavenly Father knows the answers to those questions and will give us the answers in His perfect time. Seleh...",332187,1,7644,1,"I am not following my beliefs because it's convenient. I never said I believed in the whole evolution theory, either. I believe that the emergence of life is anything but spontaneous and random, which leads me to believe in a creator. Think about it.","http://www.4forums.com/political/creation-intelligent-design-vs-evolution/10925-whats-point.html",302040,22
"1-7644_23_22_1",7644,1,"2008-02-16 15:30:00",1439,421,302067,"2008-02-16 14:48:00",332189,192,22,"I am an evolutionist, and a creationist. Don't ever accuse me of compromising my religion for science. This is truly what I believe, and I am not in denial. Don't tell me what to think. You can attempt to sway my beliefs with logic, and I will try to keep an open mind, but don't tell me what my beliefs are, and I won't tell you yours.
Honestly, I believe in God. I believe in evolution. I believe that many biblical stories are metaphors for what actually happened. For example, the flood could have been a glorified witch hunt for non-believers, not unlike he Crusades.
You still haven't supported your argument that evolution and a non-literal interpretation of the Bible are complete opposites.
Furthermore, don't ever say I don't have confidence in God. Ever. I have my faith in God and man, but I guess that it's too much for you to handle to believe that religion and science can coexist. Guess what? opposites can exist together.",332188,1,7644,1,"Then the good news is that you're not really an evolutionist. You are having a hard time accepting how geological evidence conflicts with Genesis so you attempt to accept both as rational beliefs. And I can respect you for that; but don't compromise what the Torah tells you just for the sake of satisfying the man made science of secular humanists who have no real clue of Mans origins as they do everything they can to prove that we came into being naturally, apart from any participation of a loving and personal God by the name of Adonai, Jehovah and Yahweh. Just remember that it isn't necessary to answer all questions that life throws at us if we have confidence that our heavenly Father knows the answers to those questions and will give us the answers in His perfect time. Seleh...","http://www.4forums.com/political/creation-intelligent-design-vs-evolution/10925-whats-point.html",302054,23
