"key","quote_source_post_discussion_id","posts_dataset_id","posts_timestamp","posts_author_id","quote_source_author_id","posts_native_post_id","quote_source_timestamp","post_text_id","Word_Count","quote_source_post_id","post_text","quote_source_text_id","Dialog_Turn","posts_discussion_id","quote_source_post_dataset_id","Fullquote_text","discussion_url","quote_source_native_post_id","posts_post_id"
"1-8423_17_16_1",8423,1,"2008-12-02 16:24:00",428,3055,335134,"2008-12-02 16:04:00",372972,179,16,"Technically it's not. The fish represented in the fossils are indeed extinct. The two species that exist today that are superficially similar differ in genetics representation and some anatomical functions. The Coelocanth of the fossils and the two species of Coelocanth are not the same. As much as you wish to pretend they are the same, you'd have to deny genetics as well as anatomical differences. It would be like saying that the shellfish in the lower part of the cliffs of Dover are the same as the ones half way up because they look similar. Are they? No. But that's what you're doing. 

And your point is? Just because one conclusion was wrong doesn't make the whole theory incorrect. I'd apply that to creationism but you will never defend your belief. At least here. 

The TOE did no such thing. The lack of existence for the species caused people to believe they they had died out. The same observation for dinosaurs.",372971,1,8423,1,"How is the observation that the fish are dead incorrect?
The observations were never wrong, the conclusions drawn from it were.
The theory of evolution mindset caused scientists to state that they were extinct. And guess what happened?","http://www.4forums.com/political/creation-intelligent-design-vs-evolution/12047-theory-evolutions-failed-prediction-coelacanth.html",335117,17
"1-8423_19_17_1",8423,1,"2008-12-02 16:33:00",3055,428,335142,"2008-12-02 16:24:00",372974,73,17,"The ""I said so"" argument is getting old.
Simply saying that the two are completely different doesn't make it so.

I never said a conclusion was wrong, I said a prediction was a massive failure. 

The scientists stated that it was extinct millions and millions of years ago based on the ToE mindset. A young earth model would not have come to the same conclusion.",372972,1,8423,1,"Technically it's not. The fish represented in the fossils are indeed extinct. The two species that exist today that are superficially similar differ in genetics representation and some anatomical functions. The Coelocanth of the fossils and the two species of Coelocanth are not the same. As much as you wish to pretend they are the same, you'd have to deny genetics as well as anatomical differences. It would be like saying that the shellfish in the lower part of the cliffs of Dover are the same as the ones half way up because they look similar. Are they? No. But that's what you're doing. 

And your point is? Just because one conclusion was wrong doesn't make the whole theory incorrect. I'd apply that to creationism but you will never defend your belief. At least here. 

The TOE did no such thing. The lack of existence for the species caused people to believe they they had died out. The same observation for dinosaurs.","http://www.4forums.com/political/creation-intelligent-design-vs-evolution/12047-theory-evolutions-failed-prediction-coelacanth.html",335134,19
"1-8423_20_19_1",8423,1,"2008-12-02 16:41:00",428,3055,335150,"2008-12-02 16:33:00",372975,238,19,"Indeed. You really should stop using it. 

Indeed. You really should stop using it. 
Prior posts have pointed out that the fossil and modern fish are quite different. Furthermore, your own link states there are two species that branched from the original.
Are you now going to deny the links you posted in support of your original argument? 

And what prediction was that? All the observation concluded that the species was extinct based on the fossil record and lack of any live specimens found. What did evolution predict? 

What mindset? Explain to me how evolution has any real relevance here. If I saw a fossil of small dinosaur, and then found no evidence for their existence now, how am I applying evolution? Barrel Scrapping in progress! 

Actually a YEC model would suggest they all died during the flood, and therefore would be extinct as well. Furthermore, YEC also results in all life in the ocean aside from some bacteria being killed from changes in salinity, reduction in oxygen content, blooming of bacteria from the massive releases of decomposition nutrients and a massive change in distribution of heat and nutrients due to salinity changes change how currents flow. There are some real big problems with YEC without even considering how it looks at current species.",372974,1,8423,1,"The ""I said so"" argument is getting old.
Simply saying that the two are completely different doesn't make it so.

I never said a conclusion was wrong, I said a prediction was a massive failure. 

The scientists stated that it was extinct millions and millions of years ago based on the ToE mindset. A young earth model would not have come to the same conclusion.","http://www.4forums.com/political/creation-intelligent-design-vs-evolution/12047-theory-evolutions-failed-prediction-coelacanth.html",335142,20
"1-8423_21_20_1",8423,1,"2008-12-02 16:51:00",3055,428,335156,"2008-12-02 16:41:00",372976,72,20,"You stated that the fish represented in the fossils are extinct. That is clearly false, despite some minor changes.


my link agrees with me
learn to read

Because of the theory of evolution, scientists stated that they were extinct MILLIONS AND MILLIONS OF YEARS AGO.

Wrong.
You're assuming that God wouldn't be able to alter conditions so that fish can survive.
Your argument = insanity",372975,1,8423,1,"Indeed. You really should stop using it.
Indeed. You really should stop using it. 
Prior posts have pointed out that the fossil and modern fish are quite different. Furthermore, your own link states there are two species that branched from the original.","http://www.4forums.com/political/creation-intelligent-design-vs-evolution/12047-theory-evolutions-failed-prediction-coelacanth.html",335150,21
"1-8423_22_21_1",8423,1,"2008-12-02 16:58:00",428,3055,335162,"2008-12-02 16:51:00",372977,208,21,"Minor? Did you even look at the pictures presented earlier? (I know the answer to that) Hardly ""minor."" 
The fish in the fossil is extinct. The fish which has divided into two different species we see today is not the same organisms. 

No, all it does it says is they found something they believed to be the same. Further on in your link it goes on to tell about the second finding of a similar but different species with different traits. People can read your links and see your claims are refuted by your own links. 


No, your link DOES NOT agree with you. 

I say so isn't working. How is the TOE relevant here? If you saw something that was in a fossil and didn't see it anywhere on the planet, would you think it would still be alive? emoticonXGood

I was wondering when we'd get around to that. It was only a matter of time before you resorted to the argument of: 
MAGIC! 
How is my argument insane when it cites your own links and doesn't rely on unprovable Gods that use magic?",372976,1,8423,1,"You stated that the fish represented in the fossils are extinct. That is clearly false, despite some minor changes.


my link agrees with me
learn to read

Because of the theory of evolution, scientists stated that they were extinct MILLIONS AND MILLIONS OF YEARS AGO.

Wrong.
You're assuming that God wouldn't be able to alter conditions so that fish can survive.
Your argument = insanity","http://www.4forums.com/political/creation-intelligent-design-vs-evolution/12047-theory-evolutions-failed-prediction-coelacanth.html",335156,22
"1-8423_55_54_2",8423,1,"2008-12-07 15:54:00",3055,428,335773,"2008-12-07 14:09:00",373010,22,54,"More lies.
Your argument is that God cannot contradict observable science.
That's not really an argument, it's insanity.",373009,2,8423,1,"And what makes your interpretation of Christanity or science correct?
None of the creationists here could name a single example of commercial products of creation science. 
None of the creationists here could refute the attacks on the flood.
All of the Creationists here eventually resort to ""Goddidit""","http://www.4forums.com/political/creation-intelligent-design-vs-evolution/12047-theory-evolutions-failed-prediction-coelacanth.html",335748,55
"1-8423_56_55_2",8423,1,"2008-12-07 16:08:00",428,3055,335776,"2008-12-07 15:54:00",373011,32,55,"I never said God couldn't. Therefore your assertion about my lies is incorrect (as are all your silly statements).
Get back to the point instead of flaming.",373010,2,8423,1,"More lies.
Your argument is that God cannot contradict observable science.
That's not really an argument, it's insanity.","http://www.4forums.com/political/creation-intelligent-design-vs-evolution/12047-theory-evolutions-failed-prediction-coelacanth.html",335773,56
"1-8423_57_56_2",8423,1,"2008-12-07 16:19:00",3055,428,335780,"2008-12-07 16:08:00",373012,32,56,"Why is it that you can't argue without resorting to massive dishonesty?

Not only is your argument insanity, but you have to lie about it. Bra. Vo.",373011,2,8423,1,"I never said God couldn't. Therefore your assertion about my lies is incorrect (as are all your silly statements).
Get back to the point instead of flaming.","http://www.4forums.com/political/creation-intelligent-design-vs-evolution/12047-theory-evolutions-failed-prediction-coelacanth.html",335776,57
"1-8423_58_57_2",8423,1,"2008-12-07 16:22:00",428,3055,335782,"2008-12-07 16:19:00",373013,65,57,"At this point, your definition of honesty has no meaning as you apply it to anything without context. Poliwagismah? That's frankly what your definition means: gibberish. 

uh...
What is wrong about what I said about the model? 
Creationism is inherently not science is requires the supernatural to fill in the problems. You claimed Magic before remember.",373012,2,8423,1,"Why is it that you can't argue without resorting to massive dishonesty?

Not only is your argument insanity, but you have to lie about it. Bra. Vo.","http://www.4forums.com/political/creation-intelligent-design-vs-evolution/12047-theory-evolutions-failed-prediction-coelacanth.html",335780,58
"1-8423_59_58_2",8423,1,"2008-12-07 16:27:00",3055,428,335785,"2008-12-07 16:22:00",373014,53,58,"When you don't have an argument, just lie
you might want to apply for a liar bailout to get some TARP $

playing dumb might work in preschool, but not here
you're ASSUMING that observable science cannot be contradicted, your assumption is insanity, I have addressed this many times",373013,2,8423,1,"At this point, your definition of honesty has no meaning as you apply it to anything without context. Poliwagismah? That's frankly what your definition means: gibberish. 

uh...
What is wrong about what I said about the model? 
Creationism is inherently not science is requires the supernatural to fill in the problems. You claimed Magic before remember.","http://www.4forums.com/political/creation-intelligent-design-vs-evolution/12047-theory-evolutions-failed-prediction-coelacanth.html",335782,59
"1-8423_61_59_2",8423,1,"2008-12-07 16:58:00",428,3055,335814,"2008-12-07 16:27:00",373016,36,59,"First of all, that's my line. Make up your own content for a change. Second, Poliwagismah? What? I couldn't hear you over the gibberish. 
iangb covers the rest.",373014,2,8423,1,"When you don't have an argument, just lie
you might want to apply for a liar bailout to get some TARP $

playing dumb might work in preschool, but not here
you're ASSUMING that observable science cannot be contradicted, your assumption is insanity, I have addressed this many times","http://www.4forums.com/political/creation-intelligent-design-vs-evolution/12047-theory-evolutions-failed-prediction-coelacanth.html",335785,61
"1-8423_2_1_3",8423,1,"2008-12-02 14:26:00",3071,3055,335086,"2008-12-02 14:18:00",372957,101,1,"There is just one thing however. The coelacanths found are different from those in the fossil record. Further, ALL evidence pointed to them being extinct, until we found other evidence, and we changed it. And, to top it off, the article says NEARLY extinct, not COMPLETELY. Although, this article was of course written after the coelocanths were re-discovered. Of course, this has absolutely nothing to do with the theory of evolution, which explains the mechanisms responsible for the change of allele frequencies in populations over time.",372956,3,8423,1,"The coelacanth, according to fossil records, and according to evolutionists, allegedly went extinct millions and millions of years ago.
Until they were found alive.

Coelacanth - Wikipedia, the free encyclopedia
As if this should be any surprise. The theory of evolution mindset once again contradicts observable science.","http://www.4forums.com/political/creation-intelligent-design-vs-evolution/12047-theory-evolutions-failed-prediction-coelacanth.html",335082,2
"1-8423_4_2_3",8423,1,"2008-12-02 14:33:00",3055,3071,335088,"2008-12-02 14:26:00",372959,56,2,"They do not differ in any significant way. The living species today closely resemble the fossils. 
The prediction was made based on the mindset that everything evolved from a common ancestor over billions of years. Furthermore, it was based upon the fossil record, which is supposedly shows how everything evolved.",372957,3,8423,1,"There is just one thing however. The coelacanths found are different from those in the fossil record. Further, ALL evidence pointed to them being extinct, until we found other evidence, and we changed it. And, to top it off, the article says NEARLY extinct, not COMPLETELY. Although, this article was of course written after the coelocanths were re-discovered. Of course, this has absolutely nothing to do with the theory of evolution, which explains the mechanisms responsible for the change of allele frequencies in populations over time.","http://www.4forums.com/political/creation-intelligent-design-vs-evolution/12047-theory-evolutions-failed-prediction-coelacanth.html",335086,4
"1-8423_5_4_3",8423,1,"2008-12-02 14:42:00",3071,3055,335091,"2008-12-02 14:33:00",372960,69,4,"Yes they do. Modern Coelocanth: Modern Coelocanth

No they don't. Fossil Coelocanth: Fossil Coelocanth

No, it was based upon the fact we hadn't seen one, yet there were fossils of them. Then when we did see the descendants of the fossils and it got changed, that's how science works, when better data is found, the theories are changed.",372959,3,8423,1,"They do not differ in any significant way. The living species today closely resemble the fossils. 
The prediction was made based on the mindset that everything evolved from a common ancestor over billions of years. Furthermore, it was based upon the fossil record, which is supposedly shows how everything evolved.","http://www.4forums.com/political/creation-intelligent-design-vs-evolution/12047-theory-evolutions-failed-prediction-coelacanth.html",335088,5
"1-8423_6_5_3",8423,1,"2008-12-02 14:46:00",3055,3071,335093,"2008-12-02 14:42:00",372961,84,5,"A model of a live fish and fossils of a fish are going to be significantly different under any circumstances.
There was a gap in the fossil record, scientists looked it at it, and using the theory of evolution mindset, automatically assumed that it went extinct millions and millions of years ago. But of course, it was absolutely wrong.
A prediction was made based on the theory of evolution and it was absolutely wrong. Simple.",372960,3,8423,1,"Yes they do. Modern Coelocanth: Modern Coelocanth

No they don't. Fossil Coelocanth: Fossil Coelocanth

No, it was based upon the fact we hadn't seen one, yet there were fossils of them. Then when we did see the descendants of the fossils and it got changed, that's how science works, when better data is found, the theories are changed.","http://www.4forums.com/political/creation-intelligent-design-vs-evolution/12047-theory-evolutions-failed-prediction-coelacanth.html",335091,6
"1-8423_7_6_3",8423,1,"2008-12-02 14:54:00",3071,3055,335094,"2008-12-02 14:46:00",372962,164,6,"Yes, and you know why? Because it evolved.

No. They looked at the fossil records, and found fossils up until a certain point in time. After that no fossils were found, and nobody had seen the thing. Now, what conclusion can we draw from this? Or are you suggesting dinosaurs are also still alive, even though nobody's seen them? It has nothing to do with the mindset, and everything to do with the available data. Once better data became available, it was changed.

Yes, but we had no way to tell until we found them again, now had we?

The prediction was NOT made based on the theory of evolution, but on the fact that there were fossils up until a certain time, then there were no more fossils and nobody had seen the thing. What's so hard to understand here?",372961,3,8423,1,"A model of a live fish and fossils of a fish are going to be significantly different under any circumstances.
There was a gap in the fossil record, scientists looked it at it, and using the theory of evolution mindset, automatically assumed that it went extinct millions and millions of years ago. But of course, it was absolutely wrong.
A prediction was made based on the theory of evolution and it was absolutely wrong. Simple.","http://www.4forums.com/political/creation-intelligent-design-vs-evolution/12047-theory-evolutions-failed-prediction-coelacanth.html",335093,7
"1-8423_9_7_3",8423,1,"2008-12-02 14:59:00",3055,3071,335097,"2008-12-02 14:54:00",372964,9,7,"Apparently you think that fossils evolved into models.",372962,3,8423,1,"Yes, and you know why? Because it evolved.

No. They looked at the fossil records, and found fossils up until a certain point in time. After that no fossils were found, and nobody had seen the thing. Now, what conclusion can we draw from this? Or are you suggesting dinosaurs are also still alive, even though nobody's seen them? It has nothing to do with the mindset, and everything to do with the available data. Once better data became available, it was changed.

Yes, but we had no way to tell until we found them again, now had we?

The prediction was NOT made based on the theory of evolution, but on the fact that there were fossils up until a certain time, then there were no more fossils and nobody had seen the thing. What's so hard to understand here?","http://www.4forums.com/political/creation-intelligent-design-vs-evolution/12047-theory-evolutions-failed-prediction-coelacanth.html",335094,9
"1-8423_11_9_3",8423,1,"2008-12-02 15:06:00",3071,3055,335100,"2008-12-02 14:59:00",372966,34,9,"No I don't. I know animals evolve, and this leads to morphological change. Thus, when a fossil is found, it will be different from a species living today.",372964,3,8423,1,"Apparently you think that fossils evolved into models.","http://www.4forums.com/political/creation-intelligent-design-vs-evolution/12047-theory-evolutions-failed-prediction-coelacanth.html",335097,11
"1-8423_14_11_3",8423,1,"2008-12-02 15:11:00",3055,3071,335103,"2008-12-02 15:06:00",372969,33,11,"You replied ""because it evolved"" when I said
""A model of a live fish and fossils of a fish are going to be significantly different under any circumstances.""",372966,3,8423,1,"No I don't. I know animals evolve, and this leads to morphological change. Thus, when a fossil is found, it will be different from a species living today.","http://www.4forums.com/political/creation-intelligent-design-vs-evolution/12047-theory-evolutions-failed-prediction-coelacanth.html",335100,14
"1-8423_23_14_3",8423,1,"2008-12-03 00:58:00",3071,3055,335200,"2008-12-02 15:11:00",372978,19,14,"Yes, the ""it"" in that sentence refers to the fish, not to the fossil.",372969,3,8423,1,"You replied ""because it evolved"" when I said
""A model of a live fish and fossils of a fish are going to be significantly different under any circumstances.""","http://www.4forums.com/political/creation-intelligent-design-vs-evolution/12047-theory-evolutions-failed-prediction-coelacanth.html",335103,23
