"key","quote_source_post_discussion_id","posts_dataset_id","posts_timestamp","posts_author_id","quote_source_author_id","posts_native_post_id","quote_source_timestamp","post_text_id","Word_Count","quote_source_post_id","post_text","quote_source_text_id","Dialog_Turn","posts_discussion_id","quote_source_post_dataset_id","Fullquote_text","discussion_url","quote_source_native_post_id","posts_post_id"
"1-8549_122_121_1",8549,1,"2010-09-06 21:12:00",237,1033,411722,"2010-09-06 19:11:00",380808,4,121,"Yes I did.",380807,1,8549,1,"Accipiter, all I think I come across as is right?
did you mean to say, all I think is I come across as right?","http://www.4forums.com/political/creation-intelligent-design-vs-evolution/12239-evidence-creation-complexity-life.html",411716,122
"1-8549_123_122_1",8549,1,"2010-09-07 06:01:00",1033,237,411728,"2010-09-06 21:12:00",380809,74,122,"You don't come across as right, most of what you say doesn't make sense.
The parts that do make sense are often incorrect, I am reminded of the discussion about cosmology where you basically told us that you don't even possess an understanding of the simple laws of motion.
You couldn't even pass a high school physics course so its understandable that no one buys into your idiotic arguments.",380808,1,8549,1,"Yes I did.","http://www.4forums.com/political/creation-intelligent-design-vs-evolution/12239-evidence-creation-complexity-life.html",411722,123
"1-8549_125_123_1",8549,1,"2010-09-07 13:10:00",237,1033,411756,"2010-09-07 06:01:00",380811,89,123,"No comment.

Would this be the one where you accused me of that but couldn't give any examples or explain why and proceeded to make statements which were so clearly wrong that you withdrew from the discussion completely?

Bang, oh no not another brilliant argument! How could I possibly defeat that one Accipiter?

It was a question to accipter, asking why he would want to know if I believe in God, i.e. what point was he going to try to make.",380809,1,8549,1,"You don't come across as right, most of what you say doesn't make sense.
The parts that do make sense are often incorrect, I am reminded of the discussion about cosmology where you basically told us that you don't even possess an understanding of the simple laws of motion.
You couldn't even pass a high school physics course so its understandable that no one buys into your idiotic arguments.","http://www.4forums.com/political/creation-intelligent-design-vs-evolution/12239-evidence-creation-complexity-life.html",411728,125
"1-8549_128_125_1",8549,1,"2010-09-07 14:10:00",1033,237,411766,"2010-09-07 13:10:00",380814,45,125,"Examples?
Here is an example, does the universe have a center?
After you say yes, you are then no longer worth wasting time on.
It's like you want to argue about mathematics but you never learned what numbers are.",380811,1,8549,1,"No comment.

Would this be the one where you accused me of that but couldn't give any examples or explain why and proceeded to make statements which were so clearly wrong that you withdrew from the discussion completely?

Bang, oh no not another brilliant argument! How could I possibly defeat that one Accipiter?

It was a question to accipter, asking why he would want to know if I believe in God, i.e. what point was he going to try to make.","http://www.4forums.com/political/creation-intelligent-design-vs-evolution/12239-evidence-creation-complexity-life.html",411756,128
"1-8549_129_128_1",8549,1,"2010-09-07 17:17:00",237,1033,411774,"2010-09-07 14:10:00",380815,152,128,"Well yes, that is impossible because we will always look for similarities to knowledge we already posses.
If you had said it meant the ability to come to a conclusion absolutely independent of emotion I have done that and I know it is possible.

I didn't think you did, you'll know if I think something is an insult because I will either ignore it, make a snide comment, or simply type ad hominem in bold face.

Funny that two evolutionist can't even agree on what to believe. emoticonXRolleyes

Yes

Bang GOTCHA! stop wasting time :)
Now that you have spent yourself on that little effort do you mind if I go back and look up the thing you said which actually was false and revealed you were an intellectual fraud?

Or trying to argue about yogurt, without actually tasting milk....",380814,1,8549,1,"Examples?
Here is an example, does the universe have a center?
After you say yes, you are then no longer worth wasting time on.
It's like you want to argue about mathematics but you never learned what numbers are.","http://www.4forums.com/political/creation-intelligent-design-vs-evolution/12239-evidence-creation-complexity-life.html",411766,129
"1-8549_130_129_1",8549,1,"2010-09-08 11:43:00",1033,237,411811,"2010-09-07 17:17:00",380816,44,129,"The overwhelming preponderance of evidence says no, but you say yes?
Who's on your side, god?
Could show me other people who believe what you do?
Links to information supporting your the universe has a center argument perhaps?",380815,1,8549,1,"Well yes, that is impossible because we will always look for similarities to knowledge we already posses.
If you had said it meant the ability to come to a conclusion absolutely independent of emotion I have done that and I know it is possible.

I didn't think you did, you'll know if I think something is an insult because I will either ignore it, make a snide comment, or simply type ad hominem in bold face.

Funny that two evolutionist can't even agree on what to believe. emoticonXRolleyes

Yes

Bang GOTCHA! stop wasting time :)
Now that you have spent yourself on that little effort do you mind if I go back and look up the thing you said which actually was false and revealed you were an intellectual fraud?

Or trying to argue about yogurt, without actually tasting milk....","http://www.4forums.com/political/creation-intelligent-design-vs-evolution/12239-evidence-creation-complexity-life.html",411774,130
"1-8549_132_130_1",8549,1,"2010-09-08 19:48:00",237,1033,411862,"2010-09-08 11:43:00",380818,120,130,"One example?

Oh no caught me without a collective! In my world truth does not flow from mere authority.
Or should I say it does but authority is derived from reason.

How many will it take :p

I would not like to be compared to accipiter either, but in this case you are both trying to categorize me for purposes I am absolutely sure are irrelevant.

I don't care for the spin but that is what happened.
All evidence points to the fact that the universe is not static and therefore not eternal.
This reconnects perfectly (and annoyingly for many) with the philosopher Aristotle's concept of a prime mover.",380816,1,8549,1,"The overwhelming preponderance of evidence says no, but you say yes?
Who's on your side, god?
Could show me other people who believe what you do?
Links to information supporting your the universe has a center argument perhaps?","http://www.4forums.com/political/creation-intelligent-design-vs-evolution/12239-evidence-creation-complexity-life.html",411811,132
"1-8549_133_132_1",8549,1,"2010-09-09 03:47:00",1033,237,411866,"2010-09-08 19:48:00",380819,4,132,"Just one. :)",380818,1,8549,1,"One example?

Oh no caught me without a collective! In my world truth does not flow from mere authority.
Or should I say it does but authority is derived from reason.

How many will it take :p

I would not like to be compared to accipiter either, but in this case you are both trying to categorize me for purposes I am absolutely sure are irrelevant.

I don't care for the spin but that is what happened.
All evidence points to the fact that the universe is not static and therefore not eternal.
This reconnects perfectly (and annoyingly for many) with the philosopher Aristotle's concept of a prime mover.","http://www.4forums.com/political/creation-intelligent-design-vs-evolution/12239-evidence-creation-complexity-life.html",411862,133
"1-8549_134_133_1",8549,1,"2010-09-09 10:18:00",237,1033,411889,"2010-09-09 03:47:00",380820,13,133,"http://www.4forums.com/political/cre...tml#post402394
Rereading that thread I am once again shocked at your hypocrisy :)",380819,1,8549,1,"Just one. :)","http://www.4forums.com/political/creation-intelligent-design-vs-evolution/12239-evidence-creation-complexity-life.html",411866,134
"1-8549_135_134_1",8549,1,"2010-09-09 10:35:00",1033,237,411892,"2010-09-09 10:18:00",380821,3,134,"Your weird.",380820,1,8549,1,"http://www.4forums.com/political/cre...tml#post402394
Rereading that thread I am once again shocked at your hypocrisy :)","http://www.4forums.com/political/creation-intelligent-design-vs-evolution/12239-evidence-creation-complexity-life.html",411889,135
"1-8549_136_135_1",8549,1,"2010-09-09 10:47:00",237,1033,411893,"2010-09-09 10:35:00",380822,5,135,"Accipiter at his best:

",380821,1,8549,1,"Your weird.","http://www.4forums.com/political/creation-intelligent-design-vs-evolution/12239-evidence-creation-complexity-life.html",411892,136
"1-8549_118_109_2",8549,1,"2010-09-06 14:10:00",1443,237,411696,"2010-09-05 13:48:00",380804,32,109,"I don't believe that. Not that you do not try, but (and I think you will agree) because it is impossible for anyone to be absolutely unbiased.",380795,2,8549,1,"A 'radical' (as in no-compromise)objectivist, liberal (i.e. believing in liberty).","http://www.4forums.com/political/creation-intelligent-design-vs-evolution/12239-evidence-creation-complexity-life.html",411616,118
"1-8549_120_118_2",8549,1,"2010-09-06 17:25:00",237,1443,411711,"2010-09-06 14:10:00",380806,4,118,"Define absolutely unbiased.",380804,2,8549,1,"I don't believe that. Not that you do not try, but (and I think you will agree) because it is impossible for anyone to be absolutely unbiased.","http://www.4forums.com/political/creation-intelligent-design-vs-evolution/12239-evidence-creation-complexity-life.html",411696,120
"1-8549_126_120_2",8549,1,"2010-09-07 13:31:00",1443,237,411761,"2010-09-06 17:25:00",380812,62,120,"Looking at evidence with absolutely zero preconcieved notions.
I am not saying that getting close to it is not possible.
I think the only time it can ever happen is after someone is shown that all they know is wrong so they are a blank (slightly depressed) slate.
It was never meant to be an insult.",380806,2,8549,1,"Define absolutely unbiased.","http://www.4forums.com/political/creation-intelligent-design-vs-evolution/12239-evidence-creation-complexity-life.html",411711,126
"1-8549_129_126_2",8549,1,"2010-09-07 17:17:00",237,1443,411774,"2010-09-07 13:31:00",380815,152,126,"Well yes, that is impossible because we will always look for similarities to knowledge we already posses.
If you had said it meant the ability to come to a conclusion absolutely independent of emotion I have done that and I know it is possible.

I didn't think you did, you'll know if I think something is an insult because I will either ignore it, make a snide comment, or simply type ad hominem in bold face.

Funny that two evolutionist can't even agree on what to believe. emoticonXRolleyes

Yes

Bang GOTCHA! stop wasting time :)
Now that you have spent yourself on that little effort do you mind if I go back and look up the thing you said which actually was false and revealed you were an intellectual fraud?

Or trying to argue about yogurt, without actually tasting milk....",380812,2,8549,1,"Looking at evidence with absolutely zero preconcieved notions.
I am not saying that getting close to it is not possible.
I think the only time it can ever happen is after someone is shown that all they know is wrong so they are a blank (slightly depressed) slate.
It was never meant to be an insult.","http://www.4forums.com/political/creation-intelligent-design-vs-evolution/12239-evidence-creation-complexity-life.html",411761,129
"1-8549_131_129_2",8549,1,"2010-09-08 12:12:00",1443,237,411818,"2010-09-07 17:17:00",380817,116,129,"That is what I meant. So we agree. :)

I read the other comments so I know that this is a play off of what Accipter said, but I would rather not be tossed in with him/her.
-Thanks

The fact that the ""Big Bang"" theory exists. Scientists wanted to deny the fact that all things moved away from a single point (this is around Einstein's time) because they wanted to believe that all things had existed for eternity. After too much evidence (mathematical) piled on they were forced to propose new theories (such as the occilating universe theory).",380815,2,8549,1,"Well yes, that is impossible because we will always look for similarities to knowledge we already posses.
If you had said it meant the ability to come to a conclusion absolutely independent of emotion I have done that and I know it is possible.

I didn't think you did, you'll know if I think something is an insult because I will either ignore it, make a snide comment, or simply type ad hominem in bold face.

Funny that two evolutionist can't even agree on what to believe. emoticonXRolleyes

Yes

Bang GOTCHA! stop wasting time :)
Now that you have spent yourself on that little effort do you mind if I go back and look up the thing you said which actually was false and revealed you were an intellectual fraud?

Or trying to argue about yogurt, without actually tasting milk....","http://www.4forums.com/political/creation-intelligent-design-vs-evolution/12239-evidence-creation-complexity-life.html",411774,131
"1-8549_176_175_3",8549,1,"2010-09-16 20:49:00",237,1443,412642,"2010-09-16 13:24:00",380862,110,175,"In the same place?

???

A mountain being formed after the fossils were means you don't need to push them up it.

Oh I see, the fossils that were not possibly buried in the great flood were buried before it?

That is apparent.

You couldn't have any support for that except the exact same inference that paleontologists use on dinosaurs on the premise of common descent.

Yes we do, the animal is question was not significantly larger than a crocodile.
and the blood vessel evidence was conclusive, far more than the inference made about their evolutionary connections with cold-blooded reptiles.",380861,3,8549,1,"Not meant as one. It was more like a comment.
(I looked this up and realized that it was an ongoing pun in ""a pup named scooby doo""!)
You are missing the nature of the evidence.

Or inherited them from different ancestors who got the same viruses.

If 2 things match and 2 things are ""similar"", it is not difficult to tell which ones are the same.

A fossil being pushed up a mountain by force of a tectonic plate would not stay intact.

Are you saying that a foot print above a fossil is evidence? And the archaeologists float over the ground as they uncover it?
The instant that material is compacted around a fresh body and there is an adequate amount on top, it has the potential for fossilization.
Thought it was more like 10,000 years?

Certainly not species eliminating, but there is no difficulty in saying a flood would kill many of the ""advanced"" animals in the area.

Decay is not the same for all isotopes.

Elephants are mammals so they have more body fat.

Of course we do not have too many living cold blooded animals of such size to check the proportion.

*sigh* Apparently not...","http://www.4forums.com/political/creation-intelligent-design-vs-evolution/12239-evidence-creation-complexity-life.html",412587,176
"1-8549_177_176_3",8549,1,"2010-09-21 10:56:00",1443,237,413177,"2010-09-16 20:49:00",380863,156,176,"yes.

A match and a similarity are two very different things and cannot be compared in this instance.

does it teleport? It must get up there some way because you say there was no great flood.

Do you know how fossils are formed? A ""fossil"" of a foot print is not and cannot be possible. Now if a person steps in mud and it dries it is not a fossil; it also could have occured at any time. I see them at the park all the time here.

Comical, but untrue. You see, we can see my claim at work (elephant begets elephant begets elephant begets elephant begets elephant begets elephant etc...), while evolution's claim is poor speculation (monkey begets some-wierd-in-between-thing begets man (or something similar)).

Again, are all hearts the same?",380862,3,8549,1,"In the same place?

???

A mountain being formed after the fossils were means you don't need to push them up it.

Oh I see, the fossils that were not possibly buried in the great flood were buried before it?

That is apparent.

You couldn't have any support for that except the exact same inference that paleontologists use on dinosaurs on the premise of common descent.

Yes we do, the animal is question was not significantly larger than a crocodile.
and the blood vessel evidence was conclusive, far more than the inference made about their evolutionary connections with cold-blooded reptiles.","http://www.4forums.com/political/creation-intelligent-design-vs-evolution/12239-evidence-creation-complexity-life.html",412642,177
"1-8549_178_177_3",8549,1,"2010-09-21 19:58:00",237,1443,413274,"2010-09-21 10:56:00",380864,92,177,"Do you realize the odds of that happening?

It got up there because it was raised as the mountain was raised. The mountain did not form and then have the fossils pushed up it, the fossils were always on top as the altitude of the earth they were in was raised.

I don't remember saying fossil footprint but if I did it was sloppy short hand.

Really, what evidence do you have that dinosaurs had less body fat than mammals?

I already answered no.",380863,3,8549,1,"yes.

A match and a similarity are two very different things and cannot be compared in this instance.

does it teleport? It must get up there some way because you say there was no great flood.

Do you know how fossils are formed? A ""fossil"" of a foot print is not and cannot be possible. Now if a person steps in mud and it dries it is not a fossil; it also could have occured at any time. I see them at the park all the time here.

Comical, but untrue. You see, we can see my claim at work (elephant begets elephant begets elephant begets elephant begets elephant begets elephant etc...), while evolution's claim is poor speculation (monkey begets some-wierd-in-between-thing begets man (or something similar)).

Again, are all hearts the same?","http://www.4forums.com/political/creation-intelligent-design-vs-evolution/12239-evidence-creation-complexity-life.html",413177,178
"1-8549_183_178_3",8549,1,"2010-09-22 12:47:00",1443,237,413352,"2010-09-21 19:58:00",380869,80,178,"Do you realize the odds for life evolving? When you claim those to have worked out, my claim is certain.

But the mountain was raised by force. This force is exerted on the area that the fossil is. It is not so structurally sound as to take that and not collapse.

Reptiles do not have very much. (unless you would say science cannot prove it)

Then how is it evidence?",380864,3,8549,1,"Do you realize the odds of that happening?

It got up there because it was raised as the mountain was raised. The mountain did not form and then have the fossils pushed up it, the fossils were always on top as the altitude of the earth they were in was raised.

I don't remember saying fossil footprint but if I did it was sloppy short hand.

Really, what evidence do you have that dinosaurs had less body fat than mammals?

I already answered no.","http://www.4forums.com/political/creation-intelligent-design-vs-evolution/12239-evidence-creation-complexity-life.html",413274,183
"1-8549_191_183_3",8549,1,"2010-09-22 15:34:00",237,1443,413407,"2010-09-22 12:47:00",380877,216,183,"I was thinking they called that 'petrified', I knew that fossils were not actual bones but for some reason I was thinking that it was linked to biological remains.

If you mean spontaneous generation (unguided mutation) it's practically impossible.
The unlikelihood is several times greater than needed before an event is considered impossible.
That however has absolutely nothing to do with my question or the invalidity of claiming coincidence in the case of ERV's

Do you see large rocks on mountains fartingle? How did they get up there without being crushed?
Oh that's right rocks are hard and being lifted up through the air at a miniscule fraction of a nanometer per hour is not all that stressful.

So you look at their fossils and on the similarities with reptiles you infer that the parts of the body you cannot investigate were similar to reptiles?

All hearts do not need to be the same for some to be similar, and indeed for their shapes to have a very specific implication.
If a doctor looked at a heart scan noticed a tumor but said to himself ""are all hearts the same? well than how is this abnormality any evidence?""",380869,3,8549,1,"Do you realize the odds for life evolving? When you claim those to have worked out, my claim is certain.

But the mountain was raised by force. This force is exerted on the area that the fossil is. It is not so structurally sound as to take that and not collapse.

Reptiles do not have very much. (unless you would say science cannot prove it)

Then how is it evidence?","http://www.4forums.com/political/creation-intelligent-design-vs-evolution/12239-evidence-creation-complexity-life.html",413352,191
"1-8549_197_191_3",8549,1,"2010-09-23 12:24:00",1443,237,413486,"2010-09-22 15:34:00",380883,147,191,"You are again neglecting the material start of the first life.
If you accept the chances of evolution as obviously possible, then to say that humans and apes share ERVs without common ancestry is simple because it is far more likely.

Do these rocks have large, abnormal empty spaces inside of them?
They are not just being lifted through the air. It is like this: ___ --> /\ not ___ --> _-'-_ 

On more than just the size of an organ. Otherwise scientists have made up most of what we ""know"" about dinosaurs.

That is looking at a similarity in the same species. They do not have any of the supposedly warm blooded dinosaurs to check if they are right so it is all a shot in the dark.",380877,3,8549,1,"I was thinking they called that 'petrified', I knew that fossils were not actual bones but for some reason I was thinking that it was linked to biological remains.

If you mean spontaneous generation (unguided mutation) it's practically impossible.
The unlikelihood is several times greater than needed before an event is considered impossible.
That however has absolutely nothing to do with my question or the invalidity of claiming coincidence in the case of ERV's

Do you see large rocks on mountains fartingle? How did they get up there without being crushed?
Oh that's right rocks are hard and being lifted up through the air at a miniscule fraction of a nanometer per hour is not all that stressful.

So you look at their fossils and on the similarities with reptiles you infer that the parts of the body you cannot investigate were similar to reptiles?

All hearts do not need to be the same for some to be similar, and indeed for their shapes to have a very specific implication.
If a doctor looked at a heart scan noticed a tumor but said to himself ""are all hearts the same? well than how is this abnormality any evidence?""","http://www.4forums.com/political/creation-intelligent-design-vs-evolution/12239-evidence-creation-complexity-life.html",413407,197
"1-8549_198_197_3",8549,1,"2010-09-23 19:09:00",237,1443,413548,"2010-09-23 12:24:00",380884,156,197,"It wasn't rock when it was stepped on.

You are neglecting that we were not discussing the material start of the first life in that strand of the argument and you changed the subject, which is equivalent to a red herring.

Perhaps but it is still practically impossible.
Your attack on ERV's is invalid.
Common descent is a fact.
I do not, however; miss the irony of using an appeal to odds against evolutionist premises emoticonXHoho

The rocks that are bearing the stress are not relatively 'surface' sedimentary rock.

Can you please answer the question, yes or no?

Then so is saying dinosaurs are cold-blooded based on the similarity to reptiles.
Further the similarities between warm blooded and cold blooded creatures over a large array of body shapes and sizes still indicates that one could tell the difference by the shape.",380883,3,8549,1,"You are again neglecting the material start of the first life.
If you accept the chances of evolution as obviously possible, then to say that humans and apes share ERVs without common ancestry is simple because it is far more likely.

Do these rocks have large, abnormal empty spaces inside of them?
They are not just being lifted through the air. It is like this: ___ --> /\ not ___ --> _-'-_ 

On more than just the size of an organ. Otherwise scientists have made up most of what we ""know"" about dinosaurs.

That is looking at a similarity in the same species. They do not have any of the supposedly warm blooded dinosaurs to check if they are right so it is all a shot in the dark.","http://www.4forums.com/political/creation-intelligent-design-vs-evolution/12239-evidence-creation-complexity-life.html",413486,198
"1-8549_201_198_3",8549,1,"2010-09-24 13:00:00",1443,237,413584,"2010-09-23 19:09:00",380887,208,198,"So you are saying it sat around undisturbed so long that the ground hardened into stone while preserving the shape?

I forgot that can't bring up certain points with certain people. (even though I started the thread on stating positions...)

Have they even done exact studies as too how often an ERV is planted and how many variations there are? If you find something that says yes, did anyone check the results or repaet the expirament?
Again with the ""it's a fact because someone told me so"" arguement!!! Just because someone said that ERVs prove common descent does not make them right.

You side-stepped my point about the cavities that fossils create.

Technically, I inferred the answer. I then just moved on to specify points.

I can never say anything I am not sure of is a fact (unlike an evolutionist). I cannot prove what they were like because I have no living specimen. 
If the theory was based on body shape and all such things, then perhaps you would have a point. Only problem is that it is based on the heart only, correct?",380884,3,8549,1,"It wasn't rock when it was stepped on.

You are neglecting that we were not discussing the material start of the first life in that strand of the argument and you changed the subject, which is equivalent to a red herring.

Perhaps but it is still practically impossible.
Your attack on ERV's is invalid.
Common descent is a fact.
I do not, however; miss the irony of using an appeal to odds against evolutionist premises emoticonXHoho

The rocks that are bearing the stress are not relatively 'surface' sedimentary rock.

Can you please answer the question, yes or no?

Then so is saying dinosaurs are cold-blooded based on the similarity to reptiles.
Further the similarities between warm blooded and cold blooded creatures over a large array of body shapes and sizes still indicates that one could tell the difference by the shape.","http://www.4forums.com/political/creation-intelligent-design-vs-evolution/12239-evidence-creation-complexity-life.html",413548,201
"1-8549_404_403_4",8549,1,"2010-10-15 21:53:00",237,1648,415088,"2010-10-15 21:39:00",381090,66,403,"If it was selected for it was a net benefit. (Yes same rule I supposedly made up)
What kind of sick college are you at where you get to escape the definition of terms?

Through a third element you mean?

Why would it stabilize to a neutral mutation? On what basis or standard would anything be selected at all?",381089,4,8549,1,"except they were selected. there you go again making up rules that dont actually exist. body size like the example of the cuttlefish is a feature that can either be selected for or against, and it happened to be selected for in this case.
neutrality is sometimes selected. if a neutral mutation arises, sometimes stabalizing selection tends to focus in on the population until that feature is inherited by everyone. this is just sometimes, it often doesnt work that way, but sometimes. in both the examples i gave, this appears to have happened.","http://www.4forums.com/political/creation-intelligent-design-vs-evolution/12239-evidence-creation-complexity-life.html",415085,404
"1-8549_405_404_4",8549,1,"2010-10-15 22:11:00",1648,237,415089,"2010-10-15 21:53:00",381091,34,404,"what do you mean third element?
why would a neutral mutation increase in frequency? i dont know. but it does, and lots of animals have fully evolved neutral features.",381090,4,8549,1,"If it was selected for it was a net benefit. (Yes same rule I supposedly made up)
What kind of sick college are you at where you get to escape the definition of terms?

Through a third element you mean?

Why would it stabilize to a neutral mutation? On what basis or standard would anything be selected at all?","http://www.4forums.com/political/creation-intelligent-design-vs-evolution/12239-evidence-creation-complexity-life.html",415088,405
"1-8549_406_405_4",8549,1,"2010-10-16 09:50:00",237,1648,415104,"2010-10-15 22:11:00",381092,27,405,"Well you do realize that a beneficial mutation cannot be selected by itself, it comes as a package with the rest of the chromosomes right?",381091,4,8549,1,"what do you mean third element?
why would a neutral mutation increase in frequency? i dont know. but it does, and lots of animals have fully evolved neutral features.","http://www.4forums.com/political/creation-intelligent-design-vs-evolution/12239-evidence-creation-complexity-life.html",415089,406
"1-8549_407_406_4",8549,1,"2010-10-16 10:57:00",1648,237,415106,"2010-10-16 09:50:00",381093,74,406,"yes, and that can lead to negative traits. what im saying with the cuttlefish and the mole rat is there are no benefits that could produce these 'costs'. both cuttlefish size and mole rat's eyes are selectable traits, not just sidecars to beneficial traits. natural selection will either select for or against them, and in these cases, they were selected for for whatever reason.",381092,4,8549,1,"Well you do realize that a beneficial mutation cannot be selected by itself, it comes as a package with the rest of the chromosomes right?","http://www.4forums.com/political/creation-intelligent-design-vs-evolution/12239-evidence-creation-complexity-life.html",415104,407
"1-8549_408_407_4",8549,1,"2010-10-16 11:44:00",237,1648,415107,"2010-10-16 10:57:00",381094,112,407,"This attitude is the root of your problem when trying to understand IC.
You think that you can take something that is conceptually impossible and prove it happened.
Does it not enter your mind that if it is conceptually impossible there is another reason why it happened?
How can you be sure that there was not a net benefit in the selection that caused blindness in moles or lack of camouflage in cuttlefish?
What gives you the arrogance to think you can just contradict the definition of natural selection and claim it no longer selects for fitness but now for what ever the hell you need to?",381093,4,8549,1,"yes, and that can lead to negative traits. what im saying with the cuttlefish and the mole rat is there are no benefits that could produce these 'costs'. both cuttlefish size and mole rat's eyes are selectable traits, not just sidecars to beneficial traits. natural selection will either select for or against them, and in these cases, they were selected for for whatever reason.","http://www.4forums.com/political/creation-intelligent-design-vs-evolution/12239-evidence-creation-complexity-life.html",415106,408
"1-8549_409_408_4",8549,1,"2010-10-16 13:05:00",1648,237,415109,"2010-10-16 11:44:00",381095,112,408,"Natural Selection - Biology Encyclopedia - body, examples, human, process, organisms, life, specific, energy, bacteria

a common misconception is that natural selection means ""survival of the fittest"". its displayed in all the TV programs about evolution. however, this is BS. reproductive success is the only thing that matters in natural selection, even if the modifications to do so are not beneficial to the survival of the organism. the term ""fitness"" that youve used deals only with reproductive success. i have not bypassed the definition of natural selection, ive used it correctly.",381094,4,8549,1,"This attitude is the root of your problem when trying to understand IC.
You think that you can take something that is conceptually impossible and prove it happened.
Does it not enter your mind that if it is conceptually impossible there is another reason why it happened?
How can you be sure that there was not a net benefit in the selection that caused blindness in moles or lack of camouflage in cuttlefish?
What gives you the arrogance to think you can just contradict the definition of natural selection and claim it no longer selects for fitness but now for what ever the hell you need to?","http://www.4forums.com/political/creation-intelligent-design-vs-evolution/12239-evidence-creation-complexity-life.html",415107,409
"1-8549_411_409_4",8549,1,"2010-10-16 13:31:00",237,1648,415111,"2010-10-16 13:05:00",381097,16,409,"You can't escape.
You know I have no misconception, answer for your mistake.",381095,4,8549,1,"Natural Selection - Biology Encyclopedia - body, examples, human, process, organisms, life, specific, energy, bacteria

a common misconception is that natural selection means ""survival of the fittest"". its displayed in all the TV programs about evolution. however, this is BS. reproductive success is the only thing that matters in natural selection, even if the modifications to do so are not beneficial to the survival of the organism. the term ""fitness"" that youve used deals only with reproductive success. i have not bypassed the definition of natural selection, ive used it correctly.","http://www.4forums.com/political/creation-intelligent-design-vs-evolution/12239-evidence-creation-complexity-life.html",415109,411
"1-8549_413_411_4",8549,1,"2010-10-16 13:48:00",1648,237,415113,"2010-10-16 13:31:00",381099,16,411,"conceptually impossible to have a neutral mutation selected for? it is not conceptually impossible.",381097,4,8549,1,"You can't escape.
You know I have no misconception, answer for your mistake.","http://www.4forums.com/political/creation-intelligent-design-vs-evolution/12239-evidence-creation-complexity-life.html",415111,413
"1-8549_160_150_5",8549,1,"2010-09-13 12:43:00",1443,746,412273,"2010-09-11 07:01:00",380846,17,150,"""Survival of the fittest"" right? or rather ""death to the weak""?",380836,5,8549,1,"Why do evolution sceptics insist that evolution must lead to an 'improvement' to the species?
Are all animals today superior to all the animals a million years ago...or should they be?","http://www.4forums.com/political/creation-intelligent-design-vs-evolution/12239-evidence-creation-complexity-life.html",412104,160
"1-8549_161_160_5",8549,1,"2010-09-13 13:22:00",746,1443,412276,"2010-09-13 12:43:00",380847,50,160,"Its not quite survival of the fittest..is more ' advantage to the best adapted'.
The same slight attribute from the mutated dna may in other enviroments be a liabilty and so death to the weak or better' disadvantage to the less well adapted'.",380846,5,8549,1,"""Survival of the fittest"" right? or rather ""death to the weak""?","http://www.4forums.com/political/creation-intelligent-design-vs-evolution/12239-evidence-creation-complexity-life.html",412273,161
"1-8549_162_161_5",8549,1,"2010-09-13 13:31:00",1443,746,412279,"2010-09-13 13:22:00",380848,29,161,"So It still must be an improvement, even if it is based on its enviornment. (it must also be a whole lot of luck).",380847,5,8549,1,"Its not quite survival of the fittest..is more ' advantage to the best adapted'.
The same slight attribute from the mutated dna may in other enviroments be a liabilty and so death to the weak or better' disadvantage to the less well adapted'.","http://www.4forums.com/political/creation-intelligent-design-vs-evolution/12239-evidence-creation-complexity-life.html",412276,162
"1-8549_163_162_5",8549,1,"2010-09-13 13:37:00",746,1443,412281,"2010-09-13 13:31:00",380849,69,162,"Its an improvement if it increases you chances to pass on your dna but a liability if it doesnt.
An individual who is a little bolder than the rest of the group may get a little more food or more of the right food..or get the girl when other bashful males procrastinate.....he may get eaten by a predator because he was too bold.",380848,5,8549,1,"So It still must be an improvement, even if it is based on its enviornment. (it must also be a whole lot of luck).","http://www.4forums.com/political/creation-intelligent-design-vs-evolution/12239-evidence-creation-complexity-life.html",412279,163
"1-8549_164_163_5",8549,1,"2010-09-13 13:47:00",1443,746,412285,"2010-09-13 13:37:00",380850,29,163,"So there is nothing that can be called an absolute improvement?
Well that certainly drops the chances of evolution producing what we see here today even further.",380849,5,8549,1,"Its an improvement if it increases you chances to pass on your dna but a liability if it doesnt.
An individual who is a little bolder than the rest of the group may get a little more food or more of the right food..or get the girl when other bashful males procrastinate.....he may get eaten by a predator because he was too bold.","http://www.4forums.com/political/creation-intelligent-design-vs-evolution/12239-evidence-creation-complexity-life.html",412281,164
"1-8549_165_164_5",8549,1,"2010-09-13 13:57:00",746,1443,412286,"2010-09-13 13:47:00",380851,98,164,"There does not need an 'absolute improvement' as the enviroment changes all the time.An over extended 'improvement 'will eventually become a liability.
It is because of this that we ARE here today.
Also a mutated gene may give an advantage in future generations ie fat people today have a disadvantage because they are prone to illness.
In other enviroments those people will live while the lithe fit people who cannot accumulate a nice fat layer will die.
Hence survival of the 'fittest' is not correct.",380850,5,8549,1,"So there is nothing that can be called an absolute improvement?
Well that certainly drops the chances of evolution producing what we see here today even further.","http://www.4forums.com/political/creation-intelligent-design-vs-evolution/12239-evidence-creation-complexity-life.html",412285,165
"1-8549_227_224_6",8549,1,"2010-09-28 04:56:00",1209,1443,413867,"2010-09-27 12:56:00",380913,124,224,"Oh, certainly. All sorts of scientists ""get paid"" by creationist organizations to ""make up"" claims about evolution's falsity that uneducated people will fall for. Just as all sorts of scientists ""get paid"" by oil companies and oil industry groups to ""make up"" claims that global warming isn't happening, or has no connection to fossil fuels.
That's what you meant, right? And of course, making money totally invalidates whatever they might say.
This must be that ""common sense"" at work, I suppose. Apparently falling for ad hominem argumentation is part of it; it's certainly a common mistake, if not exactly sensible.",380910,6,8549,1,"Oh, I see now! You are sure! I am now convinced...
That is zero proof.

And absolutely all variations are accounted for?

Again you must look at how often ERVs are left.
What I am trying to point out here is that the factors are not really stated and so people trust an article on the internet without solid proof. Such a thing certainly does not make common descent a fact.

There existance is a fact, but their implication is not.

Yes I was. I apologise if I did not make that clear.

link?

I never said that anything was a good comparison. I only said they used more than a single organ.

There was a segment on the news very recently about scientists making things up to get paid.","http://www.4forums.com/political/creation-intelligent-design-vs-evolution/12239-evidence-creation-complexity-life.html",413802,227
"1-8549_229_227_6",8549,1,"2010-09-28 12:48:00",1443,1209,413906,"2010-09-28 04:56:00",380915,68,227,"*sigh* Another tangent...
When did I ever say such a thing? I said that money is motive for people to lie. Scientists are no exception.
I was also talking about those who have been proven to have lied. Those you mentioned have not been proven so, no matter how good it would make you feel to think you are right.",380913,6,8549,1,"Oh, certainly. All sorts of scientists ""get paid"" by creationist organizations to ""make up"" claims about evolution's falsity that uneducated people will fall for. Just as all sorts of scientists ""get paid"" by oil companies and oil industry groups to ""make up"" claims that global warming isn't happening, or has no connection to fossil fuels.
That's what you meant, right? And of course, making money totally invalidates whatever they might say.
This must be that ""common sense"" at work, I suppose. Apparently falling for ad hominem argumentation is part of it; it's certainly a common mistake, if not exactly sensible.","http://www.4forums.com/political/creation-intelligent-design-vs-evolution/12239-evidence-creation-complexity-life.html",413867,229
"1-8549_238_229_6",8549,1,"2010-09-29 05:39:00",1209,1443,413999,"2010-09-28 12:48:00",380924,80,229,"All of ""creation science"" is ""made up."" I wouldn't call it lying, because I think that in most cases, they sincerely believe what they are saying. Rather, I'd call it delusional.
(I will make exceptions for Philip Johnson, who seems to revel in dirty lawyer tricks, and for any ID-creationist who denies that the designer s/he has in mind is the Judeo-Christian God.)",380915,6,8549,1,"*sigh* Another tangent...
When did I ever say such a thing? I said that money is motive for people to lie. Scientists are no exception.
I was also talking about those who have been proven to have lied. Those you mentioned have not been proven so, no matter how good it would make you feel to think you are right.","http://www.4forums.com/political/creation-intelligent-design-vs-evolution/12239-evidence-creation-complexity-life.html",413906,238
"1-8549_241_238_6",8549,1,"2010-09-29 12:57:00",1443,1209,414033,"2010-09-29 05:39:00",380927,31,238,"So you say. Though all of your intense study on the subject? no.

Congratulations on calling it things! So when do we get past the opinions?",380924,6,8549,1,"All of ""creation science"" is ""made up."" I wouldn't call it lying, because I think that in most cases, they sincerely believe what they are saying. Rather, I'd call it delusional.
(I will make exceptions for Philip Johnson, who seems to revel in dirty lawyer tricks, and for any ID-creationist who denies that the designer s/he has in mind is the Judeo-Christian God.)","http://www.4forums.com/political/creation-intelligent-design-vs-evolution/12239-evidence-creation-complexity-life.html",413999,241
"1-8549_262_241_6",8549,1,"2010-10-02 10:04:00",1209,1443,414249,"2010-09-29 12:57:00",380948,166,241,"That's right! Through my study of the subject. I realize that you didn't see it happen, so according to your own standards for knowledge, my claim is false. Nonetheless, not everyone is an epistemological narcissist.

Pot, meet kettle. You have not shown that any claim made by any evolutionary biologist is false. You have not shown that any argument made by any evolutionary biologist is invalid. Moreover, even if you had shown this in any individual case -- evolutionary biologists are human, of course, and in principle not less fallible than the rest of us -- that would be a far cry from showing a general problem with the claims or arguments of evolutionary biology.
You want more than opinions and labels? Fine. Provide something more yourself. Until you do so, I am quite happy to meet you on the ground you yourself are staking out.",380927,6,8549,1,"Soyou say. Though all of your intense study on the subject? no.","http://www.4forums.com/political/creation-intelligent-design-vs-evolution/12239-evidence-creation-complexity-life.html",414033,262
