"worker","X_UMBCa_","Id_AJPQEZBVJXVE9","Id_AEISWC78MXIR5","Id_ADUJUZANFOWKW","Id_A4WSGXF5IARBH","Id_A3HHOLSHAYDI65","Id_A3BL2ZEODD79AZ","Id_A312KFQ78WB3A4","Id_A2YFPO0N4GIS25","Id_A2W1C5PDHUF25O","Id_A2T309PVXSZ3YK","Id_A2S96ZZ70YFPSK","Id_A2RSBMK7HWNXNI","Id_A2BLQ1GVEHJR8T","Id_A264067K4VJPMA","Id_A1YJKLVJW1FE33","Id_A1SWV4X4PD25S1","Id_A1OFS99W7B2RET","Id_A1FBBY2JJYRMRI"
"Id_A1FBBY2JJYRMRI","0.4231985979","0.5375091921","0.5606516074","0.4514469491","0.673933233","0.5212578392","0.5383891181","0.5303536015","0.61609316","0.6054688684","0.287133932","0.5381766869","0.5976791985","0.6766097478","0.3424326913","0.5786131105","0.6756285914","0.6557156527","1"
"Id_A1YJKLVJW1FE33","0.3996632957","0.7723270074","0.6825396825","0.6783164306","0.6779076807","0.7083446998","0.5887436425","0.4680205412","0.6235010513","0.4834182583","0.15430335","NA","0.4451642023","0.6001199286","0.410646773","1","0.8768551869","0.1902251584","0.5786131105"
"","","","","","","","","","","","","","","","","","","",""
"Id_A1OFS99W7B2RET","0.3103645586","NA","NA","NA","0.2005561574","0","0.7124286903","0.4683964312","0.5839647045","0.3756212582","0.7205766921","NA","0.6370589893","0.7373783058","0.3815886487","0.1902251584","0.9421210844","1","0.6557156527"
"Id_A2YFPO0N4GIS25","0.3932281538","0.7209745436","0.3803090752","0.4902473715","0.5367177892","0.5868157255","0.5089040474","0.545180027","1","0.5182374288","0.5220343719","0.7860842887","0.484417698","0.6525363264","0.4060801136","0.6235010513","0.5629210757","0.5839647045","0.61609316"
"Id_ADUJUZANFOWKW","0.6165866247","NA","0.347826087","1","0.5151662832","0.3514509732","0.0994268406","0.2613028129","0.4902473715","0.5703586973","NA","NA","0.5800729211","0.5452019936","NA","0.6783164306","0.3100868365","NA","0.4514469491"
"Id_A312KFQ78WB3A4","0.2494227507","0.7569095022","0.4265471567","0.2613028129","0.4479263561","0.4389899844","0.3413061169","1","0.545180027","0.564474413","0.6465516451","0.3748190432","0.514890769","0.5972185667","0.2786196787","0.4680205412","0.6393104877","0.4683964312","0.5303536015"
"Id_A264067K4VJPMA","0.4048280673","0.552149837","0.1863389981","NA","0.9782797402","0.3025609956","0.4603434057","0.2786196787","0.4060801136","0.5920684633","NA","NA","0.433669185","0.4329520307","1","0.410646773","0.2320455633","0.3815886487","0.3424326913"
"","","","","","","","","","","","","","","","","","","",""
"","","","","","","","","","","","","","","","","","","",""
"Id_A4WSGXF5IARBH","0.3785625269","NA","NA","0.5151662832","1","0.5669467095","-0.0301831639","0.4479263561","0.5367177892","0.3450327797","-0.0384615385","NA","0.4608642798","0.6287100183","0.9782797402","0.6779076807","NA","0.2005561574","0.673933233"
"Id_A2RSBMK7HWNXNI","0.4202679755","0.7846713215","-0.3227486122","0.5800729211","0.4608642798","0.6207981854","0.4051609667","0.514890769","0.484417698","0.6325607688","NA","NA","1","0.6290672721","0.433669185","0.4451642023","0.6508140266","0.6370589893","0.5976791985"
"Id_A3HHOLSHAYDI65","0.3359274336","0.6963106238","0.7385489459","0.3514509732","0.5669467095","1","0.1516196087","0.4389899844","0.5868157255","-0.1329744714","0.6201736729","NA","0.6207981854","0.6825973249","0.3025609956","0.7083446998","NA","0","0.5212578392"
"Id_A2T309PVXSZ3YK","0.4282519026","-0.1572427255","NA","NA","-0.0384615385","0.6201736729","0.7328442555","0.6465516451","0.5220343719","0.7518094116","1","NA","NA","0.4684573056","NA","0.15430335","NA","0.7205766921","0.287133932"
"Id_A1SWV4X4PD25S1","0.3960948765","NA","NA","0.3100868365","NA","NA","0.5334285083","0.6393104877","0.5629210757","0.6718425057","NA","NA","0.6508140266","0.5140271949","0.2320455633","0.8768551869","1","0.9421210844","0.6756285914"
"Id_A2S96ZZ70YFPSK","0.3984377146","NA","NA","NA","NA","NA","-0.0800640769","0.3748190432","0.7860842887","0.9063269672","NA","1","NA","0.3806821419","NA","NA","NA","NA","0.5381766869"
"","","","","","","","","","","","","","","","","","","",""
"Id_AEISWC78MXIR5","0.3485072655","NA","1","0.347826087","NA","0.7385489459","0.8682027439","0.4265471567","0.3803090752","0.1388513764","NA","NA","-0.3227486122","0.6731885445","0.1863389981","0.6825396825","NA","NA","0.5606516074"
"","","","","","","","","","","","","","","","","","","",""
"","","","","","","","","","","","","","","","","","","",""
"","","","","","","","","","","","","","","","","","","",""
"Id_A3BL2ZEODD79AZ","0.3887273647","0.4082482905","0.8682027439","0.0994268406","-0.0301831639","0.1516196087","1","0.3413061169","0.5089040474","0.4908690486","0.7328442555","-0.0800640769","0.4051609667","0.5068625354","0.4603434057","0.5887436425","0.5334285083","0.7124286903","0.5383891181"
"","","","","","","","","","","","","","","","","","","",""
"Id_AJPQEZBVJXVE9","0.5308371868","1","NA","NA","NA","0.6963106238","0.4082482905","0.7569095022","0.7209745436","0.816306333","-0.1572427255","NA","0.7846713215","0.6908579518","0.552149837","0.7723270074","NA","NA","0.5375091921"
"","","","","","","","","","","","","","","","","","","",""
"","","","","","","","","","","","","","","","","","","",""
"","","","","","","","","","","","","","","","","","","",""
"","","","","","","","","","","","","","","","","","","",""
"Id_A2BLQ1GVEHJR8T","0.4664690504","0.6908579518","0.6731885445","0.5452019936","0.6287100183","0.6825973249","0.5068625354","0.5972185667","0.6525363264","0.6401873635","0.4684573056","0.3806821419","0.6290672721","1","0.4329520307","0.6001199286","0.5140271949","0.7373783058","0.6766097478"
"","","","","","","","","","","","","","","","","","","",""
"Id_A2W1C5PDHUF25O","0.4442141069","0.816306333","0.1388513764","0.5703586973","0.3450327797","-0.1329744714","0.4908690486","0.564474413","0.5182374288","1","0.7518094116","0.9063269672","0.6325607688","0.6401873635","0.5920684633","0.4834182583","0.6718425057","0.3756212582","0.6054688684"
"X_UMBCa_","1","0.5308371868","0.3485072655","0.6165866247","0.3785625269","0.3359274336","0.3887273647","0.2494227507","0.3932281538","0.4442141069","0.4282519026","0.3984377146","0.4202679755","0.4664690504","0.4048280673","0.3996632957","0.3960948765","0.3103645586","0.4231985979"
