"weight_5","weight_4","weight_3","weight_2","weight_4_5","key"
2,7,5,7,9,"1-483_2_1__3_5_6_7_8_10_11_12_13_19_24_31_42_1_user9.pyr"
1,8,2,6,9,"1-9836_92_88__94_101_103_108_110_115_2_userA.pyr"
5,4,1,11,9,"1-9884_5_4__7_9_11_13_18_1_userA.pyr"
1,7,6,6,8,"1-8786_12_11__13_14_15_22_25_26_27_30_31_32_33_34_35_36_37_38_39_1_user8.pyr"
2,6,1,4,8,"1-8143_42_37__45_50_55_56_1_user8.pyr"
4,3,3,4,7,"1-1103_28_27__29_30_31_32_33_34_1_user9.pyr"
1,6,3,9,7,"1-9841_196_194__199_202_204_205_206_207_208_209_210_4_userA.pyr"
4,3,1,6,7,"1-9836_25_22__27_34_35_37_39_1_userA.pyr"
3,3,12,5,6,"1-10931_30_25__35_38_46_48_51_52_54_2_userA.pyr"
2,4,5,1,6,"1-10121_22_21__23_28_30_34_37_1_userA.pyr"
3,3,5,3,6,"1-8003_38_37__39_40_41_42_43_45_47_49_1_user9.pyr"
2,4,5,7,6,"1-8635_36_33__38_40_41_46_49_53_56_1_user8.pyr"
0,6,5,2,6,"1-9294_9_6__10_13_18_19_1_user9.pyr"
2,4,3,3,6,"1-671_3_2__4_5_6_7_8_9_10_11_13_14_1_user7.pyr"
3,3,2,2,6,"1-8099_19_16__23_24_27_31_2_user8.pyr"
1,5,2,9,6,"1-8543_111_109__114_131_132_135_139_147_148_1_user9.pyr"
1,4,9,4,5,"1-3449_16_6__18_19_20_21_23_24_1_user9.pyr"
2,3,6,1,5,"1-10756_37_35__39_42_43_44_1_user9.pyr"
3,2,4,3,5,"1-8860_7_6__8_9_12_15_16_17_1_user8.pyr"
1,4,3,8,5,"1-10145_4_3__5_9_21_29_1_user9.pyr"
2,3,3,3,5,"1-3320_45_44__46_47_48_49_1_user9.pyr"
3,2,3,4,5,"1-9059_22_15__23_28_43_70_76_3_user9.pyr"
1,4,2,10,5,"1-8543_123_121__129_130_133_134_2_user9.pyr"
3,2,1,2,5,"1-8543_150_143__151_153_156_160_162_164_3_user9.pyr"
2,2,9,4,4,"1-9841_142_140__147_149_151_153_157_158_6_userA.pyr"
1,3,5,11,4,"1-10931_104_103__105_106_107_108_109_110_111_112_113_118_119_3_userA.pyr"
3,1,5,3,4,"1-546_20_19__24_27_28_29_33_34_1_user7.pyr"
2,2,5,10,4,"1-9874_30_3__32_40_41_55_59_82_86_91_92_2_userA.pyr"
2,2,4,2,4,"1-1543_41_40__44_47_49_51_1_user8.pyr"
0,4,4,7,4,"1-690_2_1__3_4_5_7_1_user8.pyr"
3,1,3,4,4,"1-8970_4_3__8_9_12_15_16_17_1_user9.pyr"
0,4,3,4,4,"1-9057_129_126__131_134_138_142_3_user9.pyr"
2,2,2,1,4,"1-764_66_63__67_70_74_75_2_user8.pyr"
1,3,2,3,4,"1-9036_154_152__155_157_158_159_160_161_162_163_4_user9.pyr"
0,3,6,7,3,"1-737_78_77__80_81_82_83_84_1_user9.pyr"
3,0,5,1,3,"1-546_230_229__231_232_233_234_235_3_user7.pyr"
2,1,3,5,3,"1-546_140_139__141_142_143_144_145_146_2_user9.pyr"
2,1,2,7,3,"1-342_9_8__12_13_15_16_1_user7.pyr"
1,1,6,9,2,"1-173_68_67__69_70_74_77_79_81_87_1_user9.pyr"
1,1,5,9,2,"1-10996_14_10__17_19_22_25_27_28_1_userA.pyr"
