"key","quote_source_post_discussion_id","posts_dataset_id","posts_timestamp","posts_author_id","quote_source_author_id","posts_native_post_id","quote_source_timestamp","post_text_id","Word_Count","quote_source_post_id","post_text","quote_source_text_id","Dialog_Turn","posts_discussion_id","quote_source_post_dataset_id","Fullquote_text","discussion_url","quote_source_native_post_id","posts_post_id"
"1-10338_9_7_1",10338,1,"2011-02-16 16:20:00",68,1483,424190,"2011-02-16 14:20:00",470925,53,7,"It's a fair response. What is human life is different than asking what makes a human being.
We could probably keep a brainless body alive for some time, but it wouldn't be what people would generally think of as a human individual, a human being, a person.",470923,1,10338,1,"So is your skin, your brain, all your internal organs. There is a difference between a living cell and life. None of those living cells in your body alone could be construed as a human being. 
The sperm and the egg do not equate to life until the moment of conception/fertilization, which is their sole purpose. 
You try again.","http://www.4forums.com/political/abortion-debates/15035-when-life-begins.html",424179,9
"1-10338_17_9_1",10338,1,"2011-02-16 20:04:00",1483,68,424210,"2011-02-16 16:20:00",470933,119,9,"Is it? Scientifically it's not. 
What you're talking about is a philosophical and religious debate. And although I won't discredit philosophy, it's not a science, nor can it be proven. 
I can give you proof that a fertilized egg is a human life by the standards of science (we can argue semantics all day but you can't refute that it is by definition ""life""). But you can't provide a single shred of proof that a fetus, unborn child or whatever you prefer to call it, isn't a person, a human being or a human life... not from a philosophical standpoint or any other.",470925,1,10338,1,"It's a fair response. What is human life is different than asking what makes a human being.
We could probably keep a brainless body alive for some time, but it wouldn't be what people would generally think of as a human individual, a human being, a person.","http://www.4forums.com/political/abortion-debates/15035-when-life-begins.html",424190,17
"1-10338_19_17_1",10338,1,"2011-02-16 20:24:00",68,1483,424213,"2011-02-16 20:04:00",470935,78,17,"Then I can certainly prove that the fetus is not a person, since 'person' is a legal construct (not a biological one) and I can point to the relevant legal precedents that outline the subject in question showing the boundaries of 'personhood' begin at birth. Q.E.D
Of course, that ignores the crux of the question: namely, is the fetus a person in the philosophical sense.",470933,1,10338,1,"Is it? Scientifically it's not. 
What you're talking about is a philosophical and religious debate. And although I won't discredit philosophy, it's not a science, nor can it be proven. 
I can give you proof that a fertilized egg is a human life by the standards of science (we can argue semantics all day but you can't refute that it is by definition ""life""). But you can't provide a single shred of proof that a fetus, unborn child or whatever you prefer to call it, isn't a person, a human being or a human life... not from a philosophical standpoint or any other.","http://www.4forums.com/political/abortion-debates/15035-when-life-begins.html",424210,19
"1-10338_22_19_1",10338,1,"2011-02-16 20:39:00",1483,68,424217,"2011-02-16 20:24:00",470938,105,19,"Like I said, whatever you prefer to call it... they are one and the same. 
Can you deny that a fetus is a human life? I suppose YOU could, but that would be disregarding science as it's already been shown conclusively that it is, in fact, a human life. 

Technically the crux of THIS question on this post was ""When does life begin?"" There was nothing about the philosophical discussion of person or personhood. 
So, can you prove that a fetus is NOT a ""person"" in the philosophical sense?",470935,1,10338,1,"Then I can certainly prove that the fetus is not a person, since 'person' is a legal construct (not a biological one) and I can point to the relevant legal precedents that outline the subject in question showing the boundaries of 'personhood' begin at birth. Q.E.D
Of course, that ignores the crux of the question: namely, is the fetus a person in the philosophical sense.","http://www.4forums.com/political/abortion-debates/15035-when-life-begins.html",424213,22
"1-10338_24_22_1",10338,1,"2011-02-16 20:43:00",68,1483,424219,"2011-02-16 20:39:00",470940,27,22,"I assumed this had relevance to the abortion discussion. Yes, the fetus is alive.

If we agree on some basic tenets, certainly.",470938,1,10338,1,"Like I said, whatever you prefer to call it... they are one and the same. 
Can you deny that a fetus is a human life? I suppose YOU could, but that would be disregarding science as it's already been shown conclusively that it is, in fact, a human life. 

Technically the crux of THIS question on this post was ""When does life begin?"" There was nothing about the philosophical discussion of person or personhood. 
So, can you prove that a fetus is NOT a ""person"" in the philosophical sense?","http://www.4forums.com/political/abortion-debates/15035-when-life-begins.html",424217,24
"1-10338_28_24_1",10338,1,"2011-02-16 20:47:00",1483,68,424223,"2011-02-16 20:43:00",470944,40,24,"It does. I thought I'd define the beginning of human life. As you can see, many people are still confused about whether or not a fetus is a human life. 

Please, do go on...",470940,1,10338,1,"I assumed this had relevance to the abortion discussion. Yes, the fetus is alive.

If we agree on some basic tenets, certainly.","http://www.4forums.com/political/abortion-debates/15035-when-life-begins.html",424219,28
"1-10338_29_28_1",10338,1,"2011-02-16 20:54:00",68,1483,424224,"2011-02-16 20:47:00",470945,123,28,"Since you've agreed it is as alive as an individual organ is alive (human life at that), I don't think you gained much.

I start with a hypothetical. If we remove the brain of an adult and put it in a jar while keeping both the brain and body alive and separate, would you agree that it is rational to say the 'person' is in the jar? Meaning that if you killed the brain it is rational to say the individual would die, while if you killed the body the individual would continue to live.
This hypothetical is to determine, loosely, what the definition of a person would be.",470944,1,10338,1,"It does. I thought I'd define the beginning of human life. As you can see, many people are still confused about whether or not a fetus is a human life. 

Please, do go on...","http://www.4forums.com/political/abortion-debates/15035-when-life-begins.html",424223,29
"1-10338_30_29_1",10338,1,"2011-02-16 21:18:00",1483,68,424225,"2011-02-16 20:54:00",470946,133,29,"Wow, you have completely missed that entire discussion that just took place, didn't you?
I don't know how many times I can say the same thing a different way for you to understand. I tell you what, go enroll in a biology class at your local college. 

Ok, so let me get this straight... your argument to ""prove"" to me philosophically that a fetus is not a person hinges on a basis of a hypothetical? One that isn't even possible? 
Sorry but to PROVE to me that a fetus isn't a person, you should probably start with facts, evidence or at least a common shared belief (not based off a hypothetical situation that can't actually happen).",470945,1,10338,1,"Since you've agreed it is as alive as an individual organ is alive (human life at that), I don't think you gained much.

I start with a hypothetical. If we remove the brain of an adult and put it in a jar while keeping both the brain and body alive and separate, would you agree that it is rational to say the 'person' is in the jar? Meaning that if you killed the brain it is rational to say the individual would die, while if you killed the body the individual would continue to live.
This hypothetical is to determine, loosely, what the definition of a person would be.","http://www.4forums.com/political/abortion-debates/15035-when-life-begins.html",424224,30
"1-10338_31_30_1",10338,1,"2011-02-16 21:36:00",68,1483,424226,"2011-02-16 21:18:00",470947,171,30,"I read and even understood the thread. Sinjin posted: So far we appear in agreement that a thing can be composed of living cells with human DNA and not be a ""human being"" aka ""person"".
You replied: Yes, we are in agreement at that. If you want to add additional qualifiers such as ""separate"" and ""distinct"" that's fine but not part of the original point.

Actually I'm starting with a definition. As I stated, the first goal is to establish the ""basic tenets"" to see what we agree on. So I'm seeing if we agree on the seat of individuality. If there is no agreement on the basics, then there is no common ground to even have a discussion because we would be talking about different things.
So I'll ask again: Would you consider it rational to say that the individual person is in the jar?",470946,1,10338,1,"Wow, you have completely missed that entire discussion that just took place, didn't you?
I don't know how many times I can say the same thing a different way for you to understand. I tell you what, go enroll in a biology class at your local college. 

Ok, so let me get this straight... your argument to ""prove"" to me philosophically that a fetus is not a person hinges on a basis of a hypothetical? One that isn't even possible? 
Sorry but to PROVE to me that a fetus isn't a person, you should probably start with facts, evidence or at least a common shared belief (not based off a hypothetical situation that can't actually happen).","http://www.4forums.com/political/abortion-debates/15035-when-life-begins.html",424225,31
"1-10338_32_31_1",10338,1,"2011-02-16 21:57:00",1483,68,424227,"2011-02-16 21:36:00",470948,116,31,"Go back and re-read my entire response to that. 
Yes, a thing can be a living cell with human DNA and still not be a human life (a skin cell, a sperm cell, an egg cell, any cell within the human body is a living cell with Human DNA and is not a human life or human being.

Actually, you started with a hypothetical question, not a definition. A hypothetical question that isn't even based in reality. 
Yes, we have to start with common ground, but I'd prefer any common ground to be rooted in reality, not fantasy and science fiction.",470947,1,10338,1,"I read and even understood the thread. Sinjin posted:So far we appear in agreement that a thing can be composed of living cells with human DNA and not be a ""human being"" aka ""person"".
You replied: Yes, we are in agreement at that. If you want to add additional qualifiers such as ""separate"" and ""distinct"" that's fine but not part of the original point.","http://www.4forums.com/political/abortion-debates/15035-when-life-begins.html",424226,32
"1-10338_34_32_1",10338,1,"2011-02-17 07:07:00",68,1483,424242,"2011-02-16 21:57:00",470950,114,32,"lol, alright. It hasn't improved upon review.

Rofl, sure, we can start on an even more basic level if you wish. It'll just take longer. 
Surely you won't argue that human organs, even removed from the rest of the body, are not alive. After all, transplants occur and the organs don't die between one body and the next. Would you agree it is rational to say that you are not any less of a human being when you lose a kidney, and that kidney should not gain recognition as a human being, despite being alive and containing human DNA?",470948,1,10338,1,"Go back and re-read my entire response to that. 
Yes, a thing can be a living cell with human DNA and still not be a human life (a skin cell, a sperm cell, an egg cell, any cell within the human body is a living cell with Human DNA and is not a human life or human being.

Actually, you started with a hypothetical question, not a definition. A hypothetical question that isn't even based in reality. 
Yes, we have to start with common ground, but I'd prefer any common ground to be rooted in reality, not fantasy and science fiction.","http://www.4forums.com/political/abortion-debates/15035-when-life-begins.html",424227,34
