"key","quote_source_post_discussion_id","posts_dataset_id","posts_timestamp","posts_author_id","quote_source_author_id","posts_native_post_id","quote_source_timestamp","post_text_id","Word_Count","quote_source_post_id","post_text","quote_source_text_id","Dialog_Turn","posts_discussion_id","quote_source_post_dataset_id","Fullquote_text","discussion_url","quote_source_native_post_id","posts_post_id"
"1-10874_8_7_1",10874,1,"2012-03-03 15:36:00",3188,746,450270,"2012-03-03 15:30:00",496181,18,7,"if you believe that, then it's fine.
i say it's more commensalism, even mutualism.",496180,1,10874,1,"A breast fed baby can be considered a parasite then...just as a flea and a tick is a parasite.
Lets kill 'em allemoticonXClown","http://www.4forums.com/political/abortion-debates/16189-human-fetus-parasite-according-science-other-stuff.html",450268,8
"1-10874_9_8_1",10874,1,"2012-03-03 15:42:00",746,3188,450272,"2012-03-03 15:36:00",496182,29,8,"So if I believe it its true?
Id say that the fetus and the mother have a symbiotic relationship...which kind of makes it not a parasite",496181,1,10874,1,"if you believe that, then it's fine.
i say it's more commensalism, even mutualism.","http://www.4forums.com/political/abortion-debates/16189-human-fetus-parasite-according-science-other-stuff.html",450270,9
"1-10874_17_9_1",10874,1,"2012-03-05 15:14:00",3188,746,450457,"2012-03-03 15:42:00",496190,16,9,"actually, a parasitic relationships are symbiotic relationship.
it's all a part of symbiosis.",496182,1,10874,1,"So if I believe it its true?
Id say that the fetus and the mother have a symbiotic relationship...which kind of makes it not a parasite","http://www.4forums.com/political/abortion-debates/16189-human-fetus-parasite-according-science-other-stuff.html",450272,17
"1-10874_20_17_1",10874,1,"2012-03-05 15:26:00",746,3188,450461,"2012-03-05 15:14:00",496193,182,17,"Actually a symbiotic relationship is mutually beneficial wheres a parasite is not necessarily beneficial to the host.
Its not all part of symbiosis at all.
If you want to expand this into gaga land ( where you are heading really fast)
Flatmates/ pets and pet owners/ shopkeepers and customers/ parents and children all must have a symbiotic relationship and therefore one of them are parasites.
Its stupid.
A woman has developed specific organs for the fetus..this is not a parasite host situation. The mother gets to reproduce via the fetus..this is not a parasite host situation.
A fetus is the product of a mixture of the mothers genes...this is not a parasite host situation.
Your assertion that a fetus is a parasite is stupid.
A newborn feeds off the mother ..so does a flea and tick from the host .
If you really think this constitutes a parasite host situation then you can believe what you like ..but you would be wrong",496190,1,10874,1,"actually, a parasitic relationships are symbiotic relationship.
it's all a part of symbiosis.","http://www.4forums.com/political/abortion-debates/16189-human-fetus-parasite-according-science-other-stuff.html",450457,20
"1-10874_24_20_1",10874,1,"2012-03-06 15:12:00",3188,746,450519,"2012-03-05 15:26:00",496197,65,20,"actually, any parasite/host relationship is in a symbiotic relationship.

yes, i agree what you are saying is stupid...but a fetus being a parasite is not stupid and science can proves it.

you missed the part where i explained how the zygote invaded the woman's uterus.

well, you are wrong... breast-feeding counts as commensalism.",496193,1,10874,1,"Actually a symbiotic relationship is mutually beneficial wheres a parasite is not necessarily beneficial to the host.
Its not all part of symbiosis at all.
If you want to expand this into gaga land ( where you are heading really fast)
Flatmates/ pets and pet owners/ shopkeepers and customers/ parents and children all must have a symbiotic relationship and therefore one of them are parasites.
Its stupid.
A woman has developed specific organs for the fetus..this is not a parasite host situation. The mother gets to reproduce via the fetus..this is not a parasite host situation.
A fetus is the product of a mixture of the mothers genes...this is not a parasite host situation.
Your assertion that a fetus is a parasite is stupid.
A newborn feeds off the mother ..so does a flea and tick from the host .
If you really think this constitutes a parasite host situation then you can believe what you like ..but you would be wrong","http://www.4forums.com/political/abortion-debates/16189-human-fetus-parasite-according-science-other-stuff.html",450461,24
"1-10874_19_15_2",10874,1,"2012-03-05 15:18:00",3188,746,450459,"2012-03-04 07:38:00",496192,17,15,"yeah, that's nice...i goes by science.
the human fetus is a parasite.",496188,2,10874,1,"You will find it is the left wingers /pro abortion who like to compare a fetus with a parasite .Google Communist China/USSR and come back to me about war, respect for human life ,violence and capital punishment.","http://www.4forums.com/political/abortion-debates/16189-human-fetus-parasite-according-science-other-stuff.html",450308,19
"1-10874_21_19_2",10874,1,"2012-03-05 15:33:00",746,3188,450462,"2012-03-05 15:18:00",496194,81,19,"No you dont , you go by ignorance and crass stupidity.
You have changed the definition of parasite to a developing creature of the same species of the host, with a mixture of the hosts genes aiding the host to reproduce itself.
That is not a parasite..it may have some common features of a parasite but it is not one.
What next..a fetus is a fish because its surrounded by water.
JeezemoticonXClown",496192,2,10874,1,"yeah, that's nice...i goes by science.
the human fetus is a parasite.","http://www.4forums.com/political/abortion-debates/16189-human-fetus-parasite-according-science-other-stuff.html",450459,21
"1-10874_26_21_2",10874,1,"2012-03-06 15:16:00",3188,746,450522,"2012-03-05 15:33:00",496199,6,21,"really? prove me wrong.",496194,2,10874,1,"No you dont , you go by ignorance and crass stupidity.
You have changed the definition of parasite to a developing creature of the same species of the host, with a mixture of the hosts genes aiding the host to reproduce itself.
That is not a parasite..it may have some common features of a parasite but it is not one.
What next..a fetus is a fish because its surrounded by water.
JeezemoticonXClown","http://www.4forums.com/political/abortion-debates/16189-human-fetus-parasite-according-science-other-stuff.html",450462,26
"1-10874_28_26_2",10874,1,"2012-03-06 15:22:00",746,3188,450526,"2012-03-06 15:16:00",496201,6,26,"You prove youre right...really",496199,2,10874,1,"really? prove me wrong.","http://www.4forums.com/political/abortion-debates/16189-human-fetus-parasite-according-science-other-stuff.html",450522,28
"1-10874_29_28_2",10874,1,"2012-03-06 16:24:00",3188,746,450530,"2012-03-06 15:22:00",496202,5,28,"read the first post.",496201,2,10874,1,"You prove youre right...really","http://www.4forums.com/political/abortion-debates/16189-human-fetus-parasite-according-science-other-stuff.html",450526,29
