"key","quote_source_post_discussion_id","posts_dataset_id","posts_timestamp","posts_author_id","quote_source_author_id","posts_native_post_id","quote_source_timestamp","post_text_id","Word_Count","quote_source_post_id","post_text","quote_source_text_id","Dialog_Turn","posts_discussion_id","quote_source_post_dataset_id","Fullquote_text","discussion_url","quote_source_native_post_id","posts_post_id"
"1-1305_191_190_1",1305,1,"2004-11-23 08:45:00",343,44,78656,"2004-11-23 08:08:00",54719,72,190,"Actually, I agree with you somewhat. I would not be nearly as worried about very early abortion as I would mid to late term. And I can accept abortion if the life of the mother is at definite risk. I guess that makes me a ""conditional"" pro-lifer.
I think most likely many, many people on both sides take their stance to varying degrees.",54718,1,1305,1,"I wish it were that simply. Killing's fine under the right circumstances most of us would agree I think. Killing isn't the question but ""killing what?'"" and ""killing when?"" I will never accept that a week after conception or 8 or 10 for that matter, we are talking about a person yet. I'm a ""conditional"" pro-choicer.","http://www.4forums.com/political/abortion-debates/2179-why-im-against-abortion.html",78651,191
"1-1305_192_191_1",1305,1,"2004-11-23 08:55:00",44,343,78657,"2004-11-23 08:45:00",54720,75,191,"Would that not mean then that to have an abortion or not, regardless of motivation, is an issue best left between a woman and her doctor? Most doctors are not prepared to do late term abortions for the woman's convenience. Most doctors have morality. Most doctors are religious to some degree. Most doctors try to adhere to their oath to do no harm. Most doctors have children.",54719,1,1305,1,"Actually, I agree with you somewhat. I would not be nearly as worried about very early abortion as I would mid to late term. And I can accept abortion if the life of the mother is at definite risk. I guess that makes me a ""conditional"" pro-lifer.
I think most likely many, many people on both sides take their stance to varying degrees.","http://www.4forums.com/political/abortion-debates/2179-why-im-against-abortion.html",78656,192
"1-1305_194_192_1",1305,1,"2004-11-23 09:23:00",343,44,78665,"2004-11-23 08:55:00",54722,64,192,"It's not that simple. Abortion is a pretty complicated issue and to assume the mother and doctor should be able to kill an unborn child at will is is grisly prospect. At the least there should be some control on something that powerful. The partial birth ban is a start.
And who said doctors were always above reproach anyway?",54720,1,1305,1,"Would that not mean then that to have an abortion or not, regardless of motivation, is an issue best left between a woman and her doctor? Most doctors are not prepared to do late term abortions for the woman's convenience. Most doctors have morality. Most doctors are religious to some degree. Most doctors try to adhere to their oath to do no harm. Most doctors have children.","http://www.4forums.com/political/abortion-debates/2179-why-im-against-abortion.html",78657,194
"1-1305_198_194_1",1305,1,"2004-11-23 10:09:00",44,343,78678,"2004-11-23 09:23:00",54726,86,194,"Why trivialize the decision of the woman and the doctor by terming it as ""at will"". Can you not grant that the reasons could be sound even if they are no business of yours? I see no reason to assume a doctor's morality is more suspect than anyone else. Indeed no one is above reproach. Not even evangelicals.
Would you agree that the term ""unborn child"" is an exaggeration prior to some point in a pregnancy?",54722,1,1305,1,"It's not that simple. Abortion is a pretty complicated issue and to assume the mother and doctor should be able to kill an unborn child at will is is grisly prospect. At the least there should be some control on something that powerful. The partial birth ban is a start.
And who said doctors were always above reproach anyway?","http://www.4forums.com/political/abortion-debates/2179-why-im-against-abortion.html",78665,198
"1-1305_200_198_1",1305,1,"2004-11-23 10:37:00",343,44,78689,"2004-11-23 10:09:00",54728,82,198,"I have already said that I can accept abortion if the life of the mother is in danger. That should answer your question.

No more than saying it is an exagerration when an expecting mother herself calls what she has inside of her ""my baby."" I don't have any problem with that at all, but it seems that you would if you are determined to exclude any terms for it other than ""fetus.""",54726,1,1305,1,"Why trivialize the decision of the woman and the doctor by terming it as ""at will"". Can you not grant that the reasons could be sound even if they are no business of yours? I see no reason to assume a doctor's morality is more suspect than anyone else. Indeed no one is above reproach. Not even evangelicals.
Would you agree that the term ""unborn child"" is an exaggeration prior to some point in a pregnancy?","http://www.4forums.com/political/abortion-debates/2179-why-im-against-abortion.html",78678,200
"1-1305_205_200_1",1305,1,"2004-11-23 10:51:00",44,343,78697,"2004-11-23 10:37:00",54733,80,200,"I am not determined to do anything, least of all what you suggest. 
Is it not possible that an expectant mother might ""exaggerate"" a bit in anticipation of what is coming.
How many cells equal a ""baby"", 2, 4, 8, 16, 32?
Is that the whole strategy? Harder to kill a ""baby"" than a ""fetus""? Rather simplistic don't you think?",54728,1,1305,1,"I have already said that I can accept abortion if the life of the mother is in danger. That should answer your question.

No more than saying it is an exagerration when an expecting mother herself calls what she has inside of her ""my baby."" I don't have any problem with that at all, but it seems that you would if you are determined to exclude any terms for it other than ""fetus.""","http://www.4forums.com/political/abortion-debates/2179-why-im-against-abortion.html",78689,205
"1-1305_197_185_2",1305,1,"2004-11-23 10:04:00",68,343,78677,"2004-11-22 13:28:00",54725,37,185,"Just out of curiosity, what risks do you believe the ""pro-choice"" movement is keeping women in the dark about, besides the emotional issues afterward (which vary from woman to woman)?",54713,2,1305,1,"And it's interesting to me that your movement isn't nearly as passionate about making sure mothers know therisks about abortion as they are empowering them to do it. ","http://www.4forums.com/political/abortion-debates/2179-why-im-against-abortion.html",78561,197
"1-1305_202_197_2",1305,1,"2004-11-23 10:43:00",343,68,78691,"2004-11-23 10:04:00",54730,30,197,"See the following . . . .
http://www.afterabortion.org/physica.html
And before you automatically assume these are pro-life rantings, note that everything in this list is cited from well-known journals.",54725,2,1305,1,"Just out of curiosity, what risks do you believe the ""pro-choice"" movement is keeping women in the dark about, besides the emotional issues afterward (which vary from woman to woman)?","http://www.4forums.com/political/abortion-debates/2179-why-im-against-abortion.html",78677,202
"1-1305_206_202_2",1305,1,"2004-11-23 10:55:00",68,343,78701,"2004-11-23 10:43:00",54734,57,202,"omg... that site is so rediculous! Let me read it all before I respond, but I have to say that it is inaccurate to the point of absurdity!
If you want to be taken seriously, actually go to studies and see what they say instead of summaries on a pro-life site.",54730,2,1305,1,"See the following . . . .
http://www.afterabortion.org/physica.html
And before you automatically assume these are pro-life rantings, note that everything in this list is cited from well-known journals.","http://www.4forums.com/political/abortion-debates/2179-why-im-against-abortion.html",78691,206
"1-1305_208_206_2",1305,1,"2004-11-23 10:59:00",343,68,78704,"2004-11-23 10:55:00",54736,19,206,"Then you are saying a lot of major health journals are ridiculous, because the points are cited.",54734,2,1305,1,"omg... that site is so rediculous! Let me read it all before I respond, but I have to say that it is inaccurate to the point of absurdity!
If you want to be taken seriously, actually go to studies and see what they say instead of summaries on a pro-life site.","http://www.4forums.com/political/abortion-debates/2179-why-im-against-abortion.html",78701,208
"1-1305_209_208_2",1305,1,"2004-11-23 11:12:00",68,343,78709,"2004-11-23 10:59:00",54737,28,208,"No, I'm saying that their interpretations were taken out of context, slighted and exaggerated to the point of absurdity.
They do their own interpretations.",54736,2,1305,1,"Then you are saying a lot of major health journals are ridiculous, because the points are cited.","http://www.4forums.com/political/abortion-debates/2179-why-im-against-abortion.html",78704,209
"1-1305_157_156_3",1305,1,"2004-11-21 13:51:00",350,320,78326,"2004-11-21 11:29:00",54685,129,156,"The fetus is non-sentient, so it has no ""desire"". The fetus is totally dependent on a woman's body, and has no existence without the woman's body. This is not the case with a dog.
This is not the case with the woman. She is a sentient person, and not a container. She undergoes physical changes and physical risks by being pregnant. She risks, and she sacrifices, using her own body. It is selfish of a man to think he can control her body and her life. It will never have the same kind of impact on his health and on his life, that it will have on hers. Not even close.",54684,3,1305,1,"Are you serious that you wanted to pitch me that softball? emoticonXRolleyes 
Abortion is the ultimate in selfish because the ""mother"" decides to kill a fetus instead of letting it live. The desire of the fetus to live is disregarded by the ""mother"".
Now, if you killed your pet dog because you didn't want to take care of it, you'd consider that a selfish act, wouldn't you?","http://www.4forums.com/political/abortion-debates/2179-why-im-against-abortion.html",78318,157
"1-1305_170_157_3",1305,1,"2004-11-21 15:26:00",320,350,78344,"2004-11-21 13:51:00",54698,165,157,"My dog isn't a sentient being so it has no desire and the second part of your argument has nothing to do with the first. Are you arguing that it's OK to kill a non-sentient being or any dependent being regardless of whether or not it's sentient? For instance, an invalid can also be totally dependent on someone else for their existence.Should we ""ice"" all invalids, too?

So let me get your position straight. A woman should have the right to kill her fetus because in rare instances, it can threaten her health? That's a pretty weak argument. Would you like some stats on the number of births VS death of the mother? I'm guessing that death by car accidents are of a far greater concern to the average pregnant woman and there aren't many arguing that the highest risk pregnancies shouldn't have the option of aborting the fetus.
emoticonXRolleyes",54685,3,1305,1,"The fetus is non-sentient, so it has no ""desire"". The fetus is totally dependent on a woman's body, and has no existence without the woman's body. This is not the case with a dog.
This is not the case with the woman. She is a sentient person, and not a container. She undergoes physical changes and physical risks by being pregnant. She risks, and she sacrifices, using her own body. It is selfish of a man to think he can control her body and her life. It will never have the same kind of impact on his health and on his life, that it will have on hers. Not even close.","http://www.4forums.com/political/abortion-debates/2179-why-im-against-abortion.html",78326,170
"1-1305_171_170_3",1305,1,"2004-11-21 15:55:00",350,320,78347,"2004-11-21 15:26:00",54699,114,170,"It has more sentience than the fetus in the early stages of pregnancy.

No one can force you to use your body for anything against your will. For example, one cannot be forced to give up a kidney. 

I meant it has an effect on her health. Morning sickness and other problems, the load on her heart increases by 40%, etc. Yes, it could negatively affect her health in more serious ways. It is not a weak argument at all to suggest that those who will have to go through this, should make the choice. 

I don't understand what you mean here.",54698,3,1305,1,"My dog isn't a sentient being so it has no desire and the second part of your argument has nothing to do with the first. Are you arguing that it's OK to kill a non-sentient being or any dependent being regardless of whether or not it's sentient? For instance, an invalid can also be totally dependent on someone else for their existence.Should we ""ice"" all invalids, too?

So let me get your position straight. A woman should have the right to kill her fetus because in rare instances, it can threaten her health? That's a pretty weak argument. Would you like some stats on the number of births VS death of the mother? I'm guessing that death by car accidents are of a far greater concern to the average pregnant woman and there aren't many arguing that the highest risk pregnancies shouldn't have the option of aborting the fetus.
emoticonXRolleyes","http://www.4forums.com/political/abortion-debates/2179-why-im-against-abortion.html",78344,171
"1-1305_222_171_3",1305,1,"2004-11-23 15:54:00",320,350,78847,"2004-11-21 15:55:00",54750,150,171,"There's no such thing as a little sentience, just like there's no such thing as being a little pregnant. You either are or you aren't.

You can be forced to sit in an electric chair and fry under 20K Volts, can't you?

So the sex that created the fetus in the first place probably taxed her heart more than 40%. Maybe if she was so concerned about taxing herself, she would have abstained. It's still a lame argument. The chances of dire consequences from pregnancy are rare, usually predictable and treatable.


What I meant was that a pregnant woman has more risk driving in a car than from being pregnant and that I don't know many people who would deny an abortion to a woman who has a significant probability of dying as a result of pregnancy.",54699,3,1305,1,"It has more sentience than the fetus in the early stages of pregnancy.

No one can force you to use your body for anything against your will. For example, one cannot be forced to give up a kidney. 

I meant it has an effect on her health. Morning sickness and other problems, the load on her heart increases by 40%, etc. Yes, it could negatively affect her health in more serious ways. It is not a weak argument at all to suggest that those who will have to go through this, should make the choice. 

I don't understand what you mean here.","http://www.4forums.com/political/abortion-debates/2179-why-im-against-abortion.html",78347,222
"1-1305_224_222_3",1305,1,"2004-11-23 16:18:00",350,320,78852,"2004-11-23 15:54:00",54752,119,222,"I already mentioned I was wrong to put it like that.

In certain jurisdictions, if you are a criminal, and it's the punishment directly related to your crime. There are things they can and can't do to the criminal. I am talking about a woman who has comitted no crime, who should have the full and equal rights of every other citizen. 

Not for very long, and that was her choice, other than in the case of rape.

Not lame at all. It directly affects her physically. There is a reason she is continuously monitored during pregnancy. The fetus is totally dependent on her physically.",54750,3,1305,1,"There's no such thing as a little sentience, just like there's no such thing as being a little pregnant. You either are or you aren't.

You can be forced to sit in an electric chair and fry under 20K Volts, can't you?

So the sex that created the fetus in the first place probably taxed her heart more than 40%. Maybe if she was so concerned about taxing herself, she would have abstained. It's still a lame argument. The chances of dire consequences from pregnancy are rare, usually predictable and treatable.


What I meant was that a pregnant woman has more risk driving in a car than from being pregnant and that I don't know many people who would deny an abortion to a woman who has a significant probability of dying as a result of pregnancy.","http://www.4forums.com/political/abortion-debates/2179-why-im-against-abortion.html",78847,224
