"key","quote_source_post_discussion_id","posts_dataset_id","posts_timestamp","posts_author_id","quote_source_author_id","posts_native_post_id","quote_source_timestamp","post_text_id","Word_Count","quote_source_post_id","post_text","quote_source_text_id","Dialog_Turn","posts_discussion_id","quote_source_post_dataset_id","Fullquote_text","discussion_url","quote_source_native_post_id","posts_post_id"
"1-1976_14_9_1",1976,1,"2004-09-23 14:52:00",44,339,68182,"2004-09-23 04:54:00",79751,25,9,"IMO having a child is a selfish act as well. We don't bring children into this world for their sake but our own.",79746,1,1976,1,"C'MON, I bet ""pro-choicers"" would rejoice in the discovery of even an amoeba on Mars, screaming that there is life on another planet, and yet it grows inside a woman everyday and they dicard it without a blink of an eye. And don't give me this ""tough decision"" BS...it's a selfish copout to have an abortion perhaps 99.9% of the time","http://www.4forums.com/political/abortion-debates/3173-pro-life-vs-freedom-religion-there-conflict.html",68103,14
"1-1976_15_14_1",1976,1,"2004-09-23 17:15:00",339,44,68202,"2004-09-23 14:52:00",79752,86,14,"LMAO I think NOW I've heard it all. I'm not sure what kind of childhood you had, but I have three kids and they are an expression of the love I have for my wife. It has taught us that there IS more than ourselves in this world, and so in fact it becomes a very selfLESS thing to do. Those who choose NOT to have children are in fact selfish and lead empty lives because it's all about ME.",79751,1,1976,1,"IMO having a child is a selfish act as well. We don't bring children into this world for their sake but our own.","http://www.4forums.com/political/abortion-debates/3173-pro-life-vs-freedom-religion-there-conflict.html",68182,15
"1-1976_22_15_1",1976,1,"2004-09-24 15:07:00",44,339,68364,"2004-09-23 17:15:00",79759,29,15,"IMO they are expressions of your desire for some form of immortality. A selfish desire. They may be the embodiment of your love for your wife.",79752,1,1976,1,"LMAO I think NOW I've heard it all. I'm not sure what kind of childhood you had, but I have three kids and they are an expression of the love I have for my wife. It has taught us that there IS more than ourselves in this world, and so in fact it becomes a very selfLESS thing to do. Those who choose NOT to have children are in fact selfish and lead empty lives because it's all about ME.","http://www.4forums.com/political/abortion-debates/3173-pro-life-vs-freedom-religion-there-conflict.html",68202,22
"1-1976_23_22_1",1976,1,"2004-09-24 18:06:00",339,44,68389,"2004-09-24 15:07:00",79760,33,22,"Man. I'm sorry things have happened to you that would make you have such a cynical view of children and those who love them..kinda sad when you think about it",79759,1,1976,1,"IMO they are expressions of your desire for some form of immortality. A selfish desire. They may be the embodiment of your love for your wife.","http://www.4forums.com/political/abortion-debates/3173-pro-life-vs-freedom-religion-there-conflict.html",68364,23
"1-1976_42_23_1",1976,1,"2004-09-27 10:37:00",44,339,68669,"2004-09-24 18:06:00",79779,44,23,"You did not love your children before they were born so love for them could not have been the reason you fathered them.
btw nothing happened to me. It is possible to view things differently than you and not be malformed.",79760,1,1976,1,"Man. I'm sorry things have happened to you that would make you have such a cynical view of children and those who love them..kinda sad when you think about it","http://www.4forums.com/political/abortion-debates/3173-pro-life-vs-freedom-religion-there-conflict.html",68389,42
"1-1976_52_50_2",1976,1,"2004-09-28 16:25:00",339,44,68917,"2004-09-28 13:52:00",79789,172,50,"MY GOD, PLEASE tell me that you hold politicians to this same criteria then!!! I know this is a little off the topic, but it needs to be said...we have Liberal politicians and activists who claim to care for the poor and starving, push for policies to ""help"" these people, but do little or NOTHING to change the problem themselves, i.e., taking the poor in, giving enough money DIRECTLY from their own pocket to feed a starving family. We Conservatives are considered EVIL because we DON'T push the policies, but rather prefer doing things on our own to help. I expect to get a few laughs from your side on that one, but seems to me if the shoe fits....Do you consider the Democrats/Liberals saviors of the poor? Seeing my point, no doubt you will say no, but then that wouldn't be consistent with a Liberal way of thinking",79787,2,1976,1,"I don't think I agree. I support your right to consume porn even if I don't care to. I support your right to choose. My point was simply I would be more likely to believe you a ""saver of unwanted babies"" if you were actively saving one not just proposing that they should be ""saved"".","http://www.4forums.com/political/abortion-debates/3173-pro-life-vs-freedom-religion-there-conflict.html",68879,52
"1-1976_64_52_2",1976,1,"2004-09-29 07:29:00",44,339,68999,"2004-09-28 16:25:00",79801,112,52,"I trust that there are both Conservatives and Liberals giving directly to the ""poor"". I don't know how consistently liberal I am but I do not consider Conservatives ""evil"". If private donation can be said to have not solved the ""problem"" since it persists, I don't see any other solution than to have some level of governmental intervention. The fact that no perfect solution has been found does not suggest that all support should be abandoned.
I do not subscribe to the conservative notion that everyone can ""lift themselves by their bootstraps"" given there are many without boots.",79789,2,1976,1,"MY GOD, PLEASE tell me that you hold politicians to this same criteria then!!! I know this is a little off the topic, but it needs to be said...we have Liberal politicians and activists who claim to care for the poor and starving, push for policies to ""help"" these people, but do little or NOTHING to change the problem themselves, i.e., taking the poor in, giving enough money DIRECTLY from their own pocket to feed a starving family. We Conservatives are considered EVIL because we DON'T push the policies, but rather prefer doing things on our own to help. I expect to get a few laughs from your side on that one, but seems to me if the shoe fits....Do you consider the Democrats/Liberals saviors of the poor? Seeing my point, no doubt you will say no, but then that wouldn't be consistent with a Liberal way of thinking","http://www.4forums.com/political/abortion-debates/3173-pro-life-vs-freedom-religion-there-conflict.html",68917,64
"1-1976_66_64_2",1976,1,"2004-09-29 08:34:00",339,44,69011,"2004-09-29 07:29:00",79803,99,64,"Well up until he was running for President, Kerry didn't seem to care much at all about charities. But anyway....

.
Well, considering that trillions have been spent ""helping"" the poor, I would say that that can be labeled as a HUGE failure. And no doubt not all Conservatives take people into their home, but then again, we don't make that a cornerstone of our beliefs, and Liberals do. And I beg to differ, we all have bootstraps, we just have different levels of motivation",79801,2,1976,1,"I trust that there are both Conservatives and Liberals giving directly to the ""poor"". I don't know how consistently liberal I am but I do not consider Conservatives ""evil"". If private donation can be said to have not solved the ""problem"" since it persists, I don't see any other solution than to have some level of governmental intervention. The fact that no perfect solution has been found does not suggest that all support should be abandoned.
I do not subscribe to the conservative notion that everyone can ""lift themselves by their bootstraps"" given there are many without boots.","http://www.4forums.com/political/abortion-debates/3173-pro-life-vs-freedom-religion-there-conflict.html",68999,66
"1-1976_67_66_2",1976,1,"2004-09-29 08:56:00",44,339,69015,"2004-09-29 08:34:00",79804,13,66,"Do you believe lack of motivation explains why we have the poor?",79803,2,1976,1,"Well up until he was running for President, Kerry didn't seem to care much at all about charities. But anyway....

.
Well, considering that trillions have been spent ""helping"" the poor, I would say that that can be labeled as a HUGE failure. And no doubt not all Conservatives take people into their home, but then again, we don't make that a cornerstone of our beliefs, and Liberals do. And I beg to differ, we all have bootstraps, we just have different levels of motivation","http://www.4forums.com/political/abortion-debates/3173-pro-life-vs-freedom-religion-there-conflict.html",69011,67
"1-1976_68_67_2",1976,1,"2004-09-29 09:02:00",339,44,69018,"2004-09-29 08:56:00",79805,32,67,"It's certainly a factor. There have been poor that have made it big, have there not? Are you going to say that they made it on luck alone?",79804,2,1976,1,"Do you believe lack of motivation explains why we have the poor?","http://www.4forums.com/political/abortion-debates/3173-pro-life-vs-freedom-religion-there-conflict.html",69015,68
"1-1976_69_68_2",1976,1,"2004-09-29 09:05:00",44,339,69019,"2004-09-29 09:02:00",79806,22,68,"Do you believe that since some poor have ""made it big"" that it can be inferred that anyone can?",79805,2,1976,1,"It's certainly a factor. There have been poor that have made it big, have there not? Are you going to say that they made it on luck alone?","http://www.4forums.com/political/abortion-debates/3173-pro-life-vs-freedom-religion-there-conflict.html",69018,69
"1-1976_70_69_2",1976,1,"2004-09-29 09:10:00",339,44,69020,"2004-09-29 09:05:00",79807,21,69,"I think everybody has within them an ability to become successful to the point of not being a drain on society",79806,2,1976,1,"Do you believe that since some poor have ""made it big"" that it can be inferred that anyone can?","http://www.4forums.com/political/abortion-debates/3173-pro-life-vs-freedom-religion-there-conflict.html",69019,70
"1-1976_71_70_2",1976,1,"2004-09-29 10:01:00",44,339,69031,"2004-09-29 09:10:00",79808,91,70,"I agree but that wasn't the question. Conservatives are big on the ""rags to riches"" mythology and you are talking ""rags to thrift store"". IMO veiled contempt for the less fortunate is a cornerstone of conservative idealogy and the reason I cannot be one. It strikes me as a form of ""manifest destiny"".
If the strong don't seek to protect and uplift the weak then what sort of people are they? I do not share values with these people.",79807,2,1976,1,"I think everybody has within them an ability to become successful to the point of not being a drain on society","http://www.4forums.com/political/abortion-debates/3173-pro-life-vs-freedom-religion-there-conflict.html",69020,71
"1-1976_5_4_3",1976,1,"2004-09-20 17:53:00",68,339,67804,"2004-09-20 17:03:00",79742,10,4,"Not all who are ""left"" hate God.",79741,3,1976,1,"I think it's a bit of a stretch to say that the pro-life argument relies exclusively on religious doctrine. I'm a Conservative and religious, but I think that abortion can be discussed without bringing religion into it. My personal opinion is it's a mistake for Pro-lifers to bring religion into it because it fuels the hatred of the God-less Left LMAO","http://www.4forums.com/political/abortion-debates/3173-pro-life-vs-freedom-religion-there-conflict.html",67800,5
"1-1976_6_5_3",1976,1,"2004-09-21 04:54:00",339,68,67841,"2004-09-20 17:53:00",79743,44,5,"Sigma, I was only joking. It hit me this morning though that if I'm willing to talk about abortion without bringing up God, I wonder if the Pro-Choicers could argue their position without bringing up ""women's rights"". ;-)",79742,3,1976,1,"Not all who are ""left"" hate God.","http://www.4forums.com/political/abortion-debates/3173-pro-life-vs-freedom-religion-there-conflict.html",67804,6
"1-1976_18_6_3",1976,1,"2004-09-23 17:39:00",68,339,68213,"2004-09-21 04:54:00",79755,28,6,"I'd be willing to give it a shot. Except, you cannot bring up ""right to life"" but can use God all you want.",79743,3,1976,1,"Sigma, I was only joking. It hit me this morning though that if I'm willing to talk about abortion without bringing up God, I wonder if the Pro-Choicers could argue their position without bringing up ""women's rights"". ;-)","http://www.4forums.com/political/abortion-debates/3173-pro-life-vs-freedom-religion-there-conflict.html",67841,18
"1-1976_26_18_3",1976,1,"2004-09-24 18:46:00",339,68,68395,"2004-09-23 17:39:00",79763,28,18,"okay, a fetus is a life, taking an innocent life is murder..case closed. Shouldn't all debates be that simple and clear? LOL",79755,3,1976,1,"I'd be willing to give it a shot. Except, you cannot bring up ""right to life"" but can use God all you want.","http://www.4forums.com/political/abortion-debates/3173-pro-life-vs-freedom-religion-there-conflict.html",68213,26
"1-1976_28_26_3",1976,1,"2004-09-24 19:04:00",68,339,68398,"2004-09-24 18:46:00",79765,38,26,"Taking an innocent life is murder? No it's not. The illegal killing of a person is murder. An abortion does not fit this since abortion is legal and a fetus is not a person.",79763,3,1976,1,"okay, a fetus is a life, taking an innocent life is murder..case closed. Shouldn't all debates be that simple and clear? LOL","http://www.4forums.com/political/abortion-debates/3173-pro-life-vs-freedom-religion-there-conflict.html",68395,28
"1-1976_31_28_3",1976,1,"2004-09-25 15:15:00",339,68,68476,"2004-09-24 19:04:00",79768,74,28,"LMAO, I've seen definitions twisted around to fit one's argument before, but THIS takes the cake! I doubt that throughout history, the definition of murder falls much closer to how I defined it, more than the way YOU defined it. Yours is just a convenient twisting of words in order to have a definition satisfy you so that you can sleep comfy at night. Pretty weak actually",79765,3,1976,1,"Taking an innocent life is murder? No it's not. The illegal killing of a person is murder. An abortion does not fit this since abortion is legal and a fetus is not a person.","http://www.4forums.com/political/abortion-debates/3173-pro-life-vs-freedom-religion-there-conflict.html",68398,31
"1-1976_33_31_3",1976,1,"2004-09-25 20:14:00",68,339,68504,"2004-09-25 15:15:00",79770,9,31,"...
That is the legal definition of murder.",79768,3,1976,1,"LMAO, I've seen definitions twisted around to fit one's argument before, but THIS takes the cake! I doubt that throughout history, the definition of murder falls much closer to how I defined it, more than the way YOU defined it. Yours is just a convenient twisting of words in order to have a definition satisfy you so that you can sleep comfy at night. Pretty weak actually","http://www.4forums.com/political/abortion-debates/3173-pro-life-vs-freedom-religion-there-conflict.html",68476,33
"1-1976_34_33_3",1976,1,"2004-09-25 20:18:00",339,68,68505,"2004-09-25 20:14:00",79771,28,33,"Maybe nowadays in Bizarro world, but not throughout history I'd bet. All the pointed headed elitist Liberals have conveniently refined the definition to suit their argument",79770,3,1976,1,"...
That is the legal definition of murder.","http://www.4forums.com/political/abortion-debates/3173-pro-life-vs-freedom-religion-there-conflict.html",68504,34
"1-1976_36_34_3",1976,1,"2004-09-25 20:50:00",68,339,68510,"2004-09-25 20:18:00",79773,17,34,"You're really a piece of work. Shown that your wrong and you immediately blame liberals.",79771,3,1976,1,"Maybe nowadays in Bizarro world, but not throughout history I'd bet. All the pointed headed elitist Liberals have conveniently refined the definition to suit their argument","http://www.4forums.com/political/abortion-debates/3173-pro-life-vs-freedom-religion-there-conflict.html",68505,36
"1-1976_37_36_3",1976,1,"2004-09-26 17:50:00",339,68,68591,"2004-09-25 20:50:00",79774,66,36,"Will you deny that your side's argument has ""evolved"" over the years? And will you also deny that there could then be an ""evolution"" of the definition of murder so that it all fits nicely into this newfound argument you all have? OF course you will, I would be floored if you had the guts to admit it!",79773,3,1976,1,"You're really a piece of work. Shown that your wrong and you immediately blame liberals.","http://www.4forums.com/political/abortion-debates/3173-pro-life-vs-freedom-religion-there-conflict.html",68510,37
"1-1976_38_37_3",1976,1,"2004-09-26 17:56:00",68,339,68593,"2004-09-26 17:50:00",79775,203,37,"Truly told, I do not know when this legal definition came about, but I sincerely do not believe that it was created after Roe V Wade or tailored for use against pro-life groups. The language of the Constitution is similar, so I believe that laws simply have language such as this.
""Innocence"" is really a subjective concept. If it just means that one has not done anything wrong, then is killing someone who at one time did something wrong legal? No, of course not. So, ""innocent"" is not part of the language. Using the word ""illegal killing"" is much more precise and the legality of the killing can be determined with other laws. Using the word ""person"" is pretty universal as well instead of ""human"" because then you get into sticky ""what exactly makes a human human"" type of debate. ""Person"" is able to be defined without getting into that type of debate.
I really think the language is used as it's used because it works without a lot of qualifiers and such.",79774,3,1976,1,"Will you deny that your side's argument has ""evolved"" over the years? And will you also deny that there could then be an ""evolution"" of the definition of murder so that it all fits nicely into this newfound argument you all have? OF course you will, I would be floored if you had the guts to admit it!","http://www.4forums.com/political/abortion-debates/3173-pro-life-vs-freedom-religion-there-conflict.html",68591,38
"1-1976_53_52_4",1976,1,"2004-09-28 17:34:00",68,339,68935,"2004-09-28 16:25:00",79790,18,52,"Agreed, but I don't think any politician actually practises what they preach. We aren't politicians.",79789,4,1976,1,"MY GOD, PLEASE tell me that you hold politicians to this same criteria then!!! I know this is a little off the topic, but it needs to be said...we have Liberal politicians and activists who claim to care for the poor and starving, push for policies to ""help"" these people, but do little or NOTHING to change the problem themselves, i.e., taking the poor in, giving enough money DIRECTLY from their own pocket to feed a starving family. We Conservatives are considered EVIL because we DON'T push the policies, but rather prefer doing things on our own to help. I expect to get a few laughs from your side on that one, but seems to me if the shoe fits....Do you consider the Democrats/Liberals saviors of the poor? Seeing my point, no doubt you will say no, but then that wouldn't be consistent with a Liberal way of thinking","http://www.4forums.com/political/abortion-debates/3173-pro-life-vs-freedom-religion-there-conflict.html",68917,53
"1-1976_54_53_4",1976,1,"2004-09-28 18:07:00",339,68,68940,"2004-09-28 17:34:00",79791,36,53,"So one COULD say that Republicans/Conservatives are closer to being LESS hypocritical...afterall, we don't make claims that we are so compassionate, using government programs as a measure that is ;-)",79790,4,1976,1,"Agreed, but I don't think any politician actually practises what they preach. We aren't politicians.","http://www.4forums.com/political/abortion-debates/3173-pro-life-vs-freedom-religion-there-conflict.html",68935,54
"1-1976_55_54_4",1976,1,"2004-09-28 18:21:00",68,339,68942,"2004-09-28 18:07:00",79792,51,54,"er, ""compassionate conservative""? 
Republicans (I can't call them conservative) are just as hypocritical and neither do they keep promises they make.
We aren't talking about politicians or politics. We were talking about whether or not you personally help out with born babies.",79791,4,1976,1,"So one COULD say that Republicans/Conservatives are closer to being LESS hypocritical...afterall, we don't make claims that we are so compassionate, using government programs as a measure that is ;-)","http://www.4forums.com/political/abortion-debates/3173-pro-life-vs-freedom-religion-there-conflict.html",68940,55
"1-1976_56_55_4",1976,1,"2004-09-28 18:27:00",339,68,68943,"2004-09-28 18:21:00",79793,85,55,"Yeah, I know, but there does seem to be a tactic used by those on the left that they cannot admit their side/guy is wrong without bringing up the other side/guy, but anyway...
I refuse to accept that absurd premise that in order for me to have credibility, I'm supposed to get a woman pregnant and then give it up for adoption, THAT'S a crock and YOU know it. I've had three children....",79792,4,1976,1,"er, ""compassionate conservative""?
Republicans (I can't call them conservative) are just as hypocritical and neither do they keep promises they make.
We aren't talking about politicians or politics. We were talking about whether or not you personally help out with born babies ","http://www.4forums.com/political/abortion-debates/3173-pro-life-vs-freedom-religion-there-conflict.html",68942,56
"1-1976_57_56_4",1976,1,"2004-09-28 18:42:00",68,339,68945,"2004-09-28 18:27:00",79794,50,56,"Actually, for you to have credibility with me you would have to get pregnant and be in each and every situation that a pregnant woman can be into. If you cannot, I do not believe you can say what a woman can do with her body.",79793,4,1976,1,"Yeah, I know, but there does seem to be a tactic used by those on the left that they cannot admit their side/guy is wrong without bringing up the other side/guy, but anyway...
I refuse to accept that absurd premise that in order for me to have credibility, I'm supposed to get a woman pregnant and then give it up for adoption, THAT'S a crock and YOU know it. I've had three children....","http://www.4forums.com/political/abortion-debates/3173-pro-life-vs-freedom-religion-there-conflict.html",68943,57
"1-1976_58_57_4",1976,1,"2004-09-28 18:51:00",339,68,68947,"2004-09-28 18:42:00",79795,52,57,"Well, at least you are consistently juvenile. This is the same stupid argument that some use...if you haven't been in a war, you can't comment on it. For you to have any degree of credibility, you would need to mature and stop killing little babies",79794,4,1976,1,"Actually, for you to have credibility with me you would have to get pregnant and be in each and every situation that a pregnant woman can be into. If you cannot, I do not believe you can say what a woman can do with her body.","http://www.4forums.com/political/abortion-debates/3173-pro-life-vs-freedom-religion-there-conflict.html",68945,58
"1-1976_60_58_4",1976,1,"2004-09-28 21:03:00",68,339,68953,"2004-09-28 18:51:00",79797,51,58,"Er, you really do have to have been in battle to have any idea what it is really like. That's why they don't want politicians to run wars.
I'm juvenile? Is that why you've been unable to answer my argument? You just sort of... stopped",79795,4,1976,1,"Well, at least you are consistently juvenile. This is the same stupid argument that some use...if you haven't been in a war, you can't comment on it. For you to have any degree of credibility, you would need to mature and stop killing little babies","http://www.4forums.com/political/abortion-debates/3173-pro-life-vs-freedom-religion-there-conflict.html",68947,60
"1-1976_91_90_5",1976,1,"2004-10-01 18:06:00",339,68,69558,"2004-10-01 18:01:00",79828,58,90,"Well, that wasn't clear from your posts. I just don't understand though, you believe in a woman's choice, for whatever reasons she feels are important to her, but yet you think it would be wrong for cosmetic reasons? Gender reasons too? Sorry, seems ""inconsistent"" to say the least",79827,5,1976,1,"We've debated that already, though. You believe the way you believe, and I believe the way I believe. Unless something new is brought to the table, we know where each other stands.

Actually, the only opinion I've given you is that I don't believe choosing for hair color. There are many instances I don't believe abortions should be performed, especially cosmetic reasons. Whatever reasons I believe aren't good ones for abortions are just my opinion and have no bearing on whether I believe abortion should be legal.

I don't ""support"" abortion. I am against making it illegal, but I have no love for abortion. I believe it's a necessary choice.

Ok. Not my favorite way to debate but I guess I'll give it a go.","http://www.4forums.com/political/abortion-debates/3173-pro-life-vs-freedom-religion-there-conflict.html",69554,91
"1-1976_93_91_5",1976,1,"2004-10-01 20:09:00",68,339,69606,"2004-10-01 18:06:00",79830,59,91,"It would only be inconsistant is I had abortions for those reasons. 
Others do things I don't approve of all the time. If I don't approve of you owning a gun but I believe in your right to, am I inconsistent? Believing in the right and approving of the action are two different things.",79828,5,1976,1,"Well, that wasn't clear from your posts. I just don't understand though, you believe in a woman's choice, for whatever reasons she feels are important to her, but yet you think it would be wrong for cosmetic reasons? Gender reasons too? Sorry, seems ""inconsistent"" to say the least","http://www.4forums.com/political/abortion-debates/3173-pro-life-vs-freedom-religion-there-conflict.html",69558,93
"1-1976_94_93_5",1976,1,"2004-10-02 07:47:00",339,68,69662,"2004-10-01 20:09:00",79831,81,93,"So you are saying if a woman chose to abort her pregnancy based on cosmetic or gender reason, you would support her right to do that? And to further clarify, away from the RIGHTS aspect, you seem to believe it's okay to abort for financial reasons but not for cosmetic/gender reasons? THAT to me is where the inconsistency lies. Forget about the rights part for a second, basing it on your BELIEFS",79830,5,1976,1,"It would only be inconsistant is I had abortions for those reasons. 
Others do things I don't approve of all the time. If I don't approve of you owning a gun but I believe in your right to, am I inconsistent? Believing in the right and approving of the action are two different things.","http://www.4forums.com/political/abortion-debates/3173-pro-life-vs-freedom-religion-there-conflict.html",69606,94
"1-1976_95_94_5",1976,1,"2004-10-02 12:09:00",68,339,69675,"2004-10-02 07:47:00",79832,104,94,"I support the right to abort for any reason.

My personal reasons would not include cosmetic reasons. If I or my SO were pregnant, we would have to be in dire financial straits to consider abortion. Cosmetics don't necessarily negativly affect us, while a financial burden would. If our circumstances were such that we flatly could not afford an extra expense, then we would consider abortion. It would not be a light decision.
Obviously if either of our lives were threatened, or our health seriously impaired we would consider it then as well.",79831,5,1976,1,"So you are saying if a woman chose to abort her pregnancy based on cosmetic or gender reason, you would support her right to do that? And to further clarify, away from the RIGHTS aspect, you seem to believe it's okay to abort for financial reasons but not for cosmetic/gender reasons? THAT to me is where the inconsistency lies. Forget about the rights part for a second, basing it on your BELIEFS","http://www.4forums.com/political/abortion-debates/3173-pro-life-vs-freedom-religion-there-conflict.html",69662,95
"1-1976_96_95_5",1976,1,"2004-10-02 15:28:00",339,68,69697,"2004-10-02 12:09:00",79833,177,95,"Despite our differences, I don't consider you stupid (the ARGUMENTS you have are a different story :-P), so I would have been shocked if you had said differently....on HERE anyway ;-) There's no truth detector here to say with any certainty that you in FACT think this way, you are smart enough to know that IF you had said differently it would've damaged your argument, so ANYWAY....

We all know how iffy one's financial situation is at any given time. While you are pregnant, things could be a little tight, and the day after you have an abortion you could get a big promotion. Or could be the other way around, you're pregnant and things are going great and boom, the child is born and you lose your job...what then? You really can't see what a weak argument you have, to base that kind of decision on circumstances that can change at the drop of a hat.",79832,5,1976,1,"I support the right to abort for any reason.

My personal reasons would not include cosmetic reasons. If I or my SO were pregnant, we would have to be in dire financial straits to consider abortion. Cosmetics don't necessarily negativly affect us, while a financial burden would. If our circumstances were such that we flatly could not afford an extra expense, then we would consider abortion. It would not be a light decision.
Obviously if either of our lives were threatened, or our health seriously impaired we would consider it then as well.","http://www.4forums.com/political/abortion-debates/3173-pro-life-vs-freedom-religion-there-conflict.html",69675,96
"1-1976_97_96_5",1976,1,"2004-10-02 20:53:00",68,339,69727,"2004-10-02 15:28:00",79834,90,96,"I'm not sure what you mean by this

It isn't an argument, it's my personal beliefs. If I or my SO got pregnant and decided that we could not afford it, we would consider an abortion. If we decided to keep it and after it was born lost our jobs... we would not and could not change our decision. We had decided we wanted a baby. After it is born we would not want to change our decision, nor could we.",79833,5,1976,1,"Despite our differences, I don't consider you stupid (the ARGUMENTS you have are a different story :-P), so I would have been shocked if you had said differently....on HERE anyway ;-) There's no truth detector here to say with any certainty that you in FACT think this way, you are smart enough to know that IF you had said differently it would've damaged your argument, so ANYWAY....

We all know how iffy one's financial situation is at any given time. While you are pregnant, things could be a little tight, and the day after you have an abortion you could get a big promotion. Or could be the other way around, you're pregnant and things are going great and boom, the child is born and you lose your job...what then? You really can't see what a weak argument you have, to base that kind of decision on circumstances that can change at the drop of a hat.","http://www.4forums.com/political/abortion-debates/3173-pro-life-vs-freedom-religion-there-conflict.html",69697,97
"1-1976_98_97_5",1976,1,"2004-10-03 15:03:00",339,68,69781,"2004-10-02 20:53:00",79835,179,97,"you said this:

and I just meant that IF you had responded differently, it would make the defense of your beliefs more difficult because it would not have been a consistent belief

See how legalistic this society has become? You know what I mean, substitute argument for beliefs then if it makes it easier, good Lord. 

And you couldn't change your decision if you killed the fetus and then hit the lottery the next day either! IF it's such an earth shattering decision like you claim, and since finanial conditions can change for the better or worse at any time, it would make much more sense to be prudent and assume that one's finances DO get better (afterall, I'm sure many of us are making more money now than we did at 22 or 29 or...) and therefore one would keep the child. But it seems that those who believe like you can't see past their noses and make a decision based on THIS day.",79834,5,1976,1,"I'm not sure what you mean by this

It isn't an argument, it's my personal beliefs. If I or my SO got pregnant and decided that we could not afford it, we would consider an abortion. If we decided to keep it and after it was born lost our jobs... we would not and could not change our decision. We had decided we wanted a baby. After it is born we would not want to change our decision, nor could we.","http://www.4forums.com/political/abortion-debates/3173-pro-life-vs-freedom-religion-there-conflict.html",69727,98
"1-1976_148_146_6",1976,1,"2008-10-06 07:14:00",931,164,326472,"2008-10-06 05:54:00",79885,118,146,"Aside from the fact that the 1st Amendment applies only to Congress, ""the freedom of speech"" has never been an absolute. Treason, for instance.

In what way? Are you suggesting that those folks did bad things? Such a statement has no meaning if there is no absolute truth.
Do you really believe that what Hitler did was just as moral as what Wilberforce did? Do you really believe that exterminating 6 million Jews is just as moral as liberating an entire race from the institution of slavery?

There it is again--slavery to their fetuses. It has already been demonstrated that this is impossible.",79883,6,1976,1,"OK then. Let's see what you make of the 1791 words of 1A which say ""NO LAW"".
Are you ready to advocate for the dissemination of kiddie porn, or have the words ""NO LAW"" changed meaning over time so that they no longer mean not a single, solitary law?
BTW, I can think of others who believed in absolutes - Mao, Louis XVI, Bismarck, Stalin, Hitler, Pinochet, Jaruzelski, and Kim Jong-Il.
On balance, I think they more than cancel out your list.
Be that as it may, there simply is no getting around the fact that profetallifers wish to keep pregnant women in slavery to their fetuses and that they are willing to sacrifice women on the altar of their fetuses.","http://www.4forums.com/political/abortion-debates/3173-pro-life-vs-freedom-religion-there-conflict.html",326467,148
"1-1976_150_148_6",1976,1,"2008-10-06 09:54:00",164,931,326477,"2008-10-06 07:14:00",79887,169,148,"Please don't show the entire forum your lack of knowledge of the Constitution by writing drivel such as this.
Treason is the only crime defined in the Constitution, in Article 3 to be precise.
If you took the time to read it, you would see that it dealt with ACTS, not speech.
Besides which, why not tell us just exactly how, in light of the words NO LAW in the First Amendment, speech can be, under your absurd idea that the words of the Constitution, restricted , except by others interpreting those words.
Kinda knocks your pet theory into a cocked hat, I would say.
You want the words to be unchanging when they support your warped POV, but flexible when they do not.
NICE!!
Further, the dissemination of kiddie porn IS a Federal crime, so it would seem that all prosecutions by the Federal government must cease forthwith.",79885,6,1976,1,"Aside from the fact that the 1st Amendment applies only to Congress, ""the freedom of speech"" has never been an absolute. Treason, for instance.

In what way? Are you suggesting that those folks did bad things? Such a statement has no meaning if there is no absolute truth.
Do you really believe that what Hitler did was just as moral as what Wilberforce did? Do you really believe that exterminating 6 million Jews is just as moral as liberating an entire race from the institution of slavery?

There it is again--slavery to their fetuses. It has already been demonstrated that this is impossible.","http://www.4forums.com/political/abortion-debates/3173-pro-life-vs-freedom-religion-there-conflict.html",326472,150
"1-1976_156_150_6",1976,1,"2008-10-06 17:19:00",931,164,326541,"2008-10-06 09:54:00",79893,59,150,"No, it really doesn't.
But what I would really like to know is this:
Do you really believe that what Hitler did was just as moral as what Wilberforce did? Do you really believe that exterminating 6 million Jews is just as moral as liberating an entire race from the institution of slavery?i",79887,6,1976,1,"Please don't show the entire forum your lack of knowledge of the Constitution by writing drivel such as this.
Treason is the only crime defined in the Constitution, in Article 3 to be precise.
If you took the time to read it, you would see that it dealt with ACTS, not speech.
Besides which, why not tell us just exactly how, in light of the words NO LAW in the First Amendment, speech can be, under your absurd idea that the words of the Constitution, restricted , except by others interpreting those words.
Kinda knocks your pet theory into a cocked hat, I would say.
You want the words to be unchanging when they support your warped POV, but flexible when they do not.
NICE!!
Further, the dissemination of kiddie porn IS a Federal crime, so it would seem that all prosecutions by the Federal government must cease forthwith.","http://www.4forums.com/political/abortion-debates/3173-pro-life-vs-freedom-religion-there-conflict.html",326477,156
"1-1976_159_156_6",1976,1,"2008-10-06 18:27:00",164,931,326547,"2008-10-06 17:19:00",79896,143,156,"Do YOU really believe that to be an intelligent question?
BTW, you might want to ask the Ukrainians about why they allied with Hitler.(Hint: it wasn't because of his Final Solution!)
At any rate, we note that you have once again tried to shift away from a topic you don't want to discuss - your slippery Constitutional interpretation wherein you claim the right to determine which words are to be used as when they were written and which others you choose to modify over time.
How about NO LAW in 1A. What new spin will you put on them to deny the right of someone to disseminate kiddie porn?
Denying a pregnant woman who wants one of the RIGHT to an abortion in making her a slave to her fetus.",79893,6,1976,1,"No, it really doesn't.
But what I would really like to know is this:
Do you really believe that what Hitler did was just as moral as what Wilberforce did? Do you really believe that exterminating 6 million Jews is just as moral as liberating an entire race from the institution of slavery?i","http://www.4forums.com/political/abortion-debates/3173-pro-life-vs-freedom-religion-there-conflict.html",326541,159
"1-1976_162_159_6",1976,1,"2008-10-06 18:53:00",931,164,326551,"2008-10-06 18:27:00",79899,90,159,"I see you evaded again. The question is plenty intelligent, and is really quite easy, and you are the one who brought up absolutes. So here it is again:
Do you really believe that what Hitler did was just as moral as what Wilberforce did? Do you really believe that exterminating 6 million Jews is just as moral as liberating an entire race from the institution of slavery?

Using force, locking them up, and other various things provided by law.",79896,6,1976,1,"Do YOU really believe that to be an intelligent question?
BTW, you might want to ask the Ukrainians about why they allied with Hitler.(Hint: it wasn't because of his Final Solution!)
At any rate, we note that you have once again tried to shift away from a topic you don't want to discuss - your slippery Constitutional interpretation wherein you claim the right to determine which words are to be used as when they were written and which others you choose to modify over time.
How about NO LAW in 1A. What new spin will you put on them to deny the right of someone to disseminate kiddie porn?
Denying a pregnant woman who wants one of the RIGHT to an abortion in making her a slave to her fetus.","http://www.4forums.com/political/abortion-debates/3173-pro-life-vs-freedom-religion-there-conflict.html",326547,162
"1-1976_165_162_6",1976,1,"2008-10-06 19:25:00",164,931,326555,"2008-10-06 18:53:00",79902,115,162,"You would do this to those whom you label PROSPECTIVE lawbreakers, i.e., those who have not committed a criminal act? Welcome to Burma, North Korea, and Sudan, among others.
We would love to know what the ""various other things"" might be.emoticonXBanghead
Well, there goes the original interpretation of 4A, 5A, 6A, and 8A.
Not really an originalist are you, except when it suits your purposes?
It's fun watching your dearly held theories slowly unravel under scrutiny.emoticonXSmilie
Now, what about kiddie porn under 1A? You know, the part that says NO LAW!",79899,6,1976,1,"I see you evaded again. The question is plenty intelligent, and is really quite easy, and you are the one who brought up absolutes. So here it is again:
Do you really believe that what Hitler did was just as moral as what Wilberforce did? Do you really believe that exterminating 6 million Jews is just as moral as liberating an entire race from the institution of slavery?

Using force, locking them up, and other various things provided by law.","http://www.4forums.com/political/abortion-debates/3173-pro-life-vs-freedom-religion-there-conflict.html",326551,165
"1-1976_167_165_6",1976,1,"2008-10-06 19:40:00",931,164,326557,"2008-10-06 19:25:00",79904,137,165,"In the United States, solicitation for murder will land one in prison. We punish law breakers, and that is what I am suggesting.
Now, maybe you would be willing to speak to this question: 
Do you really believe that what Hitler did was just as moral as what Wilberforce did? Do you really believe that exterminating 6 million Jews is just as moral as liberating an entire race from the institution of slavery?

Yeah, not so much. I have only made the common sense statement that we lock people up against their will all the time for things. If you support locking people up for their crimes, then you, too, support forcing at least some people to do things against their will.",79902,6,1976,1,"You would do this to those whom you label PROSPECTIVE lawbreakers, i.e., those who have not committed a criminal act? Welcome to Burma, North Korea, and Sudan, among others.
We would love to know what the ""various other things"" might be.emoticonXBanghead
Well, there goes the original interpretation of 4A, 5A, 6A, and 8A.
Not really an originalist are you, except when it suits your purposes?
It's fun watching your dearly held theories slowly unravel under scrutiny.emoticonXSmilie
Now, what about kiddie porn under 1A? You know, the part that says NO LAW!","http://www.4forums.com/political/abortion-debates/3173-pro-life-vs-freedom-religion-there-conflict.html",326555,167
"1-1976_170_167_6",1976,1,"2008-10-06 20:33:00",164,931,326561,"2008-10-06 19:40:00",79907,136,167,"Silly you.emoticonXClown
Solicitation IS a crime. In the law, solicitation, conspiracy, and attempt are called PRELIMINARY, not PROSPECTIVE criminal acts.
You specifically said PROSPECTIVE criminal act.
It's only the difference between night and day.
For a person who says words in the Constitution have an absolute definition that is fixed for all time, you're quite sloppy in your definitions.
Now, want to explain how the words NO LAW in 1a are an absolute bar to prosecutions for disseminating kiddie porn.
Under your ""originalist"" interpretation, not only would it not be a PROSPECTIVE crime, it would not be criminal at all.
If you want to ""change the law"", you first need to understand it.",79904,6,1976,1,"In the United States, solicitation for murder will land one in prison. We punish law breakers, and that is what I am suggesting.
Now, maybe you would be willing to speak to this question: 
Do you really believe that what Hitler did was just as moral as what Wilberforce did? Do you really believe that exterminating 6 million Jews is just as moral as liberating an entire race from the institution of slavery?

Yeah, not so much. I have only made the common sense statement that we lock people up against their will all the time for things. If you support locking people up for their crimes, then you, too, support forcing at least some people to do things against their will.","http://www.4forums.com/political/abortion-debates/3173-pro-life-vs-freedom-religion-there-conflict.html",326557,170
"1-1976_173_172_7",1976,1,"2008-10-07 05:07:00",164,931,326574,"2008-10-07 04:52:00",79910,73,172,"I hope that you are well aware of the fact that if we allow government to pass a law which today can force a woman against her will to carry her fetus to term can someday be the government which will be able to force a woman against her will to abort her fetus.
Sorry, but that is a place where the law intrudes at its, and our, peril",79909,7,1976,1,"What I am saying, and you are demonstrating, is that your statement about not forcing people to do things against their will is ridiculous. You support locking some criminals up, and you support doing so without their consent. You support forcing through the law all kinds of people to do all kinds of things against their will.

I have said that I think it is ok to force any law breaker, male or female, to do things that they may not want to do. Like go to jail or pay a traffic ticket, for instance.

So do you, or do you not, support laws making it a crime for even pregnant women to murder others no matter what she herself happens to want? If so, you support forcing pregnant women to do something that she may not want to do. There is nothing profound or shocking in this fact. I won't go around libelously proclaiming that you support rape simply because you might think that even pregnant women can be forced to do things against their will (like go to prison for a murder or pay a traffic fine). The purpose of the law is to impose duties on a person no matter if they happen to want those duties or not. And this goes for both men and women.","http://www.4forums.com/political/abortion-debates/3173-pro-life-vs-freedom-religion-there-conflict.html",326572,173
"1-1976_177_173_7",1976,1,"2008-10-07 12:30:00",931,164,326688,"2008-10-07 05:07:00",79914,40,173,"I wonder if you could answer this question: Would it be just as moral for a government to force a woman to have an abortion as it would be for a government to prevent her from having one?",79910,7,1976,1,"I hope that you are well aware of the fact that if we allow government to pass a law which today can force a woman against her will to carry her fetus to term can someday be the government which will be able to force a woman against her will to abort her fetus.
Sorry, but that is a place where the law intrudes at its, and our, peril","http://www.4forums.com/political/abortion-debates/3173-pro-life-vs-freedom-religion-there-conflict.html",326574,177
"1-1976_178_177_7",1976,1,"2008-10-07 12:45:00",164,931,326692,"2008-10-07 12:30:00",79915,90,177,"Each would be equally immoral, unless you want to want to concede that there is no private area into which the government may not spread its tentacles.
In either case, the government is denying choice to a pregnant woman.
If we live in the world of Big Brother, then they are equally moral.
I can hardly wait for you to drop your feather hammer in your follow-up, which we all know is coming. You're about as subtle as a Taser.emoticonXAngry",79914,7,1976,1,"I wonder if you could answer this question: Would it be just as moral for a government to force a woman to have an abortion as it would be for a government to prevent her from having one?","http://www.4forums.com/political/abortion-debates/3173-pro-life-vs-freedom-religion-there-conflict.html",326688,178
"1-1976_179_178_7",1976,1,"2008-10-07 13:29:00",931,164,326700,"2008-10-07 12:45:00",79916,68,178,"Good. Now we can move to more advanced questions. Try this one:
Are the following three scenarios just as moral as each other:
(1) Government forcing a woman to have an abortion; 
(2) Government forceing her not to have an abortion; and 
(3) Government allowing her to decide for herself whether to have an abortion?",79915,7,1976,1,"Each would be equallyimmoral, unless you want to want to concede that there is no private area into which the government may not spread its tentacles.","http://www.4forums.com/political/abortion-debates/3173-pro-life-vs-freedom-religion-there-conflict.html",326692,179
"1-1976_181_179_7",1976,1,"2008-10-07 17:23:00",164,931,326733,"2008-10-07 13:29:00",79918,99,179,"Nice try, but no dice.
#3 Should say, ""Government taking no position whatsoever on the question of abortion, leaving the decision where it properly belongs, in the mind of each pregnant woman.""
Don't even try to play your Jesuitical word games, sister; they don't work.emoticonXClown
Now you will get your answer after you respond to my question of how, under an originalist view of the words NO LAW in the First Amendment, the government can do anything to prevent the dissemination of kiddie porn.",79916,7,1976,1,"Good. Now we can move to more advanced questions. Try this one:
Are the following three scenarios just as moral as each other:
(1) Government forcing a woman to have an abortion; 
(2) Government forceing her not to have an abortion; and 
(3) Government allowing her to decide for herself whether to have an abortion?","http://www.4forums.com/political/abortion-debates/3173-pro-life-vs-freedom-religion-there-conflict.html",326700,181
"1-1976_183_181_7",1976,1,"2008-10-07 17:52:00",931,164,326741,"2008-10-07 17:23:00",79920,77,181,"Ok, so:
Are the following three scenarios just as moral as each other:
(1) Government forcing a woman to have an abortion;
(2) Government forcing her not to have an abortion; and
(3) Government taking no position whatsoever on the question of abortion, leaving the decision to each individual woman.

We've been over this before beginning here, and my answer hasn't changed.",79918,7,1976,1,"Nice try, but no dice.
#3 Should say, ""Government taking no position whatsoever on the question of abortion, leaving the decision where it properly belongs, in the mind of each pregnant woman.""
Don't even try to play your Jesuitical word games, sister; they don't work.emoticonXClown
Now you will get your answer after you respond to my question of how, under an originalist view of the words NO LAW in the First Amendment, the government can do anything to prevent the dissemination of kiddie porn.","http://www.4forums.com/political/abortion-debates/3173-pro-life-vs-freedom-religion-there-conflict.html",326733,183
"1-1976_184_183_7",1976,1,"2008-10-07 18:25:00",164,931,326748,"2008-10-07 17:52:00",79921,152,183,"Here's the entire content of your post.
I doubt you can cite Scalia as an activist in First Amendment cases when he has voted to overturn bans on flag burning. You really should try to think before you speak; or perhaps you actually did, in which case we should simply conclude that you have no idea what you are talking about.
Regardless, any decision that holds that something is in the Constitution, when in fact it really is not, is wrong and merits reversal no matter which judges perpetrate the wrong decision. 
You didn't answer it there, and you still won't answer it here.
How do you plan to get around the fact that the words NO LAW are in the Constitution?
Guess you will have a L--O--N--G wait until you get my answer.",79920,7,1976,1,"Ok, so:
We've been over this before beginning here, and my answer hasn't changed.","http://www.4forums.com/political/abortion-debates/3173-pro-life-vs-freedom-religion-there-conflict.html",326741,184
"1-1976_186_184_7",1976,1,"2008-10-07 19:38:00",931,164,326755,"2008-10-07 18:25:00",79923,93,184,"I said the discussion began there. The discussion went on for several pages, and you are free to read it again if you like.
And the question is, are each of the following three scenarios just as moral as the other:
(1) Government forcing a woman to have an abortion;
(2) Government forcing her not to have an abortion; and
(3) Government taking no position whatsoever on the question of abortion, leaving the decision to each individual woman.",79921,7,1976,1,"Here's the entire content of your post.
I doubt you can cite Scalia as an activist in First Amendment cases when he has voted to overturn bans on flag burning. You really should try to think before you speak; or perhaps you actually did, in which case we should simply conclude that you have no idea what you are talking about.
Regardless, any decision that holds that something is in the Constitution, when in fact it really is not, is wrong and merits reversal no matter which judges perpetrate the wrong decision. 
You didn't answer it there, and you still won't answer it here.
How do you plan to get around the fact that the words NO LAW are in the Constitution?
Guess you will have a L--O--N--G wait until you get my answer.","http://www.4forums.com/political/abortion-debates/3173-pro-life-vs-freedom-religion-there-conflict.html",326748,186
"1-1976_187_186_7",1976,1,"2008-10-07 20:02:00",164,931,326758,"2008-10-07 19:38:00",79924,23,186,"Not until I get a straight answer, or at least an admission from you that ""originalism"" is a fraud.",79923,7,1976,1,"I said the discussion began there. The discussion went on for several pages, and you are free to read it again if you like.
And the question is, are each of the following three scenarios just as moral as the other:
(1) Government forcing a woman to have an abortion;
(2) Government forcing her not to have an abortion; and
(3) Government taking no position whatsoever on the question of abortion, leaving the decision to each individual woman.","http://www.4forums.com/political/abortion-debates/3173-pro-life-vs-freedom-religion-there-conflict.html",326755,187
