"key","quote_source_post_discussion_id","posts_dataset_id","posts_timestamp","posts_author_id","quote_source_author_id","posts_native_post_id","quote_source_timestamp","post_text_id","Word_Count","quote_source_post_id","post_text","quote_source_text_id","Dialog_Turn","posts_discussion_id","quote_source_post_dataset_id","Fullquote_text","discussion_url","quote_source_native_post_id","posts_post_id"
"1-2585_45_42_1",2585,1,"2005-01-11 13:04:00",68,98,86039,"2005-01-11 12:29:00",101703,46,42,"Hey, no problem :)

Like bullets off Superman emoticonXClown 

Teachings? emoticonXConfused

There is no law stating that you must ""deal with"" all consequences of an action if you can change them. Where in the world did you get that idea?",101700,1,2585,1,"Thanks for reminding me exactly why I don't visit this forum often. Not only are you impervious to logic, a lot of teachings have rolled off your back like rain does on a duck.
I'm pro-choice, too. Within your right to have sex as you please, you have the choice of having unprotected sex and living with all of the consequences or the other choice of having protected sex and living with all the consequences. Either way, you have no right to violate the rights others, including the unborn ones that you ""accidently"" procreate.","http://www.4forums.com/political/abortion-debates/4062-news-clip-boy-faces-felony-baseball-bat-abortion.html",86027,45
"1-2585_49_45_1",2585,1,"2005-01-11 13:44:00",98,68,86054,"2005-01-11 13:04:00",101707,12,45,"Here again is evidence of your misunderstanding of ""consequences"".",101703,1,2585,1,"...
There is no law stating that you must ""deal with"" all consequences of an action if you can change them. Where in the world did you get that idea?","http://www.4forums.com/political/abortion-debates/4062-news-clip-boy-faces-felony-baseball-bat-abortion.html",86039,49
"1-2585_51_49_1",2585,1,"2005-01-11 13:48:00",68,98,86056,"2005-01-11 13:44:00",101709,27,49,"Oh? Where is my misunderstanding when I state that one does not have to endure all consequences of an action if one can change it?",101707,1,2585,1,"Here again is evidence of your misunderstanding of ""consequences"".","http://www.4forums.com/political/abortion-debates/4062-news-clip-boy-faces-felony-baseball-bat-abortion.html",86054,51
"1-2585_52_51_1",2585,1,"2005-01-11 14:08:00",98,68,86058,"2005-01-11 13:48:00",101710,129,51,"One usually has to endure the consequences of one's actions. One also has to endure the consequences of someone else's actions directed at them.
Walking barefoot in the snow will likely give you pneumonia. Bumpin' uglies without BC will likely make someone pregnant. Both of these are consequences that you have to deal with. How you deal with each depends of the available tools and your own behavior. Whether you choose to kill the fetus or give it a decent birth, you are dealing with the consequence of pregnancy. You didn't change the consequence of unprotected sex. You simply chose to kill.
It's just pathetic that so many people equate pregnancy with catching a cold or something.",101709,1,2585,1,"Oh? Where is my misunderstanding when I state that one does not have to endure all consequences of an action if one can change it?","http://www.4forums.com/political/abortion-debates/4062-news-clip-boy-faces-felony-baseball-bat-abortion.html",86056,52
"1-2585_53_52_1",2585,1,"2005-01-11 14:13:00",68,98,86059,"2005-01-11 14:08:00",101711,87,52,"Oh, I agree. That was my point. You do not have to endure the consequences if you can change them. You do not have to endure pregnancy because you can choose abortion. Abortion is also a consequence. Saying ""You have to deal with the consequences of your action, so abortion is not allowed"" is what what I was arguing against.

It's pathetic that so many people want to use pregnancy as a punishment for irresponsible behavior.",101710,1,2585,1,"One usually has to endure the consequences of one's actions. One also has to endure the consequences of someone else's actions directed at them.
Walking barefoot in the snow will likely give you pneumonia. Bumpin' uglies without BC will likely make someone pregnant. Both of these are consequences that you have to deal with. How you deal with each depends of the available tools and your own behavior. Whether you choose to kill the fetus or give it a decent birth, you are dealing with the consequence of pregnancy. You didn't change the consequence of unprotected sex. You simply chose to kill.
It's just pathetic that so many people equate pregnancy with catching a cold or something.","http://www.4forums.com/political/abortion-debates/4062-news-clip-boy-faces-felony-baseball-bat-abortion.html",86058,53
"1-2585_56_53_1",2585,1,"2005-01-11 14:29:00",98,68,86067,"2005-01-11 14:13:00",101714,36,53,"Herein lies more evidence of inadequacy. Abortion is not a consequence. Abortion is your solution to the consequence of getting pregnant from unprotected sex. It's your way of dealing with a consequence.",101711,1,2585,1,"Oh, I agree. That was my point. You do not have to endure the consequences if you can change them. You do not have to endure pregnancy because you can choose abortion.Abortion is also a consequence. Saying ""You have to deal with the consequences of your action, so abortion is not allowed"" is what what I was arguing against.","http://www.4forums.com/political/abortion-debates/4062-news-clip-boy-faces-felony-baseball-bat-abortion.html",86059,56
"1-2585_57_56_1",2585,1,"2005-01-11 14:38:00",68,98,86069,"2005-01-11 14:29:00",101715,129,56,"Now you're just quibbling. Abortion is a consequence. Abortion is a possible consequence of sex, it is a consequence of choosing to have an abortion, it is a consequence of telling your parents and having them force you into having one. Pregnancy is a possible consequence of sex, it is a consequence of choosing to have a boyfriend, it is a consequence of impaired judgement due to alcohol or pot. 
Abortion is a possible conseqence of pregnancy as well. It is very disingenuous to put about that it isn't a consequence. You could say it is a consequence of a consequence as well, but that does not negate that it is a consequence of the original action.",101714,1,2585,1,"Herein lies more evidence of inadequacy. Abortion is not a consequence. Abortion is your solution to the consequence of getting pregnant from unprotected sex. It's your way of dealing with a consequence.","http://www.4forums.com/political/abortion-debates/4062-news-clip-boy-faces-felony-baseball-bat-abortion.html",86067,57
"1-2585_17_16_2",2585,1,"2005-01-10 06:55:00",68,343,85758,"2005-01-10 06:05:00",101675,153,16,"Daewoo,

The girl estimated she was four months pregnant

No, the rationale is that no-one, not even parents, can force anyone to continue to be pregnant against their will.
Parental guidance is encouraged, but in no way should they make the decision about what a girl, even their daughter, must do with her pregnancy. They can't force her to abort a pregnancy (which is a logical step for ""you need permission from parents"") and they cannot force her to continue the pregnancy either.
Jyoshu,

As could the pregnancy. In fact, young girls are more at risk.
If harm is inevitable, which should it be? A situation the girl chose to be in harming her, or a situation she was forced into harming her? Additionally, abortion is safer than childbirth.",101674,2,2585,1,"Not to mention that if it goes wrong, could hurt the child or teenager too.","http://www.4forums.com/political/abortion-debates/4062-news-clip-boy-faces-felony-baseball-bat-abortion.html",85751,17
"1-2585_21_17_2",2585,1,"2005-01-10 11:38:00",343,68,85803,"2005-01-10 06:55:00",101679,144,17,"Why shouldn't they be able to?
Even if one concedes that adults have certain rights on their own, surely you can concede that minors don't, even with their own bodies. For instance, if a minor has gotten obese, don't you think a parent is within their rights to only fix meals that are healthy and prevent the minor from eating junk food? Parents do things like this all the time when it is necessary. It is generally understood in our society that a parent knows better than the child on most matters.
Besides, regardless of all that, children don't have the same rights adults do period. They can't vote, they can't drive, they can't buy alcohol, etc. Why should abortion w/out parental consent be any different?",101675,2,2585,1,"Daewoo,

The girl estimated she was four months pregnant

No, the rationale is that no-one, not even parents, can force anyone to continue to be pregnant against their will.
Parental guidance is encouraged, but in no way should they make the decision about what a girl, even their daughter, must do with her pregnancy. They can't force her to abort a pregnancy (which is a logical step for ""you need permission from parents"") and they cannot force her to continue the pregnancy either.
Jyoshu,

As could the pregnancy. In fact, young girls are more at risk.
If harm is inevitable, which should it be? A situation the girl chose to be in harming her, or a situation she was forced into harming her? Additionally, abortion is safer than childbirth.","http://www.4forums.com/political/abortion-debates/4062-news-clip-boy-faces-felony-baseball-bat-abortion.html",85758,21
"1-2585_26_21_2",2585,1,"2005-01-10 14:16:00",68,343,85853,"2005-01-10 11:38:00",101684,138,21,"You know what's funny? The same argument you and daewoo use can be used for abortion. The fetus would qualify as a ""minor"" if you had your way and it was ""person"" under the law, would it not? The mother decides for her own body, and she decides for the fetus since she gets to decide what the fetus does with its body. The next-of-kin argument applies as well since the fetus has not achieved conciousness (in the majority of abortions). There is no rationale where the fetus has any right to be attached to the woman when she does not want it to be.

And they don't have the right to live attached to someone else without their parent's consent :p Perfect!",101679,2,2585,1,"Why shouldn't they be able to?
Even if one concedes that adults have certain rights on their own, surely you can concede that minors don't, even with their own bodies. For instance, if a minor has gotten obese, don't you think a parent is within their rights to only fix meals that are healthy and prevent the minor from eating junk food? Parents do things like this all the time when it is necessary. It is generally understood in our society that a parent knows better than the child on most matters.
Besides, regardless of all that, children don't have the same rights adults do period. They can't vote, they can't drive, they can't buy alcohol, etc. Why should abortion w/out parental consent be any different?","http://www.4forums.com/political/abortion-debates/4062-news-clip-boy-faces-felony-baseball-bat-abortion.html",85803,26
"1-2585_31_26_2",2585,1,"2005-01-11 05:48:00",343,68,85934,"2005-01-10 14:16:00",101689,112,26,"You are taking the 'right to life,' and putting on par with the right to drive, right to marriage, etc. I believe that the very right live is the first right a person should have and is not contingent on age. Other rights are. Like it or not, children have less rights than adults.
So, are you going to try and deal with the argument presented or just bring up irrelevant comparisons?
You haven't answered the question presented: since minors have to get parental consent for most any medical treatement, why do you think abortion should be different?",101684,2,2585,1,"You know what's funny? The same argument you and daewoo use can be used for abortion. The fetus would qualify as a ""minor"" if you had your way and it was ""person"" under the law, would it not? The mother decides for her own body,and she decides for the fetus since she gets to decide what the fetus does with its body. The next-of-kin argument applies as well since the fetus has not achieved conciousness (in the majority of abortions). There is no rationale where the fetus has any right to be attached to the woman when she does not want it to be.","http://www.4forums.com/political/abortion-debates/4062-news-clip-boy-faces-felony-baseball-bat-abortion.html",85853,31
"1-2585_32_31_2",2585,1,"2005-01-11 06:47:00",68,343,85952,"2005-01-11 05:48:00",101690,195,31,"I apologize, I thought it was addressed.
It is not irrelevant, however. You believe that the right to live is superior to other rights. You are wrong. Your right to live is not superior to my right to privacy, to my right to bodily integrity. You have no right to live attached to me.
You believe that parents should be able to determine whether or not their daughter is attached to a fetus, yet you do not believe a parent should be able to determine if their ""child"" (the fetus) is attached to the parent herself? 

Similarly to STD treatment, which can be received without parental consent, decisions that affect sexual health are a lot more personal then anything you mentioned. A right to privacy in this manner is not contingent on age either.
If children have fewer rights than adults because they have fewer life experiences, a fetus has even fewer rights because it has no life experiences. What is your rationale for giving a fetus more rights than an adult woman?",101689,2,2585,1,"You are taking the 'right to life,' and putting on par with the right to drive, right to marriage, etc. I believe that the very right live is the first right a person should have and is not contingent on age. Other rights are. Like it or not, children have less rights than adults.
So, are you going to try and deal with the argument presented or just bring up irrelevant comparisons?
You haven't answered the question presented: since minors have to get parental consent for most any medical treatement, why do you think abortion should be different?","http://www.4forums.com/political/abortion-debates/4062-news-clip-boy-faces-felony-baseball-bat-abortion.html",85934,32
"1-2585_79_78_3",2585,1,"2005-01-12 10:07:00",662,98,86205,"2005-01-12 09:59:00",101737,72,78,"And? 

They are. And? 

lol oh dear - withdrawal counts as safe sex in your book.

MAJOR problem here I'm afraid Jim - you've yet to prove that a zef is a person and that refusing to donate your bodily resources to another is murder. Oh and FYI, doctors who carry out abortions are not called abortionists by anyone but the Anti abortion Propoganda Industry.",101736,3,2585,1,"You may be impervious to logic, but you do love to twist it. Of course a consequence can be chosen.
It appears that even elementary logic is beyond your grasp. Either that, or you toy with it because you have a weak argument.

No, you don't. Pregnancy is not always chosen but is often a consequence of having unprotected sex.

Again, you twist things to suit you.
People who choose to have unprotected sex should be aware of one of the possible consequences...pregnancy. Those who want not to become pregnant should not have unprotected sex or should use the rhythm method (which is a form of protected sex).

Again, you ineptness shows. Many people choose to become pregnant. They purposely have unprotected sex in their attempts to become pregnant. Apparently, you are completely full of yourself.
Abortion (termination of a pregnancy by death and extraction of the fetus) is a consequence of the actions of the abortionist...more simply put, abortion is murder.
Since are obviously unreceptive to truth and real logic, I will let you continue your idiotic argument without my interference.","http://www.4forums.com/political/abortion-debates/4062-news-clip-boy-faces-felony-baseball-bat-abortion.html",86202,79
"1-2585_82_79_3",2585,1,"2005-01-12 10:29:00",98,662,86214,"2005-01-12 10:07:00",101740,133,79,"Apparently you and Sigma are made for each other...neither of you uses logic.
I said nothing of withdrawal (That's painful!)...and we're not talking safe sex as in, let's-not-get-sick sex...we're talking protected sex as in, let's-not-get-pregnant sex. The rhythm method involves having sex only when you believe ovulation is not occuring. Duh! No wonder you got knocked up.
Why are you afraid of the term ""abortionist""?
A pianist plays the piano.
A flutist plays the flute.
A guitarist plays the guitar.
An abortionist produces abortions.
A contortionist gets all twisted up...as in abortionist's logic.
Abortion is homicide. It's only guilt that drives people to think otherwise.",101737,3,2585,1,"And? 

They are. And? 

lol oh dear - withdrawal counts as safe sex in your book.

MAJOR problem here I'm afraid Jim - you've yet to prove that a zef is a person and that refusing to donate your bodily resources to another is murder. Oh and FYI, doctors who carry out abortions are not called abortionists by anyone but the Anti abortion Propoganda Industry.","http://www.4forums.com/political/abortion-debates/4062-news-clip-boy-faces-felony-baseball-bat-abortion.html",86205,82
"1-2585_95_82_3",2585,1,"2005-01-12 11:15:00",662,98,86243,"2005-01-12 10:29:00",101753,146,82,"I'm sorry, the rythym method is classified as withdrawal in UK street slang so I misunderstood you. Also FYI NFP only works well if you are fully trained on how to do it. it's Hardly the most reliable of methods.

I'm not afraid of it, I just get sick of pro-life lies bandied about as truth.

a physician procures abortions. And as midwifes are trained to carry them out as well, I presume you'll be screaming ""muuuurrrderrring abortionist!"" at them next time you see them deliver.

Ahh, the old anti-choice ""because I said so"" rationale. 
1) Prove that a fetus is a person 2) prove that refusing to donate your bodily resources is murder. Should be easy if the only reason to think otherwise is guilt.",101740,3,2585,1,"Apparently you and Sigma are made for each other...neither of you uses logic.
I said nothing of withdrawal (That's painful!)...and we're not talking safe sex as in, let's-not-get-sick sex...we're talking protected sex as in, let's-not-get-pregnant sex. The rhythm method involves having sex only when you believe ovulation is not occuring. Duh! No wonder you got knocked up.
Why are you afraid of the term ""abortionist""?
A pianist plays the piano.
A flutist plays the flute.
A guitarist plays the guitar.
An abortionist produces abortions.
A contortionist gets all twisted up...as in abortionist's logic.
Abortion is homicide. It's only guilt that drives people to think otherwise.","http://www.4forums.com/political/abortion-debates/4062-news-clip-boy-faces-felony-baseball-bat-abortion.html",86214,95
"1-2585_98_95_3",2585,1,"2005-01-12 11:38:00",98,662,86255,"2005-01-12 11:15:00",101756,183,95,"UK? That explains it all to me now. :) 

It doesn't take a physician to make an abortion happen. All it takes is an abortionist and an abortive procedure. It can be self-induced in which case the pregnant female is the abortionist. It can be chemically induced, in which case the abortionist is whoever provided the chemical. It can be physically induced, in which case whoever inserts or operates the killing device is the abortionist.
In the case at hand, the bat-wielding XXXXX now facing felony charges is the abortionist.

Life begins at conception. This is not to say that the fetus is a person on day one. Obviously, there is a transitional period between being a dividing cell mass and a conscious person. Obviously, it takes time for the nervous system to develop and provide a vehicle for feeling physical pain. However, this does not preclude the beginning of life happening at conception. If not at conception, when does life begin?",101753,3,2585,1,"I'm sorry, the rythym method is classified as withdrawal in UK street slang so I misunderstood you. Also FYI NFP only works well if you are fully trained on how to do it. it's Hardly the most reliable of methods.

I'm not afraid of it, I just get sick of pro-life lies bandied about as truth.

a physician procures abortions. And as midwifes are trained to carry them out as well, I presume you'll be screaming ""muuuurrrderrring abortionist!"" at them next time you see them deliver.

Ahh, the old anti-choice ""because I said so"" rationale. 
1) Prove that a fetus is a person 2) prove that refusing to donate your bodily resources is murder. Should be easy if the only reason to think otherwise is guilt.","http://www.4forums.com/political/abortion-debates/4062-news-clip-boy-faces-felony-baseball-bat-abortion.html",86243,98
"1-2585_104_98_3",2585,1,"2005-01-12 13:00:00",662,98,86281,"2005-01-12 11:38:00",101762,77,98,"Really. So the pharmicist who sold the vitamin c is the abortionist? Interesting.

And the woman who asked him to do it is innocent? I don't understand your thinking.

Prove it. Although that would be pointless because you have to rpove personhood.

Conciousness doesn't happen until late on in the pregnancy (usually third trimester)

Between 24-28 weeks.

Many moons ago in the old swamp...",101756,3,2585,1,"UK? That explains it all to me now. :) 

It doesn't take a physician to make an abortion happen. All it takes is an abortionist and an abortive procedure. It can be self-induced in which case the pregnant female is the abortionist. It can be chemically induced, in which case the abortionist is whoever provided the chemical. It can be physically induced, in which case whoever inserts or operates the killing device is the abortionist.
In the case at hand, the bat-wielding XXXXX now facing felony charges is the abortionist.

Life begins at conception. This is not to say that the fetus is a person on day one. Obviously, there is a transitional period between being a dividing cell mass and a conscious person. Obviously, it takes time for the nervous system to develop and provide a vehicle for feeling physical pain. However, this does not preclude the beginning of life happening at conception. If not at conception, when does life begin?","http://www.4forums.com/political/abortion-debates/4062-news-clip-boy-faces-felony-baseball-bat-abortion.html",86255,104
