"key","quote_source_post_discussion_id","posts_dataset_id","posts_timestamp","posts_author_id","quote_source_author_id","posts_native_post_id","quote_source_timestamp","post_text_id","Word_Count","quote_source_post_id","post_text","quote_source_text_id","Dialog_Turn","posts_discussion_id","quote_source_post_dataset_id","Fullquote_text","discussion_url","quote_source_native_post_id","posts_post_id"
"1-3037_103_90_1",3037,1,"2005-04-03 14:14:00",105,51,103921,"2005-04-03 13:55:00",120242,232,90,"I see you again shy from discussing rights outside of gov't. Says much about your argument, that you are unwilling to discuss rights in a natural state, while claiming they exist at the same time. hypocritical. 
The declartion is irrevelant because it does nothing. It didn't give anyone rights. It wasn't even practiced! You can say you have all the rights in the world, but until you enforce them, you have nothing. 
I ASK AGAIN. Does the ocean abide to your right to life as you slowly drown?
ANSWER IT OR CONCEDE THE ARGUMENT 

Good. We still are. I a merely going deeper into what those mean. 

Why not? That is exactly how it works. If you right can be removed it is not inalienable. 

Alienable means able to be alienated.  

The dictionary. 

The foundation of this government is based upon self governorness and freedom from dictatorship. Not rights. 

How so? I never said that was correct. My entire argument is that rights only exist if they are enforced. You are arguing that rights exist as a universality, yet you constantly AVOID arguing outside of goverment. 

Slavery is wrong for economic reasons. The idea that rights exist otuside of goverment is nonsense.",120229,1,3037,1,"I am glad you quoted inalienable and defined alienated....we are talkingabout UNalienable and alienable.

How so? If my right to life is withdrawn then it doesn't matter if I am killed or not because I never had a right to live in the first place. This is not the case.

But we are not talking about alienated...we are talking about alienable. Alienable is different because it involves transfer. So the word alienated doesn't go here...I don't know where that came from. Unalienable rights, means rights that can't be seperated nor taken away. And the right to life cannot be taken away. Someone can't take your right to life. How does one transfer a right to life from one to another?

If you wish to believe this, then you don't believe in the foundation of this country. Also with this belief, you would say that slavery was ok and that blacks being denied rights was ok and women being denied rights was ok. If the government makes rights then the right to a black person to be free(live) didn't exist. If it didn't exist then it wasn't wrong. How could slavery be wrong if there was no right against it? The ides that government creates rights is the non-sense.","http://www.4forums.com/political/abortion-debates/4699-they-endowed-their-creator-certain-inailienable-rights.html",103901,103
"1-3037_107_103_1",3037,1,"2005-04-03 14:24:00",51,105,103927,"2005-04-03 14:14:00",120246,170,103,"INalienable does not equal unalienable
alienate does not equal alienable
Alienable means transferable of ownership to another.
Alienate means more of a withdrawn in this case.

if you believe this, you might want to take a few more US history course. We refer to the Declaration of Independence (DOI for short now) because it shows this best. The DOI says we have rights...England was stomping on this rights which are unalienable...therefore, we (US) will make our own country. This started it all. And what do you think freedom is? It is the ability to have your rights not stomped on by the government.
As for the slavery example...you would be claiming that the slaves had no rights back then. So then why was it wrong? For economic reasons??? Slavery was only wrong for economic reasons? It had nothing to do with the treatment of people?",120242,1,3037,1,"I see you again shy from discussing rights outside of gov't. Says much about your argument, that you are unwilling to discuss rights in a natural state, while claiming they exist at the same time. hypocritical. 
The declartion is irrevelant because it does nothing. It didn't give anyone rights. It wasn't even practiced! You can say you have all the rights in the world, but until you enforce them, you have nothing. 
I ASK AGAIN. Does the ocean abide to your right to life as you slowly drown?
ANSWER IT OR CONCEDE THE ARGUMENT 

Good. We still are. I a merely going deeper into what those mean. 

Why not? That is exactly how it works. If you right can be removed it is not inalienable. 

Alienable means able to be alienated.  

The dictionary. 

The foundation of this government is based upon self governorness and freedom from dictatorship. Not rights. 

How so? I never said that was correct. My entire argument is that rights only exist if they are enforced. You are arguing that rights exist as a universality, yet you constantly AVOID arguing outside of goverment. 

Slavery is wrong for economic reasons. The idea that rights exist otuside of goverment is nonsense.","http://www.4forums.com/political/abortion-debates/4699-they-endowed-their-creator-certain-inailienable-rights.html",103921,107
"1-3037_109_107_1",3037,1,"2005-04-03 14:29:00",105,51,103931,"2005-04-03 14:24:00",120248,138,107,"If your right existed, and was inalienable, then the ocean would abide to it. 
That obviously is not true.

If we are discussing one of the term, we are discussing the opposite as well. 


I suggest you do that first. 

The DOI is merely a list of why the crown is being a bossy pain in the butt. you are clearly ignoring that. 

So does this piece of paper I have right now. If it someone wrote it down, is it therefore true? Rights to exist, must be enforced. 

No, England was ruling the colonies without representation by the colonies. This country was built upon self governring and freedom from dictatorship. 

Freedom is the ability to do what one pleases.",120246,1,3037,1,"INalienable does not equal unalienable
alienate does not equal alienable
Alienable means transferable of ownership to another.
Alienate means more of a withdrawn in this case.

if you believe this, you might want to take a few more US history course. We refer to the Declaration of Independence (DOI for short now) because it shows this best. The DOI says we have rights...England was stomping on this rights which are unalienable...therefore, we (US) will make our own country. This started it all. And what do you think freedom is? It is the ability to have your rights not stomped on by the government.
As for the slavery example...you would be claiming that the slaves had no rights back then. So then why was it wrong? For economic reasons??? Slavery was only wrong for economic reasons? It had nothing to do with the treatment of people?","http://www.4forums.com/political/abortion-debates/4699-they-endowed-their-creator-certain-inailienable-rights.html",103927,109
"1-3037_112_109_1",3037,1,"2005-04-03 14:37:00",51,105,103936,"2005-04-03 14:29:00",120251,139,109,"UNalienable... NOT INALIENABLE

And why did they think that? What does the DOI say for reasons? It says that they are being a pain in the butt...because they are stomping on their rights....How did they have rights if a government didn't give it to them...they say they had natural rights ""endowed by the Creator"".

It doesn't make it true...but in the case of the DOI it shows what our country is based on...the belief of rights given to us by the creator that the government can't stomp on.

So we had a right then huh?...the DOI clearly states why we split away, you can't argue that...I will even post the DOI if I have to.",120248,1,3037,1,"If your right existed, and was inalienable, then the ocean would abide to it. 
That obviously is not true.

If we are discussing one of the term, we are discussing the opposite as well. 


I suggest you do that first. 

The DOI is merely a list of why the crown is being a bossy pain in the butt. you are clearly ignoring that. 

So does this piece of paper I have right now. If it someone wrote it down, is it therefore true? Rights to exist, must be enforced. 

No, England was ruling the colonies without representation by the colonies. This country was built upon self governring and freedom from dictatorship. 

Freedom is the ability to do what one pleases.","http://www.4forums.com/political/abortion-debates/4699-they-endowed-their-creator-certain-inailienable-rights.html",103931,112
"1-3037_118_112_1",3037,1,"2005-04-03 14:45:00",105,51,103944,"2005-04-03 14:37:00",120257,186,112,"It doesn't matter goverment or not. If you had that right, and if it was inalienable then nothing but God could remove it. 

Buddy, I suggest you consult a dictionary 

Same thing. http://www.webster.com/cgi-bin/dicti...able&x=16&y=11

They stated the reasons as justification for independence. Independece is a means for them to enforce their rights. If their rights were inalienable, how was it that they were being taken away by the crown? 

They didn't have rights. Finally, this is like talking to a 5 year old. 

Our country isn't based on the DOI. It is based on the consitition. 

No. Someone may easily take away my freedom. 
chloe: I suggest you leave. You have already lost badly. steeve and cone are soon to join you.
Does the ocean abide to your right to life as you drown?
Does the avalanche abide to your right to liberty as you are trapped?
Does the pack of hyenas abide to your right to property as they rob you of food?",120251,1,3037,1,"UNalienable... NOT INALIENABLE

And why did they think that? What does the DOI say for reasons? It says that they are being a pain in the butt...because they are stomping on their rights....How did they have rights if a government didn't give it to them...they say they had natural rights ""endowed by the Creator"".

It doesn't make it true...but in the case of the DOI it shows what our country is based on...the belief of rights given to us by the creator that the government can't stomp on.

So we had a right then huh?...the DOI clearly states why we split away, you can't argue that...I will even post the DOI if I have to.","http://www.4forums.com/political/abortion-debates/4699-they-endowed-their-creator-certain-inailienable-rights.html",103936,118
"1-3037_122_118_1",3037,1,"2005-04-03 14:57:00",51,105,103953,"2005-04-03 14:45:00",120261,162,118,"we are talking about UNalienable rights...the DOI says unalienable..they mean different things.
I can't believe I am even talking about this...Although they are close
Unalienable: Not to be seperated, given away , or taken away, or inaliebable
Inalienable: cannot be transfered.
The point is...Unalienable is a bit more...this doesnt matter...use the DOI word...UNALIENABLE.

They were ""stomped"" on..not taken away. The people that fought for independence thought that rights were unalienable...how could you deny this? They wouldn't say unalienable if they meant they wanted their own government to create their owns rights....Why didn't they want this? Because it would mean that the government they created could do the same thing...Thus they believe rights were actually unalienable.

Didn't we already address this?...your examples make no sense",120257,1,3037,1,"It doesn't matter goverment or not. If you had that right, and if it was inalienable then nothing but God could remove it. 

Buddy, I suggest you consult a dictionary 

Same thing. http://www.webster.com/cgi-bin/dicti...able&x=16&y=11

They stated the reasons as justification for independence. Independece is a means for them to enforce their rights. If their rights were inalienable, how was it that they were being taken away by the crown? 

They didn't have rights. Finally, this is like talking to a 5 year old. 

Our country isn't based on the DOI. It is based on the consitition. 

No. Someone may easily take away my freedom. 
chloe: I suggest you leave. You have already lost badly. steeve and cone are soon to join you.
Does the ocean abide to your right to life as you drown?
Does the avalanche abide to your right to liberty as you are trapped?
Does the pack of hyenas abide to your right to property as they rob you of food?","http://www.4forums.com/political/abortion-debates/4699-they-endowed-their-creator-certain-inailienable-rights.html",103944,122
"1-3037_123_122_1",3037,1,"2005-04-03 15:00:00",105,51,103959,"2005-04-03 14:57:00",120262,116,122,"The mean the same thing. I even gave you the dictionary definition which states they are the same thing. Are you saying that webster is wrong? 

They never had them in the first place. What they believed is irrevelant. They never had them unless they were enforced. 

They make perfect sense. If a right is inalienable or unalienable, same thing, then only God can remove it. 
Chloe. I responded to your post. You have yet to reply.
If rights are truly given by God, then why is it EVERYONE OF YOU CLEARLY WANTS TO AVOID TALKING ABOUT RIGHTS OUTSIDE OF GOVERNMENT?",120261,1,3037,1,"we are talking about UNalienable rights...the DOI says unalienable..they mean different things.
I can't believe I am even talking about this...Although they are close
Unalienable: Not to be seperated, given away , or taken away, or inaliebable
Inalienable: cannot be transfered.
The point is...Unalienable is a bit more...this doesnt matter...use the DOI word...UNALIENABLE.

They were ""stomped"" on..not taken away. The people that fought for independence thought that rights were unalienable...how could you deny this? They wouldn't say unalienable if they meant they wanted their own government to create their owns rights....Why didn't they want this? Because it would mean that the government they created could do the same thing...Thus they believe rights were actually unalienable.

Didn't we already address this?...your examples make no sense","http://www.4forums.com/political/abortion-debates/4699-they-endowed-their-creator-certain-inailienable-rights.html",103953,123
"1-3037_109_106_2",3037,1,"2005-04-03 14:29:00",105,540,103931,"2005-04-03 14:23:00",120248,138,106,"If your right existed, and was inalienable, then the ocean would abide to it. 
That obviously is not true.

If we are discussing one of the term, we are discussing the opposite as well. 


I suggest you do that first. 

The DOI is merely a list of why the crown is being a bossy pain in the butt. you are clearly ignoring that. 

So does this piece of paper I have right now. If it someone wrote it down, is it therefore true? Rights to exist, must be enforced. 

No, England was ruling the colonies without representation by the colonies. This country was built upon self governring and freedom from dictatorship. 

Freedom is the ability to do what one pleases.",120245,2,3037,1,"[QUOTE=Duo_Maxwell]I see you again shy from discussing rights outside of gov't. Says much about your argument, that you are unwilling to discuss rights in a natural state, while claiming they exist at the same time. hypocritical. 
The declartion is irrevelant because it does nothing. It didn't give anyone rights. It wasn't even practiced! You can say you have all the rights in the world, but until you enforce them, you have nothing. 
I ASK AGAIN. Does the ocean abide to your right to life as you slowly drown?
ANSWER IT OR CONCEDE THE ARGUMENT 
My ability to drown in water does not mean that I don't have a right to live. I don't understand the argument.","http://www.4forums.com/political/abortion-debates/4699-they-endowed-their-creator-certain-inailienable-rights.html",103926,109
"1-3037_111_109_2",3037,1,"2005-04-03 14:36:00",540,105,103935,"2005-04-03 14:29:00",120250,42,109,"just because the ocean doesn't abide to my right to live doesn't mean I don't have that right in the same sense that just because a government doesn't abide to my right to live doesn't mean I don't have that right.",120248,2,3037,1,"If your right existed, and was inalienable, then the ocean would abide to it.
That obviously is not true.","http://www.4forums.com/political/abortion-debates/4699-they-endowed-their-creator-certain-inailienable-rights.html",103931,111
"1-3037_118_111_2",3037,1,"2005-04-03 14:45:00",105,540,103944,"2005-04-03 14:36:00",120257,186,111,"It doesn't matter goverment or not. If you had that right, and if it was inalienable then nothing but God could remove it. 

Buddy, I suggest you consult a dictionary 

Same thing. http://www.webster.com/cgi-bin/dicti...able&x=16&y=11

They stated the reasons as justification for independence. Independece is a means for them to enforce their rights. If their rights were inalienable, how was it that they were being taken away by the crown? 

They didn't have rights. Finally, this is like talking to a 5 year old. 

Our country isn't based on the DOI. It is based on the consitition. 

No. Someone may easily take away my freedom. 
chloe: I suggest you leave. You have already lost badly. steeve and cone are soon to join you.
Does the ocean abide to your right to life as you drown?
Does the avalanche abide to your right to liberty as you are trapped?
Does the pack of hyenas abide to your right to property as they rob you of food?",120250,2,3037,1,"just because the ocean doesn't abide to my right to live doesn't mean I don't have that right in the same sense that just because a government doesn't abide to my right to live doesn't mean I don't have that right.","http://www.4forums.com/political/abortion-debates/4699-they-endowed-their-creator-certain-inailienable-rights.html",103935,118
"1-3037_124_118_2",3037,1,"2005-04-03 15:02:00",540,105,103961,"2005-04-03 14:45:00",120263,166,118,"Main Entry: in·alien·able
Pronunciation: ("")i-'nAl-y&-n&-b&l, -'nA-lE-&-n&-
Function: adjective
Etymology: probably from French inaliénable, from in- + aliénable alienable
: incapable of being alienated, surrendered, or transferred <inalienable rights>
- in·alien·abil·i·ty /-""nAl-y&-n&-'bi-l&-tE, -""nA-lE-&-n&-/ noun
- in·alien·ably /-'nAl-y&-n&-blE, -'nA-lE-&-n&-/ adverb
In drowning, I neither surrendered, transferred, nor had alienated my right to life; it was stolen from me.",120257,2,3037,1,"It doesn't matter goverment or not. If you had that right, and if it was inalienable thennothing but God could remove it.","http://www.4forums.com/political/abortion-debates/4699-they-endowed-their-creator-certain-inailienable-rights.html",103944,124
"1-3037_126_124_2",3037,1,"2005-04-03 15:04:00",105,540,103963,"2005-04-03 15:02:00",120265,51,124,"Please, has the ocean gained your life by taking it from you? emoticonXRolleyes That is the most inane comment I have heard yet. 
If your right was inalienable it would be abided to by everything but God. Has the ocean abided by your right to life?",120263,2,3037,1,"Main Entry: in·alien·able
Pronunciation: ("")i-'nAl-y&-n&-b&l, -'nA-lE-&-n&-
Function: adjective
Etymology: probably from French inaliénable, from in- + aliénable alienable
: incapable of being alienated, surrendered, or transferred <inalienable rights>
- in·alien·abil·i·ty /-""nAl-y&-n&-'bi-l&-tE, -""nA-lE-&-n&-/ noun
- in·alien·ably /-'nAl-y&-n&-blE, -'nA-lE-&-n&-/ adverb
In drowning, I neither surrendered, transferred, nor had alienated my right to life, it was stolen from me.","http://www.4forums.com/political/abortion-debates/4699-they-endowed-their-creator-certain-inailienable-rights.html",103961,126
