"key","quote_source_post_discussion_id","posts_dataset_id","posts_timestamp","posts_author_id","quote_source_author_id","posts_native_post_id","quote_source_timestamp","post_text_id","Word_Count","quote_source_post_id","post_text","quote_source_text_id","Dialog_Turn","posts_discussion_id","quote_source_post_dataset_id","Fullquote_text","discussion_url","quote_source_native_post_id","posts_post_id"
"1-3315_68_67_1",3315,1,"2005-05-12 09:15:00",50,817,121502,"2005-05-12 08:14:00",135775,50,67,"While I'm sure that's somehow relevant to you, if not to me, you still haven't answered my question. Is all life equal, or not? 
Whichever way you answer, please reconcile it with your previous allowance of abortions where the pregnancy results from rape.",135774,1,3315,1,"I do have great compassion for unwanted children that can't be adopted but that is a whole another thread........It is a red herrung..........
That is not the problem with new borns............Here in the U.S. there are long waiting lines to adopt newborns, some up to 5 years.........","http://www.4forums.com/political/abortion-debates/5097-abortions-shouldnt-legal.html",121427,68
"1-3315_70_68_1",3315,1,"2005-05-12 10:00:00",817,50,121561,"2005-05-12 09:15:00",135777,92,68,"I will try this one more time..The baby conceived in a rape life is just as important...This baby did nothing wrong.......It deserves life and i would hope the mother would carry it to term but if doing that endangered her life by causing her to attempt suicide or to have a mental breakdown then I would understand the decision to abort......I would not like it but I would understand....
If you don't understand that then I don't know what to tell you.........",135775,1,3315,1,"While I'm sure that's somehow relevant to you, if not to me, you still haven't answered my question. Is all life equal, or not? 
Whichever way you answer, please reconcile it with your previous allowance of abortions where the pregnancy results from rape.","http://www.4forums.com/political/abortion-debates/5097-abortions-shouldnt-legal.html",121502,70
"1-3315_82_70_1",3315,1,"2005-05-12 18:04:00",50,817,121838,"2005-05-12 10:00:00",135789,154,70,"Okay. 
But here is the quandry: The baby concieved through rape is just as important as that which is not. Correct?
You would understand if a woman wanted to abort a baby concieved through rape. Correct?
Why then, can you not understand if a woman would want to abort a baby not concieved through rape? 
Take a moment to answer, and try to make your answers consistent with your previous statements. 
It seems to me that you admit that the baby is important, no matter what. And that you then go on to say that it doesn't matter how important the baby is, if the parents want to, they can murder it. If that is so, why should rape be the only qualifying factor? Why is it only acceptable to abort a baby concieved through rape?",135777,1,3315,1,"I will try this one more time..The baby conceived in a rape life is just as important...This baby did nothing wrong.......It deserves life and i would hope the mother would carry it to term but if doing that endangered her life by causing her to attempt suicide or to have a mental breakdown then I would understand the decision to abort......I would not like it but I would understand....
If you don't understand that then I don't know what to tell you.........","http://www.4forums.com/political/abortion-debates/5097-abortions-shouldnt-legal.html",121561,82
"1-3315_83_82_1",3315,1,"2005-05-12 19:15:00",817,50,121855,"2005-05-12 18:04:00",135790,54,82,"Because there is no rational reason to do that..........A headache, or a bad day at the office. or for birth control is not a good enough excuse for murder...........
Of course you don't believe the fetus is a living being so it is useless to debate with you......",135789,1,3315,1,"Okay. 
But here is the quandry: The baby concieved through rape is just as important as that which is not. Correct?
You would understand if a woman wanted to abort a baby concieved through rape. Correct?
Why then, can you not understand if a woman would want to abort a baby not concieved through rape? 
Take a moment to answer, and try to make your answers consistent with your previous statements. 
It seems to me that you admit that the baby is important, no matter what. And that you then go on to say that it doesn't matter how important the baby is, if the parents want to, they can murder it. If that is so, why should rape be the only qualifying factor? Why is it only acceptable to abort a baby concieved through rape?","http://www.4forums.com/political/abortion-debates/5097-abortions-shouldnt-legal.html",121838,83
"1-3315_86_83_1",3315,1,"2005-05-12 20:15:00",50,817,121886,"2005-05-12 19:15:00",135793,118,83,"But VoR, if all life is precious, there can never be a good enough excuse for murder. Even if the baby is concieved through rape, if it's life is percious you cannot murder it. End of story.
There are certain socially sanctioned forms of killing. Killing in self defense, or the defense of another, killing during times of war or as punishment. But these aren't murder. If abortion is murder, there can never, ever be a good reason for it.

Not at all. I believe a fetus is a human baby, a live and living being. I just don't care.",135790,1,3315,1,"Because there is no rational reason to do that..........A headache, or a bad day at the office. or for birth control is not a good enough excuse for murder...........
Of course you don't believe the fetus is a living being so it is useless to debate with you......","http://www.4forums.com/political/abortion-debates/5097-abortions-shouldnt-legal.html",121855,86
"1-3315_96_86_1",3315,1,"2005-05-13 08:59:00",817,50,122120,"2005-05-12 20:15:00",135803,50,86,"Again if you have to chose in the case of the mother's life being endangered you have to choose the mother............
Well its a good thing your mother did not have a bad hair day when she was carrying you or you would not be here to debate.......",135793,1,3315,1,"But VoR, if all life is precious, there can never be a good enough excuse for murder. Even if the baby is concieved through rape, if it's life is percious you cannot murder it. End of story.
There are certain socially sanctioned forms of killing. Killing in self defense, or the defense of another, killing during times of war or as punishment. But these aren't murder. If abortion is murder, there can never, ever be a good reason for it.

Not at all. I believe a fetus is a human baby, a live and living being. I just don't care.","http://www.4forums.com/political/abortion-debates/5097-abortions-shouldnt-legal.html",121886,96
"1-3315_97_89_2",3315,1,"2005-05-13 09:02:00",817,50,122124,"2005-05-12 20:36:00",135804,34,89,"You are making little or no sense....In a post just a few minutes ago you said you did not care about the baby in the womb.........
Which is it? emoticonXConfused",135796,2,3315,1,"Myself, and my loved ones.
Personally, I would never encourage anyone to have an abortion. If I was the father of the child I would do all in my power to prevent having it aborted.
At the same time, I fully realise and understand that other people don't think or prioritise the same way I do. If they wan't to kill their own unborn children, well, frankly its no skin off my nose.","http://www.4forums.com/political/abortion-debates/5097-abortions-shouldnt-legal.html",121897,97
"1-3315_108_97_2",3315,1,"2005-05-13 10:02:00",50,817,122197,"2005-05-13 09:02:00",135815,192,97,"I care about my unborn children. I'd like to keep them.
What happens to other peoples unborn babies, I couldn't care less. They can cut open the woman and hook the squirming fetus onto a shark fishing rig for bait, for all I care.
Because I don't view all life as precious. Unlike you, I can answer my own hypothetical questions. To me, my mother is more important than some random thug. If I had to choose, I'd gladly order millions of people to their deaths if it meant my loved ones were safe. Hell, I'd save my dog from a fire before I saved some child I don't even know. All life is not equally precious to me. You might not feel the same, but it's hard to tell. 
You claim all life is precious, but if we must choose between an unborn baby and it's mother, we should choose the mother. Why? Is the mother more important? How can she be if all life is equal?",135804,2,3315,1,"You are making little or no sense....In a post just a few minutes ago you said you did not care about the baby in the womb.........
Which is it? emoticonXConfused","http://www.4forums.com/political/abortion-debates/5097-abortions-shouldnt-legal.html",122124,108
"1-3315_111_108_2",3315,1,"2005-05-13 10:12:00",817,50,122210,"2005-05-13 10:02:00",135818,79,108,"All life is precious...........The mother is already here........I wish every mother, even if her life is endangered would take the chance and carry the baby to term.......But I know that can not always be the case..........In a perfect world a mother who's life was endangered by carrying the baby to term would survive as would the baby.........
40,000,000 abortions since 1972....doesn't that bother you ar all?",135815,2,3315,1,"I care about my unborn children. I'd like to keep them.
What happens to other peoples unborn babies, I couldn't care less. They can cut open the woman and hook the squirming fetus onto a shark fishing rig for bait, for all I care.
Because I don't view all life as precious. Unlike you, I can answer my own hypothetical questions. To me, my mother is more important than some random thug. If I had to choose, I'd gladly order millions of people to their deaths if it meant my loved ones were safe. Hell, I'd save my dog from a fire before I saved some child I don't even know. All life is not equally precious to me. You might not feel the same, but it's hard to tell. 
You claim all life is precious, but if we must choose between an unborn baby and it's mother, we should choose the mother. Why? Is the mother more important? How can she be if all life is equal?","http://www.4forums.com/political/abortion-debates/5097-abortions-shouldnt-legal.html",122197,111
"1-3315_119_111_2",3315,1,"2005-05-13 10:24:00",50,817,122220,"2005-05-13 10:12:00",135826,49,111,"So because she is older, she gets to survive while the baby dies?
Help me to understand you. If all life is equal, how come the mother gets to live while the baby dies?

No more than when my five tiger barbs died.",135818,2,3315,1,"All life is precious...........The mother is already here........I wish every mother, even if her life is endangered would take the chance and carry the baby to term.......But I know that can not always be the case..........In a perfect world a mother who's life was endangered by carrying the baby to term would survive as would the baby.........
40,000,000 abortions since 1972....doesn't that bother you ar all?","http://www.4forums.com/political/abortion-debates/5097-abortions-shouldnt-legal.html",122210,119
"1-3315_122_119_2",3315,1,"2005-05-13 10:46:00",817,50,122251,"2005-05-13 10:24:00",135829,39,119,"with all due respect my friend, except for people close to you, you do not value human life, therefore I find it hard to debate with you its value when you think there is none........",135826,2,3315,1,"So because she is older, she gets to survive while the baby dies?
Help me to understand you. If all life is equal, how come the mother gets to live while the baby dies?

No more than when my five tiger barbs died.","http://www.4forums.com/political/abortion-debates/5097-abortions-shouldnt-legal.html",122220,122
"1-3315_223_222_3",3315,1,"2005-05-20 16:49:00",68,51,125805,"2005-05-20 16:45:00",135930,18,222,"He was refering to a fetus' parasitical nature, not it's classification (per se).",135929,3,3315,1,"A bacteria...im sorry, what would the fetus be classified under in science?? Oh right, a human...we got that whole ""homo sapian sapian"" deal going :). Not only that, didn't they have a baby born at 3-4 months? I can't remember that actually..i will look it up. Either way, this arguement is done all the time and there are many things that refute it...so not need to get into it.","http://www.4forums.com/political/abortion-debates/5097-abortions-shouldnt-legal.html",125804,223
"1-3315_224_223_3",3315,1,"2005-05-20 16:51:00",51,68,125808,"2005-05-20 16:49:00",135931,22,223,"Granted, however, I wouldn't want my mom calling me a parasite...although I can't really speak for everyone emoticonXAngel",135930,3,3315,1,"He was refering to a fetus' parasitical nature, not it's classification (per se).","http://www.4forums.com/political/abortion-debates/5097-abortions-shouldnt-legal.html",125805,224
"1-3315_225_224_3",3315,1,"2005-05-20 16:55:00",68,51,125811,"2005-05-20 16:51:00",135932,43,224,"A born child, such as yourself (I'm assuming), does not have the same parasitical nature that a fetus does. Your mother feeding and caring for you is voluntary (since she could have given you up).",135931,3,3315,1,"Granted, however, I wouldn't want my mom calling me a parasite...although I can't really speak for everyone emoticonXAngel","http://www.4forums.com/political/abortion-debates/5097-abortions-shouldnt-legal.html",125808,225
"1-3315_226_225_3",3315,1,"2005-05-20 17:15:00",51,68,125820,"2005-05-20 16:55:00",135933,27,225,"Having sex is voluntary too.....And old people are parasitical on the state (with social security and medicare)...we should kill them :)",135932,3,3315,1,"A born child, such as yourself (I'm assuming), does not have the same parasitical nature that a fetus does. Your mother feeding and caring for you is voluntary (since she could have given you up).","http://www.4forums.com/political/abortion-debates/5097-abortions-shouldnt-legal.html",125811,226
"1-3315_227_226_3",3315,1,"2005-05-20 22:35:00",68,51,125910,"2005-05-20 17:15:00",135934,35,226,"Being pregnant is not.

We should have the right if they lived off of our bodies as a fetus does against our will and without our consent.
That is a red herring.",135933,3,3315,1,"Having sex is voluntary too.....And old people are parasitical on the state (with social security and medicare)...we should kill them :)","http://www.4forums.com/political/abortion-debates/5097-abortions-shouldnt-legal.html",125820,227
"1-3315_244_227_3",3315,1,"2005-05-22 09:57:00",51,68,126635,"2005-05-20 22:35:00",135951,67,227,"Actually being pregnant is a direct result from having sex. For example, if you enlist in the army and end up getting killed you can't say ""i never signed up for getting killed""...well, ya did, you knew what you were getting into when you did it....as to the second part....you did consent as stated.",135934,3,3315,1,"Being pregnant is not.

We should have the right if they lived off of our bodies as a fetus does against our will and without our consent.
That is a red herring.","http://www.4forums.com/political/abortion-debates/5097-abortions-shouldnt-legal.html",125910,244
"1-3315_188_182_4",3315,1,"2005-05-18 10:15:00",817,63,124632,"2005-05-18 00:40:00",135895,49,182,"And I have acknowledged a couple of your reasons for abortion but I will never acknowlege abortion for convenience........
You seem like a good woman who is leading a good moral life..........How you can be so adament for abortion for any reason is beyond me..........",135889,4,3315,1,"If one fetus will jeapoardize the life of three (itself, it's mother, it's already born sibling) - then just what do you suggest? Letting everyone bite it and suffer in the name of your cause - just so you and your misogynistic brethren can continue your unhelpful women hating?
Who said I wasn't moral? Who said I was promiscuous? Neither of these things are true. Even if I were married I would be safe - I don't want more kids. I am pretty sick and tired of you and VoR. All I have asked of either of you is to acknowledge that the reasons women abort are real and serious and that maybe we could do something about abortion by helping them. But neither of you will do that - you insist on your demonization of women faced with that choice. You even demonize me - and I have never had an abortion, haved busted my XXX for my son, and am responsible in my sex life. But no way can you guys acknowledge that - VoR takes all I went through to be able to have a baby and turned it into my not having had a ""bad hair day"" and now you label me as promiscuous and immoral. What a pair of hateful bastards you are.","http://www.4forums.com/political/abortion-debates/5097-abortions-shouldnt-legal.html",124492,188
"1-3315_189_188_4",3315,1,"2005-05-18 11:55:00",63,817,124679,"2005-05-18 10:15:00",135896,41,188,"How you can continue to see the health, educations, finances and other resources of women as mere frivolties that she, any children she may have, and any baby may be carrying don't need is beyond me.",135895,4,3315,1,"And I have acknowledged a couple of your reasons for abortion but I will never acknowlege abortion for convenience........
You seem like a good woman who is leading a good moral life..........How you can be so adament for abortion for any reason is beyond me..........","http://www.4forums.com/political/abortion-debates/5097-abortions-shouldnt-legal.html",124632,189
"1-3315_191_189_4",3315,1,"2005-05-18 12:01:00",817,63,124683,"2005-05-18 11:55:00",135898,29,189,"How you can not see that except for the health issue al of those other things can be overcome.........
We are talking about a human life here.........",135896,4,3315,1,"How you can continue to see the health, educations, finances and other resources of women as mere frivolties that she, any children she may have, and any baby may be carrying don't need is beyond me.","http://www.4forums.com/political/abortion-debates/5097-abortions-shouldnt-legal.html",124679,191
"1-3315_196_191_4",3315,1,"2005-05-18 14:31:00",63,817,124784,"2005-05-18 12:01:00",135903,32,191,"Excuse me? It figures I would have to point this out to you - but in a pregnancy - at the very minimum, we are dealing with TWO lives.",135898,4,3315,1,"How you can not see that except for the health issue al of those other things can be overcome.........
We are talking about a human life here.........","http://www.4forums.com/political/abortion-debates/5097-abortions-shouldnt-legal.html",124683,196
"1-3315_197_196_4",3315,1,"2005-05-18 14:58:00",817,63,124796,"2005-05-18 14:31:00",135904,27,196,"That is so very true but how can you trivulize the one in the womb?
Why can't you have compassion for both..........I do.........",135903,4,3315,1,"Excuse me? It figures I would have to point this out to you - but in a pregnancy - at the very minimum, we are dealing with TWO lives.","http://www.4forums.com/political/abortion-debates/5097-abortions-shouldnt-legal.html",124784,197
"1-3315_205_197_4",3315,1,"2005-05-19 11:23:00",63,817,125135,"2005-05-18 14:58:00",135912,121,197,"No you don't. Demanding pregnancy be continued at any expense short of death - regardless of who it may hurt and what may be lost - is not showing compassion for women. It's alwfully brave of you to be willing to sacrifice a total stranger's health and income without her input - and then to dismiss why and how that may hurt her and her family.
When I told you my story and what I went through when faced with an unplanned pregnancy you trivialized and insulted me.
I see nothing from you that even remotely resembles compassion for women. As a matter of fact you are one of the worst misogynists I have encountered.",135904,4,3315,1,"That is so very true but how can you trivulize the one in the womb?
Why can't you have compassion for both..........I do.........","http://www.4forums.com/political/abortion-debates/5097-abortions-shouldnt-legal.html",124796,205
"1-3315_207_205_4",3315,1,"2005-05-19 13:31:00",817,63,125220,"2005-05-19 11:23:00",135914,28,205,"What about the death of the baby in the womb?
Oh and I never trivulized your situation..I commended you for what you have done...........",135912,4,3315,1,"No you don't. Demanding pregnancy be continued at any expense short of death - regardless of who it may hurt and what may be lost - is not showing compassion for women. It's alwfully brave of you to be willing to sacrifice a total stranger's health and income without her input - and then to dismiss why and how that may hurt her and her family.
When I told you my story and what I went through when faced with an unplanned pregnancy you trivialized and insulted me.
I see nothing from you that even remotely resembles compassion for women. As a matter of fact you are one of the worst misogynists I have encountered.","http://www.4forums.com/political/abortion-debates/5097-abortions-shouldnt-legal.html",125135,207
"1-3315_209_207_4",3315,1,"2005-05-19 14:38:00",63,817,125281,"2005-05-19 13:31:00",135916,66,207,"Really? I remember quite clearly you posting that my choice was based on not having a ""bad hair day."" And anyway - what do you care? - had I been to turn to the likes of you I would not have been able to make the choice I did since you adamantly refuse to acknowledge that anything is an issue.",135914,4,3315,1,"What about the death of the baby in the womb?
Oh and I never trivulized your situation..I commended you for what you have done...........","http://www.4forums.com/political/abortion-debates/5097-abortions-shouldnt-legal.html",125220,209
"1-3315_210_209_4",3315,1,"2005-05-19 15:34:00",817,63,125314,"2005-05-19 14:38:00",135917,50,209,"I did not say that was your choice..What I said was there women out there not like you that do have abortions for convenience.....You can not deny that......
I apologize if you thought I was pointing you out..........That was not the case........",135916,4,3315,1,"Really? I remember quite clearly you posting that my choice was based on not having a ""bad hair day."" And anyway - what do you care? - had I been to turn to the likes of you I would not have been able to make the choice I did since you adamantly refuse to acknowledge that anything is an issue.","http://www.4forums.com/political/abortion-debates/5097-abortions-shouldnt-legal.html",125281,210
"1-3315_127_125_5",3315,1,"2005-05-13 12:08:00",817,68,122309,"2005-05-13 10:49:00",135834,63,125,"More name calling...............Is that all you have? so sad.............
Oh by the way I rarely respond to ""Little Man's"" tripe and he knows that........It goes back a couple of years........
He already knows my views on all those questions but like a broken record he just keeps asking them over and over again........",135832,5,3315,1,"Like a rat in a cage he scurries about, dodging questions :p
He has no argument, only emotional rhetoric.","http://www.4forums.com/political/abortion-debates/5097-abortions-shouldnt-legal.html",122256,127
"1-3315_134_127_5",3315,1,"2005-05-13 15:49:00",68,817,122425,"2005-05-13 12:08:00",135841,28,127,"When you scurry about and dodge questions, that's what it reminds me of :)
All I have? You can't seem to answer what I have.",135834,5,3315,1,"More name calling...............Is that all you have? so sad.............
Oh by the way I rarely respond to ""Little Man's"" tripe and he knows that........It goes back a couple of years........
He already knows my views on all those questions but like a broken record he just keeps asking them over and over again........","http://www.4forums.com/political/abortion-debates/5097-abortions-shouldnt-legal.html",122309,134
"1-3315_136_134_5",3315,1,"2005-05-13 22:04:00",817,68,122512,"2005-05-13 15:49:00",135843,10,134,"your only interested in murdering babies in the womb........",135841,5,3315,1,"When you scurry about and dodge questions, that's what it reminds me of :)
All I have? You can't seem to answer what I have.","http://www.4forums.com/political/abortion-debates/5097-abortions-shouldnt-legal.html",122425,136
"1-3315_140_136_5",3315,1,"2005-05-14 07:40:00",68,817,122639,"2005-05-13 22:04:00",135847,34,136,"*sigh* Can you actually construct an argument, or is all you have emotional rhetoric? Can you answer any of the questions posed to you? So far you have not.",135843,5,3315,1,"your only interested in murdering babies in the womb........","http://www.4forums.com/political/abortion-debates/5097-abortions-shouldnt-legal.html",122512,140
"1-3315_141_140_5",3315,1,"2005-05-14 10:02:00",817,68,122693,"2005-05-14 07:40:00",135848,25,140,"I am sorry but murdering a baby in the womb is a very emotional issue for me unlike you............
What question was that?",135847,5,3315,1,"*sigh* Can you actually construct an argument, or is all you have emotional rhetoric? Can you answer any of the questions posed to you? So far you have not.","http://www.4forums.com/political/abortion-debates/5097-abortions-shouldnt-legal.html",122639,141
"1-3315_149_141_5",3315,1,"2005-05-14 20:38:00",68,817,122916,"2005-05-14 10:02:00",135856,71,141,"Other's have summed up a couple questions I have. Namely: 
If all life is equally precious, what allows you to choose the mother over the fetus in the case of rape and/or the life of the mother being at risk?
and
what makes a non-rape baby any less precious then a rape baby if they are both life?
A logical argument, please.",135848,5,3315,1,"I am sorry but murdering a baby in the womb is a very emotional issue for me unlike you............
What question was that?","http://www.4forums.com/political/abortion-debates/5097-abortions-shouldnt-legal.html",122693,149
"1-3315_185_184_6",3315,1,"2005-05-18 07:56:00",343,394,124555,"2005-05-18 07:15:00",135892,115,184,"We're not. We're just afraid of education without the moral underpinnings.

Wow, you do like the taste of red herring, don't you? The issue of sex and education isn't a feminist issue--it effects women AND men. I agree with HUnter that it's not too much to hope that parents teach their daughters to dress and behave in a way that doesn't make them out to be a slut, or to teach sons to have respect for the women they meet and to not take advantage of them, even if you disagree. Has nothing to do with women's roles in the home OR job.",135891,6,3315,1,"Oh yeah. Like the morals that leads children to sign abstinance pledges, yet have anal and oral sex because that is not ""technically"" sex. emoticonXRolleyes 
Why are we so afraid of sex education? We sit around telling our kids that sex is most fulfilling in a marriage without telling them of the strong primal attraction that we all have as humans, and that they should be prepared wth as much HONEST information as possible (Yes, it does feel good. Yes you should wait. Yes, there are strong emotions involved. Be prepared. Be safe. Know your partner. Yes, there can be consequences, etc).

Of course! The liberals are the ones breeding like rabits. We are the ones that have anal sex with multiple anonymous partners, and at the same time, pushing condoms on our nations youth. 
Yeah! Have as much sex as possible, but don't use the condom we just handed you!
And all you women! You wanton sluts! How dare you entice men by just walking down the street! Wearing pants no less! How dare you work! You should be at home cooking and cleaning and taking care of the kids you had with you domineering husband, 'cause that's the moral way to do it!
[end SNARK]","http://www.4forums.com/political/abortion-debates/5097-abortions-shouldnt-legal.html",124542,185
"1-3315_186_185_6",3315,1,"2005-05-18 08:59:00",394,343,124599,"2005-05-18 07:56:00",135893,168,185,"I am not the one who used the phrase. ""decent white girl,"" or, ""decent moral female.""
They may try to disguise it (quite unconvincingly), but everything these people (I am talking specific individuals) say tells us that they blame the women for getting pregnant. The use of the word ""decent"" more than implies that any woman who considers an abortion is some dirty, immoral tramp, who has abortions because she is having a, ""bad hair day,"" (their words) that doesn't want her life inconvenieced with a pregnancy. As if she is going out and having sex with anything with a penis and then scheduling appointments at Planned Parenthood every other week for a ""touch up.""
Feel free to defend such misogyinistc B.S., but many here would agree that my description of these individuals isn't far off the mark.",135892,6,3315,1,"We're not. We're just afraid of education without the moral underpinnings.

Wow, you do like the taste of red herring, don't you? The issue of sex and education isn't a feminist issue--it effects women AND men. I agree with HUnter that it's not too much to hope that parents teach their daughters to dress and behave in a way that doesn't make them out to be a slut, or to teach sons to have respect for the women they meet and to not take advantage of them, even if you disagree. Has nothing to do with women's roles in the home OR job.","http://www.4forums.com/political/abortion-debates/5097-abortions-shouldnt-legal.html",124555,186
"1-3315_192_186_6",3315,1,"2005-05-18 12:02:00",343,394,124684,"2005-05-18 08:59:00",135899,68,186,"Unless it's a case of rape, who else's fault is it? (It's really ALL our faults--society's and the culture we've let occur.)
Ultimately, I don't see what the problem is with expecting culture in general and even women themselves to take getting pregnant more serious, as well as all the social and cultural things that contribute to it.",135893,6,3315,1,"I am not the one who used the phrase. ""decent white girl,"" or, ""decent moral female.""
They may try to disguise it (quite unconvincingly), but everything these people (I am talking specific individuals) say tells us that they blame the women for getting pregnant. The use of the word ""decent"" more than implies that any woman who considers an abortion is some dirty, immoral tramp, who has abortions because she is having a, ""bad hair day,"" (their words) that doesn't want her life inconvenieced with a pregnancy. As if she is going out and having sex with anything with a penis and then scheduling appointments at Planned Parenthood every other week for a ""touch up.""
Feel free to defend such misogyinistc B.S., but many here would agree that my description of these individuals isn't far off the mark.","http://www.4forums.com/political/abortion-debates/5097-abortions-shouldnt-legal.html",124599,192
"1-3315_194_192_6",3315,1,"2005-05-18 12:14:00",394,343,124686,"2005-05-18 12:02:00",135901,170,192,"So she got pregnant all on her own? No man was at fault?

What you fail to understand is that abortion is a symptom of a problem, not the problem itself. And instead of addressing the problem, you are constantly dealing with the symptom at the expense of trampling on women's rights over their own bodies.
Why are we not honest about sex in this country? Just telling kids to wait until marriage does not work. Hormones are too strong. We should tell them the truth.
Sex feels good.
There are emotional bonds that come with having sex.
You should know your partner.
You should wait until you are in a relationship, but if not be safe.
There are diseases out there, so be upfront with your partner.
Those points just scratch the surface of what we need to be addressing. Equality of the sexes would be a HUGE first step.",135899,6,3315,1,"Unless it's a case of rape, who else's fault is it? (It's really ALL our faults--society's and the culture we've let occur.)
Ultimately, I don't see what the problem is with expecting culture in general and even women themselves to take getting pregnant more serious, as well as all the social and cultural things that contribute to it.","http://www.4forums.com/political/abortion-debates/5097-abortions-shouldnt-legal.html",124684,194
"1-3315_195_194_6",3315,1,"2005-05-18 13:44:00",343,394,124740,"2005-05-18 12:14:00",135902,186,194,"If it was consensual, and therefore not rape, then she could have a.) either not had sex, or b.) insisted protection be used. Either way, a woman is responsible for what she does--there is no reason a woman has to get pregnant.

No, it is both a symptom AND a problem. Even many liberals say abortion should be rare. 

I can tell you from experience that you are wrong--it does work. I did it.

Yep. I don't know of anyone who doesn't tell that.

That's why its good to wait until marriage.

SAme thing.

Why not just recommend they do it when they get married? What's the difference?

Yep.

This is silly--you are preaching to the choir in every way and setting up strawmen. People who teach waiting until marriage are much more concerned about this than you and therefore go farther--yours is a more LAX position on sex, not a stronger one.",135901,6,3315,1,"So she got pregnant all on her own? No man was at fault?

What you fail to understand is that abortion is a symptom of a problem, not the problem itself. And instead of addressing the problem, you are constantly dealing with the symptom at the expense of trampling on women's rights over their own bodies.
Why are we not honest about sex in this country? Just telling kids to wait until marriage does not work. Hormones are too strong. We should tell them the truth.
Sex feels good.
There are emotional bonds that come with having sex.
You should know your partner.
You should wait until you are in a relationship, but if not be safe.
There are diseases out there, so be upfront with your partner.
Those points just scratch the surface of what we need to be addressing. Equality of the sexes would be a HUGE first step.","http://www.4forums.com/political/abortion-debates/5097-abortions-shouldnt-legal.html",124686,195
"1-3315_202_195_6",3315,1,"2005-05-19 07:45:00",394,343,124996,"2005-05-18 13:44:00",135909,234,195,"I can't believe this. A woman getting pregnant is all her fault? Is this what you truly believe? So a man can lose control but a woman has to take all the precautions?

Um, no. 
The unwanted pregnancy is the problem. The abortion is an unfortunate result. But when you have institutions that aren't being honest about sex, added with the unfortunate way women are treated in this society, this is the result you will get.

Milk and cookies for you then. It would be nice if everyone had your self control.

But why stop there? you can state to people that there are safe ways to do it, that even though you may not wait fr marriage, at least know the person you are with, talk freely about your concerns and your likes and dislikes, wait if you are still uncomfortable, practice safe habits from this point on (if you are active), etc.

Realistically, marriage isn't for everyone. That is another thing that we need to teach people (and not just kids). Why should people who never marry never have sex?

Please enlighten me as to what ""stawmen"" I am setting up. My position on sex is one based on reality.",135902,6,3315,1,"If it was consensual, and therefore not rape, then she could have a.) either not had sex, or b.) insisted protection be used. Either way, a woman is responsible for what she does--there is no reason a woman has to get pregnant.

No, it is both a symptom AND a problem. Even many liberals say abortion should be rare. 

I can tell you from experience that you are wrong--it does work. I did it.

Yep. I don't know of anyone who doesn't tell that.

That's why its good to wait until marriage.

SAme thing.

Why not just recommend they do it when they get married? What's the difference?

Yep.

This is silly--you are preaching to the choir in every way and setting up strawmen. People who teach waiting until marriage are much more concerned about this than you and therefore go farther--yours is a more LAX position on sex, not a stronger one.","http://www.4forums.com/political/abortion-debates/5097-abortions-shouldnt-legal.html",124740,202
"1-3315_203_202_6",3315,1,"2005-05-19 07:56:00",343,394,125006,"2005-05-19 07:45:00",135910,235,202,"If a man loses control when the woman doesn't want it, that's called rape. If she DOES want it, why shouldn't she insist he use protection if she doesn't want to get pregnant?
It's not an issue of blame. A woman is in charge of her body--it's odd to me that you all want women to have complete control and responsibilty for her body when it comes to the decision of an abortion, but in the actual act of getting pregnant suddenly she's no longer responsible for it. 
Think about it--if a woman doesn't want to get pregnant, she doesn't have to. She can insist on the man using protection, and it's sure not hard for her to make sure he does with a simple visual check. Or she can use the protection. With that said, accidents do sometimes happen, but this isn't a discussion about the accidents.

It must be odd for you to not be in step with most other Democrats out there, who acknowledge that abortion is a problem (just not one that should be outlawed). Both are problems.

Oh of course not; we mustn't dare actually suggest that sex go hand-in-hand with commitment, huh? Goodness gracious, that would be too much! emoticonXRolleyes",135909,6,3315,1,"I can't believe this. A woman getting pregnant is all her fault? Is this what you truly believe? So a man can lose control but a woman has to take all the precautions?

Um, no. 
The unwanted pregnancy is the problem. The abortion is an unfortunate result. But when you have institutions that aren't being honest about sex, added with the unfortunate way women are treated in this society, this is the result you will get.

Milk and cookies for you then. It would be nice if everyone had your self control.

But why stop there? you can state to people that there are safe ways to do it, that even though you may not wait fr marriage, at least know the person you are with, talk freely about your concerns and your likes and dislikes, wait if you are still uncomfortable, practice safe habits from this point on (if you are active), etc.

Realistically, marriage isn't for everyone. That is another thing that we need to teach people (and not just kids). Why should people who never marry never have sex?

Please enlighten me as to what ""stawmen"" I am setting up. My position on sex is one based on reality.","http://www.4forums.com/political/abortion-debates/5097-abortions-shouldnt-legal.html",124996,203
"1-3315_158_157_7",3315,1,"2005-05-17 06:22:00",394,817,123979,"2005-05-16 15:48:00",135865,15,157,"And you wonder why she told you to, ""go to hell?""",135864,7,3315,1,"Judging from your views on the life of the unborn that is great to hear........","http://www.4forums.com/political/abortion-debates/5097-abortions-shouldnt-legal.html",123813,158
"1-3315_159_158_7",3315,1,"2005-05-17 09:19:00",817,394,124033,"2005-05-17 06:22:00",135866,16,158,"And I told her to save me a seat and those goes for you too.........",135865,7,3315,1,"And you wonder why she told you to, ""go to hell?""","http://www.4forums.com/political/abortion-debates/5097-abortions-shouldnt-legal.html",123979,159
"1-3315_160_159_7",3315,1,"2005-05-17 09:25:00",394,817,124038,"2005-05-17 09:19:00",135867,33,159,"Honey, I am just content to call you a bastard. I don't care where you go in the afterlife, provided that it's not in the same place as me.",135866,7,3315,1,"And I told her to save me a seat and those goes for you too.........","http://www.4forums.com/political/abortion-debates/5097-abortions-shouldnt-legal.html",124033,160
"1-3315_164_160_7",3315,1,"2005-05-17 13:04:00",817,394,124165,"2005-05-17 09:25:00",135871,80,160,"First, I ain't your honey........... Second, you don't have to worry about that because I am going to heaven and you my friend are going to hell........
Oh and I would not be a bastard if you kept your mother off the streets........Now since you can't conduct a civil debate except to call name and insults you are on my ignore list..........
Even ""Little Man"" has not made it........... :)",135867,7,3315,1,"Honey, I am just content to call you a bastard. I don't care where you go in the afterlife, provided that it's not in the same place as me.","http://www.4forums.com/political/abortion-debates/5097-abortions-shouldnt-legal.html",124038,164
"1-3315_168_164_7",3315,1,"2005-05-17 13:24:00",394,817,124179,"2005-05-17 13:04:00",135875,47,164,"I already got my handbasket purchased.
I'll be where the party's at. :p 

As far as insults go, this one makes no sense, except in your little mind.
And I made your ignore list?
Finally! I am getting somewhere!",135871,7,3315,1,"First, I ain't your honey........... Second, you don't have to worry about that because I am going to heaven and you my friend are going to hell........
Oh and I would not be a bastard if you kept your mother off the streets........Now since you can't conduct a civil debate except to call name and insults you are on my ignore list..........
Even ""Little Man"" has not made it........... :)","http://www.4forums.com/political/abortion-debates/5097-abortions-shouldnt-legal.html",124165,168
"1-3315_200_199_8",3315,1,"2005-05-18 17:09:00",817,1477,124867,"2005-05-18 16:20:00",135907,3,199,"It kills them",135906,8,3315,1,"How does abortion trivialize the unborn?","http://www.4forums.com/political/abortion-debates/5097-abortions-shouldnt-legal.html",124847,200
"1-3315_208_200_8",3315,1,"2005-05-19 14:31:00",1477,817,125275,"2005-05-18 17:09:00",135915,10,200,"So whenever someone is killed, they are trivialized?",135907,8,3315,1,"It kills them","http://www.4forums.com/political/abortion-debates/5097-abortions-shouldnt-legal.html",124867,208
"1-3315_211_208_8",3315,1,"2005-05-19 15:36:00",817,1477,125316,"2005-05-19 14:31:00",135918,46,208,"Pro abortion people trivulize the life of a baby in the womb on a lot of occasions......That is why there are a lot of unnecessary abortions.....
Pro life people value the mother's life as well as the unborn infant in the womb.......",135915,8,3315,1,"So whenever someone is killed, they are trivialized?","http://www.4forums.com/political/abortion-debates/5097-abortions-shouldnt-legal.html",125275,211
"1-3315_213_211_8",3315,1,"2005-05-19 15:52:00",1477,817,125329,"2005-05-19 15:36:00",135920,83,211,"Okay, but whenever someone is killed, they are trivialized right? Yes or no?
How do ""pro abortion"" [sic] people trivialize the life of the child? Also, what about pro-choice people? Do they trivialize the life of the child? If so, how? 

Do ""pro life"" [sic] people value the mother's life equally, greater than, or less than, the life of the child?",135918,8,3315,1,"Pro abortion people trivulize the life of a baby in the womb on a lot of occasions......That is why there are a lot of unnecessary abortions.....
Pro life people value the mother's life as well as the unborn infant in the womb.......","http://www.4forums.com/political/abortion-debates/5097-abortions-shouldnt-legal.html",125316,213
"1-3315_214_213_8",3315,1,"2005-05-19 15:59:00",817,1477,125337,"2005-05-19 15:52:00",135921,76,213,"It does not seem to bother a lot of pro abortion people that babies are being murdered in the womb........40, 000, 000 since 1972..........Someone sure as hell does not care.........
We value both the mother and the child equally but if the mother's life is endangered we believe that the mother should be saved but we hope and pray that she would carry the baby to term anyhow..........",135920,8,3315,1,"Okay, but whenever someone is killed, they are trivialized right? Yes or no?
How do ""pro abortion"" [sic] people trivialize the life of the child? Also, what about pro-choice people? Do they trivialize the life of the child? If so, how? 

Do ""pro life"" [sic] people value the mother's life equally, greater than, or less than, the life of the child?","http://www.4forums.com/political/abortion-debates/5097-abortions-shouldnt-legal.html",125329,214
"1-3315_215_214_8",3315,1,"2005-05-19 16:07:00",1477,817,125340,"2005-05-19 15:59:00",135922,74,214,"Obviously some people don't care. Do you think it is reasonable to suppose that because some pro-choice people do not care that no pro-choice person cares? 
Also, could you answer the question: In your opinion is someone trivialized when they are killed? Yes or no?

So what is it about the mother such that given a choice between her life and the child's we should choose her?",135921,8,3315,1,"It does not seem to bother a lot of pro abortion people that babies are being murdered in the womb........40, 000, 000 since 1972..........Someone sure as hell does not care.........
We value both the mother and the child equally but if the mother's life is endangered we believe that the mother should be saved but we hope and pray that she would carry the baby to term anyhow..........","http://www.4forums.com/political/abortion-debates/5097-abortions-shouldnt-legal.html",125337,215
"1-3315_216_215_8",3315,1,"2005-05-19 16:30:00",817,1477,125350,"2005-05-19 16:07:00",135923,64,215,"No, but conservatively 39,000,000 million did not care...........
To your question.are you talking about being killed in the womb?
Yes we should choose her if her life is endangered but we would hope and pray that even if her lefe is endangered she would think about the living breathing child in her womb and carry it to term............",135922,8,3315,1,"Obviously some people don't care. Do you think it is reasonable to suppose that because some pro-choice people do not care that no pro-choice person cares? 
Also, could you answer the question: In your opinion is someone trivialized when they are killed? Yes or no?

So what is it about the mother such that given a choice between her life and the child's we should choose her?","http://www.4forums.com/political/abortion-debates/5097-abortions-shouldnt-legal.html",125340,216
"1-3315_235_232_9",3315,1,"2005-05-21 16:21:00",1477,817,126272,"2005-05-21 10:31:00",135942,18,232,"Fortunate then are we that the truth of the matter lies not in opinion but in fact.",135939,9,3315,1,"There is your opinion..It is not the opinion of most people of faith.......","http://www.4forums.com/political/abortion-debates/5097-abortions-shouldnt-legal.html",126085,235
"1-3315_236_235_9",3315,1,"2005-05-21 18:12:00",817,1477,126375,"2005-05-21 16:21:00",135943,53,235,"I just know what my faith teaches on the subject........no more no less.I consider it fact you don't........That is life in the big city........
On judgment day you will find out if it is ok to murder the unborn or not.....
I already know.........",135942,9,3315,1,"Fortunate then are we that the truth of the matter lies not in opinion but in fact.","http://www.4forums.com/political/abortion-debates/5097-abortions-shouldnt-legal.html",126272,236
"1-3315_237_236_9",3315,1,"2005-05-21 19:23:00",1477,817,126391,"2005-05-21 18:12:00",135944,107,236,"So I don't know the teachings of the Catholic Church on the sanctity of life? How do you figure that I don't know them? They're so straight-forward that even the laity can understand them. 
Also, Halifax is a big city? You live and learn. 

Funny you should mention that, but God already told me that we must respect the autonomy of the mother, even at the expense of the child's life.
Also, about Judgment Day. God mentioned that you might not want to hold your breath unless you want it to come early this year.",135943,9,3315,1,"I just know what my faith teaches on the subject........no more no less.I consider it fact you don't........That is life in the big city........
On judgment day you will find out if it is ok to murder the unborn or not.....
I already know.........","http://www.4forums.com/political/abortion-debates/5097-abortions-shouldnt-legal.html",126375,237
"1-3315_238_237_9",3315,1,"2005-05-21 21:02:00",817,1477,126422,"2005-05-21 19:23:00",135945,44,237,"Halifax, what part of Philly is that? :) 
I am ready for judgment day..........As you know the bible says that death comes like a thief in the night.......Well maybe your bible does not say that...sorry........",135944,9,3315,1,"So I don't know the teachings of the Catholic Church on the sanctity of life? How do you figure that I don't know them? They're so straight-forward that even the laity can understand them. 
Also, Halifax is a big city? You live and learn. 

Funny you should mention that, but God already told me that we must respect the autonomy of the mother, even at the expense of the child's life.
Also, about Judgment Day. God mentioned that you might not want to hold your breath unless you want it to come early this year.","http://www.4forums.com/political/abortion-debates/5097-abortions-shouldnt-legal.html",126391,238
"1-3315_239_238_9",3315,1,"2005-05-21 21:59:00",1477,817,126443,"2005-05-21 21:02:00",135946,49,238,"The nice part.

I'm surprised that you've even read the Bible. Presumably you're commenting on 1 Thessalonians 5:2, wherein Paul admonishes the Greeks to be watchful for the coming of God? The funny thing is that all of my Bibles say that.",135945,9,3315,1,"Halifax, what part of Philly is that? :) 
I am ready for judgment day..........As you know the bible says that death comes like a thief in the night.......Well maybe your bible does not say that...sorry........","http://www.4forums.com/political/abortion-debates/5097-abortions-shouldnt-legal.html",126422,239
"1-3315_240_239_9",3315,1,"2005-05-21 22:35:00",817,1477,126458,"2005-05-21 21:59:00",135947,18,239,"Refresh my memory, Does you bible say its ok to indiscrimnately murder babies in the womb?",135946,9,3315,1,"The nice part.

I'm surprised that you've even read the Bible. Presumably you're commenting on 1 Thessalonians 5:2, wherein Paul admonishes the Greeks to be watchful for the coming of God? The funny thing is that all of my Bibles say that.","http://www.4forums.com/political/abortion-debates/5097-abortions-shouldnt-legal.html",126443,240
"1-3315_241_240_9",3315,1,"2005-05-21 22:43:00",1477,817,126461,"2005-05-21 22:35:00",135948,59,240,"My Bible? There's only one Bible. However I don't think I've ever found a passage in the Bible that's about abortion, either for or against it. Exodus comes down hard on the extermination of hebrew newborns, but those are babies already out of the woman and ready for a fulfilling life of slavery.",135947,9,3315,1,"Refresh my memory, Does you bible say its ok to indiscrimnately murder babies in the womb?","http://www.4forums.com/political/abortion-debates/5097-abortions-shouldnt-legal.html",126458,241
"1-3315_249_241_9",3315,1,"2005-05-22 11:56:00",817,1477,126742,"2005-05-21 22:43:00",135956,30,241,"We really are going around in circles on this........My bible through the RCC and Jesus Christ says all life is sacred including that life in the womb.........",135948,9,3315,1,"My Bible? There's only one Bible. However I don't think I've ever found a passage in the Bible that's about abortion, either for or against it. Exodus comes down hard on the extermination of hebrew newborns, but those are babies already out of the woman and ready for a fulfilling life of slavery.","http://www.4forums.com/political/abortion-debates/5097-abortions-shouldnt-legal.html",126461,249
