"key","quote_source_post_discussion_id","posts_dataset_id","posts_timestamp","posts_author_id","quote_source_author_id","posts_native_post_id","quote_source_timestamp","post_text_id","Word_Count","quote_source_post_id","post_text","quote_source_text_id","Dialog_Turn","posts_discussion_id","quote_source_post_dataset_id","Fullquote_text","discussion_url","quote_source_native_post_id","posts_post_id"
"1-3392_14_9_1",3392,1,"2005-05-14 07:30:00",68,817,122626,"2005-05-13 21:58:00",139954,151,9,"You can, but there is little point. Should I feel compassion for a man forced to watch horrible images if he is blind? I can, but there is little point.

He? Who says I am male?
What is in the womb is not an 'infant' (your overly emotional non-argument nonwithstanding). I do have compassion... for the woman.

""outraged that the human race allows it to continue""? No, not really. I understand what motivates people. There are certain things that I feel are disgusting and would stop if I were able to.
I don't think there is one thing I am passionate about over all else, but this issue does rank above many others. I feel disgusted that there are those who would make women second class citizens.",139949,1,3392,1,"Sigma is a person without compassion for the innocent defenseless infant in the womb..............
It is so sad that are such heartless people in this country........He will answer for his belief on judgement day..........","http://www.4forums.com/political/abortion-debates/5200-theres-something-wrong-if-you-dont-feel-compassion.html",122509,14
"1-3392_22_14_1",3392,1,"2005-05-14 09:48:00",817,68,122683,"2005-05-14 07:30:00",139962,94,14,"I know of no one that wants to make women a second class cititzen.......I know I sure don't............I just want and infant in the womb to have the same chance at life that you and I had.........
It is my hope that before I die that I see the barbaric act of legaling killing babies in the womb, Rowe V Wade overturned and give the decision on abortion back to individual state so that all these beautiful babies. gifts from God hve a chance at life...........",139954,1,3392,1,"You can, but there is little point. Should I feel compassion for a man forced to watch horrible images if he is blind? I can, but there is little point.

He? Who says I am male?
What is in the womb is not an 'infant' (your overly emotional non-argument nonwithstanding). I do have compassion... for the woman.

""outraged that the human race allows it to continue""? No, not really. I understand what motivates people. There are certain things that I feel are disgusting and would stop if I were able to.
I don't think there is one thing I am passionate about over all else, but this issue does rank above many others. I feel disgusted that there are those who would make women second class citizens.","http://www.4forums.com/political/abortion-debates/5200-theres-something-wrong-if-you-dont-feel-compassion.html",122626,22
"1-3392_57_22_1",3392,1,"2005-05-14 20:44:00",68,817,122920,"2005-05-14 09:48:00",139997,46,22,"These ""infants"" do. My mother could have aborted me and she chose to have me. 

And if the state decides to keep abortion legal? Then you don't care if these ""gifts from God"" have a chance or not?",139962,1,3392,1,"I know of no one that wants to make women a second class cititzen.......I know I sure don't............I just want and infant in the womb to have the same chance at life that you and I had.........
It is my hope that before I die that I see the barbaric act of legaling killing babies in the womb, Rowe V Wade overturned and give the decision on abortion back to individual state so that all these beautiful babies. gifts from God hve a chance at life...........","http://www.4forums.com/political/abortion-debates/5200-theres-something-wrong-if-you-dont-feel-compassion.html",122683,57
"1-3392_61_57_1",3392,1,"2005-05-14 21:48:00",817,68,122960,"2005-05-14 20:44:00",140001,57,57,"I know one thing for sure if you kill them in the womb they have no chance.......I would think they would want the same chance you and I had.........I don't know about you but after being married for almost 40 years with 6 kids and 10 grandchildren I turned out all right........",139997,1,3392,1,"These ""infants"" do. My mother could have aborted me and she chose to have me. 

And if the state decides to keep abortion legal? Then you don't care if these ""gifts from God"" have a chance or not?","http://www.4forums.com/political/abortion-debates/5200-theres-something-wrong-if-you-dont-feel-compassion.html",122920,61
"1-3392_67_61_1",3392,1,"2005-05-14 21:59:00",68,817,122969,"2005-05-14 21:48:00",140007,51,61,"haha! I think you need to re-examine the bolded parts ;)

I don't believe I've ever characterized what is inside the woman as ""a glob of cells"". You go ahead and assume about me, it makes it all the easier to dismiss you as irrelevent :)",140001,1,3392,1,"I know one thing for sure if you kill them in the womb they have no chance.......I would think they would want the same chance you and I had.........I don't know about you but after being married for almost 40 years with 6 kids and 10 grandchildrenI turned out all right","http://www.4forums.com/political/abortion-debates/5200-theres-something-wrong-if-you-dont-feel-compassion.html",122960,67
"1-3392_74_67_1",3392,1,"2005-05-15 09:34:00",817,68,123125,"2005-05-14 21:59:00",140014,41,67,"You don't have to come out and say it........All one needs to do is read you comments that show your disdain for the innocent, defenseless unborn inthe womb......

Only in your mixed up mind my friend..........",140007,1,3392,1,"haha! I think you need to re-examine the bolded parts ;)

I don't believe I've ever characterized what is inside the woman as ""a glob of cells"". You go ahead and assume about me, it makes it all the easier to dismiss you as irrelevent :)","http://www.4forums.com/political/abortion-debates/5200-theres-something-wrong-if-you-dont-feel-compassion.html",122969,74
"1-3392_75_74_1",3392,1,"2005-05-15 09:37:00",68,817,123128,"2005-05-15 09:34:00",140015,28,74,"Truly? What comments have I said that ""show my disdain(sic)""? Could you post a few?

I'm not your friend :P",140014,1,3392,1,"You don't have to come out and say it........All one needs to do is read you comments that show your disdain for the innocent, defenseless unborn inthe womb......

Only in your mixed up mind my friend..........","http://www.4forums.com/political/abortion-debates/5200-theres-something-wrong-if-you-dont-feel-compassion.html",123125,75
"1-3392_42_26_2",3392,1,"2005-05-14 13:18:00",817,1477,122781,"2005-05-14 09:56:00",139982,54,26,"In the fifties and sixties I never heard of a mother giving birth and stuffing the baby in a garbage can..It seems to happen all the time now.........
I am also saying new born babies put up for adoption have always been scarce and there have been long waiting lists......",139966,2,3392,1,"Voice of Reason: So what you're saying is that you know absolutely that there are more unwanted children now than before, et ceteris paribus? Or are you simply saying that you didn't hear about it as much back in the day?","http://www.4forums.com/political/abortion-debates/5200-theres-something-wrong-if-you-dont-feel-compassion.html",122691,42
"1-3392_44_42_2",3392,1,"2005-05-14 13:22:00",1477,817,122785,"2005-05-14 13:18:00",139984,32,42,"Okay, so you're saying you hear about it more these days. Does that mean it actually happens more often, or simply that you hear about it more often?",139982,2,3392,1,"In the fifties and sixties I never heard of a mother giving birth and stuffing the baby in a garbage can..It seems to happen all the time now.........
I am also saying new born babies put up for adoption have always been scarce and there have been long waiting lists......","http://www.4forums.com/political/abortion-debates/5200-theres-something-wrong-if-you-dont-feel-compassion.html",122781,44
"1-3392_49_44_2",3392,1,"2005-05-14 13:31:00",817,1477,122795,"2005-05-14 13:22:00",139989,15,44,"I don't know for sure but I would think that would be the case........",139984,2,3392,1,"Okay, so you're saying you hear about it more these days. Does that mean it actually happens more often, or simply that you hear about it more often?","http://www.4forums.com/political/abortion-debates/5200-theres-something-wrong-if-you-dont-feel-compassion.html",122785,49
"1-3392_50_49_2",3392,1,"2005-05-14 13:34:00",1477,817,122797,"2005-05-14 13:31:00",139990,30,49,"So why do you think it to be the case? How do you make the leap from hearing about it more often to knowing it happens more often?",139989,2,3392,1,"I don't know for sure but I would think that would be the case........","http://www.4forums.com/political/abortion-debates/5200-theres-something-wrong-if-you-dont-feel-compassion.html",122795,50
"1-3392_53_50_2",3392,1,"2005-05-14 15:33:00",817,1477,122844,"2005-05-14 13:34:00",139993,18,50,"I guess its just common sense...........If you hear about more then there must be more......",139990,2,3392,1,"So why do you think it to be the case? How do you make the leap from hearing about it more often to knowing it happens more often?","http://www.4forums.com/political/abortion-debates/5200-theres-something-wrong-if-you-dont-feel-compassion.html",122797,53
"1-3392_54_53_2",3392,1,"2005-05-14 16:26:00",1477,817,122870,"2005-05-14 15:33:00",139994,148,53,"I would say that such an inference is actually contrary to common sense. Common sense suggests that there is a distinction between hearing more about something and there actually being more of something. 
In fact such a sentiment is an example of sloppy reasoning. The particular fallacy is that of ""affirming the consequent"". Or as one of my old professors once called it 'modus XXXXXX'.
Notice that I'm not saying whether your claim about whether the phenomenon of infant abandonment has increased is false. It could be true. However, you are unjustified in supposing that because you hear about it more often it must be happening more often. 
So in the absence of anyone being able to make such an inference, why else might you suppose that infant abandonment is happening more often?",139993,2,3392,1,"I guess its just common sense...........If you hear about more then there must be more......","http://www.4forums.com/political/abortion-debates/5200-theres-something-wrong-if-you-dont-feel-compassion.html",122844,54
"1-3392_45_32_3",3392,1,"2005-05-14 13:23:00",817,1477,122786,"2005-05-14 11:22:00",139985,37,32,"If the woman did not want to get pregnant she should have used protection when engaging in sexual intercourse........She should not be able to abort the baby arbitrarily unless it is and extreme emergency.........",139972,3,3392,1,"It's somebody's attempt to do good, unfortunately. In the pro-choice camp we think that giving a woman the live option of abortion is the lesser of two evils, the greater of which is denying a woman that live option. 
On the bright side, we pro-choicers think you pro-paternalists are misguided and perhaps even intentionally evil too.","http://www.4forums.com/political/abortion-debates/5200-theres-something-wrong-if-you-dont-feel-compassion.html",122726,45
"1-3392_48_45_3",3392,1,"2005-05-14 13:31:00",1477,817,122794,"2005-05-14 13:23:00",139988,52,45,"I don't think it's fair to characterize any woman's decision to abort a child as arbitrary, considering the risks involved in any kind of surgery. Women decide to have abortions because they understand it to be better than the alternative. 
Off-topic: Could you please use english grammar?",139985,3,3392,1,"If the woman did not want to get pregnant she should have used protection when engaging in sexual intercourse........She should not be able to abort the baby arbitrarily unless it is and extreme emergency.........","http://www.4forums.com/political/abortion-debates/5200-theres-something-wrong-if-you-dont-feel-compassion.html",122786,48
"1-3392_51_48_3",3392,1,"2005-05-14 13:34:00",817,1477,122798,"2005-05-14 13:31:00",139991,46,48,"Sorry, I am just and old country boy and may not have your high brow breeding and be able to express myself as well as you do but I think you get the message even if you are to blind to listen to it.........",139988,3,3392,1,"I don't think it's fair to characterize any woman's decision to abort a child as arbitrary, considering the risks involved in any kind of surgery. Women decide to have abortions because they understand it to be better than the alternative. 
Off-topic: Could you please use english grammar?","http://www.4forums.com/political/abortion-debates/5200-theres-something-wrong-if-you-dont-feel-compassion.html",122794,51
"1-3392_52_51_3",3392,1,"2005-05-14 13:38:00",1477,817,122801,"2005-05-14 13:34:00",139992,128,51,"And yet expressing yourself is a simple matter of using a single period to end each sentence. There are plenty of english grammer primers available through the internet and presumably your primary school education included such arcane mysteries as well. If you are using a computer, try posting your message in a word processor and running it through the spelling and grammar checkers before posting. It will go a long way to helping you express yourself and help the rest of us understand your position. 
Also, characterizing me as blind to your message is rather pointless unless you can effectively communicate what that message is about. 
So why do you characterize women's decisions to have abortions as 'arbitrary'?",139991,3,3392,1,"Sorry, I am just and old country boy and may not have your high brow breeding and be able to express myself as well as you do but I think you get the message even if you are to blind to listen to it.........","http://www.4forums.com/political/abortion-debates/5200-theres-something-wrong-if-you-dont-feel-compassion.html",122798,52
"1-3392_59_52_3",3392,1,"2005-05-14 21:44:00",817,1477,122956,"2005-05-14 13:38:00",139999,11,52,"Oh, OK................................................ .................................. Is that better?........................................... ...........................",139992,3,3392,1,"And yet expressing yourself is a simple matter of using a single period to end each sentence. There are plenty of english grammer primers available through the internet and presumably your primary school education included such arcane mysteries as well. If you are using a computer, try posting your message in a word processor and running it through the spelling and grammar checkers before posting. It will go a long way to helping you express yourself and help the rest of us understand your position. 
Also, characterizing me as blind to your message is rather pointless unless you can effectively communicate what that message is about. 
So why do you characterize women's decisions to have abortions as 'arbitrary'?","http://www.4forums.com/political/abortion-debates/5200-theres-something-wrong-if-you-dont-feel-compassion.html",122801,59
"1-3392_64_60_4",3392,1,"2005-05-14 21:53:00",817,1477,122965,"2005-05-14 21:47:00",140004,70,60,"I have answered your questions over and over again when it comes to abortion.......To bad it is has blinded you to the fate of the innocent........
I have a feeeling you are one of these liberals who have no compassion for a baby in the womb but when it comes to a murderer or rapist scheduled to be executed you are filled with compassion for them...............",140000,4,3392,1,"So am I then to assume you cannot answer my questions, or that you cannot express those answers in english?","http://www.4forums.com/political/abortion-debates/5200-theres-something-wrong-if-you-dont-feel-compassion.html",122959,64
"1-3392_69_64_4",3392,1,"2005-05-14 22:02:00",1477,817,122973,"2005-05-14 21:53:00",140009,107,64,"I'm sorry, but I cannot find the answers to the following questions from my previous posts: 
1. Why do you, Voice of Reason, characterize women's decisions to have abortions as 'arbitrary'?
2. In the absence of anyone being able to make an inference to the effect that more child abandonment happens because we hear about it more often, how else might you, Voice of Reason, justify the claim that infant abandonment is happening more often?
Could you please help me find them, or perhaps even repeat your answer so it is clear?",140004,4,3392,1,"I have answered your questions over and over again when it comes to abortion.......To bad it is has blinded you to the fate of the innocent........
I have a feeeling you are one of these liberals who have no compassion for a baby in the womb but when it comes to a murderer or rapist scheduled to be executed you are filled with compassion for them...............","http://www.4forums.com/political/abortion-debates/5200-theres-something-wrong-if-you-dont-feel-compassion.html",122965,69
"1-3392_76_69_4",3392,1,"2005-05-15 09:41:00",817,1477,123132,"2005-05-14 22:02:00",140016,77,69,"1. I think a lot of women take take the easy way out when it comes to and abortion for the reasons I have stated over and over again..........
2. What I said was it seems you can't pick up the newspaper these days and not see a case of where some woman has abandoned a new born baby in a trash can or dumpster.......It never use to be that way..........",140009,4,3392,1,"I'm sorry, but I cannot find the answers to the following questions from my previous posts: 
1. Why do you, Voice of Reason, characterize women's decisions to have abortions as 'arbitrary'?
2. In the absence of anyone being able to make an inference to the effect that more child abandonment happens because we hear about it more often, how else might you, Voice of Reason, justify the claim that infant abandonment is happening more often?
Could you please help me find them, or perhaps even repeat your answer so it is clear?","http://www.4forums.com/political/abortion-debates/5200-theres-something-wrong-if-you-dont-feel-compassion.html",122973,76
"1-3392_77_76_4",3392,1,"2005-05-15 10:53:00",1477,817,123168,"2005-05-15 09:41:00",140017,108,76,"So you argue that for some women, abortion is the ""easy way out"", and that those women choose to abort, take the easy way out as you say, for arbitrary reasons?
Could you please reiterate these reasons here (preferably in an enumerated list) and explain why they should be considered arbitrary?

Indeed. But we've established that supposing a higher profile in the media in no way entails an actual increase in incidents. 
So I'll repeat the question, hearsay aside, upon what evidence do you base the assertion that more women are abandoning infants?",140016,4,3392,1,"1. I think a lot of women take take the easy way out when it comes to and abortion for the reasons I have stated over and over again..........
2. What I said was it seems you can't pick up the newspaper these days and not see a case of where some woman has abandoned a new born baby in a trash can or dumpster.......It never use to be that way..........","http://www.4forums.com/political/abortion-debates/5200-theres-something-wrong-if-you-dont-feel-compassion.html",123132,77
"1-3392_84_77_4",3392,1,"2005-05-16 13:37:00",817,1477,123740,"2005-05-15 10:53:00",140024,89,77,"All I have to go by is what I hear in the news media and if you think that 40,000,000 babies murdered in the womb in this country since 1972 is nothing then I feel sorry for you........
Oh and I am not going to say again what the frivelous reasons a lot of women have abortions here in the U.S. Instead of just attacking me take the time to go back and read the thread...............You might lear something.........Probably not though........ emoticonXRolleyes ..",140017,4,3392,1,"So you argue that for some women, abortion is the ""easy way out"", and that those women choose to abort, take the easy way out as you say, for arbitrary reasons?
Could you please reiterate these reasons here (preferably in an enumerated list) and explain why they should be considered arbitrary?

Indeed. But we've established that supposing a higher profile in the media in no way entails an actual increase in incidents. 
So I'll repeat the question, hearsay aside, upon what evidence do you base the assertion that more women are abandoning infants?","http://www.4forums.com/political/abortion-debates/5200-theres-something-wrong-if-you-dont-feel-compassion.html",123168,84
"1-3392_88_84_4",3392,1,"2005-05-16 15:02:00",1477,817,123779,"2005-05-16 13:37:00",140028,209,84,"Surely there are public records and official statistics kept so that you can verify the numbers you hear in the media?
Given the media's liberal bias, how do you know that number is accurate? I don't know whether there were less or more abortion procedures than the 40,000,000 that you quote. That's what I think we need to corroborate. 
Also, when you say ""this country"" I'm going to assume you mean the USA. I'm from Canada and our abortion rate is somewhat different from yours. 
According to your government, specifically their CDC agency, the rate of abortions is dropping. 
http://www.cdc.gov/mmwr/preview/mmwrhtml/mm5404a6.htm
http://www.cdc.gov/mmwr/preview/mmwrhtml/ss5309a1.htm
Given the size of your country and your rates of abortion, despite the recent decline, 40,000,000 strikes me as a low number 

I'm not trying to attack you. I did take the time to go through the thread. Unfortunately I can't find the reasons that you cite, which is why I asked you to repost them so we could discuss them. 
Again, could you please repost the list of reasons that you claim are frivolous or direct me to the posts in which you posted those reasons?",140024,4,3392,1,"All I have to go by is what I hear in the news media and if you think that 40,000,000 babies murdered in the womb in this country since 1972 is nothing then I feel sorry for you........
Oh and I am not going to say again what the frivelous reasons a lot of women have abortions here in the U.S. Instead of just attacking me take the time to go back and read the thread...............You might lear something.........Probably not though........ emoticonXRolleyes ..","http://www.4forums.com/political/abortion-debates/5200-theres-something-wrong-if-you-dont-feel-compassion.html",123740,88
