"key","quote_source_post_discussion_id","posts_dataset_id","posts_timestamp","posts_author_id","quote_source_author_id","posts_native_post_id","quote_source_timestamp","post_text_id","Word_Count","quote_source_post_id","post_text","quote_source_text_id","Dialog_Turn","posts_discussion_id","quote_source_post_dataset_id","Fullquote_text","discussion_url","quote_source_native_post_id","posts_post_id"
"1-3483_102_94_1",3483,1,"2005-06-29 14:39:00",51,1211,142693,"2005-06-29 11:14:00",143790,6,94,"you are a clump of cells",143782,1,3483,1,"We are not the ones who need something to get us through the night. Remember we are the ones who care more for a living human being than a clump of cells.","http://www.4forums.com/political/abortion-debates/5344-pro-choice-pro-life.html",142589,102
"1-3483_105_102_1",3483,1,"2005-06-29 14:54:00",1211,51,142707,"2005-06-29 14:39:00",143793,12,102,"Coming from you, I guess thats a compliment. Likewise.",143790,1,3483,1,"you are a clump of cells","http://www.4forums.com/political/abortion-debates/5344-pro-choice-pro-life.html",142693,105
"1-3483_108_105_1",3483,1,"2005-06-29 18:44:00",51,1211,142816,"2005-06-29 14:54:00",143796,35,105,"I am...It wasn't really a compliment or an insult...you just happen to be a clump of cells...lots of cells. What do you think you are made of?",143793,1,3483,1,"Coming from you, I guess thats a compliment. Likewise.","http://www.4forums.com/political/abortion-debates/5344-pro-choice-pro-life.html",142707,108
"1-3483_109_108_1",3483,1,"2005-06-29 18:58:00",1211,51,142825,"2005-06-29 18:44:00",143797,37,108,"Which means you must be a clump of cells too. The question is whether you have a brain and heart like the rest of the posters in this forum and every other breathing human being.",143796,1,3483,1,"I am...It wasn't really a compliment or an insult...you just happen to be a clump of cells...lots of cells. What do you think you are made of?","http://www.4forums.com/political/abortion-debates/5344-pro-choice-pro-life.html",142816,109
"1-3483_111_109_1",3483,1,"2005-06-29 19:25:00",51,1211,142838,"2005-06-29 18:58:00",143799,96,109,"I am a clump of cells...those were the first words of my last post.
So do you have to have a brain, heart, and be breathing to be a human? Who set this rule? Some people have smaller brains then others..are they ""less"" of a person? During a heart transplant is that person not a person when their heart is removed? If you hold your breath are you not a person? Your standard can't be proven nor does it make sense.",143797,1,3483,1,"Which means you must be a clump of cells too. The question is whether you have a brain and heart like the rest of the posters in this forum and every other breathing human being.","http://www.4forums.com/political/abortion-debates/5344-pro-choice-pro-life.html",142825,111
"1-3483_112_111_1",3483,1,"2005-06-29 19:35:00",1211,51,142841,"2005-06-29 19:25:00",143800,145,111,"The point is even if they have a smaller brain , they still have a brain. And the point is even in a heart transplant, the person has to get a heart to live. No heart , the person dies. And the point is even if you hold your breath, you have to breath after sometime to live. No breathing for a more than a few minutes and you die.
None of these examples are in any way comparable to a fertilized egg . The fertilized egg does not have any brain (small or otherwise). Even if you transplant a heart into a fertilized egg , it cannot survive in the open. has heart and still dies. Has no lungs to even hold its breath. .......Boy what an absurd comparison !",143799,1,3483,1,"I am a clump of cells...those were the first words of my last post.
So do you have to have a brain, heart, and be breathing to be a human? Who set this rule? Some people have smaller brains then others..are they ""less"" of a person? During a heart transplant is that person not a person when their heart is removed? If you hold your breath are you not a person? Your standard can't be proven nor does it make sense.","http://www.4forums.com/political/abortion-debates/5344-pro-choice-pro-life.html",142838,112
"1-3483_113_112_1",3483,1,"2005-06-29 19:42:00",51,1211,142849,"2005-06-29 19:35:00",143801,184,112,"A fetus has a brain, heart, and doesn't have to breath to live. 
If you talk about a fertilized egg then we still get back to the question who makes you the determiner of what a human is? Just because someone has to be in a certain enviroment to live shouldn't make them any less of a human. However, I don't get to make that call for someone else either. So I suggest that only each of us can determine for ourselves only whether or not we are a human at that point in time. Can't ask a fertilized egg? well better play it safe until you can...not have the ability to say is not a pass to make the decision for him/her. 
If it is a human/person (or whatever) one can't morally or legally kill it (legally stated in roe vs wade for US only). Morally, I would say most people find the killing of an innocent to be wrong.",143800,1,3483,1,"The point is even if they have a smaller brain , they still have a brain. And the point is even in a heart transplant, the person has to get a heart to live. No heart , the person dies. And the point is even if you hold your breath, you have to breath after sometime to live. No breathing for a more than a few minutes and you die.
None of these examples are in any way comparable to a fertilized egg . The fertilized egg does not have any brain (small or otherwise). Even if you transplant a heart into a fertilized egg , it cannot survive in the open. has heart and still dies. Has no lungs to even hold its breath. .......Boy what an absurd comparison !","http://www.4forums.com/political/abortion-debates/5344-pro-choice-pro-life.html",142841,113
"1-3483_117_113_1",3483,1,"2005-06-30 14:03:00",1211,51,143215,"2005-06-29 19:42:00",143805,37,113,"I did not even mention the word 'fetus' in my reply to you......so I am puzzled why you used that word. As I recall I was writing about a fertilized egg.",143801,1,3483,1,"A fetus has a brain, heart, and doesn't have to breath to live. 
If you talk about a fertilized egg then we still get back to the question who makes you the determiner of what a human is? Just because someone has to be in a certain enviroment to live shouldn't make them any less of a human. However, I don't get to make that call for someone else either. So I suggest that only each of us can determine for ourselves only whether or not we are a human at that point in time. Can't ask a fertilized egg? well better play it safe until you can...not have the ability to say is not a pass to make the decision for him/her. 
If it is a human/person (or whatever) one can't morally or legally kill it (legally stated in roe vs wade for US only). Morally, I would say most people find the killing of an innocent to be wrong.","http://www.4forums.com/political/abortion-debates/5344-pro-choice-pro-life.html",142849,117
"1-3483_118_117_1",3483,1,"2005-06-30 14:54:00",51,1211,143250,"2005-06-30 14:03:00",143806,8,117,"ok? are you offended or something?",143805,1,3483,1,"[B]
I did not even mention the word 'fetus' in my reply to you......so I am puzzled why you used that word. As I recall I was writing about a fertilized egg.","http://www.4forums.com/political/abortion-debates/5344-pro-choice-pro-life.html",143215,118
"1-3483_120_118_1",3483,1,"2005-06-30 15:17:00",1211,51,143272,"2005-06-30 14:54:00",143808,5,118,"My question remains unanswered.",143806,1,3483,1,"ok? are you offended or something?","http://www.4forums.com/political/abortion-debates/5344-pro-choice-pro-life.html",143250,120
"1-3483_122_120_1",3483,1,"2005-06-30 18:11:00",51,1211,143334,"2005-06-30 15:17:00",143810,3,120,"which was?",143808,1,3483,1,"My question remains unanswered.","http://www.4forums.com/political/abortion-debates/5344-pro-choice-pro-life.html",143272,122
"1-3483_123_122_1",3483,1,"2005-06-30 18:28:00",1211,51,143350,"2005-06-30 18:11:00",143811,15,122,"Why you used the word fetus, when I was talking about fertilized eggs.",143810,1,3483,1,"which was?","http://www.4forums.com/political/abortion-debates/5344-pro-choice-pro-life.html",143334,123
"1-3483_142_123_1",3483,1,"2005-07-02 09:57:00",51,1211,143887,"2005-06-30 18:28:00",143830,6,123,"because I felt like it...",143811,1,3483,1,"Why you used the word fetus, when I was talking about fertilized eggs.","http://www.4forums.com/political/abortion-debates/5344-pro-choice-pro-life.html",143350,142
"1-3483_131_125_2",3483,1,"2005-07-01 02:07:00",443,1211,143473,"2005-06-30 22:39:00",143819,121,125,"Abortion is not murder ? What about the baby being aborted ? Abortion is controversial for the simple fact that many people consider the procedure murder.
Many doctors in Germany during WWII committed murder by experimenting on human subjects. They knew beforehand that death would be the outcome, such as seeking to determine how long a person would survive at simulated high altitudes, and all for a good cause, by the way, to save the life of pilots. (utilitarian ethics). And many of these results were used by doctors belonging to the Allied countries without qualms, but this is another ethical issue.
So medical practice can be murder.",143813,2,3483,1,"Ok for the sake of arguement, lets say that abortion is made illegal . What is going to happen, abortions are still going to take place , only this time instead of going to doctors , women will be forced to go to butchers, which will result in abortions plus women's lives being put in jeapordy. The rich will always do what they always do and will not be affected by it.
Does this accomplish anything rather than making you feel better that abortion is illegal.
It is ridiculous to compare abortion to murder. Murder is not a medical procedure. Abortion is a medical procedure which if performed by a quack or a butcher carries with it the risk of death, infertility and other complications.","http://www.4forums.com/political/abortion-debates/5344-pro-choice-pro-life.html",143436,131
"1-3483_136_131_2",3483,1,"2005-07-01 13:26:00",1211,443,143698,"2005-07-01 02:07:00",143824,189,131,"Now you are confusing torture with abortion.
So you consider a fertilized egg of say 3 weeks a baby. It has not developed any human organs yet , how can it feel pain ?
The example you gave above is of doctors torturing breathing human beings by performing medical experiments on them. Lets not confuse the two issues here. One is torture, the other is a medical procedure to abort in most cases a 'clump of cells' which has not yet developed human organs and hence cannot feel any pain.
Whether you consider abortion 'murder' depends on many factors such as religion, morality,etc.. and also the development stages of the fetus. In fact in some countries once the fetus starts to develope human organs , abortion is not permitted whereas in other countries abortion is permitted right up to 9 months.....But I would not equate the aborting of a fertilized egg of 3 weeks with the murder of a breathing human being by say shooting him/her. Totally different.",143819,2,3483,1,"Abortion is not murder ? What about the baby being aborted ? Abortion is controversial for the simple fact that many people consider the procedure murder.
Many doctors in Germany during WWII committed murder by experimenting on human subjects. They knew beforehand that death would be the outcome, such as seeking to determine how long a person would survive at simulated high altitudes, and all for a good cause, by the way, to save the life of pilots. (utilitarian ethics). And many of these results were used by doctors belonging to the Allied countries without qualms, but this is another ethical issue.
So medical practice can be murder.","http://www.4forums.com/political/abortion-debates/5344-pro-choice-pro-life.html",143473,136
"1-3483_138_136_2",3483,1,"2005-07-01 16:47:00",443,1211,143761,"2005-07-01 13:26:00",143826,111,136,"Don’t accuse people of confusion when you are confused .
Torture is to inflict pain on a person as a form of punishment or to induce the person to behave in a certain manner, for instance to force the person to confess.
Pain in the medical experiments I referred to was not intentional but a consequence of the experiment. The Nazis did not resource to experimentation to cover torture. If they wanted to torture people they simply tortured them. 
Don’t you think that the baby killed by being forcibly torn from the womb suffer pain before dying?",143824,2,3483,1,"Now you are confusing torture with abortion.
So you consider a fertilized egg of say 3 weeks a baby. It has not developed any human organs yet , how can it feel pain ?
The example you gave above is of doctors torturing breathing human beings by performing medical experiments on them. Lets not confuse the two issues here. One is torture, the other is a medical procedure to abort in most cases a 'clump of cells' which has not yet developed human organs and hence cannot feel any pain.
Whether you consider abortion 'murder' depends on many factors such as religion, morality,etc.. and also the development stages of the fetus. In fact in some countries once the fetus starts to develope human organs , abortion is not permitted whereas in other countries abortion is permitted right up to 9 months.....But I would not equate the aborting of a fertilized egg of 3 weeks with the murder of a breathing human being by say shooting him/her. Totally different.","http://www.4forums.com/political/abortion-debates/5344-pro-choice-pro-life.html",143698,138
"1-3483_141_138_2",3483,1,"2005-07-01 18:27:00",1211,443,143786,"2005-07-01 16:47:00",143829,149,138,"That fact that you are confused is plain for everyone to see, infact your name should be 'confusion reigns'
Torture is torture whether intentional or unintentional. What are you saying in your usual confused manner, that just because in the medical experiements , torture is unintentional , it is not torture ? 
Please clarify what you mean by a 'baby"" being aborted (we don't have to use your gruesome description here). So you think a fertilized egg of say 3 - 6 weeks which has not developed any human organs can feel pain when aborted ? 
Now suddenly you have started using the word ""baby"" ? is this for the purposes of being melodramatic ? Yeah sounds a lot like those melodramatic SA soaps we see on TV where there is a meltdown every five minutes.",143826,2,3483,1,"Don’t accuse people of confusion when you are confused .
Torture is to inflict pain on a person as a form of punishment or to induce the person to behave in a certain manner, for instance to force the person to confess.
Pain in the medical experiments I referred to was not intentional but a consequence of the experiment. The Nazis did not resource to experimentation to cover torture. If they wanted to torture people they simply tortured them. 
Don’t you think that the baby killed by being forcibly torn from the womb suffer pain before dying?","http://www.4forums.com/political/abortion-debates/5344-pro-choice-pro-life.html",143761,141
"1-3483_152_141_2",3483,1,"2005-07-04 03:06:00",443,1211,144330,"2005-07-01 18:27:00",143840,164,141,"Why don’t you consult a dictionary before trying to debate an issue?
To torture is to intentionally cause pain, if not, it is not torture. For instance reading your postings is painful but whether this constitutes torture or not depend on your intentions.
Abortion is a medical procedure that causes the death of the foetus by forcibly removing it from the womb. Whether this constitutes murder or not depend on the point in time it was performed. According to some persons in these Forums if it happened before the foetus became a person, no murder occurred. 
I don’t give a hoot about sterile semantic discussions; in my opinion if the foetus feels pain it an abortion should be not allowed and the pregnancy should continue. Now if the mother doesn’t want the baby then an adoption would be the solution.",143829,2,3483,1,"That fact that you are confused is plain for everyone to see, infact your name should be 'confusion reigns'
Torture is torture whether intentional or unintentional. What are you saying in your usual confused manner, that just because in the medical experiements , torture is unintentional , it is not torture ?.","http://www.4forums.com/political/abortion-debates/5344-pro-choice-pro-life.html",143786,152
"1-3483_154_152_2",3483,1,"2005-07-04 14:35:00",1211,443,144490,"2005-07-04 03:06:00",143842,100,152,"1) Yes, yes, yes ! my postings are definitely meant to torture you. What goes around comes around.
2) Is destroying an embyro in a petri dish in the science lab murder ? If that is murder to you , then you should be against stem cell reasearch otherwise you have a double standard.
3) Easy for you to make comments about abortion and tell women what they should do (like giving up the baby for adoption) as you will never find yourself faced with any of these decisions.",143840,2,3483,1,"Why don’t you consult a dictionary before trying to debate an issue?
To torture is to intentionally cause pain, if not, it is not torture. For instance reading your postings is painful but whether this constitutes torture or not depend on your intentions.
Abortion is a medical procedure that causes the death of the foetus by forcibly removing it from the womb. Whether this constitutes murder or not depend on the point in time it was performed. According to some persons in these Forums if it happened before the foetus became a person, no murder occurred. 
I don’t give a hoot about sterile semantic discussions; in my opinion if the foetus feels pain it an abortion should be not allowed and the pregnancy should continue. Now if the mother doesn’t want the baby then an adoption would be the solution.","http://www.4forums.com/political/abortion-debates/5344-pro-choice-pro-life.html",144330,154
"1-3483_161_154_2",3483,1,"2005-07-05 03:29:00",443,1211,144662,"2005-07-04 14:35:00",143849,76,154,"At least I am not the only sufferer, I can see other poor souls around here also the victims of your postings. Who said that laughter wasn’t painful? It is if in excess, therefore I only read one of your postings at a time to make the pain bearable. How is the ‘clump of cells’ doing today by the way?",143842,2,3483,1,"1) Yes, yes, yes ! my postings are definitely meant to torture you. What goes around comes around.
2) Is destroying an embyro in a petri dish in the science lab murder ? If that is murder to you , then you should be against stem cell reasearch otherwise you have a double standard.
3) Easy for you to make comments about abortion and tell women what they should do (like giving up the baby for adoption) as you will never find yourself faced with any of these decisions.","http://www.4forums.com/political/abortion-debates/5344-pro-choice-pro-life.html",144490,161
"1-3483_164_161_2",3483,1,"2005-07-05 13:39:00",1211,443,144812,"2005-07-05 03:29:00",143852,135,161,"I guess you are a expert on this subject - torture .You have a lot of experience in this area ( I have witnessed it and been a victim of it many a times). But don't worry about me, your kind of germanic torture which is the inflicting of excruciating pain and mental anguish can never be surpassed by ANYBODY.
Maybe the reason you can only answer one of my postings is because my other postings are so logically constructed, flawless and above all right on the mark, so you cannot answer them...to answer them you will have to admit that you were wrong. But then again you are usually wrong. Oh and calling you a clump of cells will be too kind !",143849,2,3483,1,"At least I am not the only sufferer, I can see other poor souls around here also the victims of your postings. Who said that laughter wasn’t painful? It is if in excess, therefore I only read one of your postings at a time to make the pain bearable. How is the ‘clump of cells’ doing today by the way?","http://www.4forums.com/political/abortion-debates/5344-pro-choice-pro-life.html",144662,164
"1-3483_22_21_3",3483,1,"2005-05-24 10:14:00",817,1477,127964,"2005-05-24 09:38:00",143710,27,21,"I can only sspeak for myself but I received most of my moral values and beliefs from my parents and my 14 years of Catholic education......",143709,3,3483,1,"So what does make something right? A little off topic, I know, but I'm curious about how you assign moral values to things.","http://www.4forums.com/political/abortion-debates/5344-pro-choice-pro-life.html",127935,22
"1-3483_23_22_3",3483,1,"2005-05-24 10:27:00",1477,817,127972,"2005-05-24 10:14:00",143711,35,22,"I think you misunderstand me. I'm asking you to explain what your reasons are for deciding what moral values things have.
What method do you use for determining if something is right?",143710,3,3483,1,"I can only sspeak for myself but I received most of my moral values and beliefs from my parents and my 14 years of Catholic education......","http://www.4forums.com/political/abortion-debates/5344-pro-choice-pro-life.html",127964,23
"1-3483_25_23_3",3483,1,"2005-05-24 15:45:00",817,1477,128135,"2005-05-24 10:27:00",143713,3,23,"My experience..........",143711,3,3483,1,"I think you misunderstand me. I'm asking you to explain what your reasons are for deciding what moral values things have.
What method do you use for determining if something is right?","http://www.4forums.com/political/abortion-debates/5344-pro-choice-pro-life.html",127972,25
"1-3483_26_25_3",3483,1,"2005-05-24 15:57:00",1477,817,128140,"2005-05-24 15:45:00",143714,15,25,"Okay, and how do you understand those experiences in terms of moral value?",143713,3,3483,1,"My experience..........","http://www.4forums.com/political/abortion-debates/5344-pro-choice-pro-life.html",128135,26
"1-3483_27_26_3",3483,1,"2005-05-24 17:05:00",817,1477,128153,"2005-05-24 15:57:00",143715,40,26,"I believe I am a man of high principles and moral values, now if you don't have any other questions of me can we get back on topic........I believe I have answered your question...........
Thanks........",143714,3,3483,1,"Okay, and how do you understand those experiences in terms of moral value?","http://www.4forums.com/political/abortion-debates/5344-pro-choice-pro-life.html",128140,27
