"key","quote_source_post_discussion_id","posts_dataset_id","posts_timestamp","posts_author_id","quote_source_author_id","posts_native_post_id","quote_source_timestamp","post_text_id","Word_Count","quote_source_post_id","post_text","quote_source_text_id","Dialog_Turn","posts_discussion_id","quote_source_post_dataset_id","Fullquote_text","discussion_url","quote_source_native_post_id","posts_post_id"
"1-3580_172_168_1",3580,1,"2005-06-09 13:26:00",1845,44,135196,"2005-06-09 11:08:00",149343,51,168,"Where on earth did you get this idea?

You have drawn a distinction between that which is moral and that which is legal and in doing so acknowledged the possibility of there existing an unjust law. Just because abortion may be legal does not mean it is moral.",149339,1,3580,1,"For the same reason you can'tlegally or morally  undo(kill) another person regardless of age.","http://www.4forums.com/political/abortion-debates/5469-personally-against-abortion-but-pro-choice.html",135131,172
"1-3580_177_172_1",3580,1,"2005-06-09 13:45:00",44,1845,135211,"2005-06-09 13:26:00",149348,23,172,"Did I need to stipulate without just cause or license? My bad.

Do you deny the possibility an unjust law?",149343,1,3580,1,"Where on earth did you get this idea?

You have drawn a distinction between that which is moral and that which is legal and in doing so acknowledged the possibility of there existing an unjust law. Just because abortion may be legal does not mean it is moral.","http://www.4forums.com/political/abortion-debates/5469-personally-against-abortion-but-pro-choice.html",135196,177
"1-3580_183_177_1",3580,1,"2005-06-09 13:58:00",1845,44,135221,"2005-06-09 13:45:00",149354,58,177,"I mean where did you get the idea that murder is immoral. We all know it is illegal.

No, do you? The only way there can be an unjust law is if there is an absolute morality. The only way there can be an absolute morality is if there is a God.",149348,1,3580,1,"Did I need to stipulate without just cause or license? My bad.

Do you deny the possibility an unjust law?","http://www.4forums.com/political/abortion-debates/5469-personally-against-abortion-but-pro-choice.html",135211,183
"1-3580_186_183_1",3580,1,"2005-06-09 14:05:00",44,1845,135225,"2005-06-09 13:58:00",149357,47,183,"I heard it somewhere and since I don't like the idea of being murdered myself I decided to play along. Duh!

I don't see it that way at all. Unjust is not an absolute, it's a judgement.

I believe in neither.",149354,1,3580,1,"I mean where did you get the idea that murder is immoral. We all know it is illegal.

No, do you? The only way there can be an unjust law is if there is an absolute morality. The only way there can be an absolute morality is if there is a God.","http://www.4forums.com/political/abortion-debates/5469-personally-against-abortion-but-pro-choice.html",135221,186
"1-3580_188_186_1",3580,1,"2005-06-09 14:12:00",1845,44,135229,"2005-06-09 14:05:00",149359,78,186,"This is personal preference, not morality.

No, the term unjust assumes the term just. Just assumes an absolute right and wrong or else the word has absolutely no meaning.

Then you cant say there is such a thing as an unjust law. And you cant say with any authority that murder is always wrong. You can only make observations and meaningless judgments. No wonder you are confused about abortion.",149357,1,3580,1,"I heard it somewhere and since I don't like the idea of being murdered myself I decided to play along. Duh!

I don't see it that way at all. Unjust is not an absolute, it's a judgement.

I believe in neither.","http://www.4forums.com/political/abortion-debates/5469-personally-against-abortion-but-pro-choice.html",135225,188
"1-3580_134_133_2",3580,1,"2005-06-03 17:32:00",51,55,132634,"2005-06-03 17:21:00",149305,43,133,"One you murder one you dont....this is pretty obvious. How would you feel if we thought you were a mistake and wished to hit the ""undo"" button. You are ok with us just takin you out?",149304,2,3580,1,"its a baby, a human, a life. it doesnt matter what its called, the sentiment remains the same. most women have abortions because they dont want to have a baby. they have sex and dont want to get pregnant, but end up getting pregnant anyway. so they abort the baby. the result is the same as if they had sex and didnt get pregnant. abortion is like an ""undo"" button. people make mistakes, people do dumb stuff. i dont think there is a single woman in the world that enjoys having abortions. like i said before, abortions are not fun events. they are not pleasureable and they are not something to look forward to. but if youre having sex for pleasure, and you dont want to get prengant, you use contraceptives. if you dont use contraceptives and get pregnant, you have an abortion
at the end of the day the result is identical: a night of pleasureable sex, no pregnancy. what is the difference?","http://www.4forums.com/political/abortion-debates/5469-personally-against-abortion-but-pro-choice.html",132632,134
"1-3580_136_134_2",3580,1,"2005-06-04 04:07:00",55,51,132728,"2005-06-03 17:32:00",149307,42,134,"if it was me i would have no opinion or feeling about it. how would you feel if you were never were even concieved because the condom cut you off before you even had a chance to be a mistake?",149305,2,3580,1,"One you murder one you dont....this is pretty obvious. How would you feel if we thought you were a mistake and wished to hit the ""undo"" button. You are ok with us just takin you out?","http://www.4forums.com/political/abortion-debates/5469-personally-against-abortion-but-pro-choice.html",132634,136
"1-3580_138_136_2",3580,1,"2005-06-04 08:18:00",51,55,132782,"2005-06-04 04:07:00",149309,25,136,"If you killed someone sleeping they would never know either, unkerpaulie, however I wouldn't call this ok. 

I would feel betrayed.",149307,2,3580,1,"if it was me i would have no opinion or feeling about it. how would you feel if you were never were even concieved because the condom cut you off before you even had a chance to be a mistake?","http://www.4forums.com/political/abortion-debates/5469-personally-against-abortion-but-pro-choice.html",132728,138
"1-3580_141_138_2",3580,1,"2005-06-04 12:26:00",55,51,132885,"2005-06-04 08:18:00",149312,30,138,"therefore, there is essentially no effective difference between abortion and contraception when it comes to preventing people from being born. 2 differnt methods of achieving the same results",149309,2,3580,1,"If you killed someone sleeping they would never know either, unkerpaulie, however I wouldn't call this ok. 

I would feel betrayed.","http://www.4forums.com/political/abortion-debates/5469-personally-against-abortion-but-pro-choice.html",132782,141
"1-3580_142_141_2",3580,1,"2005-06-04 20:23:00",51,55,132972,"2005-06-04 12:26:00",149313,23,141,"except one is killing someone...like i said. Unless you are ok with killing people then you really make no sense",149312,2,3580,1,"therefore, there is essentially no effective difference between abortion and contraception when it comes to preventing people from being born. 2 differnt methods of achieving the same results","http://www.4forums.com/political/abortion-debates/5469-personally-against-abortion-but-pro-choice.html",132885,142
"1-3580_143_142_2",3580,1,"2005-06-04 20:56:00",55,51,132977,"2005-06-04 20:23:00",149314,14,142,"i guess you are ok with preventing people from ever having life at all",149313,2,3580,1,"except one is killing someone...like i said. Unless you are ok with killing people then you really make no sense","http://www.4forums.com/political/abortion-debates/5469-personally-against-abortion-but-pro-choice.html",132972,143
"1-3580_146_143_2",3580,1,"2005-06-05 09:02:00",51,55,133099,"2005-06-04 20:56:00",149317,74,143,"Like VOR said....conception would be when they are a person whether you look at DNA or just common sense. Even if you wanna do the ""lookign test"" at a few weeks it looks like a very small human...very small. So what is your point exactly?(and I don't mean to be sounding like a jerk I just wanna know what your point is)",149314,2,3580,1,"i guess you are ok with preventing people from ever having life at all","http://www.4forums.com/political/abortion-debates/5469-personally-against-abortion-but-pro-choice.html",132977,146
"1-3580_147_146_2",3580,1,"2005-06-05 10:38:00",55,51,133173,"2005-06-05 09:02:00",149318,223,146,"i think the point is that the line between getting accidentally pregnant and not getting accidentally pregnant is very thin. the root of the problem is not freedom and rights as much as it is having sex with little discretion. if a person has sex and doesnt get pregnant, they are doing the exact same thing as the pers on that has sex and does become pregnant. when you have sex and you dont want to become pregnant, you wear contraceptive, or what ever type of birth control you can. sometimes the birth control method fails, and you accidentally become pregnant anyway. the original intention was to have sex and not get pregnant. in such a case, abortion fixes the situation where the birth control method failed.
is the problem really abortion? would you rather every unintentional pregnancy to produce another unwanted baby? (40,000,000 since 1972?) would you prefer a more effective form of birth control that could allow sex without accidental pregnancies more often?
the only way to reduce the number of abortions is to reduce the number of unwanted pregnancies. either more birth control, or less sex, neither of which are viable solutions. so what do you suggest?",149317,2,3580,1,"Like VOR said....conception would be when they are a person whether you look at DNA or just common sense. Even if you wanna do the ""lookign test"" at a few weeks it looks like a very small human...very small. So what is your point exactly?(and I don't mean to be sounding like a jerk I just wanna know what your point is)","http://www.4forums.com/political/abortion-debates/5469-personally-against-abortion-but-pro-choice.html",133099,147
"1-3580_149_147_2",3580,1,"2005-06-05 14:14:00",51,55,133302,"2005-06-05 10:38:00",149320,226,147,"I suggest banning abortion as that would cut down the number. If someone has sex with protection they still are accepting all risks involved in this like like you accept all consequences of any action you do. For example, when you cross the street you accept the consequence that you might get hit by a car. This doesn't mean it is ok to get hit by a car or you wanted to get hit by a car, but that you knew the possibility was out there. If you cross the street you have accepted this. Now when you have sex it is the same thing. You realize that you might get pregnant. You accept this. Once you get pregnant you have created a life and have no right to end it even if you didn't want it because you accepted that risk. I don't suppose you are for murdering people are you? Your suggestions are that you fix a problem by murder. Well, does this mean I can kill everyone in my way to ""fix"" my problems? You then ask would I rather have 40mill more people here. yes I would. If you value human life then you wouldn't want to kill people like that.",149318,2,3580,1,"i think the point is that the line between getting accidentally pregnant and not getting accidentally pregnant is very thin. the root of the problem is not freedom and rights as much as it is having sex with little discretion. if a person has sex and doesnt get pregnant, they are doing the exact same thing as the pers on that has sex and does become pregnant. when you have sex and you dont want to become pregnant, you wear contraceptive, or what ever type of birth control you can. sometimes the birth control method fails, and you accidentally become pregnant anyway. the original intention was to have sex and not get pregnant. in such a case, abortion fixes the situation where the birth control method failed.
is the problem really abortion? would you rather every unintentional pregnancy to produce another unwanted baby? (40,000,000 since 1972?) would you prefer a more effective form of birth control that could allow sex without accidental pregnancies more often?
the only way to reduce the number of abortions is to reduce the number of unwanted pregnancies. either more birth control, or less sex, neither of which are viable solutions. so what do you suggest?","http://www.4forums.com/political/abortion-debates/5469-personally-against-abortion-but-pro-choice.html",133173,149
"1-3580_150_149_2",3580,1,"2005-06-05 16:01:00",55,51,133407,"2005-06-05 14:14:00",149321,62,149,"interesting, because in america if you choke on a chicken bone at kfc and suffer injuries, you can sue kfc, even though you knew there is a risk of choking on a chicken bone whenever you eat chicken. should we also ban law suits so that those risk-taking chicken-eaters should also face the consequences of their actions?",149320,2,3580,1,"I suggest banning abortion as that would cut down the number. If someone has sex with protection they still are accepting all risks involved in this like like you accept all consequences of any action you do. For example, when you cross the street you accept the consequence that you might get hit by a car. This doesn't mean it is ok to get hit by a car or you wanted to get hit by a car, but that you knew the possibility was out there. If you cross the street you have accepted this. Now when you have sex it is the same thing. You realize that you might get pregnant. You accept this. Once you get pregnant you have created a life and have no right to end it even if you didn't want it because you accepted that risk. I don't suppose you are for murdering people are you? Your suggestions are that you fix a problem by murder. Well, does this mean I can kill everyone in my way to ""fix"" my problems? You then ask would I rather have 40mill more people here. yes I would. If you value human life then you wouldn't want to kill people like that.","http://www.4forums.com/political/abortion-debates/5469-personally-against-abortion-but-pro-choice.html",133302,150
"1-3580_154_150_2",3580,1,"2005-06-06 15:51:00",51,55,133913,"2005-06-05 16:01:00",149325,64,150,"First off, you can sue for anything. If you choke on a chicken bone you won't win unless KFC told you it was boneless. You CAN'T sue a condom company(as in being able to win) if you get pregnant because the label clearly says it is not 100% effective. You are back in Tort law again.",149321,2,3580,1,"interesting, because in america if you choke on a chicken bone at kfc and suffer injuries, you can sue kfc, even though you knew there is a risk of choking on a chicken bone whenever you eat chicken. should we also ban law suits so that those risk-taking chicken-eaters should also face the consequences of their actions?","http://www.4forums.com/political/abortion-debates/5469-personally-against-abortion-but-pro-choice.html",133407,154
"1-3580_155_154_2",3580,1,"2005-06-07 06:42:00",55,51,134075,"2005-06-06 15:51:00",149326,162,154,"yes but there are no disclaimers on drumsticks that eating this run you the risk of choking. yes disclaimers protect the companies certain liabilities, but even when consumers are informed of a risk, they still can get recourse if they suffer because of it
anyway, yes sex can get you pregnant. thats a risk everybody that has sex takes. still, pregnancy is not what the couple wanted when they had sex. so they have the option of undoing the pregnancy via abortion
its like a manufacturing company that makes teddy bears, and unexpectedly produces a stuffed rat instead. that company has the option of getting rid of the unwanted rat, rather than being forced to package and sell it as a teddy bear. yes, the risk of accidentally manufacturing something thats not a teddy bear exists, but why should the company continue to produce these unwanted rats?",149325,2,3580,1,"First off, you can sue for anything. If you choke on a chicken bone you won't win unless KFC told you it was boneless. You CAN'T sue a condom company(as in being able to win) if you get pregnant because the label clearly says it is not 100% effective. You are back in Tort law again.","http://www.4forums.com/political/abortion-debates/5469-personally-against-abortion-but-pro-choice.html",133913,155
"1-3580_284_283_3",3580,1,"2005-06-16 05:09:00",51,103,137764,"2005-06-16 05:00:00",149455,53,283,"If you are resorting to an absolute arguement like this then you have already lost. You suggest an all or nothing idea of thinking.
Not only that, we have been through this a number of times on this forum and have shown how the arguement you use is invalid.",149454,3,3580,1,"You do the same, if you don't donate every spare minute and dollar above what you need to keep yourself alive to extending the lives of others.
Your participation on this forum indicates that you place your own preferences above the lives of others.
Why aren't you out patrolling a beach, earning money to send to Africa, or caring for the homeless?
You pretty much put your own happiness over someone elses life, you despicable monster.","http://www.4forums.com/political/abortion-debates/5469-personally-against-abortion-but-pro-choice.html",137760,284
"1-3580_285_284_3",3580,1,"2005-06-16 05:13:00",103,51,137765,"2005-06-16 05:09:00",149456,118,284,"Ah, of course, the fallacy of the absolute argument, how could I have forgotten. emoticonXRolleyes 
This is reality - you, on a regular basis, put your personal happiness over other peoples' lives. And yet if someone else says they do the same, you presume you have some sort of moral superiority to them.

Please, enlighten me.
Your argument is essentially ""putting your personal happiness over other peoples' lives is wrong"", and yet you do it yourself constantly. I see no more reason to enslave others to protect ""lives"" than I do to enslave you to others' lives.",149455,3,3580,1,"If you are resorting to an absolute arguement like this then you have already lost. You suggest an all or nothing idea of thinking.
Not only that, we have been through this a number of times on this forum and have shown how the arguement you use is invalid.","http://www.4forums.com/political/abortion-debates/5469-personally-against-abortion-but-pro-choice.html",137764,285
"1-3580_286_285_3",3580,1,"2005-06-16 05:16:00",51,103,137766,"2005-06-16 05:13:00",149457,57,285,"Who said anything about fallacies?

Actually, you assume this.
Moreover, is your own pesonal happieness worth killing someone for...which was the question.

No, my arguement is ""putting personal happiness about a right to life is wrong"" and I don't do constantly....however, abortion does.",149456,3,3580,1,"Ah, of course, the fallacy of the absolute argument, how could I have forgotten. emoticonXRolleyes 
This is reality - you, on a regular basis, put your personal happiness over other peoples' lives. And yet if someone else says they do the same, you presume you have some sort of moral superiority to them.

Please, enlighten me.
Your argument is essentially ""putting your personal happiness over other peoples' lives is wrong"", and yet you do it yourself constantly. I see no more reason to enslave others to protect ""lives"" than I do to enslave you to others' lives.","http://www.4forums.com/political/abortion-debates/5469-personally-against-abortion-but-pro-choice.html",137765,286
"1-3580_287_286_3",3580,1,"2005-06-16 05:18:00",103,51,137767,"2005-06-16 05:16:00",149458,45,286,"African children have a right to life and you are violating it by not providing them with clean food, water, and medicine to the full extent of your abilities.

You are here posting on this forum, that is proof.


emoticonXRolleyes",149457,3,3580,1,"Who said anything about fallacies?

Actually, you assume this.
Moreover, is your own pesonal happieness worth killing someone for...which was the question.

No, my arguement is ""putting personal happiness about a right to life is wrong"" and I don't do constantly....however, abortion does.","http://www.4forums.com/political/abortion-debates/5469-personally-against-abortion-but-pro-choice.html",137766,287
"1-3580_288_287_3",3580,1,"2005-06-16 05:30:00",51,103,137770,"2005-06-16 05:18:00",149459,78,287,"Good grief...we have been through this so many times. This doesn't hold up. With your logic we could conclude that you are violating every right I have at this very moment...this is obviously not true.

Who's to say I am not trying to save lives by posting on the forums?
I see you did a nice job of selective quoting too...
Lets actually look at my whole post...

",149458,3,3580,1,"African children have a right to life and you are violating it by not providing them with clean food, water, and medicine to the full extent of your abilities.

You are here posting on this forum, that is proof.


emoticonXRolleyes","http://www.4forums.com/political/abortion-debates/5469-personally-against-abortion-but-pro-choice.html",137767,288
"1-3580_89_86_4",3580,1,"2005-06-02 09:33:00",55,817,131881,"2005-06-02 09:11:00",149260,76,86,"the question is, would you rather the mother go through the full term pregnancy and delivery (and all that comes with it like weight gain, loss of wages, emotional trauma, etc) and then give the child away? (and i'm not talking about the rare cases of rape, incest or medical complications, i'm talking about the majority reason that the mother simply doesnt want the child)",149257,4,3580,1,"I have said this before but I will say it again for the new people to the forum and I believe it with my whole heart and soul........
Abortion is killing a defenseless, helpless, innocent baby in the womb....It is the most barbaric crime one human being can perpetrate on another and should not be allowed except in extreme cases where the life of the mother is endangered or possibly in cases of rape and incest...........","http://www.4forums.com/political/abortion-debates/5469-personally-against-abortion-but-pro-choice.html",131844,89
"1-3580_90_89_4",3580,1,"2005-06-02 09:38:00",817,55,131887,"2005-06-02 09:33:00",149261,26,89,"I guess she should of thought of that before she became pregnant...............Using abortion as birth control is the most horible reason of all..........",149260,4,3580,1,"the question is, would you rather the mother go through the full term pregnancy and delivery (and all that comes with it like weight gain, loss of wages, emotional trauma, etc) and then give the child away? (and i'm not talking about the rare cases of rape, incest or medical complications, i'm talking about the majority reason that the mother simply doesnt want the child)","http://www.4forums.com/political/abortion-debates/5469-personally-against-abortion-but-pro-choice.html",131881,90
"1-3580_92_90_4",3580,1,"2005-06-02 09:42:00",55,817,131894,"2005-06-02 09:38:00",149263,34,90,"what exactly is the difference between birth control (condoms, the pill, etc) and abortion? in both cases the life of a human is terminated before it can even start",149261,4,3580,1,"I guess she should of thought of that before she became pregnant...............Using abortion as birth control is the most horible reason of all..........","http://www.4forums.com/political/abortion-debates/5469-personally-against-abortion-but-pro-choice.html",131887,92
"1-3580_94_92_4",3580,1,"2005-06-02 09:44:00",817,55,131898,"2005-06-02 09:42:00",149265,19,92,"A condom might prevent a life from beginning and abortion murders a life after it has been conceived...........",149263,4,3580,1,"what exactly is the difference between birth control (condoms, the pill, etc) and abortion? in both cases the life of a human is terminated before it can even start","http://www.4forums.com/political/abortion-debates/5469-personally-against-abortion-but-pro-choice.html",131894,94
"1-3580_96_94_4",3580,1,"2005-06-02 09:49:00",55,817,131902,"2005-06-02 09:44:00",149267,57,94,"and...? neither gets out of the womb alive. condoms kill more babies than abortion clinics if you ask me. is preventing a life from being born a bad thing? think of the great men and women those sperms killed in the tip of the condom could have grown up to become...",149265,4,3580,1,"A condom might prevent a life from beginning and abortion murders a life after it has been conceived...........","http://www.4forums.com/political/abortion-debates/5469-personally-against-abortion-but-pro-choice.html",131898,96
"1-3580_207_205_5",3580,1,"2005-06-09 21:36:00",1477,540,135382,"2005-06-09 21:16:00",149378,81,205,"True, no point in forcing the child to endure a long lingering death once it is removed from the mother's body. Personally I think it would be wonderful if we were able to simply remove the fetus from the mother's body and put it in an artificial womb until it could survive on its own. But if the fetus cannot survive being removed from its mother's body, quick disposal seems to be the next best option.",149376,5,3580,1,"It goes without saying that abortion is more than just the simple withholding of one's support from the developing fetus; it is the active removal of the fetus from it's natural environment using a procedure intended to bring about it's death.
Why can we perform a certain action (i.e. termination of life) on a fetus, but not on a birthed child? If she has the right to remove her support from the child at any stage, then she has the right to withold nutrition and hydration from her 1 week old baby. If you are in support of the mother having the right to remove her support from the child at any stage, then you wouldn't mind if she starved her child to death, correct?","http://www.4forums.com/political/abortion-debates/5469-personally-against-abortion-but-pro-choice.html",135377,207
"1-3580_208_207_5",3580,1,"2005-06-09 21:43:00",540,1477,135386,"2005-06-09 21:36:00",149379,69,207,"You know, newborn babies can't survive without the aid of another agent. If such an agent can't be found who will volunteer to care for the child, there is no point in forcing the child to endure a long lingering death. If the child can't survive without the aid of another agent, quick disposal seems to be the next best option, right?",149378,5,3580,1,"True, no point in forcing the child to endure a long lingering death once it is removed from the mother's body. Personally I think it would be wonderful if we were able to simply remove the fetus from the mother's body and put it in an artificial womb until it could survive on its own. But if the fetus cannot survive being removed from its mother's body, quick disposal seems to be the next best option.","http://www.4forums.com/political/abortion-debates/5469-personally-against-abortion-but-pro-choice.html",135382,208
"1-3580_210_208_5",3580,1,"2005-06-09 21:50:00",1477,540,135392,"2005-06-09 21:43:00",149381,29,208,"Without the possibility of the child receiving aid from anyone, then it seems preferable to euthanize the child rather than let it starve to death, yes.",149379,5,3580,1,"You know, newborn babies can't survive without the aid of another agent. If such an agent can't be found who will volunteer to care for the child, there is no point in forcing the child to endure a long lingering death. If the child can't survive without the aid of another agent, quick disposal seems to be the next best option, right?","http://www.4forums.com/political/abortion-debates/5469-personally-against-abortion-but-pro-choice.html",135386,210
"1-3580_211_210_5",3580,1,"2005-06-09 21:52:00",540,1477,135393,"2005-06-09 21:50:00",149382,19,210,"It seems more preferable to me to force someone to care for the child than to euthanize it.",149381,5,3580,1,"Without the possibility of the child receiving aid from anyone, then it seems preferable to euthanize the child rather than let it starve to death, yes.","http://www.4forums.com/political/abortion-debates/5469-personally-against-abortion-but-pro-choice.html",135392,211
"1-3580_212_211_5",3580,1,"2005-06-09 21:53:00",1477,540,135394,"2005-06-09 21:52:00",149383,13,211,"Oh, why? Moreover, what kind of force is permissable?",149382,5,3580,1,"It seems more preferable to me to force someone to care for the child than to euthanize it.","http://www.4forums.com/political/abortion-debates/5469-personally-against-abortion-but-pro-choice.html",135393,212
"1-3580_213_212_5",3580,1,"2005-06-09 21:58:00",540,1477,135397,"2005-06-09 21:53:00",149384,65,212,"Because it is reasonable to ask/force somone to care for a child when you would rather see it euthanized. Moreover, the kind of force that is permissable is the same kind that removes my tax dollars from me in order to fund a welfare system; or that removes my tax dollars from me in order to support pro-abortion organizations.",149383,5,3580,1,"Oh, why? Moreover, what kind of force is permissable?","http://www.4forums.com/political/abortion-debates/5469-personally-against-abortion-but-pro-choice.html",135394,213
"1-3580_214_213_5",3580,1,"2005-06-09 22:03:00",1477,540,135399,"2005-06-09 21:58:00",149385,73,213,"I'm sorry, but I'm afraid I don't quite follow you here. Could you rephrase or explain this?

So the threat of imprisonment? Considering the number of people who don't report all of their owed taxes, that seems like a pretty weak threat to me. 
Besides, I don't pay taxes because someone forces me to but because I want to contribute to the Canadian gov't. :)",149384,5,3580,1,"Because it is reasonable to ask/force somone to care for a child when you would rather see it euthanized. Moreover, the kind of force that is permissable is the same kind that removes my tax dollars from me in order to fund a welfare system; or that removes my tax dollars from me in order to support pro-abortion organizations.","http://www.4forums.com/political/abortion-debates/5469-personally-against-abortion-but-pro-choice.html",135397,214
"1-3580_215_214_5",3580,1,"2005-06-09 22:09:00",540,1477,135401,"2005-06-09 22:03:00",149386,60,214,"Because [I think] it is reasonable to ask/force someone to care for a child [in cases where Nurglitch] would rather see it euthanized.

I don't understand your point here.

And even if you didn't want to contribute to the Canadian government, you could still be forced to do so :p.",149385,5,3580,1,"I'm sorry, but I'm afraid I don't quite follow you here. Could you rephrase or explain this?

So the threat of imprisonment? Considering the number of people who don't report all of their owed taxes, that seems like a pretty weak threat to me. 
Besides, I don't pay taxes because someone forces me to but because I want to contribute to the Canadian gov't. :)","http://www.4forums.com/political/abortion-debates/5469-personally-against-abortion-but-pro-choice.html",135399,215
"1-3580_216_215_5",3580,1,"2005-06-09 22:35:00",1477,540,135406,"2005-06-09 22:09:00",149387,137,215,"Ah, okay. My question still stands then. Why do you think it is reasonable to force someone to care for a child when no one is willing to?

My point is that the mere threat of imprisonment seems pretty weak in a situation where you have to force someone to look after a child. Despite laws against child neglect, children are still neglected. Also, it seems to me that the situation has to be pretty harsh before you run out of people willing and able to look after an additional child.

I take it you've never studied Canadian tax law then. If you're unwillingly paying taxes to the Canadian gov't, then you either need a new accountant or need to study up on the law.",149386,5,3580,1,"Because [I think] it is reasonable to ask/force someone to care for a child [in cases where Nurglitch] would rather see it euthanized.

I don't understand your point here.

And even if you didn't want to contribute to the Canadian government, you could still be forced to do so :p.","http://www.4forums.com/political/abortion-debates/5469-personally-against-abortion-but-pro-choice.html",135401,216
"1-3580_223_216_5",3580,1,"2005-06-10 08:37:00",540,1477,135485,"2005-06-09 22:35:00",149394,103,216,"I think it is reasonable to ask someone to give up one cup of coffee, gourmet dinner, ice cream cone etc. a month (in order to pay a tax, for example) in order to preserve the life of the child. I attribute inherent dignity to the human person, and thus when one person's right to life conflicts with another persons quality of life, I think that quality of life must win. 

Despite laws against murder, people still murder. This stops no one from making laws against murder.

emoticonXConfused Please explain...",149387,5,3580,1,"Ah, okay. My question still stands then. Why do you think it is reasonable to force someone to care for a child when no one is willing to?

My point is that the mere threat of imprisonment seems pretty weak in a situation where you have to force someone to look after a child. Despite laws against child neglect, children are still neglected. Also, it seems to me that the situation has to be pretty harsh before you run out of people willing and able to look after an additional child.

I take it you've never studied Canadian tax law then. If you're unwillingly paying taxes to the Canadian gov't, then you either need a new accountant or need to study up on the law.","http://www.4forums.com/political/abortion-debates/5469-personally-against-abortion-but-pro-choice.html",135406,223
"1-3580_88_87_6",3580,1,"2005-06-02 09:26:00",817,1477,131871,"2005-06-02 09:13:00",149259,34,87,"I would rather type it and I do it for people like Hydra who is new here.........I know the truth bothers you so you can just skip over it..............Thanks.......",149258,6,3580,1,"If you're going to repeat your opinion ad nauseum, could you please include your reasons for holding that opinion? I'm sure you can manage the copy-paste function easily enough.","http://www.4forums.com/political/abortion-debates/5469-personally-against-abortion-but-pro-choice.html",131848,88
"1-3580_91_88_6",3580,1,"2005-06-02 09:38:00",1477,817,131889,"2005-06-02 09:26:00",149262,28,88,"I'm just asking for you to explain the 'truth' to me so that I can agree with you. Is that so much to ask?",149259,6,3580,1,"I would rather type it and I do it for people like Hydra who is new here.........I know the truth bothers you so you can just skip over it..............Thanks.......","http://www.4forums.com/political/abortion-debates/5469-personally-against-abortion-but-pro-choice.html",131871,91
"1-3580_93_91_6",3580,1,"2005-06-02 09:42:00",817,1477,131895,"2005-06-02 09:38:00",149264,39,91,"I don't know how to explain it to you any better, now focus like a laser beam and pay attention because here is the truth as I believe it when it comes to the subject of abortion..........

",149262,6,3580,1,"I'm just asking for you to explain the 'truth' to me so that I can agree with you. Is that so much to ask?","http://www.4forums.com/political/abortion-debates/5469-personally-against-abortion-but-pro-choice.html",131889,93
"1-3580_95_93_6",3580,1,"2005-06-02 09:47:00",1477,817,131900,"2005-06-02 09:42:00",149266,46,93,"Okay, I think you're misunderstanding me here. I know you think that:
What I'm asking is why you think that this is true. I'm asking for your justification for holding such a position. What convinces you that this is true?",149264,6,3580,1,"I don't know how to explain it to you any better, now focus like a laser beam and pay attention because here is the truth as I believe it when it comes to the subject of abortion..........

","http://www.4forums.com/political/abortion-debates/5469-personally-against-abortion-but-pro-choice.html",131895,95
"1-3580_110_95_6",3580,1,"2005-06-02 19:48:00",817,1477,132192,"2005-06-02 09:47:00",149281,26,95,"My justification is I believe that life begins at conception therefore if you have and abortion then you are murdering a baby in the womb...........",149266,6,3580,1,"Okay, I think you're misunderstanding me here. I know you think that:
What I'm asking is why you think that this is true. I'm asking for your justification for holding such a position. What convinces you that this is true?","http://www.4forums.com/political/abortion-debates/5469-personally-against-abortion-but-pro-choice.html",131900,110
