"key","quote_source_post_discussion_id","posts_dataset_id","posts_timestamp","posts_author_id","quote_source_author_id","posts_native_post_id","quote_source_timestamp","post_text_id","Word_Count","quote_source_post_id","post_text","quote_source_text_id","Dialog_Turn","posts_discussion_id","quote_source_post_dataset_id","Fullquote_text","discussion_url","quote_source_native_post_id","posts_post_id"
"1-3674_15_14_1",3674,1,"2005-06-30 11:54:00",1784,51,143108,"2005-06-30 04:44:00",153287,72,14,"But the fact that you don't need a license from the UN has nothing to do with what I accused you of begging the question for. It was for the phrase ""killing Someone."" (Whether it is someone being killed, not something, is the sticking point of the abortion debate). I understand that you do not actually believe the part about the UN.",153286,1,3674,1,"This is what I typed that some claim is ""begging the question""...aside from the obvious clown face which might hint towards me kidding, I think it might be safe to say that any reasonable person would know that you really don't need a license from the UN for makign decisions.
I guess sarcasm is not known here.","http://www.4forums.com/political/abortion-debates/5620-ive-been-through.html",142971,15
"1-3674_18_15_1",3674,1,"2005-06-30 14:44:00",51,1784,143245,"2005-06-30 11:54:00",153290,29,15,"my mistake I thought you quoted something else...either way..it is still not begging the question as my conclusion was not basis for my premise.",153287,1,3674,1,"But the fact that you don't need a license from the UN has nothing to do with what I accused you of begging the question for. It was for the phrase ""killing Someone."" (Whether it is someone being killed, not something, is the sticking point of the abortion debate). I understand that you do not actually believe the part about the UN.","http://www.4forums.com/political/abortion-debates/5620-ive-been-through.html",143108,18
"1-3674_19_18_1",3674,1,"2005-06-30 14:57:00",1784,51,143254,"2005-06-30 14:44:00",153291,123,18,"What the hell are you talking about? Look, let me lay it out for you:
1. The critical sticking point between the two sides of the debate is, is the fetus a morally considerable thing? (or, a ""person,"" or a ""someone"")
2. To assume the sticking point of an argument to make that argument, or an argument in support of your side of the sticking point is called ""begging the question.""
3. You assumed that a fetus was a someone when attempting to refute a point related to the abortion debate's sticking point.
4. Therefore, you begged the question.",153290,1,3674,1,"my mistake I thought you quoted something else...either way..it is still not begging the question as my conclusion was not basis for my premise.","http://www.4forums.com/political/abortion-debates/5620-ive-been-through.html",143245,19
"1-3674_20_19_1",3674,1,"2005-06-30 15:00:00",51,1784,143258,"2005-06-30 14:57:00",153292,44,19,"with that poor standard of what ""begging the question"" means you do it all the time.
You assume that the sticking point is what you said it is in your arguement so by your standard you begged the question yourself.",153291,1,3674,1,"What the hell are you talking about? Look, let me lay it out for you:
1. The critical sticking point between the two sides of the debate is, is the fetus a morally considerable thing? (or, a ""person,"" or a ""someone"")
2. To assume the sticking point of an argument to make that argument, or an argument in support of your side of the sticking point is called ""begging the question.""
3. You assumed that a fetus was a someone when attempting to refute a point related to the abortion debate's sticking point.
4. Therefore, you begged the question.","http://www.4forums.com/political/abortion-debates/5620-ive-been-through.html",143254,20
"1-3674_22_20_1",3674,1,"2005-06-30 15:08:00",1784,51,143263,"2005-06-30 15:00:00",153294,82,20,"That is the standard, and if I do it, you should call me on it.

I understand that to be the sticking point. If you do not think that it is the sticking point, then I wish you would tell me what the actual sticking point is. If you cannot tell me what the actual sticking point is, then you are wrong in your assertion, and you should apologize.

Were you not?",153292,1,3674,1,"with that poor standard of what ""begging the question"" means you do it all the time.
You assume that the sticking point is what you said it is in your arguement so by your standard you begged the question yourself.","http://www.4forums.com/political/abortion-debates/5620-ive-been-through.html",143258,22
"1-3674_23_22_1",3674,1,"2005-06-30 18:16:00",51,1784,143338,"2005-06-30 15:08:00",153295,94,22,"Some believe a right to personal autonomy is over a right to life...so they believe it is a human but that is below the ""right"" to personal autonomy. So you are making an assumption about the sticking point being what you say it is. Either way, you are using ""begging the question"" incorrectly in my opinion so I am not gonna call you on it because that is not what it is. 

You already assumed I was, so too late for corrections.",153294,1,3674,1,"That is the standard, and if I do it, you should call me on it.

I understand that to be the sticking point. If you do not think that it is the sticking point, then I wish you would tell me what the actual sticking point is. If you cannot tell me what the actual sticking point is, then you are wrong in your assertion, and you should apologize.

Were you not?","http://www.4forums.com/political/abortion-debates/5620-ive-been-through.html",143263,23
"1-3674_24_23_1",3674,1,"2005-06-30 18:42:00",1784,51,143363,"2005-06-30 18:16:00",153296,124,23,"Good point. However, I think this approach is marginal at best.

That's true, I am. However, making an assumption is not the same thing as begging the question, which is a particular type of assumption.

Then your opinion would be contrary to fact. If you want to call me on it, I suggest you reread the entry first.

You didn't answer my question. You said I assumed X. If X is the case, then this is not a problem. The problem comes up when X is not the case, or X is under dispute. So I ask you again, was I wrong? Do you disagree?",153295,1,3674,1,"Some believe a right to personal autonomy is over a right to life...so they believe it is a human but that is below the ""right"" to personal autonomy. So you are making an assumption about the sticking point being what you say it is. Either way, you are using ""begging the question"" incorrectly in my opinion so I am not gonna call you on it because that is not what it is. 

You already assumed I was, so too late for corrections.","http://www.4forums.com/political/abortion-debates/5620-ive-been-through.html",143338,24
