"key","quote_source_post_discussion_id","posts_dataset_id","posts_timestamp","posts_author_id","quote_source_author_id","posts_native_post_id","quote_source_timestamp","post_text_id","Word_Count","quote_source_post_id","post_text","quote_source_text_id","Dialog_Turn","posts_discussion_id","quote_source_post_dataset_id","Fullquote_text","discussion_url","quote_source_native_post_id","posts_post_id"
"1-3730_20_17_1",3730,1,"2005-06-17 13:56:00",817,120,138446,"2005-06-17 11:05:00",155654,46,17,"And that is just your opinion........Have you ever asked yourself, What if I am wrong? Probably not.........

So I guess you are against abortion in the 3rd trimester then becasue babies at that can and have survived outside the womb........",155651,1,3730,1,"That's just your opinion however.
To me, the early stages of a fetus aren't really ""human"".
-Wez","http://www.4forums.com/political/abortion-debates/5692-voice-reason.html",138384,20
"1-3730_21_20_1",3730,1,"2005-06-17 14:00:00",120,817,138448,"2005-06-17 13:56:00",155655,31,20,"Hence the fact I stated it as my opinion. She did not. emoticonXRolleyes 

Unless the mother's life is endangered, I'd most likely be against them.
-Wez",155654,1,3730,1,"And thta is just your opinion........Have you ever asked yourself,","http://www.4forums.com/political/abortion-debates/5692-voice-reason.html",138446,21
"1-3730_22_21_1",3730,1,"2005-06-17 15:39:00",817,120,138477,"2005-06-17 14:00:00",155656,32,21,"Who did not?
So if the mothers life is not endangered in the 3rd trimester and the baby is viable outside the womb you would be against and abortion? emoticonXConfused",155655,1,3730,1,"Hence the fact I stated it as my opinion. She did not. emoticonXRolleyes 

Unless the mother's life is endangered, I'd most likely be against them.
-Wez","http://www.4forums.com/political/abortion-debates/5692-voice-reason.html",138448,22
"1-3730_33_22_1",3730,1,"2005-06-18 13:25:00",120,817,138707,"2005-06-17 15:39:00",155667,36,22,"Swimming

FISHX

Barring serious physical deformities/ mental damage, or in some exceptional circumstances, then yes I would be against such an abortion.

Yes, that's what I meant.:)
-Wez",155656,1,3730,1,"Who did not?
So if the mothers life is not endangered in the 3rd trimester and the baby is viable outside the womb you would be against and abortion? emoticonXConfused","http://www.4forums.com/political/abortion-debates/5692-voice-reason.html",138477,33
"1-3730_34_33_1",3730,1,"2005-06-18 13:45:00",817,120,138723,"2005-06-18 13:25:00",155668,57,33,"Well at lest I thank you for that..........As far as I am concerned it would have to depend on how serious the deformity or other damage is.........There have been great gains in medical science in a lot of those areas and i think the baby at least deserves a chance to live...........",155667,1,3730,1,"Swimming

FISHX

Barring serious physical deformities/ mental damage, or in some exceptional circumstances, then yes I would be against such an abortion.

Yes, that's what I meant.:)
-Wez","http://www.4forums.com/political/abortion-debates/5692-voice-reason.html",138707,34
