"key","quote_source_post_discussion_id","posts_dataset_id","posts_timestamp","posts_author_id","quote_source_author_id","posts_native_post_id","quote_source_timestamp","post_text_id","Word_Count","quote_source_post_id","post_text","quote_source_text_id","Dialog_Turn","posts_discussion_id","quote_source_post_dataset_id","Fullquote_text","discussion_url","quote_source_native_post_id","posts_post_id"
"1-3738_34_33_1",3738,1,"2005-06-20 20:18:00",64,51,139406,"2005-06-20 20:13:00",155793,14,33,"So why don't we do the same thing with ants and other insects?",155792,1,3738,1,"I don't think anyone is doubting that humans are by nature selfish. It is just somewhere you gotta draw the line. Direct killing of someone is probably a good place to start. 
Eventhough we are all selfish, it is a good idea to try and limit it to a reasonable level.","http://www.4forums.com/political/abortion-debates/5700-why-abortion-worse-than-killing-any-other-living-thing.html",139405,34
"1-3738_36_34_1",3738,1,"2005-06-20 20:19:00",51,64,139408,"2005-06-20 20:18:00",155795,31,34,"why don't you answer your own question. Why don't you kill a human the same way you would kill an ant?(as in without a second thought)",155793,1,3738,1,"So why don't we do the same thing with ants and other insects?","http://www.4forums.com/political/abortion-debates/5700-why-abortion-worse-than-killing-any-other-living-thing.html",139406,36
"1-3738_40_36_1",3738,1,"2005-06-20 20:57:00",64,51,139415,"2005-06-20 20:19:00",155799,71,36,"Well I don't kill ants without a second thought. If there is one in the house, I toss it outside alive, but many people do just crush them without a second thought. Another answer is that I would be punished severely by the government if I murdered a human. (again the only reason a human having a right to life being a government threat)",155795,1,3738,1,"why don't you answer your own question. Why don't you kill a human the same way you would kill an ant?(as in without a second thought)","http://www.4forums.com/political/abortion-debates/5700-why-abortion-worse-than-killing-any-other-living-thing.html",139408,40
"1-3738_49_40_1",3738,1,"2005-06-21 09:53:00",51,64,139556,"2005-06-20 20:57:00",155808,69,40,"so, you would ok if murder laws were taken away and people could freely kill each other? You would not feel violated in any way? Moreover, slaves had no rights because the government didn't recoginse them?...So why did we all of a sudden feel they had a right to rights when they had no rights at all?? Very confusing. emoticonXRolleyes",155799,1,3738,1,"Well I don't kill ants without a second thought. If there is one in the house, I toss it outside alive, but many people do just crush them without a second thought. Another answer is that I would be punished severely by the government if I murdered a human. (again the only reason a human having a right to life being a government threat)","http://www.4forums.com/political/abortion-debates/5700-why-abortion-worse-than-killing-any-other-living-thing.html",139415,49
"1-3738_69_49_1",3738,1,"2005-06-23 21:13:00",64,51,140605,"2005-06-21 09:53:00",155828,133,49,"no. Wrong. Right. we decided to give them rights. Not really.
I'll expound a little.
I would not be ok if murder laws were taken away because I feel that the right to life is important. I would feel violated but actually probably not, I would just feel dead. You are correct, slaves had no rights which is why they were treated so poorly with no consequences, they were fighting for civil RIGHTS. They didn't have the rights and were fighting for them. They wanted the same rights as everyone else, fought for them, and won them. Now the government will arrest you if you murder a black or white, or if you enslave someone.",155808,1,3738,1,"so, you would ok if murder laws were taken away and people could freely kill each other? You would not feel violated in any way? Moreover, slaves had no rights because the government didn't recoginse them?...So why did we all of a sudden feel they had a right to rights when they had no rights at all?? Very confusing. emoticonXRolleyes","http://www.4forums.com/political/abortion-debates/5700-why-abortion-worse-than-killing-any-other-living-thing.html",139556,69
"1-3738_58_57_2",3738,1,"2005-06-22 19:28:00",105,540,140187,"2005-06-22 19:23:00",155817,84,57,"How is that any different then saving two of each species over a single human? emoticonXRolleyes 

Even if that does happen, it can be reversed. Good luck doing that with a human. 

Poor argument. gnojek is adding to total GDP production. Is a newborn doing that? 

LOL. I don't know what is more amusing, the fact that you couldn't prove that if your life depended on it, or that you actually said it.",155816,2,3738,1,"So you would save the mouse over the baby for religious reasons?

And there is also a chance that the cute little puppy you save will turn into a mean, viscous, and undomesticated animal that comes back to bite the hand that saved it (that being you).

Ok, then; we need to decrease the surplus population. Can we begin by eliminating you?

Even so, your dog isn't worth the collar it wears when compared to the intrinsic priceless worth of another human being.

Are you opposed to war? But what about 

Are you opposed to the death penalty? But what about this...
","http://www.4forums.com/political/abortion-debates/5700-why-abortion-worse-than-killing-any-other-living-thing.html",140183,58
"1-3738_59_58_2",3738,1,"2005-06-22 19:58:00",540,105,140196,"2005-06-22 19:28:00",155818,113,58,"Not sure why you felt the urge to comment here. Do you think that gnojek's reason for saving the mouse over the baby is correct?

You are obviously thinking of some minor little bite on the hand. I'm thinking of the kind of bite that rips someone's hand off, causes them to get gangrene, which ultimately causes them to die; something that cannot be reversed.
A Human, on the other hand, would be less likely to engage in biting the hand that saved it because of the various consequences that would result (law, jail, restitution, etc.)

So what?",155817,2,3738,1,"How is that any different then saving two of each species over a single human? emoticonXRolleyes 

Even if that does happen, it can be reversed. Good luck doing that with a human. 

Poor argument. gnojek is adding to total GDP production. Is a newborn doing that? 

LOL. I don't know what is more amusing, the fact that you couldn't prove that if your life depended on it, or that you actually said it.","http://www.4forums.com/political/abortion-debates/5700-why-abortion-worse-than-killing-any-other-living-thing.html",140187,59
"1-3738_60_59_2",3738,1,"2005-06-22 21:59:00",105,540,140213,"2005-06-22 19:58:00",155819,115,59,"No, that's just his opinion. You obviously would do the opposite. As such because there is no standard of action, the value of life, ranging across species is by no way equal. That is not up for debate. I made the comment in regards to your's. Besides, it was too fitting. 

LOL. Sure, if the person is in the middle of nowhere with no means of communication. ;) You are getting funnier by the moment. 

Yet we have 2 million people in jail in the US alone with at least 10+ million in China. emoticonXRolleyes 

Reasses your argument.",155818,2,3738,1,"Not sure why you felt the urge to comment here. Do you think that gnojek's reason for saving the mouse over the baby is correct?

You are obviously thinking of some minor little bite on the hand. I'm thinking of the kind of bite that rips someone's hand off, causes them to get gangrene, which ultimately causes them to die; something that cannot be reversed.
A Human, on the other hand, would be less likely to engage in biting the hand that saved it because of the various consequences that would result (law, jail, restitution, etc.)

So what?","http://www.4forums.com/political/abortion-debates/5700-why-abortion-worse-than-killing-any-other-living-thing.html",140196,60
"1-3738_62_60_2",3738,1,"2005-06-23 07:13:00",540,105,140294,"2005-06-22 21:59:00",155821,41,60,"Tell me Duo, is it always the case that in order to decrease the surplus population, we should look at who contributes to the total GDP production, find those people who don't contribute, and eliminate them?",155819,2,3738,1,"Reasses your argument.
Poor argument. gnojek is adding to total GDP production. Is a newborn doing that?","http://www.4forums.com/political/abortion-debates/5700-why-abortion-worse-than-killing-any-other-living-thing.html",140213,62
"1-3738_64_62_2",3738,1,"2005-06-23 19:35:00",105,540,140576,"2005-06-23 07:13:00",155823,77,62,"Tell me Cone, why is it that as arguments go on and on, you have a tendency to ignore the majority of posts and try to use the fallacy of selective reading to fool people into thinking you are correct? 
Since when was it always the case? Oh wait, that isn't true, you are merely trying to put words into my mouth. Very childish to say the very least.",155821,2,3738,1,"Tell me Duo, is it always the case that in order to decrease the surplus population, we should look at who contributes to the total GDP production, find those people who don't contribute, and eliminate them?","http://www.4forums.com/political/abortion-debates/5700-why-abortion-worse-than-killing-any-other-living-thing.html",140294,64
"1-3738_65_64_2",3738,1,"2005-06-23 19:47:00",540,105,140583,"2005-06-23 19:35:00",155824,27,64,"Duo, I asked you a question; I didn't put words in your mouth emoticonXRolleyes. Can you/will you just answer the question?

",155823,2,3738,1,"Tell me Cone, why is it that as arguments go on and on, you have a tendency to ignore the majority of posts and try to use the fallacy of selective reading to fool people into thinking you are correct? 
Since when was it always the case? Oh wait, that isn't true, you are merely trying to put words into my mouth. Very childish to say the very least.","http://www.4forums.com/political/abortion-debates/5700-why-abortion-worse-than-killing-any-other-living-thing.html",140576,65
