"key","quote_source_post_discussion_id","posts_dataset_id","posts_timestamp","posts_author_id","quote_source_author_id","posts_native_post_id","quote_source_timestamp","post_text_id","Word_Count","quote_source_post_id","post_text","quote_source_text_id","Dialog_Turn","posts_discussion_id","quote_source_post_dataset_id","Fullquote_text","discussion_url","quote_source_native_post_id","posts_post_id"
"1-4360_14_7_1",4360,1,"2005-09-28 19:07:00",63,475,166850,"2005-09-28 14:35:00",182923,71,7,"You are SO insulting. 
""Oh, the poor dears have been through too much and are considering an action I disagree with so they must not be thinking clearly."" 
Who are you to say they aren't thinking clearly? I'll give it to you, Bassman. You are the most polite, best veiled misogynist I have ever encountered. You nearly had me fooled.",182916,1,4360,1,"Exploitation in that many women, who are concerned about their circumstances, aren't thinking clearly. Now, here comes this doctor saying,""we'll kill your baby for free!"" That's exploitation.","http://www.4forums.com/political/abortion-debates/6502-free-abortions.html",166794,14
"1-4360_15_14_1",4360,1,"2005-09-28 19:19:00",475,63,166855,"2005-09-28 19:07:00",182924,136,14,"Try again, your arrows keep missing the target. I have repeatedly stated the reasons why abortion is wrong. Not only from a moral standpoint, but a practical one as well. And on the subject of the practical, I'll give you this little tidbit of info. We are fast becoming an aging population. Now, do the math. When you've already had 40 million unborn children aborted on the altar of ""choice."" What does that leave is with? It leaves us with fewer younger workers to support the retirees. Now, with all due respect to you and yours, I did not mean to come across as insulting. I'm simply pointing out the connection betwwen abortion, euthanasia and eugenics.",182923,1,4360,1,"You are SO insulting. 
""Oh, the poor dears have been through too much and are considering an action I disagree with so they must not be thinking clearly."" 
Who are you to say they aren't thinking clearly? I'll give it to you, Bassman. You are the most polite, best veiled misogynist I have ever encountered. You nearly had me fooled.","http://www.4forums.com/political/abortion-debates/6502-free-abortions.html",166850,15
"1-4360_20_15_1",4360,1,"2005-09-29 06:44:00",63,475,166910,"2005-09-28 19:19:00",182929,36,15,"I am not arguing with your stance on abortion. I am pointing out that your snide little comment that these women must not be thinking clearly is insulting and misogynistic. And it is.",182924,1,4360,1,"Try again, your arrows keep missing the target. I have repeatedly stated the reasons why abortion is wrong. Not only from a moral standpoint, but a practical one as well. And on the subject of the practical, I'll give you this little tidbit of info. We are fast becoming an aging population. Now, do the math. When you've already had 40 million unborn children aborted on the altar of ""choice."" What does that leave is with? It leaves us with fewer younger workers to support the retirees. Now, with all due respect to you and yours, I did not mean to come across as insulting. I'm simply pointing out the connection betwwen abortion, euthanasia and eugenics.","http://www.4forums.com/political/abortion-debates/6502-free-abortions.html",166855,20
"1-4360_23_20_1",4360,1,"2005-09-29 13:46:00",475,63,166966,"2005-09-29 06:44:00",182932,66,20,"My bad, I should have been more sensitive. What I should have stated is that, with any traumatic situation, people have enough on their minds without the added trauma of abortion (I know where you might go with this, so I'll save you the wear on your keyboard). The effects of abortion are a well documented fact!",182929,1,4360,1,"I am not arguing with your stance on abortion. I am pointing out that your snide little comment that these women must not be thinking clearly is insulting and misogynistic. And it is.","http://www.4forums.com/political/abortion-debates/6502-free-abortions.html",166910,23
"1-4360_36_23_1",4360,1,"2005-09-30 08:09:00",63,475,167115,"2005-09-29 13:46:00",182945,64,23,"You continue to insult! The implication still stands that you are better able to make choices for these women than they are for themselves. God help your daughter. Will she grow up believing she is capable of making a single decision on her own?

Sure, you do - regardless of what the mother may think about the situation.",182932,1,4360,1,"My bad, I should have been more sensitive. What I should have stated is that, with any traumatic situation, people have enough on their minds without the added trauma of abortion (I know where you might go with this, so I'll save you the wear on your keyboard). The effects of abortion are a well documented fact!","http://www.4forums.com/political/abortion-debates/6502-free-abortions.html",166966,36
"1-4360_39_36_1",4360,1,"2005-09-30 12:55:00",475,63,167167,"2005-09-30 08:09:00",182948,28,36,"Now that's a pack of lies. The thing is, abortion should never be an option. It is flat out murder. Pure and simple.",182945,1,4360,1,"You continue to insult! The implication still stands that you are better able to make choices for these women than they are for themselves. God help your daughter. Will she grow up believing she is capable of making a single decision on her own?.","http://www.4forums.com/political/abortion-debates/6502-free-abortions.html",167115,39
"1-4360_48_39_1",4360,1,"2005-09-30 19:57:00",63,475,167272,"2005-09-30 12:55:00",182957,184,39,"And men who wish to hold our bodies hostage as you do should not have the option to touch any of us.
Murder is a legal term and abortion does not fall under it.
Are you saying killing is never justified? Self-defense? How about monkey head's war in Iraq? Are you saying women should even lay down their lives for a pregnancy - and even if they were raped? 
You coward.
It is so easy for you to say what we women ought and ought not to have as an option. Really really damned easy. Not like it will ever realistically affect you.
Every time you post your true colors show. You don't give a damn about women. You may care about your mom, sister, wife, daughter - but women in general? We don't even exist to you.
No surprise. My family doesn't exist for you either. It amazes me that you see past your narrow vision at all to hold debate with me.",182948,1,4360,1,"Now that's a pack of lies. The thing is, abortion should never be an option. It is flat out murder. Pure and simple.","http://www.4forums.com/political/abortion-debates/6502-free-abortions.html",167167,48
"1-4360_52_48_1",4360,1,"2005-10-01 07:09:00",475,63,167313,"2005-09-30 19:57:00",182961,30,48,"Now, now; no need to get testy, there Your problem is that you can't or won't see past your blind hostility towards those who embrace life.",182957,1,4360,1,"And men who wish to hold our bodies hostage as you do should not have the option to touch any of us.
Murder is a legal term and abortion does not fall under it.
Are you saying killing is never justified? Self-defense? How about monkey head's war in Iraq? Are you saying women should even lay down their lives for a pregnancy - and even if they were raped? 
You coward.
It is so easy for you to say what we women ought and ought not to have as an option. Really really damned easy. Not like it will ever realistically affect you.
Every time you post your true colors show. You don't give a damn about women. You may care about your mom, sister, wife, daughter - but women in general? We don't even exist to you.
No surprise. My family doesn't exist for you either. It amazes me that you see past your narrow vision at all to hold debate with me.","http://www.4forums.com/political/abortion-debates/6502-free-abortions.html",167272,52
"1-4360_83_80_2",4360,1,"2005-10-02 12:16:00",134,475,167518,"2005-10-02 09:25:00",182992,96,80,"Try staying focused on abortion instead of going off on moralistic tangents; the issue is civil liberty, a woman's right to abort a pregnancy. That is a woman's body and for you or a government to deny her the right to abort is infringing on her individual civil liberty, nothing else. 
I suggest you avoid using the word we in a patronizing manner when discussing abortion unless you can conceive, carry to term and give birth. It does create an appearance of substitution to avoid using a subjective I.",182989,2,4360,1,"Using the same logic, then, you're advocating the right to rape, the right to steal, the right to arson, the right to...etc. So what is the difference here?"" Well it's my body."" <buzz> wrong answer. In this day and age, we've lost the mere concept of duty, loyalty, responsibility, and obligation.","http://www.4forums.com/political/abortion-debates/6502-free-abortions.html",167497,83
"1-4360_85_83_2",4360,1,"2005-10-02 13:14:00",475,134,167524,"2005-10-02 12:16:00",182994,14,83,"""Patronizing?"" I'm pointing out the flawed logic of your stance.",182992,2,4360,1,"Try staying focused on abortion instead of going off on moralistic tangents; the issue is civil liberty, a woman's right to abort a pregnancy. That is a woman's body and for you or a government to deny her the right to abort is infringing on her individual civil liberty, nothing else. 
I suggest you avoid using the word we in a patronizing manner when discussing abortion unless you can conceive, carry to term and give birth. It does create an appearance of substitution to avoid using a subjective I.","http://www.4forums.com/political/abortion-debates/6502-free-abortions.html",167518,85
"1-4360_87_85_2",4360,1,"2005-10-02 14:16:00",134,475,167529,"2005-10-02 13:14:00",182996,73,85,"Using the word we to associate yourself with a theoretic woman's pregnancy while trying to impose your opinion of abortion when you're incapable of pregnancy is blatant patronization.
~we've lost the mere concept of duty, loyalty, responsibility, and obligation.~ 
And the flaw in civil liberty recognizing a woman's right to abort is? Stay focused, don't drift off into other subjects or moral issues.",182994,2,4360,1,"""Patronizing?"" I'm pointing out the flawed logic of your stance.","http://www.4forums.com/political/abortion-debates/6502-free-abortions.html",167524,87
"1-4360_88_87_2",4360,1,"2005-10-02 14:44:00",475,134,167532,"2005-10-02 14:16:00",182997,70,87,"I'm referring to the nation as a whole.

That's easy, we need to regain those concepts and apply them into our lives. 

It's found nowhere in the US Constitution. And yes, it is a serious moral issue because we are talking about life. Not just lives of the unborn, but lives of the women who have been exploited by the abortion industry.",182996,2,4360,1,"Using the word we to associate yourself with a theoretic woman's pregnancy while trying to impose your opinion of abortion when you're incapable of pregnancy is blatant patronization.
~we've lost the mere concept of duty, loyalty, responsibility, and obligation.~ 
And the flaw in civil liberty recognizing a woman's right to abort is? Stay focused, don't drift off into other subjects or moral issues.","http://www.4forums.com/political/abortion-debates/6502-free-abortions.html",167529,88
"1-4360_89_88_2",4360,1,"2005-10-02 15:34:00",134,475,167539,"2005-10-02 14:44:00",182998,156,88,"You're evading the issue. This isn't an issue of a nation, including men, this is an individual right. Those women choose abortions and it is their right. You are not capable of conception so you use your belief system mythology to dominate their rights.
Exploitation is denying them that right and forcing them to spawn children who are unwanted for what ever reason. You, as a male, are attempting to force your abortion moral standard on women. Why don't you just take away the rest of their hard-earned liberties? Voting, land ownership, divorce, freedom from servitude and on and on? Shuffle on back to some past point in history that fits your moral standards? I hear the ME World of Islam is looking for converts, just change some worship names and you'll have the moral standards you're seeking.",182997,2,4360,1,"I'm referring to the nation as a whole.

That's easy, we need to regain those concepts and apply them into our lives. 

It's found nowhere in the US Constitution. And yes, it is a serious moral issue because we are talking about life. Not just lives of the unborn, but lives of the women who have been exploited by the abortion industry.","http://www.4forums.com/political/abortion-debates/6502-free-abortions.html",167532,89
