"key","quote_source_post_discussion_id","posts_dataset_id","posts_timestamp","posts_author_id","quote_source_author_id","posts_native_post_id","quote_source_timestamp","post_text_id","Word_Count","quote_source_post_id","post_text","quote_source_text_id","Dialog_Turn","posts_discussion_id","quote_source_post_dataset_id","Fullquote_text","discussion_url","quote_source_native_post_id","posts_post_id"
"1-4531_30_28_1",4531,1,"2005-10-31 07:00:00",56,51,175873,"2005-10-30 21:32:00",193203,79,28,"Surely its still a human and a person when its a blastocyst as well though...so showing that it looks more like a baby is largely irrelevant.
I didn't think any pro-choice supporters (or hardly any anyway) based their views on what it looks like. Its generally what it can do (or stage of development) which is important or its doesn't matter in the slightest as its 'trespassing' anyway.",193201,1,4531,1,"I think the point is to debunk the idea that the fetus is not a human which some argue. And to say a fetus is a human but not a person is putting yourself along the lines of people that thought a black was a human but not a person. I don't know of any humans that are not people...its the only fair and not discrimative way to look at it.","http://www.4forums.com/political/abortion-debates/6724-cool.html",175808,30
"1-4531_31_30_1",4531,1,"2005-10-31 07:47:00",51,56,175890,"2005-10-31 07:00:00",193204,32,30,"There are many on here that think at no point in the pregnancy is the being in the women a human. If this is true then maybe pictures are important.",193203,1,4531,1,"Surely its still a human and a person when its a blastocyst as well though...so showing that it looks more like a baby is largely irrelevant.
I didn't think any pro-choice supporters (or hardly any anyway) based their views on what it looks like. Its generally what it can do (or stage of development) which is important or its doesn't matter in the slightest as its 'trespassing' anyway.","http://www.4forums.com/political/abortion-debates/6724-cool.html",175873,31
"1-4531_34_31_1",4531,1,"2005-10-31 08:04:00",56,51,175902,"2005-10-31 07:47:00",193207,62,31,"A person, but this isn't based of their appearance. Shave a chimp and it will probably look vaguely human (an ugly one though), doesn't mean it has more rights than a non-naked one.
Its not the appearance which makes people think it doesn't count as a person, its the lack of a functioning brain.",193204,1,4531,1,"There are many on here that think at no point in the pregnancy is the being in the women a human. If this is true then maybe pictures are important.","http://www.4forums.com/political/abortion-debates/6724-cool.html",175890,34
"1-4531_37_34_1",4531,1,"2005-10-31 09:12:00",51,56,175939,"2005-10-31 08:04:00",193210,52,34,"maybe to you. I have had some say it is ""just a clump of cells"" though. And thus the pictures. As for a functioning brain, What level of function is required to be a person? Who decided this and what authority do they have?",193207,1,4531,1,"A person, but this isn't based of their appearance. Shave a chimp and it will probably look vaguely human (an ugly one though), doesn't mean it has more rights than a non-naked one.
Its not the appearance which makes people think it doesn't count as a person, its the lack of a functioning brain.","http://www.4forums.com/political/abortion-debates/6724-cool.html",175902,37
"1-4531_40_37_1",4531,1,"2005-10-31 11:49:00",56,51,176009,"2005-10-31 09:12:00",193213,110,37,"At some point it is just a clump of cells though - you realise most pro-choices don't believe in abortion at any point in the pregnancy regardless, but only up to a certain period.
As for functioning brain, before then it feels nothing and can not think, nor ever has. Just sharing some similar DNA is not enough to make it count at this point. Soon as its a proper individual with its own mind then I wouldn't agree with aborting it except for medical reasons. Who decided this? Seems common sense to me, with the least harm being done.",193210,1,4531,1,"maybe to you. I have had some say it is ""just a clump of cells"" though. And thus the pictures. As for a functioning brain, What level of function is required to be a person? Who decided this and what authority do they have?","http://www.4forums.com/political/abortion-debates/6724-cool.html",175939,40
"1-4531_41_40_1",4531,1,"2005-10-31 11:54:00",51,56,176012,"2005-10-31 11:49:00",193214,74,40,"Jitobear and others seem to think you can abort or kill so long as the baby is dependent. In fact, jitobear just stated that if there can be a way that the fetus can be permentantly attached the mother for life and the mother wants it, that this should be allowed and abortion should remain on the table for that length of time. Do you agree with this stance?",193213,1,4531,1,"At some point it is just a clump of cells though - you realise most pro-choices don't believe in abortion at any point in the pregnancy regardless, but only up to a certain period.
As for functioning brain, before then it feels nothing and can not think, nor ever has. Just sharing some similar DNA is not enough to make it count at this point. Soon as its a proper individual with its own mind then I wouldn't agree with aborting it except for medical reasons. Who decided this? Seems common sense to me, with the least harm being done.","http://www.4forums.com/political/abortion-debates/6724-cool.html",176009,41
