"key","quote_source_post_discussion_id","posts_dataset_id","posts_timestamp","posts_author_id","quote_source_author_id","posts_native_post_id","quote_source_timestamp","post_text_id","Word_Count","quote_source_post_id","post_text","quote_source_text_id","Dialog_Turn","posts_discussion_id","quote_source_post_dataset_id","Fullquote_text","discussion_url","quote_source_native_post_id","posts_post_id"
"1-4939_32_30_1",4939,1,"2006-01-11 08:50:00",51,382,191430,"2006-01-11 03:16:00",209219,20,30,"glad to know you think all pro-lifers support bombing abortion clinics. Should just stop listening to you now?",209217,1,4939,1,"Your kidding right? I am talking about the pro-life nut cases that bomb abortion clinics.","http://www.4forums.com/political/abortion-debates/7282-prisons-filled.html",191372,32
"1-4939_37_32_1",4939,1,"2006-01-11 09:55:00",382,51,191454,"2006-01-11 08:50:00",209224,41,32,"Would you please show me where I said all please. Now who is generalising. I said the, not all, pro-life nut cases. Unless some one would next consider all pro-lifers to be nut cases also.",209219,1,4939,1,"glad to know you think all pro-lifers support bombing abortion clinics. Should just stop listening to you now?","http://www.4forums.com/political/abortion-debates/7282-prisons-filled.html",191430,37
"1-4939_38_37_1",4939,1,"2006-01-11 10:30:00",51,382,191473,"2006-01-11 09:55:00",209225,60,37,"You said:

Linus responded with this but not that you refer only to ""pro-lifers"" in the above statement.

You responded...clarifying what you meant by your comments.

This shows that you use ""pro-lifers"" and ""pro-life nut cases"" as the same thing....maybe you wish to clarfiy this though.",209224,1,4939,1,"Would you please show me where I said all please. Now who is generalising. I said the, not all, pro-life nut cases. Unless some one would next consider all pro-lifers to be nut cases also.","http://www.4forums.com/political/abortion-debates/7282-prisons-filled.html",191454,38
"1-4939_39_38_1",4939,1,"2006-01-11 10:58:00",382,51,191484,"2006-01-11 10:30:00",209226,10,38,"So some how a clarification is me stating all?",209225,1,4939,1,"You said:

Linus responded with this but not that you refer only to ""pro-lifers"" in the above statement.

You responded...clarifying what you meant by your comments.

This shows that you use ""pro-lifers"" and ""pro-life nut cases"" as the same thing....maybe you wish to clarfiy this though.","http://www.4forums.com/political/abortion-debates/7282-prisons-filled.html",191473,39
"1-4939_40_39_1",4939,1,"2006-01-11 11:05:00",51,382,191489,"2006-01-11 10:58:00",209227,65,39,"I'm just wondering why you said ""pro-lifers"" and then couldn't believe that Linus didn't know you were talking about ""pro-life nut jobs"" as if they were one in the same...so do you believe pro-lifers are all nut jobs? Do you believe pro-lifers believe in blowing up abortion clinics? If not...thats all you gotta say.",209226,1,4939,1,"So some how a clarification is me stating all?","http://www.4forums.com/political/abortion-debates/7282-prisons-filled.html",191484,40
"1-4939_41_40_1",4939,1,"2006-01-11 11:37:00",382,51,191511,"2006-01-11 11:05:00",209228,8,40,"Not all just some to both questions.",209227,1,4939,1,"I'm just wondering why you said ""pro-lifers"" and then couldn't believe that Linus didn't know you were talking about ""pro-life nut jobs"" as if they were one in the same...so do you believe pro-lifers are all nut jobs? Do you believe pro-lifers believe in blowing up abortion clinics? If not...thats all you gotta say.","http://www.4forums.com/political/abortion-debates/7282-prisons-filled.html",191489,41
"1-4939_42_41_1",4939,1,"2006-01-11 11:38:00",51,382,191512,"2006-01-11 11:37:00",209229,28,41,"Very well then; I would like to add that ""nut jobs"" are not limited to pro-life...sadly it is not limited to anything.",209228,1,4939,1,"Not all just some to both questions.","http://www.4forums.com/political/abortion-debates/7282-prisons-filled.html",191511,42
"1-4939_43_42_1",4939,1,"2006-01-11 11:49:00",382,51,191520,"2006-01-11 11:38:00",209230,29,42,"ROFLMAO emoticonXLove :) Y'all are funny today thanks :)
True oh so true at times, I will admit, I tend to fall into that nut job catagory",209229,1,4939,1,"Very well then; I would like to add that ""nut jobs"" are not limited to pro-life...sadly it is not limited to anything.","http://www.4forums.com/political/abortion-debates/7282-prisons-filled.html",191512,43
