"key","quote_source_post_discussion_id","posts_dataset_id","posts_timestamp","posts_author_id","quote_source_author_id","posts_native_post_id","quote_source_timestamp","post_text_id","Word_Count","quote_source_post_id","post_text","quote_source_text_id","Dialog_Turn","posts_discussion_id","quote_source_post_dataset_id","Fullquote_text","discussion_url","quote_source_native_post_id","posts_post_id"
"1-5159_36_34_1",5159,1,"2006-02-16 22:03:00",51,366,198872,"2006-02-16 16:29:00",216454,54,34,"It was interesting....
Like always though, PP doesn't do a great job of giving the full story. When pregnancy begins is up for debate just like everything else...although I don't see why it matters really. http://www.advancedfertility.com/earlypre.htm
It is what it is no matter what you call it.",216452,1,5159,1,"Has anyone seen the cartoon animation on the planned parenthood site? Hilarious. Go to planned parenthood site, click on pregnancy, and then on the ""how pregnancy occurs"" flash animation. I was not sure if I would be allowed to link it here. Warning: may not be suitable for some viewers, especially those with no sense of humor.","http://www.4forums.com/political/health-debates/7572-pro-choices-claim-they-women.html",198816,36
"1-5159_37_36_1",5159,1,"2006-02-17 10:02:00",366,51,198958,"2006-02-16 22:03:00",216455,158,36,"But in the terms of this debate, it does not matter when pregnancy begins. I didn't mean to use the cartoon as an argument, I just thought it was hilarious. 
As far as your other question above about the 99% of ""regular abortions"", I guess I would answer this. Personally, I only could support the decision for my wife to have an abortion in the events of danger to her health, or rape. However, I do not think that I have any right ot push my beliefs on others, and what is right for me, might not be right for someone else. Do I agree with abortion being used as birth control, no. But, do I think some people make the best choice by terminating an unwanted pregnancy rather than bring another unwanted child into the world...yes.",216454,1,5159,1,"It was interesting....
Like always though, PP doesn't do a great job of giving the full story. When pregnancy begins is up for debate just like everything else...although I don't see why it matters really. http://www.advancedfertility.com/earlypre.htm
It is what it is no matter what you call it.","http://www.4forums.com/political/health-debates/7572-pro-choices-claim-they-women.html",198872,37
"1-5159_41_37_1",5159,1,"2006-02-18 15:07:00",51,366,199183,"2006-02-17 10:02:00",216459,100,37,"I will just restate what I was referring to earlier...there is no ""best choice"" when it comes to whether or not you can take the life of another (unjustly...ie non-self defense). I can't think of any situation where it would be ok for me to kill my neighbor and for it to be just. Even if they caused my life to be a living hell (and oddly they do sometimes). I am all for pushing my beliefs on other people when it comes to harming someone.",216455,1,5159,1,"But in the terms of this debate, it does not matter when pregnancy begins. I didn't mean to use the cartoon as an argument, I just thought it was hilarious. 
As far as your other question above about the 99% of ""regular abortions"", I guess I would answer this. Personally, I only could support the decision for my wife to have an abortion in the events of danger to her health, or rape. However, I do not think that I have any right ot push my beliefs on others, and what is right for me, might not be right for someone else. Do I agree with abortion being used as birth control, no. But, do I think some people make the best choice by terminating an unwanted pregnancy rather than bring another unwanted child into the world...yes.","http://www.4forums.com/political/health-debates/7572-pro-choices-claim-they-women.html",198958,41
"1-5159_42_41_1",5159,1,"2006-02-18 16:19:00",366,51,199186,"2006-02-18 15:07:00",216460,26,41,"And this is the problem. Anti-abortion advocates view the fetus as ""someone"". Pro-choice advocates view the fetus as ""something"".",216459,1,5159,1,"I will just restate what I was referring to earlier...there is no ""best choice"" when it comes to whether or not you can take the life of another (unjustly...ie non-self defense). I can't think of any situation where it would be ok for me to kill my neighbor and for it to be just. Even if they caused my life to be a living hell (and oddly they do sometimes). I am all for pushing my beliefs on other people when it comes to harming someone.","http://www.4forums.com/political/health-debates/7572-pro-choices-claim-they-women.html",199183,42
"1-5159_43_42_1",5159,1,"2006-02-18 16:35:00",51,366,199189,"2006-02-18 16:19:00",216461,55,42,"No arguement there. I honestly think it is harder to show that the fetus(unborn at any stage) is not person/human then to show it is. If the unborn is not a human then what is the unborn and since when does something go from nonhuman to human?",216460,1,5159,1,"And this is the problem. Anti-abortion advocates view the fetus as ""someone"". Pro-choice advocates view the fetus as ""something"".","http://www.4forums.com/political/health-debates/7572-pro-choices-claim-they-women.html",199186,43
