"key","quote_source_post_discussion_id","posts_dataset_id","posts_timestamp","posts_author_id","quote_source_author_id","posts_native_post_id","quote_source_timestamp","post_text_id","Word_Count","quote_source_post_id","post_text","quote_source_text_id","Dialog_Turn","posts_discussion_id","quote_source_post_dataset_id","Fullquote_text","discussion_url","quote_source_native_post_id","posts_post_id"
"1-5289_51_50_1",5289,1,"2006-04-03 09:45:00",51,123,205326,"2006-04-03 08:32:00",222029,17,50,"Did you ever think that selling that bread will allow the grocer to feed his family?",222028,1,5289,1,"Steeeeve:
Does the grocer need the bread because he or she is starving?
Or, does the grocer need the bread to make more money?
Is it more moral to make more money than it is to let someone starve?
Is it selfish to want something because one is starving? Is that selfishness?
Or, desperation?
Is profit more important to you than moral justice?
Do you understand what moral justice is?
Do you worship money?
Do you worship the rich?","http://www.4forums.com/political/abortion-debates/7733-removing-fetus-without-death.html",205312,51
"1-5289_56_51_1",5289,1,"2006-04-04 06:56:00",123,51,205464,"2006-04-03 09:45:00",222034,82,51,"The grocer has only that one loaf of bread?
You know, Steeeeve, your saying that makes me think that you have not evolved beyond the basic animalistic instinct of the primitive human to grab everything and hang onto it for dear life, as opposed to a more highly evolved state of humanity where one gives, rather than takes, shares, rather than hoards, forgives and has mercy as opposed to rigidly enforcing archaic laws.",222029,1,5289,1,"Did you ever think that selling that bread will allow the grocer to feed his family?","http://www.4forums.com/political/abortion-debates/7733-removing-fetus-without-death.html",205326,56
"1-5289_59_56_1",5289,1,"2006-04-05 08:16:00",51,123,205644,"2006-04-04 06:56:00",222037,116,56,"Maybe the grocer needed to sell that loaf of bread to pay rent to keep his business open to support his family? Not that this matters because stealing is still wrong and I wouldn't support it even if it was to save him from starving. 
You go on this long speech about how primitive humans grab onto everything and hang onto it...you mean like the man stealing the bread? Or gives rather than takes....you mean like the man stealing the bread (taking)? Mercy as in killing a human based on size of development? emoticonXConfused emoticonXConfused 
You are all over the place on the issues Simone",222034,1,5289,1,"The grocer has only that one loaf of bread?
You know, Steeeeve, your saying that makes me think that you have not evolved beyond the basic animalistic instinct of the primitive human to grab everything and hang onto it for dear life, as opposed to a more highly evolved state of humanity where one gives, rather than takes, shares, rather than hoards, forgives and has mercy as opposed to rigidly enforcing archaic laws.","http://www.4forums.com/political/abortion-debates/7733-removing-fetus-without-death.html",205464,59
"1-5289_60_59_1",5289,1,"2006-04-05 09:29:00",123,51,205662,"2006-04-05 08:16:00",222038,76,59,"You don't seem to understand, Steeeeve.
Starvation can mean death. If someone allows someone to starve to death might that not be murder?
Just on the supposition that you can follow that argument, I'm not holding my breath here, is not murder a greater criminal act than stealing?
Is the ownership of inanimate property more important than human life? Do property values have precedent over human life?",222037,1,5289,1,"Maybe the grocer needed to sell that loaf of bread to pay rent to keep his business open to support his family? Not that this matters because stealing is still wrong and I wouldn't support it even if it was to save him from starving. 
You go on this long speech about how primitive humans grab onto everything and hang onto it...you mean like the man stealing the bread? Or gives rather than takes....you mean like the man stealing the bread (taking)? Mercy as in killing a human based on size of development? emoticonXConfused emoticonXConfused 
You are all over the place on the issues Simone","http://www.4forums.com/political/abortion-debates/7733-removing-fetus-without-death.html",205644,60
"1-5289_61_60_1",5289,1,"2006-04-05 11:01:00",51,123,205671,"2006-04-05 09:29:00",222039,65,60,"no

on what level? There is no level of ""wrong""...if you are wrong you are wrong.

To you they do. To me, not so much. IF someone is starving, I am obligated to help them...if they steal from me, I am obligated to punish them. This isn't a hard concept.",222038,1,5289,1,"You don't seem to understand, Steeeeve.
Starvation can mean death. If someone allows someone to starve to death might that not be murder?
Just on the supposition that you can follow that argument, I'm not holding my breath here, is not murder a greater criminal act than stealing?
Is the ownership of inanimate property more important than human life? Do property values have precedent over human life?","http://www.4forums.com/political/abortion-debates/7733-removing-fetus-without-death.html",205662,61
"1-5289_88_87_2",5289,1,"2006-04-14 16:38:00",1151,137,207285,"2006-04-14 15:18:00",222066,186,87,"You promote choice, but not abortion? Isn't the particular choice you support the choice to have abortion? I don't think you can support the one without supporting the other at the same time.

It doesn't guarantee pregnancy. But it happens frequently enough. Enough to consider what will happen if it does.

Huh?

Sure they do. And there are some that agree with me too.
Obviously, in an abortion issue, personal beliefs have to be included. There are people out there striving to say an early baby is not a person. That is a personal view. Plus, there is a personal view that the baby is a person from conception. Those are personal views, but currently the first one made the law.
Only pro-lifer are poked in the chest because of their personal views when the pokers themselves don't even realize the reasons that make them pro-abortionists stemmed from their own personal views. So lets stop this personal view thing, pro-abortionists act the same way.",222065,2,5289,1,"Wrong, wrong. I'm pro-choice; which means I promote choice. If a rape victim wants to continue her pregnancy, that's fine with me. If she wants an abortion, that's fine with me. Choice. I'm not promoting abortion. And I've said that before.

It's relevant b/c I want you to know that sex doesn't always guarantee pregnancy. I should have quite a bunch of kids at this point if that were the case. 
You don't go to school? Man, how'd you get so lucky?
So if you're not pushing and promoting your personal beliefs and morals, what are you doing? Don't people disagree with your opinions on what is moral? 
How do you reconcile that?","http://www.4forums.com/political/abortion-debates/7733-removing-fetus-without-death.html",207269,88
"1-5289_89_88_2",5289,1,"2006-04-14 18:45:00",137,1151,207310,"2006-04-14 16:38:00",222067,213,88,"I support women's choice; to do with their bodies as they please. I'm not walking around town carrying signs that say ""Have an abortion, they're great!"" or ""Everyone should have an abortion!"" or ""Choose abortion! It's the best choice!""
I support women's choice; no matter what that might be. People can make their own personal decisions without my involvement. Friends can come to me, and I'll support their decisions, even if I don't agree with it.
(You said ""Huh"" to my question; ""how did you get out of school?"") I meant, really, how did you get out of going to school, you lucky bug? :)

I don't think you understand what it means to be pro-choice. You're pushing your morals on the masses. I'm want people to choose their morals. If I was pushing my views, I would be telling people to get an abortion, like you're telling people not to. Instead, I'm encouraging society to allow people to make their own decisions. Does that make sense? It's been a long day.",222066,2,5289,1,"You promote choice, but not abortion? Isn't the particular choice you supportthe choice to have abortion? I don't think you can support the one without supporting the other at the same time.","http://www.4forums.com/political/abortion-debates/7733-removing-fetus-without-death.html",207285,89
"1-5289_91_89_2",5289,1,"2006-04-14 21:13:00",1151,137,207327,"2006-04-14 18:45:00",222069,146,89,"Oh, I get it now. I though when you said ""pro-choice"" you meant the choice to have an abortion. I see now.

I do homeschool work. I do study math, english, science ect. My Mom chose to do homeschooling because of personal reasons.

Allowing people to make their own decisions is fine. That I agree with. I guess I have a better understanding now of how the pro-choice person is.
But I still hold my belief that morals play a part in this issue, whether it's constitutional or not. There is eventually going to be a moral absolute in the ultimate debate on this, regardless of moral-less people. The law is already built on morals, I don't think anything unconstitutional would be commited by prohibiting it.",222067,2,5289,1,"I support women's choice; to do with their bodies as they please. I'm not walking around town carrying signs that say ""Have an abortion, they're great!"" or ""Everyone should have an abortion!"" or ""Choose abortion! It's the best choice!""
I support women's choice; no matter what that might be. People can make their own personal decisions without my involvement. Friends can come to me, and I'll support their decisions, even if I don't agree with it.
(You said ""Huh"" to my question; ""how did you get out of school?"") I meant, really, how did you get out of going to school, you lucky bug? :)

I don't think you understand what it means to be pro-choice. You're pushing your morals on the masses. I'm want people to choose their morals. If I was pushing my views, I would be telling people to get an abortion, like you're telling people not to. Instead, I'm encouraging society to allow people to make their own decisions. Does that make sense? It's been a long day.","http://www.4forums.com/political/abortion-debates/7733-removing-fetus-without-death.html",207310,91
"1-5289_96_91_2",5289,1,"2006-04-17 15:22:00",137,1151,207976,"2006-04-14 21:13:00",222074,52,91,"Could you please clarify what you mean when you say ""moral-less people""? What is a moral-less person?
-------------------------------------------------------------------------

Currently, the law which you say ""is already built on morals"" allows for abortions. So...maybe you'd like a chance to reconsider your statement:

",222069,2,5289,1,"Oh, I get it now. I though when you said ""pro-choice"" you meant the choice to have an abortion. I see now.

I do homeschool work. I do study math, english, science ect. My Mom chose to do homeschooling because of personal reasons.

Allowing people to make their own decisions is fine. That I agree with. I guess I have a better understanding now of how the pro-choice person is.
But I still hold my belief that morals play a part in this issue, whether it's constitutional or not. There is eventually going to be a moral absolute in the ultimate debate on this, regardless of moral-less people. The law is already built on morals, I don't think anything unconstitutional would be commited by prohibiting it.","http://www.4forums.com/political/abortion-debates/7733-removing-fetus-without-death.html",207327,96
"1-5289_97_96_2",5289,1,"2006-04-18 06:58:00",1151,137,208060,"2006-04-17 15:22:00",222075,43,96,"A person without morals.

Remember that I said morals. I did not say ""good"" morals or ""my"" morals. The fact is that it is, trying to completely obstruct morals from the law is futile.",222074,2,5289,1,"Could you please clarify what you mean when you say ""moral-less people""? What is a moral-less person?
-------------------------------------------------------------------------

Currently, the law which you say ""is already built on morals"" allows for abortions. So...maybe you'd like a chance to reconsider your statement:

","http://www.4forums.com/political/abortion-debates/7733-removing-fetus-without-death.html",207976,97
"1-5289_98_97_2",5289,1,"2006-04-18 08:00:00",137,1151,208071,"2006-04-18 06:58:00",222076,32,97,"I've never met or heard of a person without morals. Have you? I'm sure you mean people without what in your opinion are ""good"" morals.
------------------------------------------------------------------------



emoticonXConfused",222075,2,5289,1,"A person without morals.

Remember that I said morals. I did not say ""good"" morals or ""my"" morals. The fact is that it is, trying to completely obstruct morals from the law is futile.","http://www.4forums.com/political/abortion-debates/7733-removing-fetus-without-death.html",208060,98
"1-5289_100_98_2",5289,1,"2006-04-19 09:21:00",1151,137,208268,"2006-04-18 08:00:00",222078,51,98,"If you're confused by my last post, I'll explain it.
Trying to use a moral to impose a law will never work. Morals are included, but if you gave that as one of your main reasons for creating a law, they would never allow it.",222076,2,5289,1,"I've never met or heard of a person without morals. Have you? I'm sure you mean people without what in your opinion are ""good"" morals.
------------------------------------------------------------------------



emoticonXConfused","http://www.4forums.com/political/abortion-debates/7733-removing-fetus-without-death.html",208071,100
