"key","quote_source_post_discussion_id","posts_dataset_id","posts_timestamp","posts_author_id","quote_source_author_id","posts_native_post_id","quote_source_timestamp","post_text_id","Word_Count","quote_source_post_id","post_text","quote_source_text_id","Dialog_Turn","posts_discussion_id","quote_source_post_dataset_id","Fullquote_text","discussion_url","quote_source_native_post_id","posts_post_id"
"1-5763_112_111_1",5763,1,"2006-07-20 17:03:00",381,1151,223722,"2006-07-20 16:32:00",241988,100,111,"This has no basis in fact. I don't know what forced pregnancy means. If you mean making abortions illegal, it will reduce the number of abortions somewhat, I predict. But, like most prohibition, it will not have much effect and illegal abortions and their consequences will proliferate.

Abortion is not baby killing. Stop saying that. Using silly sensational language indicates a lack of a thoughtful argument. This paragraph demonstrates little understanding of sexual drive and sexual behavior. Also, no one is having abortions ""willy-nilly.""",241987,1,5763,1,"Forced pregnancy will not fix it. It will not fix rape, incest or other causes. But when women start realizing they can't jump out of being responsible for their sex life, they will start having sex less. Even if it doesn't work completely, it will decrease the amount of abortions some.
Oh, and killing a baby so you can enjoy sex is purely selfish. It is nothing less than murder. It shows off inhumane people will go because they are so desperate for sex. Sex is pleasurable, but it was created first and foremost for sustaining human life. You can't (unless tubes are tied) just have sex and kill willy-nilly.","http://www.4forums.com/political/abortion-debates/8379-rape-abortion.html",223721,112
"1-5763_113_112_1",5763,1,"2006-07-20 18:40:00",1151,381,223732,"2006-07-20 17:03:00",241989,113,112,"It would help though. Murder and rape are illegal, and people still commit those crimes. It obviously helps to keep those crimes illegal, it would lower the numbers,

Abortion is baby killing to me, and I'll use the wording I prefer.

I'm to look at a person willing to kill a baby just to have sex and try to be understanding?!? 
And I did not say people have abortions willy-nilly. People want to have sex willy-nilly, so they'll go to extents like abortion to get it without extra burdens. There are people like that, a lot of people in fact.",241988,1,5763,1,"This has no basis in fact. I don't know what forced pregnancy means. If you mean making abortions illegal, it will reduce the number of abortions somewhat, I predict. But, like most prohibition, it will not have much effect and illegal abortions and their consequences will proliferate.

Abortion is not baby killing. Stop saying that. Using silly sensational language indicates a lack of a thoughtful argument. This paragraph demonstrates little understanding of sexual drive and sexual behavior. Also, no one is having abortions ""willy-nilly.""","http://www.4forums.com/political/abortion-debates/8379-rape-abortion.html",223722,113
"1-5763_114_113_1",5763,1,"2006-07-20 18:54:00",381,1151,223734,"2006-07-20 18:40:00",241990,34,113,"Please let us know how you know that.
What do you think about prohibition and how that affected alcohol consumption? As well as the other crimes that were associated with it?",241989,1,5763,1,"It would help though. Murder and rape are illegal, and people still commit those crimes. It obviously helps to keep those crimes illegal, it would lower the numbers,

Abortion is baby killing to me, and I'll use the wording I prefer.

I'm to look at a person willing to kill a baby just to have sex and try to be understanding?!? 
And I did not say people have abortions willy-nilly. People want to have sex willy-nilly, so they'll go to extents like abortion to get it without extra burdens. There are people like that, a lot of people in fact.","http://www.4forums.com/political/abortion-debates/8379-rape-abortion.html",223732,114
"1-5763_124_114_1",5763,1,"2006-07-21 14:30:00",1151,381,223922,"2006-07-20 18:54:00",242000,50,114,"You don't know, thelmoose? I guess not. Well I'm not here to educate you as if you suddenly had no idea of the effect prohibition can do.
I don't know what you're talking about when you say alcohol consumption. You got a specific issue?",241990,1,5763,1,"Please let us know how you know that.
What do you think about prohibition and how that affected alcohol consumption? As well as the other crimes that were associated with it?","http://www.4forums.com/political/abortion-debates/8379-rape-abortion.html",223734,124
"1-5763_125_124_1",5763,1,"2006-07-21 15:01:00",381,1151,223927,"2006-07-21 14:30:00",242001,82,124,"1. Nice dodge. I repeat: How do you know what effect making abortion illegal will have on the frequency of abortions and the amount of sex that occurs, both of which you asserted. 
2. If you don't know what my reference to alcohol means, you may not know what Prohibition was (capital P), which is directly relevant to #1. Look it up and then you might be able to respond.",242000,1,5763,1,"You don't know, thelmoose? I guess not. Well I'm not here to educate you as if you suddenly had no idea of the effect prohibition can do.
I don't know what you're talking about when you say alcohol consumption. You got a specific issue?","http://www.4forums.com/political/abortion-debates/8379-rape-abortion.html",223922,125
"1-5763_127_125_1",5763,1,"2006-07-21 16:50:00",1151,381,223948,"2006-07-21 15:01:00",242003,58,125,"Because laws have stifled things like this before. Even if it hadn't completely stamped it out. Slaves were considered a legal right before Abraham Lincoln came along. It was abolished and made illegal, and now there are very few if any people who have slaves in their homes.
Now do you understand?",242001,1,5763,1,"1. Nice dodge. I repeat: How do you know what effect making abortion illegal will have on the frequency of abortions and the amount of sex that occurs, both of which you asserted. 
2. If you don't know what my reference to alcohol means, you may not know what Prohibition was (capital P), which is directly relevant to #1. Look it up and then you might be able to respond.","http://www.4forums.com/political/abortion-debates/8379-rape-abortion.html",223927,127
"1-5763_129_127_1",5763,1,"2006-07-21 17:13:00",381,1151,223955,"2006-07-21 16:50:00",242005,241,127,"Huh?
That's pretty whacked. 
You said that if abortion was illegal, ""they will start having sex less"". Please tell me what evidence you have that this would take place. You have yet to anwer that.
It is clear the Prohibition reference is still sailing over your head. When Prohibition went into effect, alcohol consumption did not cease, and there was a great deal of illegal activity generated. 
Now, the comparison between the behavior of alcohol consumption and abortion is not perfect, I'll admit, but I wanted to discuss you assertion that making abortion illegal will reduce abortions by comparing it to an historical precedent. I think it is a fair comparison if you are talking about sexual behavior. This kind of thing is what you do in arguments, rather than making claims and not backing them up. Making abortions illegal will create unsafe abortions to occur and many unwanted children to be born.
If my Prohibition comparison was off the mark, your slavery comparison is positively looney. It's a little difficult to have slaves on your plantation and not have anyone notice. 
One statement you made is a safe bet, but I hope you were trying to be humorous: ""now there are very few if any people who have slaves in their homes.""",242003,1,5763,1,"Because laws have stifled things like this before. Even if it hadn't completely stamped it out. Slaves were considered a legal right before Abraham Lincoln came along. It was abolished and made illegal, and now there are very few if any people who have slaves in their homes.
Now do you understand?","http://www.4forums.com/political/abortion-debates/8379-rape-abortion.html",223948,129
"1-5763_131_129_1",5763,1,"2006-07-22 08:59:00",1151,381,224024,"2006-07-21 17:13:00",242007,152,129,"I can understand where you wouldn't believe laws stop things altogether. I find myself agreeing that making abortion illegal may not make it completely nationwide itself. But making abortions illegal will reduce sex a little if not a lot. I believe that if pregnancy was an issue you once again were made to live with, men and women would not be so casual about it.
There are two points where you're predicting results are faulty. 1. Children unwanted is nonsense. There are couples out there who can't wait to adopt a child or children. 2. And making it harder to commit a crime is not wrong. If abortion were declared a crime, then illegal abortions being made would make no difference. Men get injured and killed during robberies all the time, maybe we should make that legal.",242005,1,5763,1,"Huh?
That's pretty whacked. 
You said that if abortion was illegal, ""they will start having sex less"". Please tell me what evidence you have that this would take place. You have yet to anwer that.
It is clear the Prohibition reference is still sailing over your head. When Prohibition went into effect, alcohol consumption did not cease, and there was a great deal of illegal activity generated. 
Now, the comparison between the behavior of alcohol consumption and abortion is not perfect, I'll admit, but I wanted to discuss you assertion that making abortion illegal will reduce abortions by comparing it to an historical precedent. I think it is a fair comparison if you are talking about sexual behavior. This kind of thing is what you do in arguments, rather than making claims and not backing them up. Making abortions illegal will create unsafe abortions to occur and many unwanted children to be born.
If my Prohibition comparison was off the mark, your slavery comparison is positively looney. It's a little difficult to have slaves on your plantation and not have anyone notice. 
One statement you made is a safe bet, but I hope you were trying to be humorous: ""now there are very few if any people who have slaves in their homes.""","http://www.4forums.com/political/abortion-debates/8379-rape-abortion.html",223955,131
"1-5763_115_113_2",5763,1,"2006-07-20 18:56:00",381,1151,223737,"2006-07-20 18:40:00",241991,21,113,"It is still sensational, inflammatory and simply not an accurate term. Makes you seem like a drama queen.",241989,2,5763,1,"It would help though. Murder and rape are illegal, and people still commit those crimes. It obviously helps to keep those crimes illegal, it would lower the numbers,

Abortion is baby killing to me, and I'll use the wording I prefer.

I'm to look at a person willing to kill a baby just to have sex and try to be understanding?!? 
And I did not say people have abortions willy-nilly. People want to have sex willy-nilly, so they'll go to extents like abortion to get it without extra burdens. There are people like that, a lot of people in fact.","http://www.4forums.com/political/abortion-debates/8379-rape-abortion.html",223732,115
"1-5763_123_115_2",5763,1,"2006-07-21 14:27:00",1151,381,223921,"2006-07-20 18:56:00",241999,27,115,"I don't think aborting a fetus is an accurately correct term. It makes you look like a person blocking the pricks to a buried conscience.",241991,2,5763,1,"It is still sensational, inflammatory and simply not an accurate term. Makes you seem like a drama queen.","http://www.4forums.com/political/abortion-debates/8379-rape-abortion.html",223737,123
"1-5763_126_123_2",5763,1,"2006-07-21 15:03:00",381,1151,223928,"2006-07-21 14:27:00",242002,38,123,"Well, I would say ""aborting a fetus"" is pretty accurate. You might even call it ""accurately correct"".
No idea what ""blocking the pricks to a buried conscience"" means.",241999,2,5763,1,"I don't think aborting a fetus is an accurately correct term. It makes you look like a person blocking the pricks to a buried conscience.","http://www.4forums.com/political/abortion-debates/8379-rape-abortion.html",223921,126
"1-5763_128_126_2",5763,1,"2006-07-21 16:55:00",1151,381,223950,"2006-07-21 15:03:00",242004,110,126,"Because I find there isn't a single pro-abortionist who will call a fetus a baby. Why not? A lot of them will admit it is a human life form, but when the term baby comes along, they shut their mouths. Any person will call a fetus a baby, it is only until this issue comes along that they correct their language so they don't mention what they used to believe it was. Also, if they ever admitted that a fetus was a baby, they would have to admit to its killing as murder. That is why I think that.",242002,2,5763,1,"Well, I would say ""aborting a fetus"" is pretty accurate. You might even call it ""accurately correct"".
No idea what ""blocking the pricks to a buried conscience"" means.","http://www.4forums.com/political/abortion-debates/8379-rape-abortion.html",223928,128
"1-5763_130_128_2",5763,1,"2006-07-21 17:23:00",381,1151,223958,"2006-07-21 16:55:00",242006,135,128,"That is exactly my point, Poindexter. 
You need to support your reasoning why abortion is wrong, so you use rhetoric, like ""baby murder"". A fetus is different than a baby, hence it is not wrong to have an abortion. I would not call fetus a baby, even if abortion is not considered. They are different. One is inside another person's uterus attached to that person with an umbilical cord. The other is not.
If you think that abortion is wrong and should be illegal, that's your opinion. I disagree but respect your right to hold an opinion. If you resort to wordplay to back up your opinion, I object to that obfuscation. That's my point.",242004,2,5763,1,"Because I find there isn't a single pro-abortionist who will call a fetus a baby. Why not? A lot of them will admit it is a human life form, but when the term baby comes along, they shut their mouths. Any person will call a fetus a baby, it is only until this issue comes along that they correct their language so they don't mention what they used to believe it was. Also, if they ever admitted that a fetus was a baby, they would have to admit to its killing as murder. That is why I think that.","http://www.4forums.com/political/abortion-debates/8379-rape-abortion.html",223950,130
"1-5763_132_130_2",5763,1,"2006-07-22 09:00:00",1151,381,224025,"2006-07-21 17:23:00",242008,42,130,"I understand now. I suppose if I do use that particular wording as backup for my posts, pro-abortionists won't think too seriously of me. Thanks for clearing that up, thelmoose. I'll respond differently in the future.",242006,2,5763,1,"That is exactly my point, Poindexter. 
You need to support your reasoning why abortion is wrong, so you use rhetoric, like ""baby murder"". A fetus is different than a baby, hence it is not wrong to have an abortion. I would not call fetus a baby, even if abortion is not considered. They are different. One is inside another person's uterus attached to that person with an umbilical cord. The other is not.
If you think that abortion is wrong and should be illegal, that's your opinion. I disagree but respect your right to hold an opinion. If you resort to wordplay to back up your opinion, I object to that obfuscation. That's my point.","http://www.4forums.com/political/abortion-debates/8379-rape-abortion.html",223958,132
