"key","quote_source_post_discussion_id","posts_dataset_id","posts_timestamp","posts_author_id","quote_source_author_id","posts_native_post_id","quote_source_timestamp","post_text_id","Word_Count","quote_source_post_id","post_text","quote_source_text_id","Dialog_Turn","posts_discussion_id","quote_source_post_dataset_id","Fullquote_text","discussion_url","quote_source_native_post_id","posts_post_id"
"1-5780_55_54_1",5780,1,"2006-07-21 13:44:00",137,1151,223907,"2006-07-21 11:49:00",242678,118,54,"Because sex is one of her needs. Check out Maslow's hierarchy of needs. This is just a theory, but it is very interesting. Many ""needs"" theories include the need for sexual intimacy.

Along the same lines of reasoning, you are under the idea that sex is solely about procreation. Well, you are badly mistaken. 
That doesn't work so well. It would help your cause if you tried to understand that sex isn't just about making babies. It's easy to tell adult women who are in committed relationships that they shouldn't be having sex unless they want a kid, but in practice it's ridiculous.",242677,1,5780,1,"Well if the Mother is so desperate to hold on to her needs and wishes that she will kill, why on earth did she risk a pregnancy having sex? They are all so important, who did she think she was even daring to risk it?
You're all under this idea that sex was created for pleasure, and it should be as available to everyone like Movies and Games. Well you are all badly mistaken. It's people like you that has treated sex as a thing for fun, and should be treated casually to the extent that young children are infected every hour daily by STD's and HIV.
Ok, we've already blown off the resonsibility for sex all over the U.S. Look at how well that has done us.","http://www.4forums.com/political/abortion-debates/8405-clinic-give-out-free-morning-after-pills.html",223895,55
"1-5780_56_55_1",5780,1,"2006-07-21 14:20:00",1151,137,223919,"2006-07-21 13:44:00",242679,171,55,"She won't die if she doesn't have her sex. But I'll be sure to check it out.

I don't usually get this detailed on sex matters, but I will in this case.
Sex is not strictly Vaginal Sex. Sex in general means a lot of things, and sexual satisfaction can be gained without Vaginal Intercourse. Vaginal intercourse, on the other hand, is the direct route to pregnancy. Then a couple steps back later in shock and says ""Gee, she got pregnant! How did that happen?"" Well guess what, they forgot a little reality of nature.

What's ridiculous (in this particular scenario) is saying ""I am in a sexually commited relationship with my boyfriend. Therefore, I am going to release my rights to my body and allow him to use me and risk my getting pregnant and all sorts of other things so he can get his sexual satisfaction.",242678,1,5780,1,"Because sex is one of her needs. Check out Maslow's hierarchy of needs. This is just a theory, but it is very interesting. Many ""needs"" theories include the need for sexual intimacy.

Along the same lines of reasoning, you are under the idea that sex is solely about procreation. Well, you are badly mistaken. 
That doesn't work so well. It would help your cause if you tried to understand that sex isn't just about making babies. It's easy to tell adult women who are in committed relationships that they shouldn't be having sex unless they want a kid, but in practice it's ridiculous.","http://www.4forums.com/political/abortion-debates/8405-clinic-give-out-free-morning-after-pills.html",223907,56
"1-5780_58_56_1",5780,1,"2006-07-21 15:29:00",137,1151,223932,"2006-07-21 14:20:00",242681,109,56,"You're right, but it is a NEED and to deny that fact is indeed a denial of the reality of what the human psyche needs.

Thanks so much for the sex ed. I wasn't aware of other routes of sexual pleasure. 
So you are prescribing that people engage in other aspects of sex? Suddenly, you aren't so worried about STD's. 

Whoa! I don't ""release"" my rights to my body to my boyfriend/husband so he can get ""his"". This assertion is ridiculous! You have a lot to learn about sex, young man.",242679,1,5780,1,"She won't die if she doesn't have her sex. But I'll be sure to check it out.

I don't usually get this detailed on sex matters, but I will in this case.
Sex is not strictly Vaginal Sex. Sex in general means a lot of things, and sexual satisfaction can be gained without Vaginal Intercourse. Vaginal intercourse, on the other hand, is the direct route to pregnancy. Then a couple steps back later in shock and says ""Gee, she got pregnant! How did that happen?"" Well guess what, they forgot a little reality of nature.

What's ridiculous (in this particular scenario) is saying ""I am in a sexually commited relationship with my boyfriend. Therefore, I am going to release my rights to my body and allow him to use me and risk my getting pregnant and all sorts of other things so he can get his sexual satisfaction.","http://www.4forums.com/political/abortion-debates/8405-clinic-give-out-free-morning-after-pills.html",223919,58
"1-5780_59_58_1",5780,1,"2006-07-21 16:36:00",1151,137,223944,"2006-07-21 15:29:00",242682,31,58,"Vaginal sex is not without its own risks, Bell.

Then don't make statements about women in a sexually commited relationship as if they owed it to their boyfriend.",242681,1,5780,1,"Thanks so much for the sex ed. I wasn't aware of other routes of sexual pleasure.
So you are prescribing that people engage in other aspects of sex? Suddenly, you aren't so worried about STD's.","http://www.4forums.com/political/abortion-debates/8405-clinic-give-out-free-morning-after-pills.html",223932,59
"1-5780_61_59_1",5780,1,"2006-07-21 16:50:00",137,1151,223949,"2006-07-21 16:36:00",242684,23,59,"*gasp*
I did not say this, nor imply it in any fashion. 
I challenge you to support this statement.",242682,1,5780,1,"Vaginal sex is not without its own risks, Bell.

Then don't make statements about women in a sexually commited relationship as if they owed it to their boyfriend.","http://www.4forums.com/political/abortion-debates/8405-clinic-give-out-free-morning-after-pills.html",223944,61
"1-5780_62_61_1",5780,1,"2006-07-21 16:59:00",1151,137,223952,"2006-07-21 16:50:00",242685,50,61,"Yes you did.
I accept.
----
When you say this, you imply that it is ridiculous to tell women to abstain from sex since their partner may want some. I was showing off the dumb thinking a girl might have if she actually believed that.",242684,1,5780,1,"*gasp*
I did not say this, nor imply it in any fashion. 
I challenge you to support this statement.","http://www.4forums.com/political/abortion-debates/8405-clinic-give-out-free-morning-after-pills.html",223949,62
"1-5780_67_62_1",5780,1,"2006-07-21 17:48:00",137,1151,223962,"2006-07-21 16:59:00",242690,226,62,"No, you implied it. I did not. I said, 

I said this in response to your concept that if women don't want kids, they shouldn't be having sex. I said naught about their partner ""wanting some"". You have either misread my comment, or read what you wanted to into it.
You really think I believe sex is for pleasure only? I've said many times that sex is NOT JUST for procreation. Either you are being dishonest or have not retained this information.

I said, ""You have alot to learn about sex, young man!"" and this was in response to your comment that women ""release"" their bodies over to their boyfriends for their boyfriends sexual satisfaction. Indeed, if this is your sentiment, then you do have a lot to learn about sex. Wouldn't you agree?
Again, I said it's ridiculous to tell women in committed relationships not to have sex unless they want kids, because it is. Telling married women that they shouldn't have sex with their spouses (for whomever's pleasure) is a ridiculous notion. I didn't say YOU are ridiculous, but that concept is. 
Do not misquote or misrepresent me again.",242685,1,5780,1,"Yes you did.
I accept.
----
When you say this, you imply that it is ridiculous to tell women to abstain from sex since their partner may want some. I was showing off the dumb thinking a girl might have if she actually believed that.","http://www.4forums.com/political/abortion-debates/8405-clinic-give-out-free-morning-after-pills.html",223952,67
"1-5780_71_67_1",5780,1,"2006-07-21 18:02:00",1151,137,223966,"2006-07-21 17:48:00",242694,80,67,"No, I believe I received the correct message when I read your post. I've made reading mistakes before, but I don't think I did this time.

You're doing it again. I am referring to YOUR PARTICULAR SCENARIO that you said I either misread or read it in a way I wanted. I know girls don't normally just hand themselves over to their boyfriends whenever.
And now I'm signing off for the night.",242690,1,5780,1,"No,you implied it. I did not. I said, 
I said this in response to your concept that if women don't want kids, they shouldn't be having sex. I said naught about their partner ""wanting some"". You have either misread my comment, or read what you wanted to into it.
You really think I believe sex is for pleasure only? I've said many times that sex is NOT JUST for procreation. Either you are being dishonest or have not retained this information.","http://www.4forums.com/political/abortion-debates/8405-clinic-give-out-free-morning-after-pills.html",223962,71
"1-5780_72_71_1",5780,1,"2006-07-21 18:18:00",137,1151,223970,"2006-07-21 18:02:00",242695,42,71,"You're right, you didn't make a reading mistake- you just made up something and then went ahead and said that I implied it. 

You have completely failed to address the facts laid in black & white before you.",242694,1,5780,1,"No, I believe I received the correct message when I read your post. I've made reading mistakes before, but I don't think I did this time.

You're doing it again. I am referring to YOUR PARTICULAR SCENARIO that you said I either misread or read it in a way I wanted. I know girls don't normally just hand themselves over to their boyfriends whenever.
And now I'm signing off for the night.","http://www.4forums.com/political/abortion-debates/8405-clinic-give-out-free-morning-after-pills.html",223966,72
