"key","quote_source_post_discussion_id","posts_dataset_id","posts_timestamp","posts_author_id","quote_source_author_id","posts_native_post_id","quote_source_timestamp","post_text_id","Word_Count","quote_source_post_id","post_text","quote_source_text_id","Dialog_Turn","posts_discussion_id","quote_source_post_dataset_id","Fullquote_text","discussion_url","quote_source_native_post_id","posts_post_id"
"1-5844_5_4_1",5844,1,"2006-07-14 14:35:00",381,1151,222465,"2006-07-14 14:28:00",245547,32,4,"Rather than complaining about what ""they"" do, why don't you make a point? I am not sure what yours is here.
I thought you went home.",245546,1,5844,1,"I always thought the ""inability to survive on its own"" idea was a lame argument used by pro-abortionists, but its not that way for all of them.
The others will say this when they are confronted by someone who believes a baby (however young) has the right to live from birth as a means to draw away from the facts and confuse the pro-lifer. They lead you into arguements about how old a baby has to be to be worthy of rights, what it requires, does it require consciousness and a means to feel pain in order to make what they're doing wrong and so on and so on.
It leads you round and round until suddenly you're being attacked in the debate instead of you the pro-abortionist by your idea of life beginning at conception. This has happened to me several times, and I've lost my mind with it.
So not only do I believe this arguement to be lame, it is also a trap to confuse the pro-lifer with issues that are meaningless if they truly believe life begins at conception.","http://www.4forums.com/political/abortion-debates/8504-kill-kill-kill.html",222464,5
"1-5844_8_5_1",5844,1,"2006-07-14 17:51:00",1151,381,222481,"2006-07-14 14:35:00",245550,35,5,"My point was to show what I thought of pro-abortionist's reasons for bringing up the arguement of independant survival for reasons other than being lame at debating.

Look at my post for Sinjin.",245547,1,5844,1,"Rather than complaining about what ""they"" do, why don't you make a point? I am not sure what yours is here.
I thought you went home.","http://www.4forums.com/political/abortion-debates/8504-kill-kill-kill.html",222465,8
"1-5844_10_8_1",5844,1,"2006-07-14 19:00:00",381,1151,222486,"2006-07-14 17:51:00",245552,27,8,"Well could you please explain it again, because I don't understand what you were saying? I don't even understand the current comment.
Thanks.",245550,1,5844,1,"My point was to show what I thought of pro-abortionist's reasons for bringing up the arguement of independant survival for reasons other than being lame at debating.
.","http://www.4forums.com/political/abortion-debates/8504-kill-kill-kill.html",222481,10
"1-5844_12_10_1",5844,1,"2006-07-15 16:46:00",1151,381,222618,"2006-07-14 19:00:00",245554,191,10,"Fine.
There have been two reasons (I've seen so far) that pro-abortionists have for using the ""independant survival"" arguement.
1. Because they can't think of anything else to say and end up sounding ridiculous.
2. Because they are confronted by a pro-lifer who believes a baby is a baby with rights from the moment of conception. They can't get through that wall, so they bring up technicalities like not having a conscience or a brain or senses. They do this to confuse the person and then challenge them on their scientific knowledge of the human anatomy and its growth. By then, the pro-lifer who is attacking the pro-abortionist is suddenly on the defense because their field in science may be limited compared to the pro-abortionist. Whether or not the pro-abortionist is really as smart as he/she claims.
And with the pro-lifer looking stupid, objective viewers will begin to think the pro-abortionist is right. It's a clever weapon, but all the pro-lifer has to do is laugh and ignore it.",245552,1,5844,1,"Well could you please explain it again, because I don't understand what you were saying? I don't even understand the current comment.
Thanks.","http://www.4forums.com/political/abortion-debates/8504-kill-kill-kill.html",222486,12
"1-5844_16_12_1",5844,1,"2006-07-16 06:14:00",381,1151,222659,"2006-07-15 16:46:00",245558,163,12,"OK. Let's see if I have this correct. In your view, persons who have a different opinion than you on this abortion debate in a forum on abortion, simply have no valid argument and are simply ""wrong"". (This is called keeping an open mind, I suppose.)
If they discuss the scientific or medical aspects of this medical condition callled pregnancy, they do so only to confuse people like you who don't know enough to discuss the scientific/medical aspects. 
I say with all the respect your post deserves, that is a rather childish approach to debate and to life. You might consider that not knowing something (this is called ignorance, a word that you use, in my opinion, frequently incorrectly) is a potential learning opportunity. What is the point of being in this forum, if you have this opinion?",245554,1,5844,1,"Fine.
There have been two reasons (I've seen so far) that pro-abortionists have for using the ""independant survival"" arguement.
1. Because they can't think of anything else to say and end up sounding ridiculous.
2. Because they are confronted by a pro-lifer who believes a baby is a baby with rights from the moment of conception. They can't get through that wall, so they bring up technicalities like not having a conscience or a brain or senses. They do this to confuse the person and then challenge them on their scientific knowledge of the human anatomy and its growth. By then, the pro-lifer who is attacking the pro-abortionist is suddenly on the defense because their field in science may be limited compared to the pro-abortionist. Whether or not the pro-abortionist is really as smart as he/she claims.
And with the pro-lifer looking stupid, objective viewers will begin to think the pro-abortionist is right. It's a clever weapon, but all the pro-lifer has to do is laugh and ignore it.","http://www.4forums.com/political/abortion-debates/8504-kill-kill-kill.html",222618,16
"1-5844_17_16_1",5844,1,"2006-07-16 12:01:00",1151,381,222705,"2006-07-16 06:14:00",245559,99,16,"Uh-uh, we are talking about one specific argument here. Not all of them. That applies to everything I said here.

And to make the pro-lifer look dumb in the process, making the objective viewer to take what seems to be the smartest side. That's the only motive I see behind the ""independant survival"" arugement. Other times I can't tell if that is really what they believe or not.

Oh, I came here to learn. And I've learned a lot concerning both sides of the abortion controversy.",245558,1,5844,1,"OK. Let's see if I have this correct. In your view, persons who have a different opinion than you on this abortion debate in a forum on abortion, simply have no valid argument and are simply ""wrong"". (This is called keeping an open mind, I suppose.)
If they discuss the scientific or medical aspects of this medical condition callled pregnancy, they do so only to confuse people like you who don't know enough to discuss the scientific/medical aspects. 
I say with all the respect your post deserves, that is a rather childish approach to debate and to life. You might consider that not knowing something (this is called ignorance, a word that you use, in my opinion, frequently incorrectly) is a potential learning opportunity. What is the point of being in this forum, if you have this opinion?","http://www.4forums.com/political/abortion-debates/8504-kill-kill-kill.html",222659,17
"1-5844_18_17_1",5844,1,"2006-07-16 13:04:00",381,1151,222720,"2006-07-16 12:01:00",245560,129,17,"How do you make someone ""look dumb"" if they are not? An ""objective"" observer would not ""take the side"" of what seems to be. That would not be objective. If one happens to have factual information about a topic, that doesn't make them ""smart"", that makes them informed. 
Are you saying a lack of knowledge about a topic is in some way desirable or admirable? And how can one intelligently debate without all the facts? I guess you would have to debate solely on uninformed opinions or what someone else told you.

Your comments above belie that position. It seems you come here to parrot what your momma told you.",245559,1,5844,1,"And to make the pro-lifer look dumb in the process, making the objective viewer to take what seems to be the smartest side. That's the only motive I see behind the ""independant survival"" arugement. Other times I can't tell if that is really what they believe or not.
.","http://www.4forums.com/political/abortion-debates/8504-kill-kill-kill.html",222705,18
"1-5844_20_18_1",5844,1,"2006-07-16 14:18:00",1151,381,222732,"2006-07-16 13:04:00",245562,122,18,"Even if they are just informed, an objective viewer, or I should say: an objective viewer with the same amount of knowledge on the un-informed pro-lifer will think that the pro-abortionist is smarter and knows more and may even begin to believe the pro-abortionist is right. The same thing happened between someone who debated Thomas Huxley on the issue of evolution. I can't remember the anti-evolution guy's name, but he didn't know as much about science as Thomas Huxley and the majority of the people believe Thomas. Not necessarily because Thomas was right, but because he sounded smarter. That is how things work.

You would. And it is more convincing.

",245560,1,5844,1,"How do you make someone ""look dumb"" if they are not? An ""objective"" observer would not ""take the side"" of what seems to be. That would not be objective. If one happens to have factual information about a topic, that doesn't make them ""smart"", that makes them informed. 
Are you saying a lack of knowledge about a topic is in some way desirable or admirable? And how can one intelligently debate without all the facts? I guess you would have to debate solely on uninformed opinions or what someone else told you.

Your comments above belie that position. It seems you come here to parrot what your momma told you.","http://www.4forums.com/political/abortion-debates/8504-kill-kill-kill.html",222720,20
"1-5844_21_20_1",5844,1,"2006-07-16 21:10:00",381,1151,222782,"2006-07-16 14:18:00",245563,192,20,"Oh my.
How can I put this?
That is a staggeringly inane comment. I don't know where to begin. I actually gasped when I read it.
You are very confused, it seems. You appear to eshcew -or worse fear - learning new things. Just because someone has statements of apparent fact you have never heard before, it doesn't make that person smarter, it doesn't make the facts accurate and it doesn't make a valid argument.
You have to think in life. 
You are saying that the other guy is simply ""wrong"" no matter what. He has no possible argument so makes up (??) stuff to confuse the uninformed. Although you are not aware of the facts of his argument, you are certain they are false, but you feel no compunction to verify the facts, you simply dismiss them, for if they were true they might weaken your argument.
This is no way to go through life, boy. 
Uniformed is not a good way to be.",245562,1,5844,1,"Even if they are just informed, an objective viewer, or I should say: an objective viewer with the same amount of knowledge on the un-informed pro-lifer will think that the pro-abortionist is smarter and knows more and may even begin to believe the pro-abortionist is right. The same thing happened between someone who debated Thomas Huxley on the issue of evolution. I can't remember the anti-evolution guy's name, but he didn't know as much about science as Thomas Huxley and the majority of the people believe Thomas. Not necessarily because Thomas was right, but because he sounded smarter. That is how things work.

You would. And it is more convincing.

","http://www.4forums.com/political/abortion-debates/8504-kill-kill-kill.html",222732,21
