"key","quote_source_post_discussion_id","posts_dataset_id","posts_timestamp","posts_author_id","quote_source_author_id","posts_native_post_id","quote_source_timestamp","post_text_id","Word_Count","quote_source_post_id","post_text","quote_source_text_id","Dialog_Turn","posts_discussion_id","quote_source_post_dataset_id","Fullquote_text","discussion_url","quote_source_native_post_id","posts_post_id"
"1-6138_14_11_1",6138,1,"2006-10-03 20:33:00",63,643,233642,"2006-10-03 17:14:00",256445,73,11,"Almost lost my lunch here. You really think abortion started with her? That's HIGH-STARE-ICKLE!

I know - it's not like women need money, jobs, a place to live, food to eat - us, our kids and our fetuses survive off of air alone. And pregnancy is easy and delivery don't hurt!
Ahh, the tinge of the misogynist in all lifers out there....",256442,1,6138,1,"Eugenics may not be the same but they are related. Abortion and artificial birth control have their origin in eugenics (Margaret Sanger).
There are elements of eugenics in the current abortion mentality even if there is no united, cohesive, entity promoting eugenics. You hear it said on other threads that abortion will reduce crime. There is a mentality of abortion in the case of deformity or down's syndrome as being common sense or the standard that should be instituted. There is a tinge of eugenics in those who abort to preserve lifestyle or reputation.","http://www.4forums.com/political/abortion-debates/8956-democracy-stifled-under-weight-abortion.html",233595,14
"1-6138_20_14_1",6138,1,"2006-10-04 18:00:00",643,63,233751,"2006-10-03 20:33:00",256451,48,14,"Please see my above post to simone.

I don't argue that women need those things but is it worth killing a living, human, being, flesh of one's flesh, bone of one's bone, blood of one's blood for?
No misogyny here.",256445,1,6138,1,"Almost lost my lunch here. You really think abortion started with her? That's HIGH-STARE-ICKLE!

I know - it's not like women need money, jobs, a place to live, food to eat - us, our kids and our fetuses survive off of air alone. And pregnancy is easy and delivery don't hurt!
Ahh, the tinge of the misogynist in all lifers out there....","http://www.4forums.com/political/abortion-debates/8956-democracy-stifled-under-weight-abortion.html",233642,20
"1-6138_22_20_1",6138,1,"2006-10-04 18:43:00",63,643,233761,"2006-10-04 18:00:00",256453,64,20,"If its result of rape or a threat to my health or the livlihood of myself or son - yes. And that is my stance. Period. Regardless of law. But don't worry - I am safe and my tubes are tied. 
And here is one I hope doesn't make your head explode. I don't agree with eugenics.",256451,1,6138,1,"Please see my above post to simone.

I don't argue that women need those things but is it worth killing a living, human, being, flesh of one's flesh, bone of one's bone, blood of one's blood for?
No misogyny here.","http://www.4forums.com/political/abortion-debates/8956-democracy-stifled-under-weight-abortion.html",233751,22
"1-6138_33_22_1",6138,1,"2006-10-06 16:24:00",643,63,234020,"2006-10-04 18:43:00",256464,2,22,"http://http://www.defendlife.org/newsletters/June2005/maas.htm
http://www.humanlife.org/abortion_jenni_story.php",256453,1,6138,1,"If its result of rape or a threat to my health or the livlihood of myself or son - yes. And that is my stance. Period. Regardless of law. But don't worry - I am safe and my tubes are tied. 
And here is one I hope doesn't make your head explode. I don't agree with eugenics.","http://www.4forums.com/political/abortion-debates/8956-democracy-stifled-under-weight-abortion.html",233761,33
"1-6138_40_33_1",6138,1,"2006-10-06 19:00:00",63,643,234056,"2006-10-06 16:24:00",256471,24,33,"Good for Jenni's mom. She made her choice. My life and and body are still not up for grabs. Ever.",256464,1,6138,1,"http://http://www.defendlife.org/new...e2005/maas.htm
http://www.humanlife.org/abortion_jenni_story.php","http://www.4forums.com/political/abortion-debates/8956-democracy-stifled-under-weight-abortion.html",234020,40
"1-6138_21_18_2",6138,1,"2006-10-04 18:00:00",176,643,233752,"2006-10-04 17:58:00",256452,43,18,"Maximus, the roman catholic church is full of young terrorists. They stalk, harass, and terrorize anyone that opposes them. They cant do that now, because its against the law, but they would if they could.",256449,2,6138,1,"Being that Planned Parenthood had its origins with Margaret Sanger and that Planned Parenthood is the largest provider of abortion in the U.S., it is safe to say that abortion has its origins in eugenics and with Margaret Sanger. Perhaps I should use one clarifier--modern abortion.
What do you mean the Church harassed, stalked, and terrorized her?","http://www.4forums.com/political/abortion-debates/8956-democracy-stifled-under-weight-abortion.html",233748,21
"1-6138_26_21_2",6138,1,"2006-10-05 20:06:00",643,176,233910,"2006-10-04 18:00:00",256457,29,21,"Can you tell me how you have come to this opinion? What is your evidence for this? Why do you say that young Catholics are terrorists?",256452,2,6138,1,"Maximus, the roman catholic church is full of young terrorists. They stalk, harass, and terrorize anyone that opposes them. They cant do that now, because its against the law, but they would if they could.","http://www.4forums.com/political/abortion-debates/8956-democracy-stifled-under-weight-abortion.html",233752,26
"1-6138_29_26_2",6138,1,"2006-10-05 21:17:00",176,643,233919,"2006-10-05 20:06:00",256460,11,26,"Go to the library and pick up a history textbook.",256457,2,6138,1,"Can you tell me how you have come to this opinion? What is your evidence for this? Why do you say that young Catholics are terrorists?","http://www.4forums.com/political/abortion-debates/8956-democracy-stifled-under-weight-abortion.html",233910,29
"1-6138_34_29_2",6138,1,"2006-10-06 16:26:00",643,176,234022,"2006-10-05 21:17:00",256465,64,29,"I'm not impressed. You seem very intolerant of others--throwing a terrorist label around. Back it up. You said young catholics were terrorists. I cannot see how picking up a history book will help when you are speaking of current Catholics.
I think you have been listening to Rosie O'Donnell on the View a little too much.",256460,2,6138,1,"Go to the library and pick up a history textbook.","http://www.4forums.com/political/abortion-debates/8956-democracy-stifled-under-weight-abortion.html",233919,34
"1-6138_37_34_2",6138,1,"2006-10-06 17:03:00",176,643,234027,"2006-10-06 16:26:00",256468,80,34,"I am completely tolerant of all religions, but when any of those religions trys to impose its religion on someone else, it ###### me off big time. We need to keep church and state completely separated, just to protect us from these people. Thats why abortion laws cant be passed. They are based soley on religion. You may think its anti abortion is right, but other people dont share that view.",256465,2,6138,1,"I'm not impressed. You seem very intolerant of others--throwing a terrorist label around. Back it up. You said young catholics were terrorists. I cannot see how picking up a history book will help when you are speaking of current Catholics.
I think you have been listening to Rosie O'Donnell on the View a little too much.","http://www.4forums.com/political/abortion-debates/8956-democracy-stifled-under-weight-abortion.html",234022,37
"1-6138_42_37_2",6138,1,"2006-10-09 19:48:00",643,176,234355,"2006-10-06 17:03:00",256473,14,37,"Your idea of tolerance is calling people terrorists without any backing for it?",256468,2,6138,1,"I am completely tolerant of all religions, but when any of those religions trys to impose its religion on someone else, it ###### me off big time. We need to keep church and state completely separated, just to protect us from these people. Thats why abortion laws cant be passed. They are based soley on religion. You may think its anti abortion is right, but other people dont share that view.","http://www.4forums.com/political/abortion-debates/8956-democracy-stifled-under-weight-abortion.html",234027,42
"1-6138_56_47_3",6138,1,"2006-10-11 21:10:00",643,176,234615,"2006-10-10 18:06:00",256487,50,47,"Again you are attempting to confuse things with poor comparisons. There is a difference between not having a baby and killing a baby once it is living and growing inside of you. Not having kids is not murder although it could, in some instances be selfish.",256478,3,6138,1,"It is based on a religious idea.
On a side note, a quick question for you Antiabortionists out there. Why dont you consider not having unprotected sex 24/7 from Puberty to Menopause a sin? It destroys many lives that could've been born, and if you think abortion is murder, then you must think that not having a lot of sex is murder too, right? Whats the difference.","http://www.4forums.com/political/abortion-debates/8956-democracy-stifled-under-weight-abortion.html",234466,56
"1-6138_62_56_3",6138,1,"2006-10-12 19:30:00",176,643,234705,"2006-10-11 21:10:00",256493,62,56,"What you are suggesting is completely ridiculous. How can not having kids be selfish? If anything, we need LESS kids in this world, there is way too many that nobody gives a XXXX about, and we certainly dont need more. We shouldn't be overpopulating and polluting our country because we're trying not to be selfish.",256487,3,6138,1,"Again you are attempting to confuse things with poor comparisons. There is a difference between not having a baby and killing a baby once it is living and growing inside of you. Not having kids is not murder although it could, in some instances be selfish.","http://www.4forums.com/political/abortion-debates/8956-democracy-stifled-under-weight-abortion.html",234615,62
"1-6138_65_62_3",6138,1,"2006-10-13 21:39:00",643,176,234824,"2006-10-12 19:30:00",256496,149,62,"How can not having kids be selfish? Perhaps I am not having kids to get a new boat or new house that I wanted. Perhaps I want to continue my career until I am the CEO. Perhaps I don't want my body to look different. Perhaps I don't want to give up my time to look after someone else. Perhaps I want to lavish many things on my other children. All of these are legitimate motivations and concerns but if taken to the extreme of materialism then they can be selfish/egocentric. But notice I said it could be selfish, not that it was always selfish.
Are you certain that more kids would overpopulate and pollute?
We need less kids? Tell that to Western Europe. Hardly any of those countries are even at replacement levels.",256493,3,6138,1,"What you are suggesting is completely ridiculous. How can not having kids be selfish? If anything, we need LESS kids in this world, there is way too many that nobody gives a XXXX about, and we certainly dont need more. We shouldn't be overpopulating and polluting our country because we're trying not to be selfish.","http://www.4forums.com/political/abortion-debates/8956-democracy-stifled-under-weight-abortion.html",234705,65
"1-6138_68_65_3",6138,1,"2006-10-13 21:54:00",176,643,234828,"2006-10-13 21:39:00",256499,95,65,"Tell that to countrys like China, or Africa.
Being materialistic itself is selfish, it has nothing to do with having kids. So what if you want to pursue your dreams, but you cannot have kids. It is a compromise that you have to make. If having kids didnt even cross their mind, then it is not selfish.
If the person becomes overmaterialistic, than thats selfish, but not having kids is barely related to that, and it doesnt make a difference at all.",256496,3,6138,1,"How can not having kids be selfish? Perhaps I am not having kids to get a new boat or new house that I wanted. Perhaps I want to continue my career until I am the CEO. Perhaps I don't want my body to look different. Perhaps I don't want to give up my time to look after someone else. Perhaps I want to lavish many things on my other children. All of these are legitimate motivations and concerns but if taken to the extreme of materialism then they can be selfish/egocentric. But notice I said it could be selfish, not that it was always selfish.
Are you certain that more kids would overpopulate and pollute?
We need less kids? Tell that to Western Europe. Hardly any of those countries are even at replacement levels.","http://www.4forums.com/political/abortion-debates/8956-democracy-stifled-under-weight-abortion.html",234824,68
"1-6138_71_68_3",6138,1,"2006-10-14 22:32:00",643,176,234926,"2006-10-13 21:54:00",256502,22,68,"Man can only find himself ""through the sincere gift of self."" Gaudium et Spes, n. 24.",256499,3,6138,1,"Tell that to countrys like China, or Africa.
Being materialistic itself is selfish, it has nothing to do with having kids. So what if you want to pursue your dreams, but you cannot have kids. It is a compromise that you have to make. If having kids didnt even cross their mind, then it is not selfish.
If the person becomes overmaterialistic, than thats selfish, but not having kids is barely related to that, and it doesnt make a difference at all.","http://www.4forums.com/political/abortion-debates/8956-democracy-stifled-under-weight-abortion.html",234828,71
"1-6138_74_71_3",6138,1,"2006-10-15 10:35:00",176,643,234982,"2006-10-14 22:32:00",256505,6,71,"Im sure he can emoticonXDonno.",256502,3,6138,1,"Man can only find himself ""through the sincere gift of self."" Gaudium et Spes, n. 24.","http://www.4forums.com/political/abortion-debates/8956-democracy-stifled-under-weight-abortion.html",234926,74
"1-6138_87_84_4",6138,1,"2006-10-21 22:09:00",176,643,235922,"2006-10-21 15:37:00",256518,207,84,"Capital punishment: A major act of violence killing a human being, and you are in no imminent danger of being attacked.
Abortion: Sometimes a necessary measure to make sure that Women's needs are met, and that they may pursue happyness. Yes, its a horrible thing, but some pacifists would argue killing something in self defense is wrong too. Such as if a criminal or rapist attacks you on the street, and you were carrying a firearm and shoot and kill the offender. It is legal to do this, and it would be justified. Same with abortion, the law says its justified, and for now, we should follow the law. Trying to change the law is ridiculous, and in my opinion horribly immoral. Again, opinions. You have the opinion that a fetus or embryo has the power to override a womens right to her own body, and we think that a woman has an inenfringable right to her own body. Don't get me wrong, i think abortion is horrible. But denying a woman the right to her own body is even worse.",256515,4,6138,1,"Let me turn this around on the pro-choice side since it is a common objection but an unfounded one.
Why do you advocate a means of violence to solve a woman's problems (abortion) when you object to a means of violence in solving society's problems (capital punishment)?","http://www.4forums.com/political/abortion-debates/8956-democracy-stifled-under-weight-abortion.html",235884,87
"1-6138_91_87_4",6138,1,"2006-10-23 21:31:00",643,176,236283,"2006-10-21 22:09:00",256522,54,87,"I'm puzzled as to why you think abortion is horrible yet you don't even think the thing being aborted is human or worthy of protection.
As for changing the law being immoral...changing an immoral law is not immoral but moral. Is pursuit of happiness a legitimate reason to abort?",256518,4,6138,1,"Capital punishment: A major act of violence killing a human being, and you are in no imminent danger of being attacked.
Abortion: Sometimes a necessary measure to make sure that Women's needs are met, and that they may pursue happyness. Yes, its a horrible thing, but some pacifists would argue killing something in self defense is wrong too. Such as if a criminal or rapist attacks you on the street, and you were carrying a firearm and shoot and kill the offender. It is legal to do this, and it would be justified. Same with abortion, the law says its justified, and for now, we should follow the law. Trying to change the law is ridiculous, and in my opinion horribly immoral. Again, opinions. You have the opinion that a fetus or embryo has the power to override a womens right to her own body, and we think that a woman has an inenfringable right to her own body. Don't get me wrong, i think abortion is horrible. But denying a woman the right to her own body is even worse.","http://www.4forums.com/political/abortion-debates/8956-democracy-stifled-under-weight-abortion.html",235922,91
"1-6138_94_91_4",6138,1,"2006-10-24 18:18:00",176,643,236435,"2006-10-23 21:31:00",256525,37,91,"I think the REAL human is worthy of protection from people like you.

The law is not immoral now.
It is the woman's choice if she wants to abort or not, NOT YOURS.",256522,4,6138,1,"I'm puzzled as to why you think abortion is horrible yet you don't even think the thing being aborted is human or worthy of protection.
As for changing the law being immoral...changing an immoral law is not immoral but moral. Is pursuit of happiness a legitimate reason to abort?","http://www.4forums.com/political/abortion-debates/8956-democracy-stifled-under-weight-abortion.html",236283,94
"1-6138_97_94_4",6138,1,"2006-10-28 13:11:00",643,176,237066,"2006-10-24 18:18:00",256528,60,94,"Perhaps you can explain then why you think abortion is horrible yet the thing being aborted is not a human. Perhaps you can tell us as I have requested many times, when your arbitrary point of humanhood occurs. Elementary science tells us that a new, distinct, living, human being is present at conception.",256525,4,6138,1,"I think the REAL human is worthy of protection from people like you.

The law is not immoral now.
It is the woman's choice if she wants to abort or not, NOT YOURS.","http://www.4forums.com/political/abortion-debates/8956-democracy-stifled-under-weight-abortion.html",236435,97
"1-6138_102_97_4",6138,1,"2006-10-28 14:34:00",176,643,237097,"2006-10-28 13:11:00",256533,97,97,"I think squishing bugs is horrible too, but i dont think bugs are human. I do have sympathy for non-human organisms too, just not as much as i do real humans. Humanhood occurs when the baby starts to take form, its brain starts to grow, its heart starts to beat. I think its a human when it starts to develop some human characteristics. I don't like abortion, but who am i, and who are you to tell the woman what to do with her own body?",256528,4,6138,1,"Perhaps you can explain then why you think abortion is horrible yet the thing being aborted is not a human. Perhaps you can tell us as I have requested many times, when your arbitrary point of humanhood occurs. Elementary science tells us that a new, distinct, living, human being is present at conception.","http://www.4forums.com/political/abortion-debates/8956-democracy-stifled-under-weight-abortion.html",237066,102
"1-6138_107_102_4",6138,1,"2006-11-27 20:42:00",643,176,241227,"2006-10-28 14:34:00",256538,123,102,"The REAL human:
human life begins at conception
18 days after conception the heart is forming and the eyes start to develop
21 days the heart is beating and pumping blood throughout the body
40 days brain waves can be recorded
After the 1st trimester almost nothing new develops or begins functioning. There is mostly growth and maturity of what is already there.
It is a human when ""it starts to develop some human characteristics?"" Then it is human all along. The trick is to get the woman to begin thinking of this other thing in her body also...to get her to begin thinking that there is more present than just her body.",256533,4,6138,1,"I think squishing bugs is horrible too, but i dont think bugs are human. I do have sympathy for non-human organisms too, just not as much as i do real humans. Humanhood occurs when the baby starts to take form, its brain starts to grow, its heart starts to beat. I think its a human when it starts to develop some human characteristics. I don't like abortion, but who am i, and who are you to tell the woman what to do with her own body?","http://www.4forums.com/political/abortion-debates/8956-democracy-stifled-under-weight-abortion.html",237097,107
"1-6138_114_107_4",6138,1,"2006-11-28 19:00:00",176,643,241327,"2006-11-27 20:42:00",256545,114,107,"Human life begins at conception, however a human being or ""person"" begins at first sign of intelligent.

See above.

I'm not for late term abortions, but I don't really worry. 95% of abortions are in the embryo stage, so we should be really referring to whatever it is as an embryo.

I meant its a human being or ""person"". My hair is human, my nails are human, my kidneys are human. An embryo is just another organ in the womans body. Its completely dependant on the woman, but I don't see you rallying against kidney donations.",256538,4,6138,1,"The REAL human:
human life begins at conception
18 days after conception the heart is forming and the eyes start to develop
21 days the heart is beating and pumping blood throughout the body
40 days brain waves can be recorded
After the 1st trimester almost nothing new develops or begins functioning. There is mostly growth and maturity of what is already there.
It is a human when ""it starts to develop some human characteristics?"" Then it is human all along. The trick is to get the woman to begin thinking of this other thing in her body also...to get her to begin thinking that there is more present than just her body.","http://www.4forums.com/political/abortion-debates/8956-democracy-stifled-under-weight-abortion.html",241227,114
"1-6138_132_114_4",6138,1,"2006-11-30 20:42:00",643,176,241697,"2006-11-28 19:00:00",256563,75,114,"How is it ""human"" life if it is not a human being? You do acknowledge above that ""human life begins at conception."" 
How have you come to know that the ""person"" is present at first sign of intellect? 

Again, you need to study elementary science if you would classify an embryo as ""just another organ."" It is quite different than that.",256545,4,6138,1,"Human life begins at conception, however a human being or ""person"" begins at first sign of intelligent.

See above.

I'm not for late term abortions, but I don't really worry. 95% of abortions are in the embryo stage, so we should be really referring to whatever it is as an embryo.

I meant its a human being or ""person"". My hair is human, my nails are human, my kidneys are human. An embryo is just another organ in the womans body. Its completely dependant on the woman, but I don't see you rallying against kidney donations.","http://www.4forums.com/political/abortion-debates/8956-democracy-stifled-under-weight-abortion.html",241327,132
"1-6138_137_132_4",6138,1,"2006-12-01 17:24:00",176,643,241810,"2006-11-30 20:42:00",256568,139,132,"My hair is a human life [form]. I am a human being.

Because how we think of a person . People are not people if they arent even aware of their own existance.

How come it is not? It is completely dependant on the woman, and resides inside of a woman's body. I believe that is the defonition of an organ, however my internet is acting up. I'll get the def. shortly. Stand by...
Ah! Here it is:
Biology A differentiated part of an organism, such as an eye, wing, or leaf, that performs a specific function. 
Well, a fetus is part of an oraganism, and performs a specific function. Therefore it is an organ.",256563,4,6138,1,"How is it ""human"" life if it is not a human being? You do acknowledge above that ""human life begins at conception."" 
How have you come to know that the ""person"" is present at first sign of intellect? 

Again, you need to study elementary science if you would classify an embryo as ""just another organ."" It is quite different than that.","http://www.4forums.com/political/abortion-debates/8956-democracy-stifled-under-weight-abortion.html",241697,137
