"key","quote_source_post_discussion_id","posts_dataset_id","posts_timestamp","posts_author_id","quote_source_author_id","posts_native_post_id","quote_source_timestamp","post_text_id","Word_Count","quote_source_post_id","post_text","quote_source_text_id","Dialog_Turn","posts_discussion_id","quote_source_post_dataset_id","Fullquote_text","discussion_url","quote_source_native_post_id","posts_post_id"
"1-6195_12_9_1",6195,1,"2006-10-17 05:16:00",63,51,235231,"2006-10-16 17:49:00",260453,112,9,"Because you don't get to define someone else's beliefs. I know it would be convenient for you to believe that those who are pro-choice also support eugenics for then it would be easier to smear. 
But the fact remains that despite her wrong and misguided views on eugenics - she was RIGHT about reproductive rights, birth control, family planning and women's health.
I certainly don't want a return to my grandmother's world - 11 kids in a one room shack to an abusive husband who wouldn't work with no access to birth control or the possibility of telling him no.
Sanger did a GREAT thing.",260450,1,6195,1,"I'd certainly question their moral arguments. With Bell then telephone is a different matter. You are right to say you can't judge a person based on other actions but you can certainly judge related actions...Sanger was for eugenics which puts her motives in morals into question. I still maintain she has a complete consistent pro-choice stance....so I don't know why you don't embrace her beliefs.","http://www.4forums.com/political/abortion-debates/9040-remembering-margaret-sanger.html",235195,12
"1-6195_15_12_1",6195,1,"2006-10-17 06:46:00",51,63,235245,"2006-10-17 05:16:00",260456,63,12,"I was just saying it was a consistent argument. 

Is this the ""even a broken clock is right twice a day"" argument?

she ended having 11 kids in a one room shack with an abusive husband who wouldn't work? I don't think so. 
once again, her moral values bring her other moral judgments into question.",260453,1,6195,1,"Because you don't get to define someone else's beliefs. I know it would be convenient for you to believe that those who are pro-choice also support eugenics for then it would be easier to smear. 
But the fact remains that despite her wrong and misguided views on eugenics - she was RIGHT about reproductive rights, birth control, family planning and women's health.
I certainly don't want a return to my grandmother's world - 11 kids in a one room shack to an abusive husband who wouldn't work with no access to birth control or the possibility of telling him no.
Sanger did a GREAT thing.","http://www.4forums.com/political/abortion-debates/9040-remembering-margaret-sanger.html",235231,15
"1-6195_16_15_1",6195,1,"2006-10-17 07:22:00",63,51,235249,"2006-10-17 06:46:00",260457,227,15,"One does not have to belive B to belive A. You make that claim every time you say that not all lifers are religious.

No. When it came to women having access to birth control, decent reproductive health care and the option not having children at all - she was 100% correct. 

Pardon me? Are you calling me a liar? Jim, John, Mike, Tom, Dan, Pat, Pris, Linda, Carol, Tess, and Nan (MY MOM). They lived in a one room shack in Duluth, MN and my grandpa was a crazy, abusive schmuck who would not work. Every time my grandmother tried to get birth control she was refused and spousal rape did not exist (still doesn't in some states).
Hell, my mom couldn't get her tubes tied without my dad's permission, which he would not grant until my mom's doctor lied to him about my mom's ability to maintain another pregnancy. This was in the 1970s. This same man who was granted control of my mother's reproductive rights walked out on the three kids he had with her ten years later.

But not the fact that how she revolutionized womens health was a good thing.",260456,1,6195,1,"I was just saying it was a consistent argument. 

Is this the ""even a broken clock is right twice a day"" argument?

she ended having 11 kids in a one room shack with an abusive husband who wouldn't work? I don't think so. 
once again, her moral values bring her other moral judgments into question.","http://www.4forums.com/political/abortion-debates/9040-remembering-margaret-sanger.html",235245,16
"1-6195_29_16_1",6195,1,"2006-10-17 20:39:00",51,63,235350,"2006-10-17 07:22:00",260470,136,16,"Try but if the logic A is the same for B then naturally you would come to the same conclusion for A and B. My point is that she had a consistent belief. There are many reasons for pro-choice but logic presented by Simone at the time led me to believe she would have to have the same conclusion.

ok? I certainly wouldn't call her a noble person.

No, i'm not calling you a liar...I'm saying you are wrong. I don't think Sanger helped with those things you spoke of.

Her theory behind is what I have a problem with....of course her line of thinking would lead to things like eugenics and abortion....it is the only consistent conclusion she could come to!",260457,1,6195,1,"One does not have to belive B to belive A. You make that claim every time you say that not all lifers are religious.

No. When it came to women having access to birth control, decent reproductive health care and the option not having children at all - she was 100% correct. 

Pardon me? Are you calling me a liar? Jim, John, Mike, Tom, Dan, Pat, Pris, Linda, Carol, Tess, and Nan (MY MOM). They lived in a one room shack in Duluth, MN and my grandpa was a crazy, abusive schmuck who would not work. Every time my grandmother tried to get birth control she was refused and spousal rape did not exist (still doesn't in some states).
Hell, my mom couldn't get her tubes tied without my dad's permission, which he would not grant until my mom's doctor lied to him about my mom's ability to maintain another pregnancy. This was in the 1970s. This same man who was granted control of my mother's reproductive rights walked out on the three kids he had with her ten years later.

But not the fact that how she revolutionized womens health was a good thing.","http://www.4forums.com/political/abortion-debates/9040-remembering-margaret-sanger.html",235249,29
"1-6195_37_29_1",6195,1,"2006-10-18 08:57:00",63,51,235434,"2006-10-17 20:39:00",260478,250,29,"Well you are wrong as neither Simone or myself believe in eugenics.

I didn't know her. But she did a good thing.

Are you nuts? You don't think helping ensure that women have access to health care, birth control and the right to decide for themselves impacted the fact that my grandmother couldn't get birth control without a man's permission, my mother could not get her tubes tied without a man's permission yet I can and have done both.
Steve - despite what you think you are dead wrong. She started a health and social revolution that in this day and age has allowed me, a woman, to make decisions about motherhood MYSELF. That's huge.

There are reasons for abortion beyone eugenics.

Did you read what I wrote about my grandmother and mother?

There is nothing wrong with motherhood. If one chooses to be a mother. There was a time where it was not a choice. Especially for married women. At least it wasn't their choice.

Womens lives have worth regarldess of whether or not they are mothers. They always did. It has just taken some time to convince some men of that. In parts of this world (including the Vatican) we have yet to do so.

Their lives have worth period. Ones life is even more precious when in control of it.",260470,1,6195,1,"Try but if the logic A is the same for B then naturally you would come to the same conclusion for A and B. My point is that she had a consistent belief. There are many reasons for pro-choice but logic presented by Simone at the time led me to believe she would have to have the same conclusion.

ok? I certainly wouldn't call her a noble person.

No, i'm not calling you a liar...I'm saying you are wrong. I don't think Sanger helped with those things you spoke of.

Her theory behind is what I have a problem with....of course her line of thinking would lead to things like eugenics and abortion....it is the only consistent conclusion she could come to!","http://www.4forums.com/political/abortion-debates/9040-remembering-margaret-sanger.html",235350,37
