"key","quote_source_post_discussion_id","posts_dataset_id","posts_timestamp","posts_author_id","quote_source_author_id","posts_native_post_id","quote_source_timestamp","post_text_id","Word_Count","quote_source_post_id","post_text","quote_source_text_id","Dialog_Turn","posts_discussion_id","quote_source_post_dataset_id","Fullquote_text","discussion_url","quote_source_native_post_id","posts_post_id"
"1-6700_25_24_1",6700,1,"2007-04-05 12:19:00",1142,2039,257070,"2007-04-05 12:03:00",282705,197,24,"Nobody can prove either way what a ""person"" is because that term has not been strictly defined by society. That is part of what we are all arguing here in the abortion debate. I define person as a human with mental existence. You define it another way. Neither of us has proof because proof is irrelevant where terms such as ""person"" that have no clear definition are concerned.
Either way, the relevance of when a ""person"" starts is when rights start. I have given my reasons about why I think rights are given in the first place and how that relates to the minimum requirements for those rights (i.e.mental existence). I still have to hear from you about the reasons behind our giving rights and when, based on those reasons, rights should start. This is another one of those examples of points which I have brought up which you have ignored. If you do not wish to continue to be criticized for your debating style, then address the points which your opponents bring up.",282704,1,6700,1,"Not true if you are to successfully argue that exception, you would be required to prove that a human at conception is not a person.
Furthermore, my argument does hold up. Just because two people can share one body, or the same DNA, it is not true to say their lives did not begin at conception","http://www.4forums.com/political/abortion-debates/9709-why-outlaw-abortion-second-trimester.html",257063,25
"1-6700_27_25_1",6700,1,"2007-04-05 12:28:00",2039,1142,257074,"2007-04-05 12:19:00",282707,24,25,"So you are claiming things with no facts to prove them. Too bad, you lose. 

Their lives still began then.",282705,1,6700,1,"Nobody can prove either way what a ""person"" is because that term has not been strictly defined by society. That is part of what we are all arguing here in the abortion debate. I define person as a human with mental existence. You define it another way. Neither of us has proof because proof is irrelevant where terms such as ""person"" that have no clear definition are concerned.
Either way, the relevance of when a ""person"" starts is when rights start. I have given my reasons about why I think rights are given in the first place and how that relates to the minimum requirements for those rights (i.e.mental existence). I still have to hear from you about the reasons behind our giving rights and when, based on those reasons, rights should start. This is another one of those examples of points which I have brought up which you have ignored. If you do not wish to continue to be criticized for your debating style, then address the points which your opponents bring up.","http://www.4forums.com/political/abortion-debates/9709-why-outlaw-abortion-second-trimester.html",257070,27
"1-6700_28_27_1",6700,1,"2007-04-05 12:34:00",1142,2039,257078,"2007-04-05 12:28:00",282708,116,27,"You are missing the point again. Neither of us win and neither of us lose when it comes to the definition of the word ""person"" since there IS no clear definition.
I challenge you to answer this question directly: Do you think there is a clearly defined and widely accepted definition of the word ""person""? If so, give a link to show the definition and its widespread acceptance.
You can't? No surprise. That is because there IS no universally accepted viewpoint on when a ""person"" starts. That is why we are debating it, along with its influence on rights.",282707,1,6700,1,"So you are claiming things with no facts to prove them. Too bad, you lose. 

Their lives still began then.","http://www.4forums.com/political/abortion-debates/9709-why-outlaw-abortion-second-trimester.html",257074,28
"1-6700_29_28_1",6700,1,"2007-04-05 12:42:00",2039,1142,257083,"2007-04-05 12:34:00",282709,13,28,"So stop claiming and speaking from a perspective that suggests you do.",282708,1,6700,1,"You are missing the point again. Neither of us win and neither of us lose when it comes to the definition of the word ""person"" since there IS no clear definition.
I challenge you to answer this question directly: Do you think there is a clearly defined and widely accepted definition of the word ""person""? If so, give a link to show the definition and its widespread acceptance.
You can't? No surprise. That is because there IS no universally accepted viewpoint on when a ""person"" starts. That is why we are debating it, along with its influence on rights.","http://www.4forums.com/political/abortion-debates/9709-why-outlaw-abortion-second-trimester.html",257078,29
"1-6700_30_29_1",6700,1,"2007-04-05 13:29:00",1142,2039,257098,"2007-04-05 12:42:00",282710,240,29,"I am stating my opinion about my meaning behind the word person, just like you have a right to your view as well. If you think that I said that my definition is the universally accepted definition, then quote me. Indeed, I have mentioned many times - in this thread and others - that the term ""person"" is not well defined and is something we are trying to debate.
Also, I asked you: Do you think there is a clearly defined and widely accepted definition of the word ""person""? If so, give a link to show the definition and its widespread acceptance.
Does that mean that you accept that your definition of the word ""person"" is also not universally acknowledged?
As for stating opinions on that definition and the rights behind it, it is not enough to make a statement. One has to give ones reasons behind it if one wants to be at all convincing. I have stated that I think people begin at mental existence and that is when we should first get rights, and I HAVE given my detailed reasons behind that view. I am still waiting and waiting and waiting and waiting for you to give your DETAILED reasons behind why you think a person starts at conception and deserves rights then.",282709,1,6700,1,"So stop claiming and speaking from a perspective that suggests you do.","http://www.4forums.com/political/abortion-debates/9709-why-outlaw-abortion-second-trimester.html",257083,30
"1-6700_31_30_1",6700,1,"2007-04-05 13:38:00",2039,1142,257102,"2007-04-05 13:29:00",282711,61,30,"So I was right to claim that your life started at conception, since this is true, whereas your opinion is just a lonely opinion. 

I have said many times now, how many more times do I need to do this:
per·son (pûr'sən) 
n.
A living human.",282710,1,6700,1,"I am stating my opinion about my meaning behind the word person, just like you have a right to your view as well. If you think that I said that my definition is the universally accepted definition, then quote me. Indeed, I have mentioned many times - in this thread and others - that the term ""person"" is not well defined and is something we are trying to debate.
Also, I asked you: Do you think there is a clearly defined and widely accepted definition of the word ""person""? If so, give a link to show the definition and its widespread acceptance.
Does that mean that you accept that your definition of the word ""person"" is also not universally acknowledged?
As for stating opinions on that definition and the rights behind it, it is not enough to make a statement. One has to give ones reasons behind it if one wants to be at all convincing. I have stated that I think people begin at mental existence and that is when we should first get rights, and I HAVE given my detailed reasons behind that view. I am still waiting and waiting and waiting and waiting for you to give your DETAILED reasons behind why you think a person starts at conception and deserves rights then.","http://www.4forums.com/political/abortion-debates/9709-why-outlaw-abortion-second-trimester.html",257098,31
