"key","quote_source_post_discussion_id","posts_dataset_id","posts_timestamp","posts_author_id","quote_source_author_id","posts_native_post_id","quote_source_timestamp","post_text_id","Word_Count","quote_source_post_id","post_text","quote_source_text_id","Dialog_Turn","posts_discussion_id","quote_source_post_dataset_id","Fullquote_text","discussion_url","quote_source_native_post_id","posts_post_id"
"1-7081_36_27_1",7081,1,"2007-08-26 15:32:00",51,381,280876,"2007-08-26 12:36:00",304000,23,27,"It only works that way if you just started taking it after becoming pregnant...after conception has taken place that is.",303991,1,7081,1,"Thanks.
It goes farther than that. The plain ol' birth control pill (which is also part of the morning after stuff) usually prevents pregnancy by preventing ovulation. It appears that it also work a minority of the time by preventing implantation of a conceptus. Bingo, that's abortion, too.
Are any pro-lifers for banning the bcp as well?","http://www.4forums.com/political/abortion-debates/10166-how-much-jail-time.html",280806,36
"1-7081_37_36_1",7081,1,"2007-08-26 16:04:00",381,51,280883,"2007-08-26 15:32:00",304001,11,36,"No. That would be like the morning after pill. 

",304000,1,7081,1,"It only works that way if you just started taking it after becoming pregnant...after conception has taken place that is.","http://www.4forums.com/political/abortion-debates/10166-how-much-jail-time.html",280876,37
"1-7081_39_37_1",7081,1,"2007-08-26 17:01:00",51,381,280890,"2007-08-26 16:04:00",304003,14,37,"i'm not sure how that negates what I said about birth control pills.",304001,1,7081,1,"No. That would be like the morning after pill. 

","http://www.4forums.com/political/abortion-debates/10166-how-much-jail-time.html",280883,39
"1-7081_44_39_1",7081,1,"2007-08-26 17:23:00",381,51,280897,"2007-08-26 17:01:00",304008,94,39,"You said it works that way only after starting the pill after becoming pregnant. 

This means after conception occurs.

You said it ONLY works this way if you START the pill AFTER you became pregnant. 
That is not what I said. Occasionally, rarely actually, ovulation and then fertilization occurs while ALREADY ON THE PILL. In that case, implantation can be discouraged. Thus, rarely the BCP is an abortifacient even if you have been taking the pill all along.
Good god, man.",304003,1,7081,1,"i'm not sure how that negates what I said about birth control pills.","http://www.4forums.com/political/abortion-debates/10166-how-much-jail-time.html",280890,44
"1-7081_47_44_1",7081,1,"2007-08-26 17:39:00",51,381,280902,"2007-08-26 17:23:00",304011,95,44,"During the first month of taking the pill you have a chance to get pregnant and thus implantation may not happen after conception. I'm fully aware of this but I was under the impression that after the first month this does not happen. 
I could be wrong, It has been some time since I've read up on the birth control pill. 
I ask that you lose the smart tone though as I was asking the question is a true manner as I was unclear about what your post was stating.",304008,1,7081,1,"You said it works that way only after starting the pill after becoming pregnant. 

This means after conception occurs.

You said it ONLY works this way if you START the pill AFTER you became pregnant. 
That is not what I said. Occasionally, rarely actually, ovulation and then fertilization occurs while ALREADY ON THE PILL. In that case, implantation can be discouraged. Thus, rarely the BCP is an abortifacient even if you have been taking the pill all along.
Good god, man.","http://www.4forums.com/political/abortion-debates/10166-how-much-jail-time.html",280897,47
"1-7081_38_35_2",7081,1,"2007-08-26 16:47:00",2844,51,280887,"2007-08-26 15:30:00",304002,126,35,"But as far as I know, people who are convicted of pre-meditated murder don't walk or get fined a few dollars. They get years in jail. Take either punishment you describe, either the death penalty or life in jail; which do you suppose is the appropriate punishment for a woman who takes the morning after pill? Are you saying a woman who takes the morning after pill is committing first degree murder but shouldn't be punished? Your argument is flawed and exactly the argument I expect from a pro-lifer who really isn't truly pro-life.
Let's make this a simple as possible. How much time should a woman who takes the morning after pill spend in jail?",303999,2,7081,1,"The question is whether they are equally wrong and that answer is yes.
equal jail time is hardly an indicator of the seriousness of a crime. Some people murder and they get the death penalty while others get life in jail...does that make the two lives different in value? I'd say no. The justice system has never worked on a policy of consistency.

I'd like to add that the morning after pill does not always destroy a life. Sometimes it prevents like a birth control pill does. This doesn't change anything but should be understood.

Right, you will find most Americans are inconsistent in their beliefs. Congrats. On the flip side you will find pro-choice folks that are in fact not always pro-choice. Welcome to reality.","http://www.4forums.com/political/abortion-debates/10166-how-much-jail-time.html",280874,38
"1-7081_41_38_2",7081,1,"2007-08-26 17:11:00",51,2844,280893,"2007-08-26 16:47:00",304005,160,38,"How is it flawed? I simply stated our justice system is not consistent and never will be. 
But if you like, if the morning after pill is deemed to be illegal and is considered first degree murder then I would say she should be punished for first degree murder for using it.
What you really want to know though is what should the punishment be and this question really doesn't matter. I'm not afraid to say there should be one but I'm also not going to be stupid enough to think you are only consistent if you equate it to other laws when no other law works that way.

Dunno, haven't really thought it. I'm not sure just taking a morning after pill is that bad. For example if a male took one I'm not so sure that's a big deal or even a female that just randomly took one.",304002,2,7081,1,"But as far as I know, people who are convicted of pre-meditated murder don't walk or get fined a few dollars. They get years in jail. Take either punishment you describe, either the death penalty or life in jail; which do you suppose is the appropriate punishment for a woman who takes the morning after pill? Are you saying a woman who takes the morning after pill is committing first degree murder but shouldn't be punished? Your argument is flawed and exactly the argument I expect from a pro-lifer who really isn't truly pro-life.
Let's make this a simple as possible. How much time should a woman who takes the morning after pill spend in jail?","http://www.4forums.com/political/abortion-debates/10166-how-much-jail-time.html",280887,41
"1-7081_42_41_2",7081,1,"2007-08-26 17:18:00",2844,51,280895,"2007-08-26 17:11:00",304006,95,41,"Ok, now we're getting some where. Obfuscation is phase one. 
Let's try and make the question more straight forward. The person who takes the morning after pill is a woman. The woman had unprotected sex the night before. The woman, through an X-Ray, ultrasound, or some other means, knows she has a fertilized egg inside her. She decides to take the morning after pill. She takes the morning after pill. 
What crime has she committed and what is an appropriate punishment?",304005,2,7081,1,"How is it flawed? I simply stated our justice system is not consistent and never will be. 
But if you like, if the morning after pill is deemed to be illegal and is considered first degree murder then I would say she should be punished for first degree murder for using it.
What you really want to know though is what should the punishment be and this question really doesn't matter. I'm not afraid to say there should be one but I'm also not going to be stupid enough to think you are only consistent if you equate it to other laws when no other law works that way.

Dunno, haven't really thought it. I'm not sure just taking a morning after pill is that bad. For example if a male took one I'm not so sure that's a big deal or even a female that just randomly took one.","http://www.4forums.com/political/abortion-debates/10166-how-much-jail-time.html",280893,42
"1-7081_45_42_2",7081,1,"2007-08-26 17:27:00",51,2844,280900,"2007-08-26 17:18:00",304009,87,42,"I assume you mean if it were illegal what laws would I have assuming I could be king. 
Well, I haven't really thought about it too much. We could also get into the idea of where she got it from...but that aside it seems like it would be similar to current laws where one kills an unborn child (like Scott Peterson). I don't recall if it is 2nd degree murder but that seems like the most likely scenario.",304006,2,7081,1,"Ok, now we're getting some where. Obfuscation is phase one. 
Let's try and make the question more straight forward. The person who takes the morning after pill is a woman. The woman had unprotected sex the night before. The woman, through an X-Ray, ultrasound, or some other means, knows she has a fertilized egg inside her. She decides to take the morning after pill. She takes the morning after pill. 
What crime has she committed and what is an appropriate punishment?","http://www.4forums.com/political/abortion-debates/10166-how-much-jail-time.html",280895,45
"1-7081_46_45_2",7081,1,"2007-08-26 17:32:00",2844,51,280901,"2007-08-26 17:27:00",304010,79,45,"Ok, so it's 2nd degree murder. How long should the woman who took the morning after pill go to jail for for committing a 2nd degree murder?
And don't fall back on the law or anything else. I am asking you. What do you feel is an appropriate punishment? How long do YOU feel the woman who took the morning after pill should spend in jail to make sure justice is served?",304009,2,7081,1,"I assume you mean if it were illegal what laws would I have assuming I could be king. 
Well, I haven't really thought about it too much. We could also get into the idea of where she got it from...but that aside it seems like it would be similar to current laws where one kills an unborn child (like Scott Peterson). I don't recall if it is 2nd degree murder but that seems like the most likely scenario.","http://www.4forums.com/political/abortion-debates/10166-how-much-jail-time.html",280900,46
"1-7081_48_46_2",7081,1,"2007-08-26 17:42:00",51,2844,280903,"2007-08-26 17:32:00",304012,81,46,"I don't know what the sentencing guidelines are for second degree murder to be honest with you. I think they vary by state.

I'm not sure how I could answer it any better. Given an inconsistent legal system I would say the law should be similar to what the law currently says and therefore the closest thing of comparison are unborn child laws which many states have as 2nd degree murder such as the Scott Peterson Case.",304010,2,7081,1,"Ok, so it's 2nd degree murder. How long should the woman who took the morning after pill go to jail for for committing a 2nd degree murder?
And don't fall back on the law or anything else. I am asking you. What do you feel is an appropriate punishment? How long do YOU feel the woman who took the morning after pill should spend in jail to make sure justice is served?","http://www.4forums.com/political/abortion-debates/10166-how-much-jail-time.html",280901,48
"1-7081_49_48_2",7081,1,"2007-08-26 17:51:00",2844,51,280907,"2007-08-26 17:42:00",304013,59,48,"Since you like to mention the Scott Peterson case, I looked him up in Wikipedia and this is what I found:
""Peterson was sentenced to death and currently resides on death row in San Quentin State Prison.""
So you think a woman who takes the morning after pill should be sentenced to death?",304012,2,7081,1,"I don't know what the sentencing guidelines are for second degree murder to be honest with you. I think they vary by state.

I'm not sure how I could answer it any better. Given an inconsistent legal system I would say the law should be similar to what the law currently says and therefore the closest thing of comparison are unborn child laws which many states have as 2nd degree murder such as the Scott Peterson Case.","http://www.4forums.com/political/abortion-debates/10166-how-much-jail-time.html",280903,49
"1-7081_50_49_2",7081,1,"2007-08-26 17:57:00",51,2844,280908,"2007-08-26 17:51:00",304014,57,49,"I'm not a big fan of the death penalty so no and I don't think Peterson should get the death penalty.
Scott Peterson was convicted of a double murder which puts him into the death penalty category. Oddly enough this is another example of how our legal system really is not consistent with itself.",304013,2,7081,1,"Since you like to mention the Scott Peterson case, I looked him up in Wikipedia and this is what I found:
""Peterson was sentenced to death and currently resides on death row in San Quentin State Prison.""
So you think a woman who takes the morning after pill should be sentenced to death?","http://www.4forums.com/political/abortion-debates/10166-how-much-jail-time.html",280907,50
"1-7081_53_50_2",7081,1,"2007-08-26 18:23:00",2844,51,280912,"2007-08-26 17:57:00",304017,137,50,"I tried to find some prison sentences for killing an unborn child that did not have associated crimes (like the mother almost being killed):
The projected length of stay for the offense of killing an unborn child is 17.6 months. 
In addition, the bill creates the crime of assault of an unborn child and classifies the crime as a Class B felony punishable by a maximum prison sentence of 10 years, a fine of up to $250,000 or both.
Canadian Man Given One Year Sentence for Killing His Unborn Child
We have a low of one year, a possible 10 years, and a medium of 17.6 months.
So do you think a woman how takes the morning after pill should go to jail for 17.6 months?",304014,2,7081,1,"I'm not a big fan of the death penalty so no and I don't think Peterson should get the death penalty.
Scott Peterson was convicted of a double murder which puts him into the death penalty category. Oddly enough this is another example of how our legal system really is not consistent with itself.","http://www.4forums.com/political/abortion-debates/10166-how-much-jail-time.html",280908,53
"1-7081_54_53_2",7081,1,"2007-08-26 18:29:00",51,2844,280915,"2007-08-26 18:23:00",304018,44,53,"I think I stated I support the laws that have an unborn being 2nd degree murder and the penalties as such. If the average for 2nd degree murder is 17.6 months (and I doubt it is) then so be it.",304017,2,7081,1,"I tried to find some prison sentences for killing an unborn child that did not have associated crimes (like the mother almost being killed):
The projected length of stay for the offense of killing an unborn child is 17.6 months. 
In addition, the bill creates the crime of assault of an unborn child and classifies the crime as a Class B felony punishable by a maximum prison sentence of 10 years, a fine of up to $250,000 or both.
Canadian Man Given One Year Sentence for Killing His Unborn Child
We have a low of one year, a possible 10 years, and a medium of 17.6 months.
So do you think a woman how takes the morning after pill should go to jail for 17.6 months?","http://www.4forums.com/political/abortion-debates/10166-how-much-jail-time.html",280912,54
"1-7081_56_54_2",7081,1,"2007-08-26 18:30:00",2844,51,280917,"2007-08-26 18:29:00",304020,32,54,"Are you saying you think the sentence for 2nd degree murder is longer than 17.6 months, ans so should the sentence for a woman who takes the morning after pill?",304018,2,7081,1,"I think I stated I support the laws that have an unborn being 2nd degree murder and the penalties as such. If the average for 2nd degree murder is 17.6 months (and I doubt it is) then so be it.","http://www.4forums.com/political/abortion-debates/10166-how-much-jail-time.html",280915,56
"1-7081_58_56_2",7081,1,"2007-08-26 18:33:00",51,2844,280920,"2007-08-26 18:30:00",304022,76,56,"For the fourth or 5th time....assuming the woman in question was pregnant and the morning after pill caused her to abort then yes.
Of course you seem to fail to realize that sentencing and law have nothing to do with whether something is right or wrong. This is exactly why a question of what the law should be is irrelevant until you first decide that the action in question is wrong.",304020,2,7081,1,"Are you saying you think the sentence for 2nd degree murder is longer than 17.6 months, ans so should the sentence for a woman who takes the morning after pill?","http://www.4forums.com/political/abortion-debates/10166-how-much-jail-time.html",280917,58
"1-7081_59_58_2",7081,1,"2007-08-26 18:35:00",2844,51,280921,"2007-08-26 18:33:00",304023,57,58,"You would think justice was served if a loved one of yours (i.e. a sister, an aunt, a cousin, an old girl friend, a current girl friend, your wife, your daughter) went to jail for at least a year and a half for taking the morning after pill?",304022,2,7081,1,"For the fourth or 5th time....assuming the woman in question was pregnant and the morning after pill caused her to abort then yes.
Of course you seem to fail to realize that sentencing and law have nothing to do with whether something is right or wrong. This is exactly why a question of what the law should be is irrelevant until you first decide that the action in question is wrong.","http://www.4forums.com/political/abortion-debates/10166-how-much-jail-time.html",280920,59
"1-7081_60_59_2",7081,1,"2007-08-26 18:47:00",51,2844,280924,"2007-08-26 18:35:00",304024,28,59,"Are you just going to ask the question over and over again?

If you have any other similar questions then please refer to the quote above.",304023,2,7081,1,"You would think justice was served if a loved one of yours (i.e. a sister, an aunt, a cousin, an old girl friend, a current girl friend, your wife, your daughter) went to jail for at least a year and a half for taking the morning after pill?","http://www.4forums.com/political/abortion-debates/10166-how-much-jail-time.html",280921,60
"1-7081_61_60_2",7081,1,"2007-08-26 18:50:00",2844,51,280925,"2007-08-26 18:47:00",304025,73,60,"Why can't you just answer yes and we can move on.
You think justice would be served if a loved one of yours (i.e. a sister, an aunt, a cousin, an old girl friend, a current girl friend, your wife, your daughter) went to jail for at least a year and a half for taking the morning after pill?
Yes or No?",304024,2,7081,1,"Are you just going to ask the question over and over again?

If you have any other similar questions then please refer to the quote above.","http://www.4forums.com/political/abortion-debates/10166-how-much-jail-time.html",280924,61
"1-7081_62_61_2",7081,1,"2007-08-26 18:59:00",51,2844,280926,"2007-08-26 18:50:00",304026,27,61,"Alright, you ask again and I'm just gonna put you on the ignore list because I have no idea what you can't understand my answer.

",304025,2,7081,1,"Why can't you just answer yes and we can move on.
You think justice would be served if a loved one of yours (i.e. a sister, an aunt, a cousin, an old girl friend, a current girl friend, your wife, your daughter) went to jail for at least a year and a half for taking the morning after pill?
Yes or No?","http://www.4forums.com/political/abortion-debates/10166-how-much-jail-time.html",280925,62
"1-7081_79_78_3",7081,1,"2008-05-19 14:58:00",76,2845,311308,"2008-05-19 12:10:00",304043,39,78,"What about couples who are using contraception responsibly but end up pregnant due to whatever fluke happened to have occurred? If the woman gets an abortion, does she also deserve to be imprisoned as a felon?",304042,3,7081,1,"I dont believe that taking the morning after pill in so do speak an abortion, that is taking percaution after the fact and I do think a women should take those percautions befor the fact, of course rape cases are different. But I also see those who are out thier having unprotected sex, and everyone knows what happens. These women need to either protect themselves from preagnancy or dont have sex and for the love of god do not use abortion as a birthcontrol. I only became intrested in this subject because I am doing research for a class and I watched some vidioes and seen many pictures of babies from 7 weeks to 24 weeks and I am sorry but at 24 weeks it is a baby not a fetus, it is a child created in its parents image. It is sad, and I dont know how a mother can feel her child move inside her and then have an abortion, yes it is murder and yes she should sit in prison","http://www.4forums.com/political/abortion-debates/10166-how-much-jail-time.html",311289,79
"1-7081_80_79_3",7081,1,"2008-05-19 15:15:00",2845,76,311313,"2008-05-19 14:58:00",304044,87,79,"Well I believe that every thing happens for a reason, for whatever reason she became preagnant it is a gift, at the time it may not seem like a gift. This is such a touchy subject I think that women who are useing abortion as a birth control are in the wrong, I would not want to have a child out of a rape situation, but I do believe in God and as I said befor it happend for a reason.",304043,3,7081,1,"What about couples who are using contraception responsibly but end up pregnant due to whatever fluke happened to have occurred? If the woman gets an abortion, does she also deserve to be imprisoned as a felon?","http://www.4forums.com/political/abortion-debates/10166-how-much-jail-time.html",311308,80
"1-7081_81_80_3",7081,1,"2008-05-19 15:53:00",76,2845,311320,"2008-05-19 15:15:00",304045,83,80,"Ah, then our development of safe and reliable abortion procedures must have happened for a reason.
Just because you think that any pregnancy is a gift doesn't mean that it is. Either way, though, you didn't answer the question. I specifically asked you if a woman who is using contraception responsibly but happens to become pregnant through no fault of her own should be convicted of murder for having an abortion. What is your answer?",304044,3,7081,1,"Well I believe that every thing happens for a reason, for whatever reason she became preagnant it is a gift, at the time it may not seem like a gift. This is such a touchy subject I think that women who are useing abortion as a birth control are in the wrong, I would not want to have a child out of a rape situation, but I do believe in God and as I said befor it happend for a reason.","http://www.4forums.com/political/abortion-debates/10166-how-much-jail-time.html",311313,81
"1-7081_82_81_3",7081,1,"2008-05-19 15:56:00",2845,76,311322,"2008-05-19 15:53:00",304046,6,81,"Yes, it is still inhuman",304045,3,7081,1,"Ah, then our development of safe and reliable abortion procedures must have happened for a reason.
Just because you think that any pregnancy is a gift doesn't mean that it is. Either way, though, you didn't answer the question. I specifically asked you if a woman who is using contraception responsibly but happens to become pregnant through no fault of her own should be convicted of murder for having an abortion. What is your answer?","http://www.4forums.com/political/abortion-debates/10166-how-much-jail-time.html",311320,82
"1-7081_84_82_3",7081,1,"2008-05-19 16:25:00",76,2845,311328,"2008-05-19 15:56:00",304048,143,82,"And you still haven't answered my question. Why not?
And here's another: If everything happens for a reason, then don't abortions happen for a reason?

And if you saw one at 24 weeks, then you still have no idea how a typical abortion is done. Either you have been duped into believing that those abortions are representative of the whole, or you know that they aren't but pretend that they are. Either way, you have some work to do.

And not all mothers ask to conceive. Which brings us back to the question that you won't answer.

In order for this argument to work, you have to show that a fetus qualifies as ""alive.""

And the science says that you're wrong for the representative case.",304046,3,7081,1,"Yes, it is still inhuman","http://www.4forums.com/political/abortion-debates/10166-how-much-jail-time.html",311322,84
