"key","quote_source_post_discussion_id","posts_dataset_id","posts_timestamp","posts_author_id","quote_source_author_id","posts_native_post_id","quote_source_timestamp","post_text_id","Word_Count","quote_source_post_id","post_text","quote_source_text_id","Dialog_Turn","posts_discussion_id","quote_source_post_dataset_id","Fullquote_text","discussion_url","quote_source_native_post_id","posts_post_id"
"1-731_89_86_1",731,1,"2003-12-05 21:22:00",33,39,25782,"2003-12-05 12:59:00",29573,130,86,"Define ""natural"". By conventional definitions, anything which is cultural isn't ""natural"". Likewise, many things which are very harmful are arguably ""natural"", disease for example. Unless you happen to live without electricity, medication, clothing, buildings, etc.- in which case you wouldn't be in a forum at all- it makes no sense for you to argue against anything on the basis that it is not ""natural"".
Abortion has been around for as long as people have been using plants to medicate themselves, which predates agriculture. It is arguably instinctual to use herbs to affect the body- many primates and even other mammals ""medicate"" with plants.",29570,1,731,1,"Ah, but to them it isn’t murder. It’s more for survival. When the cubs grow up, they will be able to tell if he was the father or not. Lions don’t get mad and kill their mate’s cubs, they kill them for their own survival. 

YES! This is what makes us DIFFERENT from animals! Hence, murder has been with humans for a long time. Way before abortion. Abortion isn’t a natural thing- it is unnatural. Many women screw up their bodies from having abortions because it is unnatural. 

Quite honestly, I’m sorry you’re in pain, but don’t base your argument on your pain. It’s irrelivent. Just because you’re handicapped doesn’t mean you’re always right. If you are, why don’t we just stop debating? 

So, do you think it would be OK if murder was legal?","http://www.4forums.com/political/abortion-debates/1196-you-people-so-naive-puerile.html",25686,89
"1-731_90_89_1",731,1,"2003-12-05 21:31:00",39,33,25787,"2003-12-05 21:22:00",29574,69,89,"You're taking a part of my argument that is founded on numerous other arguments, and attack it. Of course abortion is an unnatural thing; so are other kinds of surgery.

Yes, but a pro-choice site gave the earliest record of abortions as 2600 BC. This is far from prehistoric times. Murder has been around much longer, which was our argument.",29573,1,731,1,"Define ""natural"". By conventional definitions, anything which is cultural isn't ""natural"". Likewise, many things which are very harmful are arguably ""natural"", disease for example. Unless you happen to live without electricity, medication, clothing, buildings, etc.- in which case you wouldn't be in a forum at all- it makes no sense for you to argue against anything on the basis that it is not ""natural"".
Abortion has been around for as long as people have been using plants to medicate themselves, which predates agriculture. It is arguably instinctual to use herbs to affect the body- many primates and even other mammals ""medicate"" with plants.","http://www.4forums.com/political/abortion-debates/1196-you-people-so-naive-puerile.html",25782,90
"1-731_91_90_1",731,1,"2003-12-05 22:36:00",33,39,25793,"2003-12-05 21:31:00",29575,52,90,"Which pro-choice site? Were they referring to medical or herbal abortions?

So what's your point? You said abortion was harmful to women because it was unnatural- now you admit that that is an absurd statement. So what are you saying, or are you saying anything?",29574,1,731,1,"You're taking a part of my argument that is founded on numerous other arguments, and attack it. Of course abortion is an unnatural thing; so are other kinds of surgery.

Yes, but a pro-choice site gave the earliest record of abortions as 2600 BC. This is far from prehistoric times. Murder has been around much longer, which was our argument.","http://www.4forums.com/political/abortion-debates/1196-you-people-so-naive-puerile.html",25787,91
"1-731_93_91_1",731,1,"2003-12-05 23:26:00",39,33,25800,"2003-12-05 22:36:00",29577,76,91,"Here is the abortion clinic's history of abortion
Encyclopedia.com says that it was probably used earleir than ancient Greece, Egypt, and Rome, but that's still not saying much. 

No, I'm not admitting anything. Charchuk is trying to make it as if though humans almost instinctively have abortions. I'm trying to tell him this is not the case. He's also trying to say that murder came AFTER abortion.",29575,1,731,1,"Which pro-choice site? Were they referring to medical or herbal abortions?

So what's your point? You said abortion was harmful to women because it was unnatural- now you admit that that is an absurd statement. So what are you saying, or are you saying anything?","http://www.4forums.com/political/abortion-debates/1196-you-people-so-naive-puerile.html",25793,93
"1-731_94_93_1",731,1,"2003-12-05 23:49:00",33,39,25801,"2003-12-05 23:26:00",29578,144,93,"What difference does that make?
Besides, from what I can see Charchuk is arguing that murder is purely a legal term, not a moral one. Therefore it could only exist after there were laws against it.
As for when abortion was first practiced- no one can ever know for sure. The site you refer to says only that the first ""documented evidence"" of an abortion recipe comes from that time. This doesn't mean that people weren't having abortions centuries or millenia before, just that we don't have evidence of it. We don't have evidence of very much that predates 2500 BC. That is also as far back as most other ""medicine"" can be found, and Western medicine only began a full 2000 years later, with Hippocrates.",29577,1,731,1,"Here is the abortion clinic's history of abortion
Encyclopedia.com says that it was probably used earleir than ancient Greece, Egypt, and Rome, but that's still not saying much. 

No, I'm not admitting anything. Charchuk is trying to make it as if though humans almost instinctively have abortions. I'm trying to tell him this is not the case. He's also trying to say that murder came AFTER abortion.","http://www.4forums.com/political/abortion-debates/1196-you-people-so-naive-puerile.html",25800,94
"1-731_216_215_2",731,1,"2003-12-18 21:07:00",39,33,28407,"2003-12-18 20:37:00",29700,158,215,"The toddler is undeveloped- it still has another 16 years or so to grow up. What about deformed children? Some of them don’t look human. Can we kill them? Remember the elephant man? People treated him as an animal, and he was sold like an animal, and forced to do tricks. At one point, a crowd of people chased after him, and he ran. He finally was trapped in an alley, and yelled out “I AM A HUMAN BEING”. Just because somebody doesn’t look like what you perceive as a human being, doesn’t mean isn’t one. 

Umm, yeah that’s what ALL is… so what? They offer post-abortion treatment centers too.",29699,2,731,1,"A) A pillow at the bottom of a cliff won't save anyone's life.
B) They're both born humans. Not embryos. 

A toddler. Not a blastocyst.

I've already made that clear. One is undeveloped- it is more similar to a simpler organism such as a mollusk or fish than a born human.


About ALL-

These people are lying to you. You are really doing wrong by trying to ""counsel"" women going into abortion clinics.

From Planned Parenthood's website:

","http://www.4forums.com/political/abortion-debates/1196-you-people-so-naive-puerile.html",28403,216
"1-731_217_216_2",731,1,"2003-12-18 21:57:00",33,39,28418,"2003-12-18 21:07:00",29701,78,216,"I'm not talking about what they look like. I'm talking about their cellular structure. That said, I've never heard of a disabled person born with a tail, or that in any way resembled a blastocyst (not even the ""Elephant man"" did).

So you have no problem spreading lies to ""innocent"" people walking into abortion clinics?


I know. Do you even read other people's posts?

",29700,2,731,1,"The toddler is undeveloped- it still has another 16 years or so to grow up. What about deformed children? Some of them don’t look human. Can we kill them? Remember the elephant man? People treated him as an animal, and he was sold like an animal, and forced to do tricks. At one point, a crowd of people chased after him, and he ran. He finally was trapped in an alley, and yelled out “I AM A HUMAN BEING”. Just because somebody doesn’t look like what you perceive as a human being, doesn’t mean isn’t one. 

Umm, yeah that’s what ALL is… so what? They offer post-abortion treatment centers too.","http://www.4forums.com/political/abortion-debates/1196-you-people-so-naive-puerile.html",28407,217
"1-731_218_217_2",731,1,"2003-12-18 23:12:00",39,33,28426,"2003-12-18 21:57:00",29702,57,217,"Everyone has tails! So the only way the zygote is going to be human is if somebody BORN looks like it? So the only way a toddler is going to be human is if an ADULT looks like it. Right? Poor logic. 

If they were lies, I would have problems.",29701,2,731,1,"I'm not talking about what they look like. I'm talking about their cellular structure. That said, I've never heard of a disabled person born with a tail, or that in any way resembled a blastocyst (not even the ""Elephant man"" did).

So you have no problem spreading lies to ""innocent"" people walking into abortion clinics?


I know. Do you even read other people's posts?

","http://www.4forums.com/political/abortion-debates/1196-you-people-so-naive-puerile.html",28418,218
"1-731_219_218_2",731,1,"2003-12-19 18:56:00",33,39,28547,"2003-12-18 23:12:00",29703,149,218,"Again I have to ask- do you actually read what people post in response to you?
Let's try this-
I'm not talking about what they look like. I'm talking about their cellular structure. I'm not talking about what they look like. I'm talking about their cellular structure. I'm not talking about what they look like. I'm talking about their cellular structure. I'm not talking about what they look like. I'm talking about their cellular structure.
Capiche?

Which they are. So you do.
So then you actually believe their claims such as that emergency contraception, the Pill, Depo-Provera®, and Norplant® are unsafe abortifacients and abortion causes breast cancer and severe psychological trauma? Have you actually researched the validity (lack thereof in this case) of these claims?",29702,2,731,1,"Everyone has tails! So the only way the zygote is going to be human is if somebody BORN looks like it? So the only way a toddler is going to be human is if an ADULT looks like it. Right? Poor logic. 

If they were lies, I would have problems.","http://www.4forums.com/political/abortion-debates/1196-you-people-so-naive-puerile.html",28426,219
"1-731_221_219_2",731,1,"2003-12-20 08:20:00",39,33,28606,"2003-12-19 18:56:00",29705,228,219,"That doesn't matter. The infant doesn't have sperm, does that mean it doesn't have a right to live? The infant only weights about 7 lbs, verses an adult who weighs around 130. Does that mean it doesn't have rights either? Genetically, Down's syndrome patients are corrupt- they have too many or too little chromosones. Do they not have rights to life either? I mean, our cellular structure is ALWAYS different in the cycle of life, and further some defected humans have different cellular structures as well, does that mean that we can kill people of ONE kind of these structures?

Well, I don't know too much about it, but I've heard that it does, though I also heard on the news last year that these were proven false, but only one aspect. From my understanding, the reason why abortion is dangerous is that you're prematurly opening the uterus to get the fetus ou and kill it, and the body is already on a 9-month cycle to take care of the fetus, and when you suddenly stop it like that it causes problems- just like premature births. I don't know too much about it though. Why are you asking me this?",29703,2,731,1,"Again I have to ask- do you actually read what people post in response to you?
Let's try this-
I'm not talking about what they look like. I'm talking about their cellular structure. I'm not talking about what they look like. I'm talking about their cellular structure. I'm not talking about what they look like. I'm talking about their cellular structure. I'm not talking about what they look like. I'm talking about their cellular structure.
Capiche?

Which they are. So you do.
So then you actually believe their claims such as that emergency contraception, the Pill, Depo-Provera®, and Norplant® are unsafe abortifacients and abortion causes breast cancer and severe psychological trauma? Have you actually researched the validity (lack thereof in this case) of these claims?","http://www.4forums.com/political/abortion-debates/1196-you-people-so-naive-puerile.html",28547,221
"1-731_72_70_3",731,1,"2003-12-04 15:37:00",36,54,25538,"2003-12-04 15:31:00",29556,28,70,"At risk of offending you, where did the nebula come from? (and yes, I know you know what I am getting at.)",29554,3,731,1,"That fallacy again? The world was formed from the Solar Nebula around 4.5 billion years ago. The universe is around 8 to 9 billion years older than our solar system. Before that it is an unknown.

As you would know if you'd bother to read what has been posted is that we've never said that it wasn't human. When I say potential I mean a potential human being, a person. That is the point. You believe that DNA is what makes us a human being. Transgenic animals prove you wrong.","http://www.4forums.com/political/abortion-debates/1196-you-people-so-naive-puerile.html",25536,72
"1-731_74_72_3",731,1,"2003-12-04 15:46:00",54,36,25542,"2003-12-04 15:37:00",29558,129,72,"The remains of a previous star system. It is the ultimate recycling program. :) A star dies, the expelled material gradually condenses to a critical point and nuclear fusion occurs again. The planets are just left over debris which was far enough away not to get dragged back into the sun but was still able to form on its own. Did you know that Jupiter is a failed star? The Alpha Centari star system had been part of the same nebula as well as Tau Ceti and some other local star systems which gradually had drifted out of the stellar nursery, which had been the nebula to where they are now. One could say that this is how stars reproduce.",29556,3,731,1,"At risk of offending you, where did the nebula come from? (and yes, I know you know what I am getting at.)","http://www.4forums.com/political/abortion-debates/1196-you-people-so-naive-puerile.html",25538,74
"1-731_75_74_3",731,1,"2003-12-04 15:47:00",36,54,25544,"2003-12-04 15:46:00",29559,12,74,"Interesting. But where did all this material come from Originally?",29558,3,731,1,"The remains of a previous star system. It is the ultimate recycling program. :) A star dies, the expelled material gradually condenses to a critical point and nuclear fusion occurs again. The planets are just left over debris which was far enough away not to get dragged back into the sun but was still able to form on its own. Did you know that Jupiter is a failed star? The Alpha Centari star system had been part of the same nebula as well as Tau Ceti and some other local star systems which gradually had drifted out of the stellar nursery, which had been the nebula to where they are now. One could say that this is how stars reproduce.","http://www.4forums.com/political/abortion-debates/1196-you-people-so-naive-puerile.html",25542,75
"1-731_77_75_3",731,1,"2003-12-04 15:51:00",54,36,25547,"2003-12-04 15:47:00",29561,104,75,"As I had said, unknown. It could have always existed in a never ending cycle of expansion and contraction the same of with the stars, or not. Who created god? If god could have existed forever, then why not the universe? Or the Cosmos?
One interesting idea is that since all of the stars systemd within a certain distance of us are all made from the same stellar material that if we ever do make it there and find life bearing worlds it stands a good chance that we'd also be genetically compatible as well.",29559,3,731,1,"Interesting. But where did all this material come from Originally?","http://www.4forums.com/political/abortion-debates/1196-you-people-so-naive-puerile.html",25544,77
"1-731_78_77_3",731,1,"2003-12-04 15:59:00",36,54,25549,"2003-12-04 15:51:00",29562,72,77,"Those are good questions. I am still pondering that one myself. However, I think it has something to do with the fact that God is sentient and the universe is not. There is a difference between a creator and what is created. My argument is not well thought out as of yet, so I will stop here. I will try to give better soon.",29561,3,731,1,"As I had said, unknown. It could have always existed in a never ending cycle of expansion and contraction the same of with the stars, or not. Who created god? If god could have existed forever, then why not the universe? Or the Cosmos?
One interesting idea is that since all of the stars systemd within a certain distance of us are all made from the same stellar material that if we ever do make it there and find life bearing worlds it stands a good chance that we'd also be genetically compatible as well.","http://www.4forums.com/political/abortion-debates/1196-you-people-so-naive-puerile.html",25547,78
"1-731_79_78_3",731,1,"2003-12-04 16:06:00",54,36,25550,"2003-12-04 15:59:00",29563,45,78,"Some on here believe that the universe itself is god and that it is sentient as well and that we are just a tiny part of it. Some people don't like the idea of only being a part instead of being the whole.",29562,3,731,1,"Those are good questions. I am still pondering that one myself. However, I think it has something to do with the fact that God is sentient and the universe is not. There is a difference between a creator and what is created. My argument is not well thought out as of yet, so I will stop here. I will try to give better soon.","http://www.4forums.com/political/abortion-debates/1196-you-people-so-naive-puerile.html",25549,79
"1-731_84_79_3",731,1,"2003-12-05 08:24:00",36,54,25650,"2003-12-04 16:06:00",29568,108,79,"I have been pondering this abit. Here is my thinking. The universe exists within a framework. Most folks would call that framework space-time. To be self existent, it would necessarily have to come from outside of the framework. There would have to be something that is outside of time for time to exist. We could call that eternity. No one might say that eternity is a framework and would require something outside of it to exist. That would not follow logically. Eternity by definition is frameless. Boundless. That concept leads to a definition of God.",29563,3,731,1,"Some on here believe that the universe itself is god and that it is sentient as well and that we are just a tiny part of it. Some people don't like the idea of only being a part instead of being the whole.","http://www.4forums.com/political/abortion-debates/1196-you-people-so-naive-puerile.html",25550,84
"1-731_85_84_3",731,1,"2003-12-05 08:31:00",54,36,25653,"2003-12-05 08:24:00",29569,95,84,"There is also the thought that our universe is part of a much bigger framework called the COSMOS where universes are born and die all of the time. 
Why would god even need to create anything when there is no perception of time for god? And why would god need us to believe in god as well? What would be the point? Do you expect the atoms in your body to worship you? Are you even aware of them on in individual basis as god is suppose to be?",29568,3,731,1,"I have been pondering this abit. Here is my thinking. The universe exists within a framework. Most folks would call that framework space-time. To be self existent, it would necessarily have to come from outside of the framework. There would have to be something that is outside of time for time to exist. We could call that eternity. No one might say that eternity is a framework and would require something outside of it to exist. That would not follow logically. Eternity by definition is frameless. Boundless. That concept leads to a definition of God.","http://www.4forums.com/political/abortion-debates/1196-you-people-so-naive-puerile.html",25650,85
"1-731_104_102_4",731,1,"2003-12-07 04:54:00",54,39,26024,"2003-12-06 16:17:00",29588,48,102,"Murder has only been around since the concept of law has been around to define it as such. And even then it was a very narrow definition as well considering that it only applied to members of each tribe or city and not to those outside.",29586,4,731,1,"Let's accept your belief. That still doesn't mean abortion came before murder. Again, the earliest records of abortion are in 2600 BC- and Sumerian culture lived way before then, not to mention that there were many other cultures that found murder sinful.","http://www.4forums.com/political/abortion-debates/1196-you-people-so-naive-puerile.html",25948,104
"1-731_105_104_4",731,1,"2003-12-07 13:27:00",39,54,26086,"2003-12-07 04:54:00",29589,51,104,"So if one man from a tribe murdered a child from the same tribe, he wouldn't be punished? Of course he would! Either way, this is irrelivent to the abortion issue. The fetus is a human being and therefore it is wrong to kill it.",29588,4,731,1,"Murder has only been around since the concept of law has been around to define it as such. And even then it was a very narrow definition as well considering that it only applied to members of each tribe or city and not to those outside.","http://www.4forums.com/political/abortion-debates/1196-you-people-so-naive-puerile.html",26024,105
"1-731_107_105_4",731,1,"2003-12-08 04:35:00",54,39,26209,"2003-12-07 13:27:00",29591,35,105,"Where did Isay any such thing. You're not reading what I say apparently.

Wrong a fetus is only a potential human being. Not all situations is killing considered to be murder.",29589,4,731,1,"So if one man from a tribe murdered a child from the same tribe, he wouldn't be punished? Of course he would! Either way, this is irrelivent to the abortion issue. The fetus is a human being and therefore it is wrong to kill it.","http://www.4forums.com/political/abortion-debates/1196-you-people-so-naive-puerile.html",26086,107
"1-731_110_107_4",731,1,"2003-12-08 08:18:00",39,54,26229,"2003-12-08 04:35:00",29594,123,107,"I don’t believe in bringing religion into abortion debates, but I will go on. God only creates goodness. He cannot do evil. However, evil happens on this earth anyway. One can say God created murder; God created Nazism; God created hell; et cetera. However, I don’t understand what you’re talking about God killing two Eves. 

Charchuk, we’ve already discussed this. I’ve gave you my facts. If you’re just going to be closed minded, I’m not debating with you.",29591,4,731,1,"Where did Isay any such thing. You're not reading what I say apparently.

Wrong a fetus is only a potential human being. Not all situations is killing considered to be murder.","http://www.4forums.com/political/abortion-debates/1196-you-people-so-naive-puerile.html",26209,110
"1-731_112_110_4",731,1,"2003-12-08 09:18:00",54,39,26235,"2003-12-08 08:18:00",29596,23,110,"Eve wasn't Adam's first wife. Lilith was his first wife.

You persented no facts at all, just tautologic arguements.",29594,4,731,1,"I don’t believe in bringing religion into abortion debates, but I will go on. God only creates goodness. He cannot do evil. However, evil happens on this earth anyway. One can say God created murder; God created Nazism; God created hell; et cetera. However, I don’t understand what you’re talking about God killing two Eves. 

Charchuk, we’ve already discussed this. I’ve gave you my facts. If you’re just going to be closed minded, I’m not debating with you.","http://www.4forums.com/political/abortion-debates/1196-you-people-so-naive-puerile.html",26229,112
"1-731_478_474_5",731,1,"2005-04-28 19:23:00",68,51,113848,"2005-04-28 15:11:00",29962,48,474,"Are you serious? Perhaps you can tell me where my examples are incorrect? Perhaps you can provide statutes, precedents, court cases, rationale or sense that would show otherwise?
I will look around and find relevant laws when I have the time.",29958,5,731,1,"I can't find law that states this to be true. Since it is a legal right can you post a law or something that shows this...even a court case would be ok. I have been looking for an hour now and I am getting kinda frustrated. emoticonXAngel","http://www.4forums.com/political/abortion-debates/1196-you-people-so-naive-puerile.html",113741,478
"1-731_481_478_5",731,1,"2005-04-28 20:54:00",51,68,113873,"2005-04-28 19:23:00",29965,47,478,"No, I want a law that says someone has the right to abortion. I don't have to prove one doesn't exist as the burden of proof is on you. Now I asked a simple question so can you find me one or not?",29962,5,731,1,"Are you serious? Perhaps you can tell me where my examples are incorrect? Perhaps you can provide statutes, precedents, court cases, rationale or sense that would show otherwise?
I will look around and find relevant laws when I have the time.","http://www.4forums.com/political/abortion-debates/1196-you-people-so-naive-puerile.html",113848,481
"1-731_482_481_5",731,1,"2005-04-29 13:20:00",68,51,114312,"2005-04-28 20:54:00",29966,53,481,"Except in cases of common knowledge, then you must provide differently. It is common knowledge that we have the right to our organs because consent is required before they are harvested.
I have answered your question before, yet you keep asking it. Did you simply not understand?",29965,5,731,1,"No, I want a law that says someone has the right to abortion. I don't have to prove one doesn't exist as the burden of proof is on you. Now I asked a simple question so can you find me one or not?","http://www.4forums.com/political/abortion-debates/1196-you-people-so-naive-puerile.html",113873,482
"1-731_483_482_5",731,1,"2005-04-29 14:49:00",51,68,114349,"2005-04-29 13:20:00",29967,121,482,"If you have answered it then please refer to it. Common knowledge is not law by the way. You clearly said a LEGAL right. In fact, I am not even saying a law or court case is not out there...I just wanna see one (however, there is an odd case about not having an absolute right to your own resources). 

So I ask for the third time...where is this legal right? I would even be happy with link to another post. No international law please and no 'implied' rights as this would be begging the question (since we all love the fallacies).",29966,5,731,1,"Except in cases of common knowledge, then you must provide differently. It is common knowledge that we have the right to our organs because consent is required before they are harvested.
I have answered your question before, yet you keep asking it. Did you simply not understand?","http://www.4forums.com/political/abortion-debates/1196-you-people-so-naive-puerile.html",114312,483
"1-731_484_483_5",731,1,"2005-05-01 11:09:00",68,51,114932,"2005-04-29 14:49:00",29968,65,483,"I did not say common knowledge was law, I said if something is common knowledge there is no burden of proof. The burden of proof is then on the one denying it.

The legal right is in the fact that it cannot be restricted. If there is no law preventing you from doing something, you cannot be legally stopped.",29967,5,731,1,"If you have answered it then please refer to it. Common knowledge is not law by the way. You clearly said a LEGAL right. In fact, I am not even saying a law or court case is not out there...I just wanna see one (however, there is an odd case about not having an absolute right to your own resources). 

So I ask for the third time...where is this legal right? I would even be happy with link to another post. No international law please and no 'implied' rights as this would be begging the question (since we all love the fallacies).","http://www.4forums.com/political/abortion-debates/1196-you-people-so-naive-puerile.html",114349,484
"1-731_485_484_5",731,1,"2005-05-01 15:23:00",51,68,115018,"2005-05-01 11:09:00",29969,90,484,"I can't show you every law to show you it is not in there...I was asking for a law that shows that.

If this right was ""legal"" then it would be a written law for one. Also, one would be able to use drugs on their own body because one would have the right to their own body. So I am not sure this law legally does exist. I just wanna know where it is if there is a law.",29968,5,731,1,"I did not say common knowledge was law, I said if something is common knowledge there is no burden of proof. The burden of proof is then on the one denying it.

The legal right is in the fact that it cannot be restricted. If there is no law preventing you from doing something, you cannot be legally stopped.","http://www.4forums.com/political/abortion-debates/1196-you-people-so-naive-puerile.html",114932,485
"1-731_486_485_5",731,1,"2005-05-04 15:41:00",68,51,116896,"2005-05-01 15:23:00",29970,120,485,"Nor can I show you every law to show you that you have the right to your own body. You can, however, show a law or case or precedent showing where the right to one's organs and life-processes is limited.

Not so. As in the Constitution, any powers not specifically limited to the Federal Gov't belong to us. They don't need to be specified.

Again, you misrepresent what the pro-choice argument is. It is a desire to prevent something from happening to ones body, not to use it in anything a woman desires. A similar argument would be to refuse drugs that would save ones own life.",29969,5,731,1,"I can't show you every law to show you it is not in there...I was asking for a law that shows that.

If this right was ""legal"" then it would be a written law for one. Also, one would be able to use drugs on their own body because one would have the right to their own body. So I am not sure this law legally does exist. I just wanna know where it is if there is a law.","http://www.4forums.com/political/abortion-debates/1196-you-people-so-naive-puerile.html",115018,486
