"key","quote_source_post_discussion_id","posts_dataset_id","posts_timestamp","posts_author_id","quote_source_author_id","posts_native_post_id","quote_source_timestamp","post_text_id","Word_Count","quote_source_post_id","post_text","quote_source_text_id","Dialog_Turn","posts_discussion_id","quote_source_post_dataset_id","Fullquote_text","discussion_url","quote_source_native_post_id","posts_post_id"
"1-8503_112_105_1",8503,1,"2011-10-19 20:26:00",237,44,441129,"2011-10-18 13:33:00",377794,181,105,"She has the right to decide what to do with herself, no right to decide to kill her baby.
If it weren't for adoption you would also have a moral obligation to raise your children no matter how bad you would want otherwise.
A rapist destroys his/her rights by their act, no one else's. If someone cuts off your arm, and you can undo the damage by grafting a third parties arm on to yourself; that doesn't give you the right to do it without their permission just because you were wronged.

Raping her is cruel, keeping her from killing someone is not.

What she would rather do is irrelevant.

And the rapist had a choice to rape or not rape, but at least he had the choice.

That's a red herring.

What does feeling matter? Everything feels.

She shouldn't have to go through birth if she didn't want to? Why must she go through parenthood if she didn't want to?",377787,1,8503,1,"No sentience, no person.","http://www.4forums.com/political/abortion-debates/12172-attention-fetus-worshipers.html",441054,112
"1-8503_115_112_1",8503,1,"2011-10-20 11:16:00",44,237,441144,"2011-10-19 20:26:00",377797,44,112,"Sentience as in the faculty by which we experience the external world. Before the fetus has developed sufficiently for consciousness to exist, calling it a person and giving it the same rights is as a born person is logically insupportable IMO.",377794,1,8503,1,"She has the right to decide what to do with herself, no right to decide to kill her baby.
If it weren't for adoption you would also have a moral obligation to raise your children no matter how bad you would want otherwise.
A rapist destroys his/her rights by their act, no one else's. If someone cuts off your arm, and you can undo the damage by grafting a third parties arm on to yourself; that doesn't give you the right to do it without their permission just because you were wronged.

Raping her is cruel, keeping her from killing someone is not.

What she would rather do is irrelevant.

And the rapist had a choice to rape or not rape, but at least he had the choice.

That's a red herring.

What does feeling matter? Everything feels.

She shouldn't have to go through birth if she didn't want to? Why must she go through parenthood if she didn't want to?","http://www.4forums.com/political/abortion-debates/12172-attention-fetus-worshipers.html",441129,115
"1-8503_116_115_1",8503,1,"2011-10-20 13:00:00",237,44,441154,"2011-10-20 11:16:00",377798,6,115,"Is a sleeping person sentient?",377797,1,8503,1,"Sentience as in the faculty by which we experience the external world. Before the fetus has developed sufficiently for consciousness to exist, calling it a person and giving it the same rights is as a born person is logically insupportable IMO.","http://www.4forums.com/political/abortion-debates/12172-attention-fetus-worshipers.html",441144,116
"1-8503_118_116_1",8503,1,"2011-10-20 13:11:00",44,237,441159,"2011-10-20 13:00:00",377800,11,116,"Can external stimuli disturb the sleeper? There's your answer.",377798,1,8503,1,"Is a sleeping person sentient?","http://www.4forums.com/political/abortion-debates/12172-attention-fetus-worshipers.html",441154,118
"1-8503_119_118_1",8503,1,"2011-10-20 13:45:00",237,44,441167,"2011-10-20 13:11:00",377801,19,118,"That is an automatic involuntary biological response.
Updating the question, is someone under industrial sedatives sentient?",377800,1,8503,1,"Can external stimuli disturb the sleeper? There's your answer.","http://www.4forums.com/political/abortion-debates/12172-attention-fetus-worshipers.html",441159,119
"1-8503_120_119_1",8503,1,"2011-10-20 14:37:00",44,237,441170,"2011-10-20 13:45:00",377802,102,119,"One's capacity for consciousness is not altered by a temporary suspension of that consciousness. 
There are no non-sentient ""beings"".
Only ""brain death"" would qualify as a loss of sentience. In which case your next of kin can to decide to unplug you and it is not homicide. You've lost your right to self-determination and your right to life with which we as a society affirm all ""people"" are born. You are a human being no longer just as an early term fetus is not a human being yet. 
YMMV.",377801,1,8503,1,"That is an automatic involuntary biological response.
Updating the question, is someone under industrial sedatives sentient?","http://www.4forums.com/political/abortion-debates/12172-attention-fetus-worshipers.html",441167,120
"1-8503_122_120_1",8503,1,"2011-10-20 19:53:00",237,44,441188,"2011-10-20 14:37:00",377804,28,120,"During that suspension there is no capacity, why would we treat this hulk of flesh like a person when it feels nothing of the external world?",377802,1,8503,1,"One's capacity for consciousness is not altered by a temporary suspension of that consciousness. 
There are no non-sentient ""beings"".
Only ""brain death"" would qualify as a loss of sentience. In which case your next of kin can to decide to unplug you and it is not homicide. You've lost your right to self-determination and your right to life with which we as a society affirm all ""people"" are born. You are a human being no longer just as an early term fetus is not a human being yet. 
YMMV.","http://www.4forums.com/political/abortion-debates/12172-attention-fetus-worshipers.html",441170,122
"1-8503_302_300_2",8503,1,"2011-12-03 10:13:00",115,237,444069,"2011-12-02 12:29:00",377984,72,300,"I dont. I dont see anything immoral about most abortions. In fact, I think that there are times where NOT having an abortion is the immoral choice.
So, now that we are operating in the real world where there is no such thing as a moral absolute, which part of the constitution do you see as giving the federal government the power to regulate abortion??",377982,2,8503,1,"I was responding to your point, not attempting to drive a new one. I think abortion should be illegal, not because any arbitrary majority says so but because it is immoral.","http://www.4forums.com/political/abortion-debates/12172-attention-fetus-worshipers.html",443973,302
"1-8503_306_302_2",8503,1,"2011-12-03 16:22:00",237,115,444107,"2011-12-03 10:13:00",377988,20,302,"In the real world it is morality that is absolute and arbitrary authorities like the constitution that are fluid.",377984,2,8503,1,"I dont. I dont see anything immoral about most abortions. In fact, I think that there are times where NOT having an abortion is the immoral choice.
So, now that we are operating in the real world where there is no such thing as a moral absolute, which part of the constitution do you see as giving the federal government the power to regulate abortion??","http://www.4forums.com/political/abortion-debates/12172-attention-fetus-worshipers.html",444069,306
"1-8503_307_306_2",8503,1,"2011-12-03 16:57:00",115,237,444109,"2011-12-03 16:22:00",377989,97,306,"Wrong answer, sport. If that was the case, you and I would not have different moral stances on abortion....or anything else. 
Morals are not absolute. They never have been. The very idea lies somewhere between ridiculous and moronic. As has been amply demonstrated here for you before, morals have been fluid throughout history. 
So, now that we have put that silliness behind us, please answer the question. Where in the constitution do you see power for the federal government to regulate abortion?",377988,2,8503,1,"In the real world it is morality that is absolute and arbitrary authorities like the constitution that are fluid.","http://www.4forums.com/political/abortion-debates/12172-attention-fetus-worshipers.html",444107,307
"1-8503_308_307_2",8503,1,"2011-12-03 20:29:00",237,115,444118,"2011-12-03 16:57:00",377990,36,307,"Why?

How do you know?

Ad hominem

I never said I did. If I was to make the case though it would come from wherever they have the power to regulate murder.",377989,2,8503,1,"Wrong answer, sport. If that was the case, you and I would not have different moral stances on abortion....or anything else. 
Morals are not absolute. They never have been. The very idea lies somewhere between ridiculous and moronic. As has been amply demonstrated here for you before, morals have been fluid throughout history. 
So, now that we have put that silliness behind us, please answer the question. Where in the constitution do you see power for the federal government to regulate abortion?","http://www.4forums.com/political/abortion-debates/12172-attention-fetus-worshipers.html",444109,308
"1-8503_309_308_2",8503,1,"2011-12-03 21:12:00",115,237,444122,"2011-12-03 20:29:00",377991,176,308,"Because you would be able to logically illustrate the superior value of a particular moral stance. 

Because we can look at historical moral paradigms and recognize that they have shifted over time.

No, its not. 

And where is that? I have read the constitution a few times and have never seen anything that would tend to suggest that the federal government has the power to regulate murder. That would fall under the individual states police power. 
There is a federal law against murder, but it only applies under a few specific circumstances such as murders that occur on federal property, or if the murdered individual is a federal agent, occurs in an area under federal jurisdiction but not inside a state (such as DC), etc...
So, unless you bang a federal agent and then have the baby aborted on a military base somewhere, the federal government should have nothing to say about it.
I am OK with that.",377990,2,8503,1,"Why?

How do you know?

Ad hominem

I never said I did. If I was to make the case though it would come from wherever they have the power to regulate murder.","http://www.4forums.com/political/abortion-debates/12172-attention-fetus-worshipers.html",444118,309
"1-8503_310_309_2",8503,1,"2011-12-03 22:39:00",237,115,444130,"2011-12-03 21:12:00",377992,20,309,"And?

Really, how do you record the change in a moral truth?

Yes it was.

.....",377991,2,8503,1,"Because you would be able to logically illustrate the superior value of a particular moral stance. 

Because we can look at historical moral paradigms and recognize that they have shifted over time.

No, its not. 

And where is that? I have read the constitution a few times and have never seen anything that would tend to suggest that the federal government has the power to regulate murder. That would fall under the individual states police power. 
There is a federal law against murder, but it only applies under a few specific circumstances such as murders that occur on federal property, or if the murdered individual is a federal agent, occurs in an area under federal jurisdiction but not inside a state (such as DC), etc...
So, unless you bang a federal agent and then have the baby aborted on a military base somewhere, the federal government should have nothing to say about it.
I am OK with that.","http://www.4forums.com/political/abortion-debates/12172-attention-fetus-worshipers.html",444122,310
"1-8503_436_435_3",8503,1,"2012-01-03 16:28:00",237,236,447013,"2012-01-03 14:54:00",378118,4,435,"There are none.",378117,3,8503,1,"Is it still okay for the guilty unborn? ;)","http://www.4forums.com/political/abortion-debates/12172-attention-fetus-worshipers.html",447009,436
"1-8503_437_436_3",8503,1,"2012-01-06 13:36:00",236,237,447218,"2012-01-03 16:28:00",378119,8,436,"You mean 'there IS none'.",378118,3,8503,1,"There are none.","http://www.4forums.com/political/abortion-debates/12172-attention-fetus-worshipers.html",447013,437
"1-8503_438_437_3",8503,1,"2012-01-06 15:51:00",237,236,447226,"2012-01-06 13:36:00",378120,25,437,"The ""guilty unborn"" is a category and is referred to in the plural regardless of the actual number of entities it contains.",378119,3,8503,1,"You mean 'there IS none'.","http://www.4forums.com/political/abortion-debates/12172-attention-fetus-worshipers.html",447218,438
"1-8503_439_438_3",8503,1,"2012-01-06 16:31:00",236,237,447233,"2012-01-06 15:51:00",378121,68,438,"You may be correct, but . . . 
NONE is a contraction of the words NOT ONE
You would say 'there is one' (not 'there are one').
You would say 'there is not one' (not 'there are not one').
You should say 'there is none'.
It's really that simple.",378120,3,8503,1,"The ""guilty unborn"" is a category and is referred to in the plural regardless of the actual number of entities it contains.","http://www.4forums.com/political/abortion-debates/12172-attention-fetus-worshipers.html",447226,439
"1-8503_440_439_3",8503,1,"2012-01-06 17:25:00",237,236,447239,"2012-01-06 16:31:00",378122,17,439,"None | Define None at Dictionary.com

I'm a post 9th century man (looks self-satisfied).",378121,3,8503,1,"You may be correct, but . . . 
NONE is a contraction of the words NOT ONE
You would say 'there is one' (not 'there are one').
You would say 'there is not one' (not 'there are not one').
You should say 'there is none'.
It's really that simple.","http://www.4forums.com/political/abortion-debates/12172-attention-fetus-worshipers.html",447233,440
"1-8503_318_317_4",8503,1,"2011-12-04 14:38:00",236,550,444193,"2011-12-04 14:30:00",378000,84,317,"Note the lack of any mention of what he has actually done.
Lots of blather, another mention of the current US president (thought you were supposed to support the president, whoever it happened to be - that was the rhetoric when the last president was in power), lots of insults of 'people like you' and another pointless reference to the bible.
Nothing new to see here - move along, move along . . .",377999,4,8503,1,"I don't need to defend myself to a stiff-necked heathen who's on his way to being Satan's whipping boy for all eternity.
You know where the innocent babies are being killed - in the abortion clinics. And you say, ""I would leave right now and prevent it from happening. I would kill anybody who got in my way, no question, no excuses, would not give a flying XXXX whether it was legal or not""? Lot's of hot air there, preppie, but no action. You're an empty suit and you know it.
It's people LIKE YOU who vote for the Obamas and all the other left wing imbeciles who promote abortion and who are wrecking this country. It's people LIKE YOU who reelect the same imbeciles term after term. 
Really, why don't you just give your lip a rest and go dry up? Nobody is buying what you're selling.
John 8:24","http://www.4forums.com/political/abortion-debates/12172-attention-fetus-worshipers.html",444190,318
"1-8503_320_318_4",8503,1,"2011-12-04 19:13:00",550,236,444214,"2011-12-04 14:38:00",378002,22,318,"Go tell it to your mother. She might be interested in your fulminations.
And quit killing the innocent unborn.",378000,4,8503,1,"Note the lack of any mention of what he has actually done.
Lots of blather, another mention of the current US president (thought you were supposed to support the president, whoever it happened to be - that was the rhetoric when the last president was in power), lots of insults of 'people like you' and another pointless reference to the bible.
Nothing new to see here - move along, move along . . .","http://www.4forums.com/political/abortion-debates/12172-attention-fetus-worshipers.html",444193,320
"1-8503_321_320_4",8503,1,"2011-12-04 19:20:00",236,550,444216,"2011-12-04 19:13:00",378003,45,320,"You should have said so 6 hours ago. If I remember next week, I'll tell my mother all about it.
But just out of interest, what have you actually done to prevent abortion? We're all still dying to know.",378002,4,8503,1,"Go tell it to your mother. She might be interested in your fulminations.
And quit killing the innocent unborn.","http://www.4forums.com/political/abortion-debates/12172-attention-fetus-worshipers.html",444214,321
"1-8503_322_321_4",8503,1,"2011-12-04 19:40:00",550,236,444220,"2011-12-04 19:20:00",378004,16,321,"Submit it to prayer, preppie. Maybe God will help educate you on that.",378003,4,8503,1,"You should have said so 6 hours ago. If I remember next week, I'll tell my mother all about it.
But just out of interest, what have you actually done to prevent abortion? We're all still dying to know.","http://www.4forums.com/political/abortion-debates/12172-attention-fetus-worshipers.html",444216,322
"1-8503_323_322_4",8503,1,"2011-12-04 19:43:00",236,550,444221,"2011-12-04 19:40:00",378005,13,322,"Wow, still no answer. Ever thought of becoming a politician?",378004,4,8503,1,"Submit it to prayer, preppie. Maybe God will help educate you on that.","http://www.4forums.com/political/abortion-debates/12172-attention-fetus-worshipers.html",444220,323
"1-8503_258_255_5",8503,1,"2011-11-03 14:19:00",237,746,442415,"2011-11-03 12:51:00",377940,164,255,"C-section, but I believe he is talking about the intentions of those overseeing the procedure.

Such isn't a new moral situation, you have the exact same thing with organ transplants, it's a bit of a red herring though because just because you need to remove the fetus from the mother to save her does not mean you need to kill the fetus; you can provide the fetus/infant with medical support after it has been removed.
If the fetus/infant is at a stage where you can't keep it alive outside of the womb, that's just the state of our medical abilities and it will die like millions of people do because there's no cure. That puts us on the hook if and when we do develop artificial wombs though.
It has been noted that not many abortions are late term, well not many are to save the mothers life either.",377937,5,8503,1,"There are no ways of leaving the womb alive other than birth( unless you know of a secret passage)","http://www.4forums.com/political/abortion-debates/12172-attention-fetus-worshipers.html",442405,258
"1-8503_259_258_5",8503,1,"2011-11-03 14:27:00",746,237,442417,"2011-11-03 14:19:00",377941,62,258,"I would call a child being delivered by c section as being born albeit not a vaginal birth.
To be honest I thought it so obvious as not to mention it ( birth being defined as leaving the womb alive)
The secret passage remark was a poor attempt at sarcasm
I think number 3 covered the rest of your post",377940,5,8503,1,"C-section, but I believe he is talking about the intentions of those overseeing the procedure.

Such isn't a new moral situation, you have the exact same thing with organ transplants, it's a bit of a red herring though because just because you need to remove the fetus from the mother to save her does not mean you need to kill the fetus; you can provide the fetus/infant with medical support after it has been removed.
If the fetus/infant is at a stage where you can't keep it alive outside of the womb, that's just the state of our medical abilities and it will die like millions of people do because there's no cure. That puts us on the hook if and when we do develop artificial wombs though.
It has been noted that not many abortions are late term, well not many are to save the mothers life either.","http://www.4forums.com/political/abortion-debates/12172-attention-fetus-worshipers.html",442415,259
"1-8503_266_259_5",8503,1,"2011-11-04 19:10:00",237,746,442520,"2011-11-03 14:27:00",377948,22,259,"About #3, would you consider it an abortion if there was never any intention of killing the fetus/infant?",377941,5,8503,1,"I would call a child being delivered by c section as being born albeit not a vaginal birth.
To be honest I thought it so obvious as not to mention it ( birth being defined as leaving the womb alive)
The secret passage remark was a poor attempt at sarcasm
I think number 3 covered the rest of your post","http://www.4forums.com/political/abortion-debates/12172-attention-fetus-worshipers.html",442417,266
"1-8503_267_266_5",8503,1,"2011-11-05 02:37:00",746,237,442525,"2011-11-04 19:10:00",377949,82,266,"If you are asking whether I think that a delivery that resulted in the death of the infant should be considered a abortion...no.I cant see how it could be.
If you are asking about a situation where an invasive procedure such as an amniocentesis test resulted in the fetus being miscarried ..no again.
On the other hand I suppose a miscarriage is an abortion of sorts...
What did you have in mind Freedom?",377948,5,8503,1,"About #3, would you consider it an abortion if there was never any intention of killing the fetus/infant?","http://www.4forums.com/political/abortion-debates/12172-attention-fetus-worshipers.html",442520,267
"1-8503_268_267_5",8503,1,"2011-11-05 12:26:00",237,746,442555,"2011-11-05 02:37:00",377950,202,267,"You said:

If it's not 'viable' than it will die regardless of the efforts of anyone to save it; obviously a doctor can't violate an infants rights by trying to save it and failing.
The health of the mother will never require the termination of the fetus, at worst it's removal.
If any operation in which the intention is not to kill the fetus is not an abortion, than no operation which intends to protect the mother from medical risk is necessarily an abortion. Thus the health of the mother is ultimately irrelevant; i.e. whether or not you kill the infant is secondary to the procedure and one does not have to make an exception for 'abortions' which protect the mother from medical risk for as you say they do not need to be abortions proper. AKA rights do not conflict and no 'weighing' needs to be done on that front, weighing medical risks sure, but not rights.
Further I would like to know why pain or stress should be factors, they certainly aren't for other murders except to increase the punishment.",377949,5,8503,1,"If you are asking whether I think that a delivery that resulted in the death of the infant should be considered a abortion...no.I cant see how it could be.
If you are asking about a situation where an invasive procedure such as an amniocentesis test resulted in the fetus being miscarried ..no again.
On the other hand I suppose a miscarriage is an abortion of sorts...
What did you have in mind Freedom?","http://www.4forums.com/political/abortion-debates/12172-attention-fetus-worshipers.html",442525,268
"1-8503_270_268_5",8503,1,"2011-11-06 07:30:00",746,237,442603,"2011-11-05 12:26:00",377952,77,268,"My definition of a viable fetus in this context was explained by the words in brackets....that is a fetus that would have a reasonable chance of survival using the technology available.
If the mothers health is compromised and the live fetus is removed dead then its a termination.If its removed live its a birth..both are removal.
An abortion should be a stressless and painless procedure for the fetus.",377950,5,8503,1,"You said:

If it's not 'viable' than it will die regardless of the efforts of anyone to save it; obviously a doctor can't violate an infants rights by trying to save it and failing.
The health of the mother will never require the termination of the fetus, at worst it's removal.
If any operation in which the intention is not to kill the fetus is not an abortion, than no operation which intends to protect the mother from medical risk is necessarily an abortion. Thus the health of the mother is ultimately irrelevant; i.e. whether or not you kill the infant is secondary to the procedure and one does not have to make an exception for 'abortions' which protect the mother from medical risk for as you say they do not need to be abortions proper. AKA rights do not conflict and no 'weighing' needs to be done on that front, weighing medical risks sure, but not rights.
Further I would like to know why pain or stress should be factors, they certainly aren't for other murders except to increase the punishment.","http://www.4forums.com/political/abortion-debates/12172-attention-fetus-worshipers.html",442555,270
"1-8503_271_270_5",8503,1,"2011-11-06 13:47:00",237,746,442619,"2011-11-06 07:30:00",377953,207,270,"Detected how?

Why do any of these matter? Are they supposedly necessary or sufficient conditions?

Why? They aren't self-aware, they aren't conscious or rational.

Then please justify the idea that child abandonment is immoral.

In the frame of reference of the solar system I don't believe that it tuned out to be correct. This too is not proof.

It's still your house, and you can't kill the other person. And if the guy with a gun leaves a baby in your house and you escape and come back you still can't kill the baby, and if you throw it out the window you will be abandoning it to die because it cannot live independently.

You can't the attempt is sufficient provocation to use lethal force in defense not to execute in cold-blood. When I think it's appropriate is in the defense of your rights or others, and there are no other justifications so yes.

I believe it's wrong to murder.

It begins when the subject of obligation begins.

.... but the fetus will of course be alive unless you take actions to kill it, as they do.",377952,5,8503,1,"My definition of a viable fetus in this context was explained by the words in brackets....that is a fetus that would have a reasonable chance of survival using the technology available.
If the mothers health is compromised and the live fetus is removed dead then its a termination.If its removed live its a birth..both are removal.
An abortion should be a stressless and painless procedure for the fetus.","http://www.4forums.com/political/abortion-debates/12172-attention-fetus-worshipers.html",442603,271
"1-8503_284_283_6",8503,1,"2011-11-11 12:34:00",809,237,442896,"2011-11-10 01:12:00",377966,118,283,"emoticonXDonno

Your kidding. Same way one would normally define it in this context and the same way I defined it last time we did this circle.

No, but I am also not the one who is justified in telling someone else if they can have an abortion

And that would be which one?

Morally right is wrong?

Yes being moral and immoral at the same time is impossible

Are they a moral person who has a moral belief but acts immorally? If they believe it is immoral to kill but do so are they a moral person, not their acts, but the person?

No

Speaking of unsound logic.....",377965,6,8503,1,"Pappalion, your post is mostly second rate jokes and missing the point (I have to assumed intentionally). I believe the following statements of yours continue the core threads though:

Define functional.

Ah, so you're deciding when it's appropriate to kill?

The person who is right.

Their position is moral but not correct so I would not accept it. All that is required for a position to be moral is non-immorality. If they satisfy the conditions of morality they have moral beliefs.
This is analogous to saying someone is 'X' when they say 'adding' two numbers always results in 2 when the criteria for 'X' is arriving at 2.
Now they can say god handed them down two, or anything else but 1+1 and they will still be 'X'. Doesn't mean their logic is sound, or any other conclusions are correct though.","http://www.4forums.com/political/abortion-debates/12172-attention-fetus-worshipers.html",442793,284
"1-8503_285_284_6",8503,1,"2011-11-11 16:13:00",237,809,442903,"2011-11-11 12:34:00",377967,147,284,"Then copy paste the normal answer from the last time. (with post number please)

Then how can you say that killing jews is wrong?

The one with a sound argument. (or a more cogent argument)

Lol, you seriously think I am going to fall for this sad pathetic attempt at equivocation?
An incorrect derivation does not necessitate an incorrect answer, one incorrect answer does not invalidate all answers from the same source.

People aren't truly moral or immoral, only actions. When we say someone is moral we mean they behave morally for the most part (or perhaps perfectly), when we say an idea is moral we mean it pertains to moral/immoral actions; but the derivation applies only to actions and not even really to beliefs at all.",377966,6,8503,1,"emoticonXDonno

Your kidding. Same way one would normally define it in this context and the same way I defined it last time we did this circle.

No, but I am also not the one who is justified in telling someone else if they can have an abortion

And that would be which one?

Morally right is wrong?

Yes being moral and immoral at the same time is impossible

Are they a moral person who has a moral belief but acts immorally? If they believe it is immoral to kill but do so are they a moral person, not their acts, but the person?

No

Speaking of unsound logic.....","http://www.4forums.com/political/abortion-debates/12172-attention-fetus-worshipers.html",442896,285
"1-8503_287_285_6",8503,1,"2011-11-15 17:26:00",809,237,443013,"2011-11-11 16:13:00",377969,118,285,"We both speak english it isn't difficult.

They have rights

Which is which one?

No mind trick or slight of hand. There is no need for you to fall for anything just provide an answer.

It is real simple. It is either right or wrong it isn't right but not wrong or wrong but not right.

Wonderful, what idealogical position is not based on a belief? When you say pertains to moral/immoral action it is the belief that the action is one or the other. An action is neither until someone comes along and says this is that and you should or shuld not do it.",377967,6,8503,1,"Then copy paste the normal answer from the last time. (with post number please)

Then how can you say that killing jews is wrong?

The one with a sound argument. (or a more cogent argument)

Lol, you seriously think I am going to fall for this sad pathetic attempt at equivocation?
An incorrect derivation does not necessitate an incorrect answer, one incorrect answer does not invalidate all answers from the same source.

People aren't truly moral or immoral, only actions. When we say someone is moral we mean they behave morally for the most part (or perhaps perfectly), when we say an idea is moral we mean it pertains to moral/immoral actions; but the derivation applies only to actions and not even really to beliefs at all.","http://www.4forums.com/political/abortion-debates/12172-attention-fetus-worshipers.html",442903,287
"1-8503_288_287_6",8503,1,"2011-11-16 11:58:00",237,809,443033,"2011-11-15 17:26:00",377970,40,287,"Then you must be very busy.

So you're deciding who has rights?

Soundness - Wikipedia, the free encyclopedia

Fine then no.

This is the fallacy of equivocation look it up.

All positions are beliefs.",377969,6,8503,1,"We both speak english it isn't difficult.

They have rights

Which is which one?

No mind trick or slight of hand. There is no need for you to fall for anything just provide an answer.

It is real simple. It is either right or wrong it isn't right but not wrong or wrong but not right.

Wonderful, what idealogical position is not based on a belief? When you say pertains to moral/immoral action it is the belief that the action is one or the other. An action is neither until someone comes along and says this is that and you should or shuld not do it.","http://www.4forums.com/political/abortion-debates/12172-attention-fetus-worshipers.html",443013,288
"1-8503_289_288_6",8503,1,"2011-11-21 13:32:00",809,237,443286,"2011-11-16 11:58:00",377971,130,288,"We all must be something

OK. No one has rights, making your argument meaningless. 
The question is not does a person have rights, but at what point do they have them. 

Yes, philosophy of logic. I remember wondering why the study of logic could not agree on what symbols would be used to express statements using a keyboard.
And if niether side is able to provide a sound argument or maybe both can

You mean by equating abortion with murder? Because trying to apply it your position of some killing is aceptable and some is not with no objective standard by which to decide except an emotional response you try and pass off as logical.

Even the objective ones?",377970,6,8503,1,"Then you must be very busy.

So you're deciding who has rights?

Soundness - Wikipedia, the free encyclopedia

Fine then no.

This is the fallacy of equivocation look it up.

All positions are beliefs.","http://www.4forums.com/political/abortion-debates/12172-attention-fetus-worshipers.html",443033,289
"1-8503_290_289_6",8503,1,"2011-11-22 19:54:00",237,809,443386,"2011-11-21 13:32:00",377972,197,289,"I couldn't claim killing babies was immoral but you couldn't claim shooting abortion doctors was either :p

When they exist.
Suppose jews never got their rights, who's to say...

If two positions are truly contradictory it is not possible for both sides to provide a sound argument.

That's why you needed to look it up. It's using the same word in two senses in the same logical stream.
Margarine is better than nothing.
Nothing is better than butter.
Therefore, margarine is better than butter. 
In this case using right to both mean derived correctly and moral.

You ignored the objective standard and presumed emotional authority.

Yes, and I've had this particular skirmish before; I must be living with a different English than posters on this forum because I've never used belief to imply any kind of epistemological origin at all nor has anyone I know.
If you've got a less controversial word to mean: : a degree of conviction of the truth of something esp. based on a consideration or examination of the evidence please bring it to me.",377971,6,8503,1,"We all must be something

OK. No one has rights, making your argument meaningless. 
The question is not does a person have rights, but at what point do they have them. 

Yes, philosophy of logic. I remember wondering why the study of logic could not agree on what symbols would be used to express statements using a keyboard.
And if niether side is able to provide a sound argument or maybe both can

You mean by equating abortion with murder? Because trying to apply it your position of some killing is aceptable and some is not with no objective standard by which to decide except an emotional response you try and pass off as logical.

Even the objective ones?","http://www.4forums.com/political/abortion-debates/12172-attention-fetus-worshipers.html",443286,290
"1-8503_362_360_7",8503,1,"2011-12-10 04:51:00",550,1033,444932,"2011-12-09 19:20:00",378044,21,360,"<Flush>
More nonsense from the looney-tune bleachers.
What are you going to be when you grow up?",378042,7,8503,1,"Obviously ez has gotten a bad deal in life and religion is the only way he thinks he can set the unfairness right.
Life sucks for ez but with everyone else going to hell he feels a little better about his own unfortunate existence.
What happened to you ez that made you feel so cheated by life?","http://www.4forums.com/political/abortion-debates/12172-attention-fetus-worshipers.html",444904,362
"1-8503_363_362_7",8503,1,"2011-12-10 06:19:00",1033,550,444938,"2011-12-10 04:51:00",378045,57,362,"We can all grow up after you put your idiotic bible away, it brings everybody down to your level of stupidity just to be able have a dialog with you.
On the other hand the fact that you love Jesus so much that you desire him sexually may also be part of the problem.",378044,7,8503,1,"<Flush>
More nonsense from the looney-tune bleachers.
What are you going to be when you grow up?","http://www.4forums.com/political/abortion-debates/12172-attention-fetus-worshipers.html",444932,363
"1-8503_364_363_7",8503,1,"2011-12-10 06:22:00",550,1033,444939,"2011-12-10 06:19:00",378046,14,363,"You're a very sick person, Bird man. Recommend you get therapy.",378045,7,8503,1,"We can all grow up after you put your idiotic bible away, it brings everybody down to your level of stupidity just to be able have a dialog with you.
On the other hand the fact that you love Jesus so much that you desire him sexually may also be part of the problem.","http://www.4forums.com/political/abortion-debates/12172-attention-fetus-worshipers.html",444938,364
"1-8503_365_364_7",8503,1,"2011-12-10 08:29:00",1033,550,444947,"2011-12-10 06:22:00",378047,80,364,"Hey man I am not the one who wants to pork Jesus, you are.
We all know that you got a bad deal in life ez, you don't need to keep up the charade we understand.
Religion is the only thing that keeps you from killing yourself so I have decided in the interest of comedy that you be allowed to keep your boring, self-centered, pathetic religion in place of a working brain.",378046,7,8503,1,"You're a very sick person, Bird man. Recommend you get therapy.","http://www.4forums.com/political/abortion-debates/12172-attention-fetus-worshipers.html",444939,365
"1-8503_366_365_7",8503,1,"2011-12-10 10:55:00",550,1033,444966,"2011-12-10 08:29:00",378048,52,365,"You would be the one exception I would make for someone being aborted. 
On the other hand, you still have time to repent of your many sins and receive Christ as your Lord and Savior. Otherwise you're toast. Remember always that I'm the one who warned you.",378047,7,8503,1,"Hey man I am not the one who wants to pork Jesus, you are.
We all know that you got a bad deal in life ez, you don't need to keep up the charade we understand.
Religion is the only thing that keeps you from killing yourself so I have decided in the interest of comedy that you be allowed to keep your boring, self-centered, pathetic religion in place of a working brain.","http://www.4forums.com/political/abortion-debates/12172-attention-fetus-worshipers.html",444947,366
"1-8503_368_366_7",8503,1,"2011-12-10 12:05:00",1033,550,444974,"2011-12-10 10:55:00",378050,89,366,"Wow, that's pretty severe, I had no idea you felt that way, or did I?
Your parents have brain washed you since birth to believe that dreck, now it's time to put god right along with Santa Claus in their proper place, away.
I know the other kids picked on you when you were little and I really hate to see grownup's doing it to, so say something that makes everyone not want to pick on you for a change.",378048,7,8503,1,"You would be the one exception I would make for someone being aborted. 
On the other hand, you still have time to repent of your many sins and receive Christ as your Lord and Savior. Otherwise you're toast. Remember always that I'm the one who warned you.","http://www.4forums.com/political/abortion-debates/12172-attention-fetus-worshipers.html",444966,368
"1-8503_173_171_8",8503,1,"2011-10-27 20:57:00",1209,550,441858,"2011-10-27 18:09:00",377855,99,171,"Insofar as I believe that infanticide is morally wrong and rightly illegal, I find the crime ghastly and the murder charges quite justified. I continue to believe, however, that there is a major difference between abortion and infanticide -- and this is especially so for the 80+% of abortions that are performed during the first trimester.
Meanwhile, here's the legacy of your side:
Scott Roeder gets Hard 50 in murder of abortion provider George Tiller | Wichita Eagle
Your pride and joy, no doubt!
> flush! <",377853,8,8503,1,"...here's the legacy of your father Satan (John 8:44), operating through your liberal, left-wing infanticide centers:
2 workers plead guilty to murder in abortion case
Baby butchers. You radicals ought to be real proud of that. Avoid personal responsibility (the hallmark trait of liberalism) and kill the innocent babies.","http://www.4forums.com/political/abortion-debates/12172-attention-fetus-worshipers.html",441851,173
"1-8503_178_173_8",8503,1,"2011-10-28 03:50:00",550,1209,441885,"2011-10-27 20:57:00",377860,23,173,"Nice try, preppie. The difference is that the right-to-life movement doesn't have extermination centers for the innocent unborn.
Butchers.",377855,8,8503,1,"Insofar as I believe that infanticide is morally wrong and rightly illegal, I find the crime ghastly and the murder charges quite justified. I continue to believe, however, that there is a major difference between abortion and infanticide -- and this is especially so for the 80+% of abortions that are performed during the first trimester.
Meanwhile, here's the legacy of your side:
Scott Roeder gets Hard 50 in murder of abortion provider George Tiller | Wichita Eagle
Your pride and joy, no doubt!
> flush! <","http://www.4forums.com/political/abortion-debates/12172-attention-fetus-worshipers.html",441858,178
"1-8503_182_178_8",8503,1,"2011-10-28 07:40:00",1209,550,441898,"2011-10-28 03:50:00",377864,21,178,"No, just hit-men for adults whom they decide no longer deserve the right-to-life.
Theocrats.
> flush! <",377860,8,8503,1,"Nice try, preppie. The difference is that the right-to-life movement doesn't have extermination centers for the innocent unborn.
Butchers.","http://www.4forums.com/political/abortion-debates/12172-attention-fetus-worshipers.html",441885,182
"1-8503_185_182_8",8503,1,"2011-10-28 15:59:00",550,1209,441948,"2011-10-28 07:40:00",377867,40,182,"<Flush>
Media covers up gay on gay murder
Media 'covering up sordid, gay-on-gay murder'
Besides the innocent unborn, you people even kill yourselves, and get the media to cover up for you.",377864,8,8503,1,"No, just hit-men for adults whom they decide no longer deserve the right-to-life.
Theocrats.
> flush! <","http://www.4forums.com/political/abortion-debates/12172-attention-fetus-worshipers.html",441898,185
"1-8503_195_185_8",8503,1,"2011-10-31 09:38:00",1209,550,442175,"2011-10-28 15:59:00",377877,205,185,"""We people?"" Give me a break. Perhaps you have me confused with the poster whose moniker is ""Matthew S."" I realize its confusing, what with there being a whole letter to pay attention to. But do try to keep up.
But I will say that while I'm not gay myself, I'm definitely on Matthew S's side on this issue, because I support gay rights entirely. I realize that the very idea of defending the liberties of people who don't live as you do is completely alien to your theocratic freedom-hatred. But unlike you, I actually care about religious freedom.
Meanwhile, Christian-on-Christian violence happens all the time, so I don't see what your non-objective news source's story proves at all, even if despite its flagrant bias, the story is true. Indeed, the American religious liberties that you so loathe, stem largely from a desire not to repeat the following:
European wars of religion - Wikipedia, the free encyclopedia
Christians killing Christians -- who'd'a thunk it?!? I guess a little history is a good thing to know.
> flush! <",377867,8,8503,1,"<Flush>
Media covers up gay on gay murder
Media 'covering up sordid, gay-on-gay murder'
Besides the innocent unborn, you people even kill yourselves, and get the media to cover up for you.","http://www.4forums.com/political/abortion-debates/12172-attention-fetus-worshipers.html",441948,195
"1-8503_196_195_8",8503,1,"2011-10-31 14:07:00",550,1209,442190,"2011-10-31 09:38:00",377878,11,195,"I apologize for the mix up. Carry on! emoticonXBouncer",377877,8,8503,1,"""We people?"" Give me a break. Perhaps you have me confused with the poster whose moniker is ""Matthew S."" I realize its confusing, what with there being a whole letter to pay attention to. But do try to keep up.
But I will say that while I'm not gay myself, I'm definitely on Matthew S's side on this issue, because I support gay rights entirely. I realize that the very idea of defending the liberties of people who don't live as you do is completely alien to your theocratic freedom-hatred. But unlike you, I actually care about religious freedom.
Meanwhile, Christian-on-Christian violence happens all the time, so I don't see what your non-objective news source's story proves at all, even if despite its flagrant bias, the story is true. Indeed, the American religious liberties that you so loathe, stem largely from a desire not to repeat the following:
European wars of religion - Wikipedia, the free encyclopedia
Christians killing Christians -- who'd'a thunk it?!? I guess a little history is a good thing to know.
> flush! <","http://www.4forums.com/political/abortion-debates/12172-attention-fetus-worshipers.html",442175,196
"1-8503_340_301_9",8503,1,"2011-12-08 11:34:00",2345,550,444747,"2011-12-03 05:38:00",378022,65,301,"Evidence suggests that a lot of those who got aborted would have been degenerate criminals. 
And if lot's of ""Lord's prophets"" got aborted, all the better. 
Come to think of it, that's some pretty pathetic god you have got, if he couldn't even protect his own prophets or those he'd invested his ""divine plans"" in.",377983,9,8503,1,"Since Roe vs. Wade in 1973, and for the last four decades, the lives of some 50 million unborn American citizens, teachers, scientists, health care professionals, and taxpayers – enough souls to actually fund, in full, the Pelosi, Reid, and Obama Health Care bill, have been snuffed out on the altar of personal convenience and political correctness. And while many Republicans and Independents have likewise abrogated their moral responsibilities to the unborn, their moral turpitude pales in comparison to the dedicated left wing pro-infanticide crowd, and Barack Obama in particular.
Those were future prophets to the nations and the Savior of mankind in the womb. But the pro-abortion crowd wants to pretend that instead of babies with divine plans, they were nothing more than unviable tissue masses. Well, God is not fooled, and neither are those who read and respect God’s word.
(righterreport.com)","http://www.4forums.com/political/abortion-debates/12172-attention-fetus-worshipers.html",444059,340
"1-8503_341_340_9",8503,1,"2011-12-08 14:25:00",550,2345,444761,"2011-12-08 11:34:00",378023,38,340,"Tsk tsk....
You err because you have little logic and no spiritual insight.
Tell me how God creates mankind with free will but at the same time doesn't allow man to sin? 
You're on.",378022,9,8503,1,"Evidence suggests that a lot of those who got aborted would have been degenerate criminals. 
And if lot's of ""Lord's prophets"" got aborted, all the better. 
Come to think of it, that's some pretty pathetic god you have got, if he couldn't even protect his own prophets or those he'd invested his ""divine plans"" in.","http://www.4forums.com/political/abortion-debates/12172-attention-fetus-worshipers.html",444747,341
"1-8503_346_341_9",8503,1,"2011-12-08 20:34:00",2345,550,444799,"2011-12-08 14:25:00",378028,73,341,"Yo err because you have abandoned logic and embraced irrationality, 
Your argument lies on the faulty premise of existence of specifically your god and truth of bible. However, a discussion on that would change the subject of the thread. 
BUT, even if your god did exist, it would be a pretty impotent entity its plans for mankind got derailed as a result of Roe vs. Wade.",378023,9,8503,1,"Tsk tsk....
You err because you have little logic and no spiritual insight.
Tell me how God creates mankind with free will but at the same time doesn't allow man to sin? 
You're on.","http://www.4forums.com/political/abortion-debates/12172-attention-fetus-worshipers.html",444761,346
"1-8503_355_346_9",8503,1,"2011-12-09 13:52:00",550,2345,444870,"2011-12-08 20:34:00",378037,73,346,"You didn't mind commenting about God ('the Lord's prophets') just before I wrote my question above to you, so why are you running scared or bugging out now?
Looks to me like you couldn't answer the question. So where's the beef? 
Answer the question?  Tell me how God creates mankind with free will but at the same time doesn't allow man to sin?",378028,9,8503,1,"Yo err because you have abandoned logic and embraced irrationality,
Your argument lies on the faulty premise of existence of specifically your god and truth of bible. However, a discussion on that would change the subject of the thread.","http://www.4forums.com/political/abortion-debates/12172-attention-fetus-worshipers.html",444799,355
"1-8503_361_355_9",8503,1,"2011-12-10 00:27:00",2345,550,444926,"2011-12-09 13:52:00",378043,61,355,"You know my answer: There is no god and no one ""created"" mankind. But the discussion over the existence of god belongs rightly under ""Religious"" or ""Philosophy"" section, not abortion. 
Is this one of the tactics you fundies frequently practice? Change the subject when you are about to lose?",378037,9,8503,1,"You didn't mind commenting about God ('the Lord's prophets') just before I wrote my question above to you, so why are you running scared or bugging out now?
Looks to me like you couldn't answer the question. So where's the beef? 
Answer the question?  Tell me how God creates mankind with free will but at the same time doesn't allow man to sin?","http://www.4forums.com/political/abortion-debates/12172-attention-fetus-worshipers.html",444870,361
"1-8503_223_215_10",8503,1,"2011-11-02 08:56:00",1209,746,442303,"2011-11-02 03:13:00",377905,173,215,"Who believes that, exactly? ""Fetus"" and ""infant"" are terms that have meanings. We can use them however we want, but that doesn't mean that we're using them correctly.

Believe what you will. If birth happened, it's an infant. If not, it's a fetus.

No, because birth happened, albeit prematurely. That said, a prematurely born infant is still going through stages of what is ordinarily fetal development.

Birth. It's pretty straightforward.

To repeat, believe what you will. ""Fetus"" and ""infant"" will mean what they mean, regardless of what you believe or don't.

What's subjective about it? Birth is an observable process, and marks the divide between normal prenatal and normal postnatal development. If birth happens too early, then what is normally part of the prenatal stage will have to be developed postnatally. Where is there anything subjective about this?",377897,10,8503,1,"Some believe that the definition depends on the circumstances and the attitude of the mother.
A fetus that is aborted but still has some life left in it is still a fetus but a premature baby that is struggling for life and being aided by technology to survive is an infant?
I dont believe your assertion that the circumstances change the actual definition of the struggling fetus/infant.
Is an aborted fetus that would have a chance to survive with proper after care still a fetus?
Is an aborted fetus that has not yet died a fetus or an infant?
If so why is a very premature born baby considered an infant? Would it not be more accurate to define it as a fetus?
I know that it is very rare for a fetus to be aborted at a late stage in the pregnancy but that does not detract from the need determine where the definition of a fetus ends and an infant starts.
I do not believe that it depends on the attitude of the mother or the circumstances of its extraction from the womb.
That is so subjective a definition that it is worthless.","http://www.4forums.com/political/abortion-debates/12172-attention-fetus-worshipers.html",442278,223
"1-8503_224_223_10",8503,1,"2011-11-02 09:06:00",746,1209,442304,"2011-11-02 08:56:00",377906,64,223,"First you state that ' fetus' and ' infant ' have no definite meanings then you dispute that their meanings are subjective.
You contadict yourself in the same post.
The terms fetus and infant seem to be interchangable.
An aborted 27 week fetus remains a fetus and a 27 week premature born fetus is elevated to the status of infant",377905,10,8503,1,"Who believes that, exactly? ""Fetus"" and ""infant"" are terms that have meanings. We can use them however we want, but that doesn't mean that we're using them correctly.

Believe what you will. If birth happened, it's an infant. If not, it's a fetus.

No, because birth happened, albeit prematurely. That said, a prematurely born infant is still going through stages of what is ordinarily fetal development.

Birth. It's pretty straightforward.

To repeat, believe what you will. ""Fetus"" and ""infant"" will mean what they mean, regardless of what you believe or don't.

What's subjective about it? Birth is an observable process, and marks the divide between normal prenatal and normal postnatal development. If birth happens too early, then what is normally part of the prenatal stage will have to be developed postnatally. Where is there anything subjective about this?","http://www.4forums.com/political/abortion-debates/12172-attention-fetus-worshipers.html",442303,224
"1-8503_227_224_10",8503,1,"2011-11-02 09:15:00",1209,746,442307,"2011-11-02 09:06:00",377909,103,224,"How is pointing out that terms can be misapplied an indication of contradiction?!? We are always free to disregard the standard of application for a term. That doesn't mean that such usage is correct. And in fact, the idea of a correct usage presupposes that the standard is something non-subjective.
Perhaps of the two of us, I'm not the one who misunderstood what I wrote?

And yet, they're not. Infants have been born; fetuses have not.

BECAUSE BIRTH IS THE DIVIDING LINE. HOW OFTEN DOES IT NEED TO BE SAID?",377906,10,8503,1,"First you state that ' fetus' and ' infant ' have no definite meanings then you dispute that their meanings are subjective.
You contadict yourself in the same post.
The terms fetus and infant seem to be interchangable.
An aborted 27 week fetus remains a fetus and a 27 week premature born fetus is elevated to the status of infant","http://www.4forums.com/political/abortion-debates/12172-attention-fetus-worshipers.html",442304,227
"1-8503_228_227_10",8503,1,"2011-11-02 09:19:00",746,1209,442308,"2011-11-02 09:15:00",377910,43,227,"IF BIRTH IS THE DIVIDING LINE THEN AN INDUCED( induced labour) ABORTION MAKES THE FETUS AN INFANT THEN DOESNT IT.
Arent capital letters fun?
Perhaps of the two us you are the one who misunderstood what you wrote?",377909,10,8503,1,"How is pointing out that terms can be misapplied an indication of contradiction?!? We are always free to disregard the standard of application for a term. That doesn't mean that such usage is correct. And in fact, the idea of a correct usage presupposes that the standard is something non-subjective.
Perhaps of the two of us, I'm not the one who misunderstood what I wrote?

And yet, they're not. Infants have been born; fetuses have not.

BECAUSE BIRTH IS THE DIVIDING LINE. HOW OFTEN DOES IT NEED TO BE SAID?","http://www.4forums.com/political/abortion-debates/12172-attention-fetus-worshipers.html",442307,228
"1-8503_231_228_10",8503,1,"2011-11-02 09:38:00",1209,746,442312,"2011-11-02 09:19:00",377913,187,228,"Yes, it does. Why do you think I would disagree with this?
If you look at my immediately preceding post, you'll note that I agree, this is partly true. Any method of abortion that causes birth would make the fetus no longer a fetus. I agree with that assessment. Nothing I said earlier would give any indication otherwise, except that you evidently felt like jumping to conclusions about my position and adding things to it that weren't there.
However, as I also said in my now immediately preceding post, you'll note that it is false that abortion always results in birth. Late term abortions and early term abortions are quite different.

Yup. Logic is fun, too. Try it.

Nope. Perhaps -- no strike that: without any doubt -- as noted above, you added in a bunch of stuff to my position that I didn't say, and then proceeded to criticize me for the stuff you added than for the stuff that I actually said.",377910,10,8503,1,"IF BIRTH IS THE DIVIDING LINE THEN AN INDUCED( induced labour) ABORTION MAKES THE FETUS AN INFANT THEN DOESNT IT.
Arent capital letters fun?
Perhaps of the two us you are the one who misunderstood what you wrote?","http://www.4forums.com/political/abortion-debates/12172-attention-fetus-worshipers.html",442308,231
"1-8503_233_231_10",8503,1,"2011-11-02 09:42:00",746,1209,442314,"2011-11-02 09:38:00",377915,124,231,"IF BIRTH IS THE DIVIDING LINE THEN AN INDUCED( induced labour) ABORTION MAKES THE FETUS AN INFANT THEN DOESNT IT.
I have been asserting the above for several posts .
I have expressed time and time again that if the fetus was not defined as a infant after birth then the definition would be subjective.
You seemed to be more intent to copy and paste what was irrelevant than actually read my posts.
I try to keep it simple.
EDIT..actually I never actually asserted that the above was correct but after questioning the validity of the opposing view ad nauseum I suppose I expected another poster to assume I believed the opposite of what I opposed",377913,10,8503,1,"Yes, it does. Why do you think I would disagree with this?
If you look at my immediately preceding post, you'll note that I agree, this is partly true. Any method of abortion that causes birth would make the fetus no longer a fetus. I agree with that assessment. Nothing I said earlier would give any indication otherwise, except that you evidently felt like jumping to conclusions about my position and adding things to it that weren't there.
However, as I also said in my now immediately preceding post, you'll note that it is false that abortion always results in birth. Late term abortions and early term abortions are quite different.

Yup. Logic is fun, too. Try it.

Nope. Perhaps -- no strike that: without any doubt -- as noted above, you added in a bunch of stuff to my position that I didn't say, and then proceeded to criticize me for the stuff you added than for the stuff that I actually said.","http://www.4forums.com/political/abortion-debates/12172-attention-fetus-worshipers.html",442312,233
"1-8503_207_206_11",8503,1,"2011-11-01 13:33:00",1917,746,442249,"2011-11-01 10:27:00",377889,18,206,"What is YOUR definition?
What do you mean by ""taken out""?
Please clarify.",377888,11,8503,1,"If a fetus is taken out of the womb and manages to live for an hour before dying.
What is the definition of the creature from the time it leaves the womb until it finally expires, fetus or infant?","http://www.4forums.com/political/abortion-debates/12172-attention-fetus-worshipers.html",442243,207
"1-8503_208_207_11",8503,1,"2011-11-01 13:36:00",746,1917,442250,"2011-11-01 13:33:00",377890,22,207,"To be honest I would prefer an answer from someone who doesnt answer a simple question by asking two stupid ones.",377889,11,8503,1,"What is YOUR definition?
What do you mean by ""taken out""?
Please clarify.","http://www.4forums.com/political/abortion-debates/12172-attention-fetus-worshipers.html",442249,208
"1-8503_209_208_11",8503,1,"2011-11-01 16:33:00",1917,746,442260,"2011-11-01 13:36:00",377891,21,208,"To be honest, I would prefer that one who asks a question be clewar about what is being asked.",377890,11,8503,1,"To be honest I would prefer an answer from someone who doesnt answer a simple question by asking two stupid ones.","http://www.4forums.com/political/abortion-debates/12172-attention-fetus-worshipers.html",442250,209
"1-8503_210_209_11",8503,1,"2011-11-01 16:43:00",746,1917,442261,"2011-11-01 16:33:00",377892,11,209,"Then dont respond. I never asked you the question.",377891,11,8503,1,"To be honest, I would prefer that one who asks a question be clewar about what is being asked.","http://www.4forums.com/political/abortion-debates/12172-attention-fetus-worshipers.html",442260,210
"1-8503_211_210_11",8503,1,"2011-11-01 20:31:00",1917,746,442266,"2011-11-01 16:43:00",377893,41,210,"Since the question as not directed at anyone in particular, all are free to either answer it or ask for clarification.
Are you referring, for example, to a very premature C-section birth or something else?emoticonXConfused",377892,11,8503,1,"Then dont respond. I never asked you the question.","http://www.4forums.com/political/abortion-debates/12172-attention-fetus-worshipers.html",442261,211
"1-8503_214_211_11",8503,1,"2011-11-02 03:01:00",746,1917,442277,"2011-11-01 20:31:00",377896,25,211,"Not anyone in particular but not to imbeciles who answer a simple question with two stupid ones. Sorry I didnt make that clear.",377893,11,8503,1,"Since the question as not directed at anyone in particular, all are free to either answer it or ask for clarification.
Are you referring, for example, to a very premature C-section birth or something else?emoticonXConfused","http://www.4forums.com/political/abortion-debates/12172-attention-fetus-worshipers.html",442266,214
"1-8503_274_214_11",8503,1,"2011-11-08 05:54:00",1917,746,442685,"2011-11-02 03:01:00",377956,38,214,"Is it really necessary to resort to ad hominem comments?
After all, they reflect more on the writer than the intended target.
Now, do you care to answer the question or not?emoticonXBanghead",377896,11,8503,1,"Not anyone in particular but not to imbeciles who answer a simple question with two stupid ones. Sorry I didnt make that clear.","http://www.4forums.com/political/abortion-debates/12172-attention-fetus-worshipers.html",442277,274
"1-8503_282_274_11",8503,1,"2011-11-09 14:21:00",746,1917,442762,"2011-11-08 05:54:00",377964,44,274,"You obviously do not know the difference between ad hominem and insults.
No I do not care to answer the question for reasons that I have explained in a previous postemoticonXRolleyes
Calling an imbecile an imbecile is a description not an insult.",377956,11,8503,1,"Is it really necessary to resort to ad hominem comments?
After all, they reflect more on the writer than the intended target.
Now, do you care to answer the question or not?emoticonXBanghead","http://www.4forums.com/political/abortion-debates/12172-attention-fetus-worshipers.html",442685,282
"1-8503_413_412_12",8503,1,"2011-12-22 12:00:00",746,1917,446170,"2011-12-22 10:42:00",378095,17,412,"I thought the almighty expressed his will in the Bible for mortal men to know it...",378094,12,8503,1,"Let's see if we have this correct.
You are a mortal man and yet you dare speak as though you know the will of the Almighty.
What was that again abut the sins of pride and arrogance?","http://www.4forums.com/political/abortion-debates/12172-attention-fetus-worshipers.html",446157,413
"1-8503_414_413_12",8503,1,"2011-12-23 13:45:00",1917,746,446246,"2011-12-22 12:00:00",378096,53,413,"Well, if you want to check your brain while you read that book, I suppose that's your choice.
If there were to be only one interpretation of that book, how come there are so many sects of folks all calling themselves the One True [Christian] Faith?",378095,12,8503,1,"I thought the almighty expressed his will in the Bible for mortal men to know it...","http://www.4forums.com/political/abortion-debates/12172-attention-fetus-worshipers.html",446170,414
"1-8503_417_414_12",8503,1,"2011-12-23 14:01:00",746,1917,446252,"2011-12-23 13:45:00",378099,48,414,"There was only one Karl Marx who had one vision that he expressed in his works but there were several versions of that vision expressed in the ' communist' countries that followed them.
Thats the way humans are and an old dog should know that .",378096,12,8503,1,"Well, if you want to check your brain while you read that book, I suppose that's your choice.
If there were to be only one interpretation of that book, how come there are so many sects of folks all calling themselves the One True [Christian] Faith?","http://www.4forums.com/political/abortion-debates/12172-attention-fetus-worshipers.html",446246,417
"1-8503_418_417_12",8503,1,"2011-12-23 18:51:00",1917,746,446273,"2011-12-23 14:01:00",378100,39,417,"So those who say that the ""Christian writings"" condone AND condemn abortion are BOTH correct (""Several versions of that vision."" - NICE!)emoticonXHoho
At long last, there is agreement.",378099,12,8503,1,"There was only one Karl Marx who had one vision that he expressed in his works but there were several versions of that vision expressed in the ' communist' countries that followed them.
Thats the way humans are and an old dog should know that .","http://www.4forums.com/political/abortion-debates/12172-attention-fetus-worshipers.html",446252,418
"1-8503_421_418_12",8503,1,"2011-12-24 01:40:00",746,1917,446292,"2011-12-23 18:51:00",378103,18,418,"What are you on about you silly old fart and how does that relate to my post?",378100,12,8503,1,"So those who say that the ""Christian writings"" condone AND condemn abortion are BOTH correct (""Several versions of that vision."" - NICE!)emoticonXHoho
At long last, there is agreement.","http://www.4forums.com/political/abortion-debates/12172-attention-fetus-worshipers.html",446273,421
"1-8503_57_55_13",8503,1,"2009-12-07 19:06:00",1069,759,381808,"2009-12-07 18:30:00",377739,119,55,"Your website (which, incidentally, was created by a pro-life freshman) is based entirely on the fact that the mother's immune system can treat the ZEF as an invader - the quoted references simply state this fact, it is the website which makes further implications. This immune response is identical to how the immune system sometimes reacts to an organ transplant when rejection occurs - following your logic (as before), a transplanted organ is not part of the recipient's body. Clearly this isn't the case.
romebigred: I agree with much of what you are saying. I'll save a response until you complete your reply, though.",377737,13,8503,1,"Your attempts to baffle the readers with Bull excrement asside,... the answer to the question ""is a human fetus a part of his/her mother's body?"" is a resounding NO!
Next! ","http://www.4forums.com/political/abortion-debates/12172-attention-fetus-worshipers.html",381802,57
"1-8503_58_57_13",8503,1,"2009-12-07 19:34:00",759,1069,381813,"2009-12-07 19:06:00",377740,59,57,"The fact is,.. a transplanted organ is NOT ""part of"" a recepient's body. At least it is not a ""part of..."" in the sense that you are suggesting it is.
Can you provide any scientific references that claim that it is?
I'll be waiting.
It's not in this one",377739,13,8503,1,"... following your logic (as before), a transplanted organ isnot part of the recipient's body..","http://www.4forums.com/political/abortion-debates/12172-attention-fetus-worshipers.html",381808,58
"1-8503_70_58_13",8503,1,"2009-12-10 10:09:00",1069,759,382157,"2009-12-07 19:34:00",377752,166,58,"Borderline. Ultimately, though, I would probably not, for a couple of reasons.
Firstly, there is no real attachment between host and tapeworm - it's simply that the tapeworm has got it's teeth into the wall and isn't letting go.
Secondly, the tapeworm is an organism in it's own right. Yes, I know you think a foetus is also - you have yet to show, however, that such a scientific consensus exists.

As a matter of fact...
Merriam-Webbster defines the placenta as the ""organ in mammals except monotremes and marsupials that unites the fetus to the maternal uterus"" (bold mine).
Just in case you were wondering about that bolded word - the first definitions for unite are ""1 a : to put together to form a single unit"" or ""1 a : to become one or as if one"", depending on context.",377740,13,8503,1,"The fact is,.. a transplanted organ is NOT ""part of"" a recepient's body. At least it is not a ""part of..."" in the sense that you are suggesting it is.
Can you provide any scientific references that claim that it is?
I'll be waiting.
It's not in this one","http://www.4forums.com/political/abortion-debates/12172-attention-fetus-worshipers.html",381813,70
"1-8503_72_70_13",8503,1,"2009-12-11 04:06:00",759,1069,382270,"2009-12-10 10:09:00",377754,20,70,"Short on time; Can you tell me (in mammals) which organism creates and developes the placenta?",377752,13,8503,1,"Borderline. Ultimately, though, I would probably not, for a couple of reasons.
Firstly, there is no real attachment between host and tapeworm - it's simply that the tapeworm has got it's teeth into the wall and isn't letting go.
Secondly, the tapeworm is an organism in it's own right. Yes, I know you think a foetus is also - you have yet to show, however, that such a scientific consensus exists.

As a matter of fact...
Merriam-Webbster defines the placenta as the ""organ in mammals except monotremes and marsupials that unites the fetus to the maternal uterus"" (bold mine).
Just in case you were wondering about that bolded word - the first definitions for unite are ""1 a : to put together to form a single unit"" or ""1 a : to become one or as if one"", depending on context.","http://www.4forums.com/political/abortion-debates/12172-attention-fetus-worshipers.html",382157,72
"1-8503_73_72_13",8503,1,"2009-12-11 09:58:00",1069,759,382293,"2009-12-11 04:06:00",377755,85,72,"Wikipedia tells all - ""The placenta develops from the same sperm and egg cells that form the fetus, and functions as a fetomaternal organ""
In short - it originates from the zygote, but is considered part of both foetus and mother - hence the 'unite' in Merriam-Webster, I would imagine. However, asking 'what organism does the placenta come from' is a loaded and misleading question, as the zygote is not an organism.",377754,13,8503,1,"Short on time; Can you tell me (in mammals) which organism creates and developes the placenta?","http://www.4forums.com/political/abortion-debates/12172-attention-fetus-worshipers.html",382270,73
"1-8503_77_73_13",8503,1,"2009-12-11 21:08:00",759,1069,382327,"2009-12-11 09:58:00",377759,123,73,"No, Ian... check the DNA. The placenta (as you have already posted) is an ""organ"" it's 100% created by the new ""organism"" which was created by the union of the sperm and egg. 
Maybe this will help; ""placenta- The organ formed on the wall of the uterus by the developing embryo that provides oxygen and other nourishment from the woman to her fetus and through which waste products are eliminated from the fetus.""- Planned Parenthood
Your willfull (deliberate) ignorance on these details is the very reason I view further debate with you to be a waste of time that can be better spent elsewhere.",377755,13,8503,1,"Wikipedia tells all - ""The placenta develops from the same sperm and egg cells that form the fetus, and functions as a fetomaternal organ""
In short - it originates from the zygote, but is considered part of both foetus and mother - hence the 'unite' in Merriam-Webster, I would imagine. However, asking 'what organism does the placenta come from' is a loaded and misleading question, as the zygote is not an organism.","http://www.4forums.com/political/abortion-debates/12172-attention-fetus-worshipers.html",382293,77
"1-8503_85_84_13",8503,1,"2009-12-14 14:27:00",1069,759,382616,"2009-12-14 14:12:00",377767,118,84,"I could say exactly the same to you on the validity/truth of my three sources.
My claim is that there is no scientific consensus on the matter. The fact that you and I have each found three differing opinions strongly supports this.
There is no scientific consensus that a zygote is an organism. There is no scientific consensus that it is not. All there is on the matter, as quoted above, is philosophy and semantics. Nothing more.
EDIT: Incidentally, we are basically continuing the more formal thread here at the moment. Feel free to take it back over there if you would like.",377766,14,8503,1,"Ian,.. are all those sources that I provided (including the one from Planned parenthood),... every one of those sites which calls a zygote"" an ""organism""...
Are they all wrong in that conclusion?
And You are the one that is right about it (in your claims that it is not)?
Is that your claim?","http://www.4forums.com/political/abortion-debates/12172-attention-fetus-worshipers.html",382607,85
"1-8503_86_85_13",8503,1,"2009-12-14 15:06:00",759,1069,382619,"2009-12-14 14:27:00",377768,22,85,"Are zygotes alive, Ian?
Let me rephrase....
Is there such a thing as a ""living"" zygote?",377767,14,8503,1,"My claim is thatthere is no scientific consensus on the matter. The fact that you and I have each found three differing opinions strongly supports this.
There is no scientific consensus that a zygote is an organism. There is no scientific consensus that it is not. All there is on the matter, as quoted above, is philosophy and semantics. Nothing more.
EDIT: Incidentally, we are basically continuing the more formal thread here at the moment. Feel free to take it back over there if you would like.","http://www.4forums.com/political/abortion-debates/12172-attention-fetus-worshipers.html",382616,86
"1-8503_87_86_13",8503,1,"2009-12-14 15:24:00",1069,759,382622,"2009-12-14 15:06:00",377769,86,86,"You asked me, so I assume you are asking for my opinion, not that of the scientific consensus. Sorry, just getting a bit pre-emptive.
IMO, there is such a thing as 'a living zygote' in the same way that there is such a thing as 'a living sperm' or 'a living skin cell'. On a cellular level - perfectly alive. On a 'personhood' level - not alive at all.",377768,14,8503,1,"Are zygotes alive, Ian?
Let me rephrase....
Is there such a thing as a ""living"" zygote?","http://www.4forums.com/political/abortion-debates/12172-attention-fetus-worshipers.html",382619,87
"1-8503_88_87_13",8503,1,"2009-12-14 15:30:00",759,1069,382624,"2009-12-14 15:24:00",377770,63,87,"I see. 
So, in the case of a ""human"" zygote....
Again, biologically speaking.... a ""human"" zygote is in your opinion... ""alive""
That is to say ""it (a living human zygote) is alive in as much as a living sperm cell is alive.""
Is this correct?",377769,14,8503,1,"You asked me, so I assume you are asking for my opinion, not that of the scientific consensus. Sorry, just getting a bit pre-emptive.
IMO, there is such a thing as 'a living zygote' in the same way that there is such a thing as 'a living sperm' or 'a living skin cell'. On a cellular level - perfectly alive. On a 'personhood' level - not alive at all.","http://www.4forums.com/political/abortion-debates/12172-attention-fetus-worshipers.html",382622,88
"1-8503_89_88_13",8503,1,"2009-12-14 15:43:00",1069,759,382629,"2009-12-14 15:30:00",377771,45,88,"That is correct - in fact, it's tautological (see the bolded two parts from your quote). I feel that a relevant quote here would be one of my own - from the Challengers Corner thread, the early post #9.

",377770,14,8503,1,"Again, biologically speaking.... a ""human"" zygote is in your opinion... ""alive""
That is to say ""it (a living human zygote) is alive in as much as a living sperm cell is alive.""
Is this correct? ","http://www.4forums.com/political/abortion-debates/12172-attention-fetus-worshipers.html",382624,89
"1-8503_90_89_13",8503,1,"2009-12-14 15:48:00",759,1069,382630,"2009-12-14 15:43:00",377772,15,89,"I don't have the time to continue this tonight.
Can we resume tomorrow?",377771,14,8503,1,"That is correct - in fact, it's tautological (see the bolded two parts from your quote). I feel that a relevant quote here would be one of my own - from the Challengers Corner thread, the early post #9.

","http://www.4forums.com/political/abortion-debates/12172-attention-fetus-worshipers.html",382629,90
"1-8503_91_90_13",8503,1,"2009-12-14 15:51:00",1069,759,382632,"2009-12-14 15:48:00",377773,115,90,"emoticonXConfused
You don't need to ask my permission to make a post. Continue when you have time - I will do the same. I would restate, though, that this would make for better posting in the 'challengers corner' thread, as it is highly relevant and is basically a continuation of that argument, from the latest post onwards (even if we now seem to be heading slightly in circles). Plus I don't want to lose sight of my posts with romebigred, which made for very interesting reading.
Where you post, though, just as with when, is up to you.",377772,14,8503,1,"I don't have the time to continue this tonight.
Can we resume tomorrow?","http://www.4forums.com/political/abortion-debates/12172-attention-fetus-worshipers.html",382630,91
