"key","quote_source_post_discussion_id","posts_dataset_id","posts_timestamp","posts_author_id","quote_source_author_id","posts_native_post_id","quote_source_timestamp","post_text_id","Word_Count","quote_source_post_id","post_text","quote_source_text_id","Dialog_Turn","posts_discussion_id","quote_source_post_dataset_id","Fullquote_text","discussion_url","quote_source_native_post_id","posts_post_id"
"1-8533_16_13_1",8533,1,"2009-01-13 16:22:00",51,1142,340141,"2009-01-13 14:56:00",379615,63,13,"I read a study from Australia that said 70% of the women who got an abortion were using the birth control pill. 
I guess you could say these people are trying not to get pregnant but what I see is that people should know that you still can get pregnant and that you need to know that risk and accept it.",379612,1,8533,1,"A couple of points need to be made:
1) First, though I agree with you that people should act more responsibly where their sexuality is concerned, it should be pointed out that, as Simone implied, when you only criticize one partner, it does seem that you are presenting an illogical double standard of morality. Such a double standard would then make readers lose respect for your moral stance.
2) Even anticonceptive precautions fail ~1% of the time so responsible sexuality does not guarantee protection from an unwanted pregnancy.
3) If, either through irresponsible sexuality or bad luck of failed contraceptives, a woman gets an unwanted pregnancy, then the decision of whether or not she should be allowed to get an abortion should not depend on how she got pregnant but on general factors of rights of woman over her own body vs potential rights of the fetus. Indeed, if a woman did get pregnant through irresponsibility, then that would only ADD to the arguement of her getting an abortion since there would be a bigger risk of her being an irresponsible parent than if she simply got pregnant through bad luck of failed contraceptives.","http://www.4forums.com/political/abortion-debates/12211-poverty-pregnancy.html",340130,16
"1-8533_26_16_1",8533,1,"2009-01-14 07:36:00",1142,51,340204,"2009-01-13 16:22:00",379625,220,16,"Yes, people are taking a risk in having sex where the risk is higher the fewer precautions are taken. For example, with no contraceptives, there is a high risk of pregnancy. Using one contraceptive treatment runs a low risk but still significant for frequent enough sex. Whereas, doubling up on contraceptives (ex. condom plus the pill) would probably run a very low risk - just judging by statistics alone. For those that think that one treatment is enough (ex. condoms), I suspect that they do not take the statistics into account or just assume that they will not be the unlucky 1% that have the condoms fail.
Either way, people who engage in sex do need to understand that there is a risk of unwanted pregnancies and STDs. However, the ethical question of how to deal with the consequences of unsafe sex is different than the ethical question of human sexuality. Having an unwanted pregnancy certainly puts a woman in a very difficult position, but I would contest that keeping the child is the only responsible alternative as, I would guess, you would claim. Abortion is also a responsible alternative - depending on the situation.",379615,1,8533,1,"I read a study from Australia that said 70% of the women who got an abortion were using the birth control pill. 
I guess you could say these people are trying not to get pregnant but what I see is that people should know that you still can get pregnant and that you need to know that risk and accept it.","http://www.4forums.com/political/abortion-debates/12211-poverty-pregnancy.html",340141,26
"1-8533_28_26_1",8533,1,"2009-01-14 09:53:00",51,1142,340218,"2009-01-14 07:36:00",379627,21,26,"I am saying that the measures a person takes to not get pregnant are irrelevant to the debate on abortion.",379625,1,8533,1,"Yes, people are taking a risk in having sex where the risk is higher the fewer precautions are taken. For example, with no contraceptives, there is a high risk of pregnancy. Using one contraceptive treatment runs a low risk but still significant for frequent enough sex. Whereas, doubling up on contraceptives (ex. condom plus the pill) would probably run a very low risk - just judging by statistics alone. For those that think that one treatment is enough (ex. condoms), I suspect that they do not take the statistics into account or just assume that they will not be the unlucky 1% that have the condoms fail.
Either way, people who engage in sex do need to understand that there is a risk of unwanted pregnancies and STDs. However, the ethical question of how to deal with the consequences of unsafe sex is different than the ethical question of human sexuality. Having an unwanted pregnancy certainly puts a woman in a very difficult position, but I would contest that keeping the child is the only responsible alternative as, I would guess, you would claim. Abortion is also a responsible alternative - depending on the situation.","http://www.4forums.com/political/abortion-debates/12211-poverty-pregnancy.html",340204,28
"1-8533_29_28_1",8533,1,"2009-01-14 11:00:00",1142,51,340232,"2009-01-14 09:53:00",379628,98,28,"I did misunderstand your post, then. Yes, I would agree that the measures that a person takes to not get pregnant (or indeed any aspect of their sexual lifestyle) are largely irrelevant to the debate on abortion. Of course, I am sure that we continue to disagree as to what the viable responsible options are when it comes to handling an unwanted pregnancy but, as you would agree, that discussion is independent from the discussion about the responsibility people have to not get pregnant in the first place.",379627,1,8533,1,"I am saying that the measures a person takes to not get pregnant are irrelevant to the debate on abortion.","http://www.4forums.com/political/abortion-debates/12211-poverty-pregnancy.html",340218,29
"1-8533_30_29_1",8533,1,"2009-01-14 12:40:00",51,1142,340243,"2009-01-14 11:00:00",379629,90,29,"Actually I think we agree on the responsible options for handling an unwanted pregnancy. 
Basically we both feel that once a human is valued (I use value to mean something like it has a right to live) than the responsible thing to do is care for the baby until born. The difference seems to be what is valued (again I use that term very broadly). I think a human is always valued while you give value to some level of brain function.",379628,1,8533,1,"I did misunderstand your post, then. Yes, I would agree that the measures that a person takes to not get pregnant (or indeed any aspect of their sexual lifestyle) are largely irrelevant to the debate on abortion. Of course, I am sure that we continue to disagree as to what the viable responsible options are when it comes to handling an unwanted pregnancy but, as you would agree, that discussion is independent from the discussion about the responsibility people have to not get pregnant in the first place.","http://www.4forums.com/political/abortion-debates/12211-poverty-pregnancy.html",340232,30
"1-8533_31_30_1",8533,1,"2009-01-14 13:51:00",1142,51,340247,"2009-01-14 12:40:00",379630,185,30,"Yes, I would agree that we both do set limits on abortion rights once the human is valued. However, I would state my view as only valuing human bodies once there is a ""somebody"" in them. Since I view the core of the existence of people as their mental existence then, yes, in our current understanding of the source of mentality, that involves sufficient brain function. However, if one could prove to me that a mental existence could exist without brain function (ex. a soul) then brain function would be irrelevant. It is the mental existence I value - the mental existence that determines the existence (in my view) of a person. Brain function is secondary and important only in the sense that it achieves that mental function. Unless I have misunderstood your view all along, you value human bodies whether or not they have ""somebody home"" - it is the human life itself that you value, not any existing mentality.",379629,1,8533,1,"Actually I think we agree on the responsible options for handling an unwanted pregnancy. 
Basically we both feel that once a human is valued (I use value to mean something like it has a right to live) than the responsible thing to do is care for the baby until born. The difference seems to be what is valued (again I use that term very broadly). I think a human is always valued while you give value to some level of brain function.","http://www.4forums.com/political/abortion-debates/12211-poverty-pregnancy.html",340243,31
