"key","quote_source_post_discussion_id","posts_dataset_id","posts_timestamp","posts_author_id","quote_source_author_id","posts_native_post_id","quote_source_timestamp","post_text_id","Word_Count","quote_source_post_id","post_text","quote_source_text_id","Dialog_Turn","posts_discussion_id","quote_source_post_dataset_id","Fullquote_text","discussion_url","quote_source_native_post_id","posts_post_id"
"1-8603_25_23_1",8603,1,"2009-02-10 14:47:00",164,746,343598,"2009-02-10 14:33:00",383738,23,23,"OK.
How many infants or children have you adopted or taken in ON YOUR OWN DIME?
A number will suffice.",383736,1,8603,1,"The last sentence was pompous , ridiculous and without any foundation.
As you friend Simone might and probably would say..prove it.","http://www.4forums.com/political/abortion-debates/12319-what-exactly-big-deal.html",343592,25
"1-8603_26_25_1",8603,1,"2009-02-10 14:55:00",746,164,343599,"2009-02-10 14:47:00",383739,57,25,"Iam in the fortunate position not to have had to do it.
If my brother, sister or thier children needed a home I would accept them in a heartbeat. Also I would do it without feeling the need to exhibit any moral superiority as you seem to be doing , albeit by proxy.",383738,1,8603,1,"OK.
How many infants or children have you adopted or taken in ON YOUR OWN DIME?
A number will suffice.","http://www.4forums.com/political/abortion-debates/12319-what-exactly-big-deal.html",343598,26
"1-8603_29_26_1",8603,1,"2009-02-10 15:36:00",164,746,343609,"2009-02-10 14:55:00",383742,15,26,"Nope, simply speaking as one who has been there and done that.:)",383739,1,8603,1,"Iam in the fortunate position not to have had to do it.
If my brother, sister or thier children needed a home I would accept them in a heartbeat. Also I would do it without feeling the need to exhibit any moral superiority as you seem to be doing , albeit by proxy.","http://www.4forums.com/political/abortion-debates/12319-what-exactly-big-deal.html",343599,29
"1-8603_30_29_1",8603,1,"2009-02-10 15:59:00",746,164,343615,"2009-02-10 15:36:00",383743,36,29,"Haven't we all . The difference is some of us know that most people have or will and that it does not make us a fount of knowledge. As you show us so well.",383742,1,8603,1,"Nope, simply speaking as one who has been there and done that.:)","http://www.4forums.com/political/abortion-debates/12319-what-exactly-big-deal.html",343609,30
"1-8603_31_30_1",8603,1,"2009-02-10 18:03:00",164,746,343619,"2009-02-10 15:59:00",383744,33,30,"Really.
You said jus a few posts ago that you had not adopted any children.
Were you ""misspeaking"" then, or are you ""misspeaking"" now?emoticonXAngry",383743,1,8603,1,"Haven't we all . The difference is some of us know that most people have or will and that it does not make us a fount of knowledge. As you show us so well.","http://www.4forums.com/political/abortion-debates/12319-what-exactly-big-deal.html",343615,31
"1-8603_32_31_1",8603,1,"2009-02-11 04:29:00",746,164,343660,"2009-02-10 18:03:00",383745,100,31,"BTW, my wife's brother is dying of cancer. He has a 17-year old son whose mother died when this boy was a toddler. One of my wife's sisters and her husband have told her brother, ""We will take the boy in and love him as our own.""
This was part of your post. It would seem that you are basking in someones elses glory!
Or will you now invent an adoption of your own to make up for it.
Been there and done that? It doesn't show",383744,1,8603,1,"Really.
You said jus a few posts ago that you had not adopted any children.
Weer you ""misspeaking"" then, or are you ""misspeaking"" now?emoticonXAngry","http://www.4forums.com/political/abortion-debates/12319-what-exactly-big-deal.html",343619,32
"1-8603_33_32_1",8603,1,"2009-02-11 05:05:00",164,746,343664,"2009-02-11 04:29:00",383746,40,32,"Nice try, but the question was about YOU.
BTW, my adopted son is now 37-years old, so the question remains.
If you care to check, that's the year RvW came down.",383745,1,8603,1,"BTW, my wife's brother is dying of cancer. He has a 17-year old son whose mother died when this boy was a toddler. One of my wife's sisters and her husband have told her brother, ""We will take the boy in and love him as our own.""
This was part of your post. It would seem that you are basking in someones elses glory!
Or will you now invent an adoption of your own to make up for it.
Been there and done that? It doesn't show","http://www.4forums.com/political/abortion-debates/12319-what-exactly-big-deal.html",343660,33
"1-8603_34_33_1",8603,1,"2009-02-11 05:23:00",746,164,343671,"2009-02-11 05:05:00",383747,22,33,"No the question was about you!
By the way have I told you about my Granma who joined the foreign legionemoticonXClown",383746,1,8603,1,"Nice try, but the question was about YOU.
BTW, my adopted son is now 37-years old, so the question remains.
If you care to check, that's the year RvW came down.","http://www.4forums.com/political/abortion-debates/12319-what-exactly-big-deal.html",343664,34
"1-8603_35_34_1",8603,1,"2009-02-11 09:12:00",164,746,343689,"2009-02-11 05:23:00",383748,68,34,"That must make her tougher than shoe leather. You go, girl.
Now, the question still remains for you and the other restrictionists here.
Have you adopted any of the ""babies"" you fought so hard to save when they were fetuses, or does your concern for them end at their birth or with you throwing a few coins their way?",383747,1,8603,1,"No the question was about you!
By the way have I told you about my Granma who joined the foreign legionemoticonXClown","http://www.4forums.com/political/abortion-debates/12319-what-exactly-big-deal.html",343671,35
"1-8603_37_35_1",8603,1,"2009-02-11 11:31:00",746,164,343705,"2009-02-11 09:12:00",383750,86,35,"No the question remains that when challenged for questioning someones intergrity, you cited someone elses selfless deed to qualify yourself to ask the question. 
When this was pointed out you asked me whether I had done the same thing as this other person. 
When it was pointed out that YOU were basking in anothers glory it transpires that you had done the very same thing.
You may be showing signs of being a keyboard hero.
Unlike my Grandmother of course.",383748,1,8603,1,"That must make her tougher than shoe leather. You go, girl.
Now, the question still remains for you and the other restrictionists here.
Have you adopted any of the ""babies"" you fought so hard to save when they were fetuses, or does your concern for them end at their birth or with you throwing a few coins their way?","http://www.4forums.com/political/abortion-debates/12319-what-exactly-big-deal.html",343689,37
"1-8603_39_37_1",8603,1,"2009-02-11 15:45:00",164,746,343745,"2009-02-11 11:31:00",383752,92,37,"My adopted 37-year old son might just have a difference of opinion with you, silly woman.
Now, how many of the ""babies"" that YOU fought to save when they were nothing but fetuses have you adopted once they were born, or does your concern for the little dears end with their birth.
Or are you, like AO, content to throw a few coins their way and consider your moral obligation complete?
Next time, get your facts straight.emoticonXAngry",383750,1,8603,1,"No the question remains that when challenged for questioning someones intergrity, you cited someone elses selfless deed to qualify yourself to ask the question. 
When this was pointed out you asked me whether I had done the same thing as this other person. 
When it was pointed out that YOU were basking in anothers glory it transpires that you had done the very same thing.
You may be showing signs of being a keyboard hero.
Unlike my Grandmother of course.","http://www.4forums.com/political/abortion-debates/12319-what-exactly-big-deal.html",343705,39
"1-8603_41_39_1",8603,1,"2009-02-12 13:50:00",746,164,343864,"2009-02-11 15:45:00",383754,57,39,"What facts?
Your adopted 37 year old son is as real as my foreign legionnaire grandmother!
Your argument that I should adopt the fetus that I save is as valid as an argument that I should fund the dialysis of a person with a damaged kidney!
BTW you are a silly woman too!",383752,1,8603,1,"My adopted 37-year old son might just have a difference of opinion with you, silly woman.
Now, how many of the ""babies"" that YOU fought to save when they were nothing but fetuses have you adopted once they were born, or does your concern for the little dears end with their birth.
Or are you, like AO, content to throw a few coins their way and consider your moral obligation complete?
Next time, get your facts straight.emoticonXAngry","http://www.4forums.com/political/abortion-debates/12319-what-exactly-big-deal.html",343745,41
"1-8603_42_41_1",8603,1,"2009-02-12 14:04:00",164,746,343870,"2009-02-12 13:50:00",383755,20,41,"I hope the old gal is doing well. I hear that the training puts our Seals to shame.",383754,1,8603,1,"What facts?
Your adopted 37 year old son is as real as my foreign legionnaire grandmother!
Your argument that I should adopt the fetus that I save is as valid as an argument that I should fund the dialysis of a person with a damaged kidney!
BTW you are a silly woman too!","http://www.4forums.com/political/abortion-debates/12319-what-exactly-big-deal.html",343864,42
"1-8603_43_42_1",8603,1,"2009-02-12 14:07:00",746,164,343871,"2009-02-12 14:04:00",383756,28,42,"I never really liked seals, They cant juggle footballs and play horns like sea lions.
Actually she smells a little bit like a sea lion.....",383755,1,8603,1,"I hope the old gal is doing well. I hear that the training puts our Seals to shame.","http://www.4forums.com/political/abortion-debates/12319-what-exactly-big-deal.html",343870,43
"1-8603_6_5_2",8603,1,"2009-02-06 09:15:00",931,421,342997,"2009-02-06 05:38:00",383719,134,5,"I perceive that you are a new poster here, which is bound to happen. This necessarily means that it is unlikely that you know my views, which is understandable. I am pro-life. You need not take my word for that; you need only read some of my past postings, or ask anyone who has frequented the forums before.

Though I am happy you realized my sarcastic tone, I can't pretend I'm not disappointed given all my past discussions on this topic in which you have participated. I should have thought my pro life views were well established.
Consider, for example, the following exchanges when I critiqued your view because it was not pro-life enough: 1, 2, 3.",383718,2,8603,1,"If I also misinterpreted the gist of Phyllis's sarcasm, then I apologize to her. And I agree with you assessment of the situation as stated in the article.","http://www.4forums.com/political/abortion-debates/12319-what-exactly-big-deal.html",342974,6
"1-8603_7_6_2",8603,1,"2009-02-06 11:03:00",421,931,343008,"2009-02-06 09:15:00",383720,115,6,"Hi Phyllis, excuse my confusion, The last thing I want to do is marginalize or antagonize an ally. One piece of advice though, in case you're not aware of it; at the top right corner of each post you want to quote is a permalink. If you copy that and past it to the post, the intended post will appear when clicked on. What you have done is posted complete threads which must be waded through to find the intended post. And depending on the thread and poster, determining that might be difficult or impossible. Just so you know for future reference. emoticonXAngel",383719,2,8603,1,"I perceive that you are a new poster here, which is bound to happen. This necessarily means that it is unlikely that you know my views, which is understandable. I am pro-life. You need not take my word for that; you need only read some of my past postings, or ask anyone who has frequented the forums before.

Though I am happy you realized my sarcastic tone, I can't pretend I'm not disappointed given all my past discussions on this topic in which you have participated. I should have thought my pro life views were well established.
Consider, for example, the following exchanges when I critiqued your view because it was not pro-life enough: 1, 2, 3.","http://www.4forums.com/political/abortion-debates/12319-what-exactly-big-deal.html",342997,7
"1-8603_8_7_2",8603,1,"2009-02-06 12:31:00",931,421,343014,"2009-02-06 11:03:00",383721,20,7,"Each of the links I posted point right to the intended post within the context of the entire thread.",383720,2,8603,1,"Hi Phyllis, excuse my confusion, The last thing I want to do is marginalize or antagonize an ally. One piece of advice though, in case you're not aware of it; at the top right corner of each post you want to quote is a permalink. If you copy that and past it to the post, the intended post will appear when clicked on. What you have done is posted complete threads which must be waded through to find the intended post. And depending on the thread and poster, determining that might be difficult or impossible. Just so you know for future reference. emoticonXAngel","http://www.4forums.com/political/abortion-debates/12319-what-exactly-big-deal.html",343008,8
"1-8603_9_8_2",8603,1,"2009-02-06 15:02:00",421,931,343032,"2009-02-06 12:31:00",383722,53,8,"Forgive my confusion, but I can't find your criticisms of me in these links. Maybe you can at least tell me the post number in each link that I should go to because I'm interested in reading them. All three links open to post 41, on my computer.",383721,2,8603,1,"Each of the links I posted point right to the intended post within the context of the entire thread.","http://www.4forums.com/political/abortion-debates/12319-what-exactly-big-deal.html",343014,9
"1-8603_10_9_2",8603,1,"2009-02-06 20:52:00",931,421,343048,"2009-02-06 15:02:00",383723,22,9,"Here are the individual posts I linked: 1, 2, 3.
If that doesn't work, nothing will.",383722,2,8603,1,"Forgive my confusion, but I can't find your criticisms of me in these links. Maybe you can at least tell me the post number in each link that I should go to because I'm interested in reading them. All three links open to post 41, on my computer.","http://www.4forums.com/political/abortion-debates/12319-what-exactly-big-deal.html",343032,10
