"key","quote_source_post_discussion_id","posts_dataset_id","posts_timestamp","posts_author_id","quote_source_author_id","posts_native_post_id","quote_source_timestamp","post_text_id","Word_Count","quote_source_post_id","post_text","quote_source_text_id","Dialog_Turn","posts_discussion_id","quote_source_post_dataset_id","Fullquote_text","discussion_url","quote_source_native_post_id","posts_post_id"
"1-8775_30_29_1",8775,1,"2009-04-21 13:22:00",2980,1069,350488,"2009-04-21 00:25:00",390772,75,29,"iangb:

I speak Spanish. My knwoledge of English grammar is not perfect, of course.

Do you know what is breast feeding? Human beings are mammalians?
Do you know what parental duties means?

Are you sure:
a) That a four or five month fetus has not conscience?
b) That a newborn has fully developed conscience?
Do you know when synapses emergence is over?",390771,1,8775,1,"You say you have no religious beliefs... but you capitalise Science? Fair.
The changes that take place at delivery are that the foetus becomes a separate organism, with it's own oxygen supply and it's own food supply rather than sharing it's bloodstream with it's mother. The changes that take place at conception are that new DNA is created. The changes that take place over a period of time during pregnancy is that a foetus gains a complex enough mental state to be called 'concious'. 
What are the changes that take place at blastocyst implantation, and what makes them so significant that you can elevate them above any one of the three 'turning points' above? Science doesn't say that.","http://www.4forums.com/political/abortion-debates/12550-fetusphobia-similar-homophobia.html",350433,30
"1-8775_31_30_1",8775,1,"2009-04-21 17:08:00",1069,2980,350521,"2009-04-21 13:22:00",390773,231,30,"Yes, I know what it is. I also know of mothers who have never breast-fed.
Are you trying to imply that, because a baby is sometimes breast-fed, it retains a biological connection to the mother similar to the umbilical cord? I'd call that stretching the boundaries of 'biological connection', personally...
Before birth, if the mother dies, the foetus dies (with one noticable exception that I know of). After birth, this is no longer the case.

Again, yes. How is this relevant to turning points 'in the eyes of science'? Seeing as that is what we are looking at this with, it would make sense to continue in a scientific vein...

Nope. It's an emergent process. That was my side-point: life is emergent, and does not necessarily have a clear starting point, even if you can agree what 'life' actually is in the first place.
I've answered your questions, could you answer mine? To repeat it - what happens at the point of blastocyst implantation, and what makes that event so significant as to distinguish it from other 'turning points' such as conception, birth or the development of the mental/nervous system?",390772,1,8775,1,"iangb:

I speak Spanish. My knwoledge of English grammar is not perfect, of course.

Do you know what is breast feeding? Human beings are mammalians?
Do you know what parental duties means?

Are you sure:
a) That a four or five month fetus has not conscience?
b) That a newborn has fully developed conscience?
Do you know when synapses emergence is over?","http://www.4forums.com/political/abortion-debates/12550-fetusphobia-similar-homophobia.html",350488,31
"1-8775_32_31_1",8775,1,"2009-04-22 06:54:00",2980,1069,350600,"2009-04-21 17:08:00",390774,99,31,"iangb:

1) Do you know what is a surrogate mother?
2) That is not a ""noticable exception"". That cases are common even in my country.

If parental duties exist towards an extrauterine child, why not towards an intrauterine child?

When a blastocyst is implanted, organogenesis begins, a very active process starts. A blastocist may remain frozen, exactly as sperm.
A human being is not only a clot of cells as morulla is. A human being has organs managed for a brain-nervous system.",390773,1,8775,1,"Yes, I know what it is. I also know of mothers who have never breast-fed.
Are you trying to imply that, because a baby is sometimes breast-fed, it retains a biological connection to the mother similar to the umbilical cord? I'd call that stretching the boundaries of 'biological connection', personally...
Before birth, if the mother dies, the foetus dies (with one noticable exception that I know of). After birth, this is no longer the case. ","http://www.4forums.com/political/abortion-debates/12550-fetusphobia-similar-homophobia.html",350521,32
"1-8775_33_32_1",8775,1,"2009-04-22 12:51:00",1069,2980,350651,"2009-04-22 06:54:00",390775,161,32,"1) Again again, yup. But the baby is not biologically 'parasitic/symbiotic' to the surrogate mother, just as (after birth) it is no longer biologically connected to the biological mother.
2) Do you have some evidence of this? I ask out of unrelated interest - it's not particularly relevant how rare the event is. The mother's body is kept 'alive', despite her brain death.
I'm still waiting for how there is a biological connection post-birth.

Because the majority of the world does not have the same definition of 'child' as you do. You're entitled to your opinion - but you have yet to show why your definition is the one that should be used.

And when a child is born, it begins to breathe on it's own. And an implanted blastocyst does not have individual organs.",390774,1,8775,1,"1) Do you know what is a surrogate mother?
2) That is not a ""noticable exception"". That cases are common even in my country. ","http://www.4forums.com/political/abortion-debates/12550-fetusphobia-similar-homophobia.html",350600,33
"1-8775_34_33_1",8775,1,"2009-04-23 12:13:00",2980,1069,350850,"2009-04-22 12:51:00",390776,224,33,"iangb.

Would you support that a surrogate mother would have the right to kill your loved daughter/son, despite your wife were crying because she loved that child?

Even C section is so called due to Julio Cesar. In the past, often mothers died during delivery. Children were extracted by using that maneuver.
Here in Mexico, cases when a mother died some hours ago but the baby was delivered alive were anecdotic in XXth century. Rubén Leñero, MD, performed that kind of surgeries. Even in recent times, that cases are commented sometimes in newspapers or TV.
As medical science evolves, it is being more evident that the baby and the mother are two separate persons.

Breas feeding. Remember it. Even artifitial incubators are an artifitial connection to an artifitial mother, in some sense.

Are you saying that if the majority of the world say that Earth is flat, it is flat really? Do you know what is an argumentum ad populum?

Are you saying that an adult connected to an artifitial respirator is ""ethically murderable""?

Do you know when spleen, liver, optical nerve, etc., are formed?",390775,1,8775,1,"1) Again again, yup. But the baby is not biologically 'parasitic/symbiotic' to the surrogate mother, just as (after birth) it is no longer biologically connected to the biological mother.
2) Do you have some evidence of this? I ask out of unrelated interest - it's not particularly relevant how rare the event is. The mother's body is kept 'alive', despite her brain death.
I'm still waiting for how there is a biological connection post-birth.

Because the majority of the world does not have the same definition of 'child' as you do. You're entitled to your opinion - but you have yet to show why your definition is the one that should be used.

And when a child is born, it begins to breathe on it's own. And an implanted blastocyst does not have individual organs.","http://www.4forums.com/political/abortion-debates/12550-fetusphobia-similar-homophobia.html",350651,34
"1-8775_59_34_1",8775,1,"2009-04-25 09:46:00",1069,2980,351105,"2009-04-23 12:13:00",390801,146,34,"Again?

How is this related?
By the time my 'daughter/son' was in a state where they could be 'killed', no surrogate mother would have the right to end their life.

If a child is not breast fed, what does this then make the child in your eyes?


I don't really think I need to add to this particular contradiction of yours.

In some cases, absolutely. It happens all the time.
In every case - of course not. The difference, however, is that an adult on a ventilator has already had a mental existence. In the case of abortion, this isn't the case - you're not 'taking away' because there is nothing to take in the first place.

Significantly after blastocyst insertion.",390776,1,8775,1,"iangb.

Would you support that a surrogate mother would have the right to kill your loved daughter/son, despite your wife were crying because she loved that child?

Even C section is so called due to Julio Cesar. In the past, often mothers died during delivery. Children were extracted by using that maneuver.
Here in Mexico, cases when a mother died some hours ago but the baby was delivered alive were anecdotic in XXth century. Rubén Leñero, MD, performed that kind of surgeries. Even in recent times, that cases are commented sometimes in newspapers or TV.
As medical science evolves, it is being more evident that the baby and the mother are two separate persons.

Breas feeding. Remember it. Even artifitial incubators are an artifitial connection to an artifitial mother, in some sense.

Are you saying that if the majority of the world say that Earth is flat, it is flat really? Do you know what is an argumentum ad populum?

Are you saying that an adult connected to an artifitial respirator is ""ethically murderable""?

Do you know when spleen, liver, optical nerve, etc., are formed?","http://www.4forums.com/political/abortion-debates/12550-fetusphobia-similar-homophobia.html",350850,59
