"key","quote_source_post_discussion_id","posts_dataset_id","posts_timestamp","posts_author_id","quote_source_author_id","posts_native_post_id","quote_source_timestamp","post_text_id","Word_Count","quote_source_post_id","post_text","quote_source_text_id","Dialog_Turn","posts_discussion_id","quote_source_post_dataset_id","Fullquote_text","discussion_url","quote_source_native_post_id","posts_post_id"
"1-8817_5_4_1",8817,1,"2009-04-26 08:12:00",759,63,351242,"2009-04-26 07:46:00",392465,33,4,"(Playing devil's advocate)
And, by what authority would you deny a woman's ""right to choose"" an abortion that happens to be ""late in her pregnancy?""",392464,1,8817,1,"I believe there should be laws that only trained, licensed, medical professionals conduct abortions. I also would support that late pregnancy abortions only occur if a doctor deems them medically necesary.(And I mean DOCTOR - not religious leaders or peckerwood politicians - a DOCTOR.)","http://www.4forums.com/political/abortion-debates/12613-whick-abortion-law-would-you-propose.html",351239,5
"1-8817_6_5_1",8817,1,"2009-04-26 09:31:00",63,759,351253,"2009-04-26 08:12:00",392466,69,5,"Thats a very good question. To be honest - I would prefer no legislation period - but I would not get up in arms about a late term restriction like I described because 1) a fetus could very well survive outside of the mom at that point, 2) most reputable doctors won't conduct an abortion at that stage without a legitimate medical reason anyway.",392465,1,8817,1,"(Playing devil's advocate)
And, by what authority would you deny a woman's ""right to choose"" an abortion that happens to be ""late in her pregnancy?""","http://www.4forums.com/political/abortion-debates/12613-whick-abortion-law-would-you-propose.html",351242,6
"1-8817_7_6_1",8817,1,"2009-04-26 09:32:00",759,63,351254,"2009-04-26 09:31:00",392467,30,6,"I see,... so (to you) it's not like the child has a right to it's life or anything like that.
Thanks for the clarification.",392466,1,8817,1,"Thats a very good question. To be honest - I would prefer no legislation period - but I would not get up in arms about a late term restriction like I described because 1) a fetus could very well survive outside of the mom at that point, 2) most reputable doctors won't conduct an abortion at that stage without a legitimate medical reason anyway.","http://www.4forums.com/political/abortion-debates/12613-whick-abortion-law-would-you-propose.html",351253,7
"1-8817_13_7_1",8817,1,"2009-04-26 13:41:00",63,759,351298,"2009-04-26 09:32:00",392473,124,7,"I would like to state for the record that I am a woman.

As long as it is in my body, not above and beyond my rights to my body, no. 

Come up with a reasonable argument that doesn't demonize women and trivialize the realities of pregnancy and I will respond. Abortion so the mother can take a vacation - frakkin #####...

I am aware what pro-life advocates got presented to congress. I also know that there are doctors that disagree. Like I said - doctors decision - dependent on each case, not blanket decisions by peckerwood politicians (who probably could not pass 8th grade biology if their life depended on it).",392467,1,8817,1,"I see,... so (to you) it's not like the child has a right to it's life or anything like that.
Thanks for the clarification.","http://www.4forums.com/political/abortion-debates/12613-whick-abortion-law-would-you-propose.html",351254,13
"1-8817_15_13_1",8817,1,"2009-04-26 13:51:00",759,63,351302,"2009-04-26 13:41:00",392475,170,13,":::gasp::: emoticonXIc

So, do you think a child has a right to their life from the moment their life begins? Or no?

I really don't need for you to respond, Jitobear. 
You have made your positions clear and I am posting mine. The readers can (and will) decide for themselves which of our positions (if any) will give them cause to reflect or rethink their own positions.
I think that's good enough for any forum,... isn't it?

Interesting,... can you please tell me of any one situation where it is more beneficial for a woman's physical health to remove her baby from her DEAD by way of the procedure known as ""partial birth abortion"" as opposed to surgically removing the baby alive?
Please be clear on how killing the child is more of a benefit to the mother than delivering it alive would be.
(waiting patiently)",392473,1,8817,1,"I would like to state for the record that I am a woman.

As long as it is in my body, not above and beyond my rights to my body, no. 

Come up with a reasonable argument that doesn't demonize women and trivialize the realities of pregnancy and I will respond. Abortion so the mother can take a vacation - frakkin #####...

I am aware what pro-life advocates got presented to congress. I also know that there are doctors that disagree. Like I said - doctors decision - dependent on each case, not blanket decisions by peckerwood politicians (who probably could not pass 8th grade biology if their life depended on it).","http://www.4forums.com/political/abortion-debates/12613-whick-abortion-law-would-you-propose.html",351298,15
"1-8817_18_15_1",8817,1,"2009-04-26 16:23:00",63,759,351314,"2009-04-26 13:51:00",392478,136,15,"Somebody called me ""he"" - just wanted to clarify.

I already answered this. 

That was directed at Cyberateos - not you.

Yep

My understanding is that late term aLate term abortion is extremely rare and generally done to remove a fetus that is not viable. I have a friend who has a serious heart condition that makes any kind of surgery extremely risky. She is a mother of two - it would be ludicrous for her to undergo a surgery that could kill her so as to not perform a D&E to remove fetus that isn't viable. Just one story there. But I am not a doctor, nor (I suspect) are you. As I said - leave it to them.",392475,1,8817,1,":::gasp::: emoticonXIc

So, do you think a child has a right to their life from the moment their life begins? Or no?

I really don't need for you to respond, Jitobear. 
You have made your positions clear and I am posting mine. The readers can (and will) decide for themselves which of our positions (if any) will give them cause to reflect or rethink their own positions.
I think that's good enough for any forum,... isn't it?

Interesting,... can you please tell me of any one situation where it is more beneficial for a woman's physical health to remove her baby from her DEAD by way of the procedure known as ""partial birth abortion"" as opposed to surgically removing the baby alive?
Please be clear on how killing the child is more of a benefit to the mother than delivering it alive would be.
(waiting patiently)","http://www.4forums.com/political/abortion-debates/12613-whick-abortion-law-would-you-propose.html",351302,18
"1-8817_20_18_1",8817,1,"2009-04-26 16:51:00",759,63,351320,"2009-04-26 16:23:00",392480,202,18,"So far the medical community is remiss in providing even one case where a ""partial birth"" abortion has any advantage over any other procedure. Not even in cases such as the one you described.
You have to understand the procedure itself to understand why that is.
The baby is pulled out of the womb ""breech."" It is turned in the womb to accomplish this. It also has to be turned so that it is ""face down"" (so the dr. can later poke a hole in the base of his/her skull and suck out the brain.) 
Forced breech birth of all but the head,... 
Not much healthy for an already traumatized mom.
It's no less traumatic than delivering the baby alive.
However! (and just in case you didn't know) There is in fact a ""life of the mother exception."" It's just never going to be put to the test because the procedure itself is simply that barbaric and un-necessary for the health of the mother to be affectively addressed using other (less traumatic) means.",392478,1,8817,1,"Somebody called me ""he"" - just wanted to clarify.

I already answered this. 

That was directed at Cyberateos - not you.

Yep

My understanding is that late term aLate term abortion is extremely rare and generally done to remove a fetus that is not viable. I have a friend who has a serious heart condition that makes any kind of surgery extremely risky. She is a mother of two - it would be ludicrous for her to undergo a surgery that could kill her so as to not perform a D&E to remove fetus that isn't viable. Just one story there. But I am not a doctor, nor (I suspect) are you. As I said - leave it to them.","http://www.4forums.com/political/abortion-debates/12613-whick-abortion-law-would-you-propose.html",351314,20
"1-8817_57_54_2",8817,1,"2009-05-22 10:34:00",759,1142,354664,"2009-05-21 14:29:00",392517,211,54,"Such is the beliefs of not only Esdraelon,... but seemingly a large number of those who find elective abortion as an affront to their religious doctrine.
The reactions to your comments should have been expected, Esdraelon. 
Were they?
I wonder if you would consider reading my views on religion and politics (posted here) and maybe telling me what you think. 
As for a response to your other responders?



I have linked to a post which shows my own outrage with ESD's remarks above,.... But I also have to ask what seems to me to be an obvious question;
""How can you so seriously feign being outraged at Esd's ""playing God"" and appointing him/herself as the final say in who is and who is not a ""Christian?"" Even as you yourselves take on that role as you deny the status of ""personhood"" to pre-birth children?""
I disagree with Esd's comments as much as you guys do,... but at least no-one is killed or denied their basic rights as a result of His/Her denials.
The same can not be said for yours.",392514,2,8817,1,"I'm not quite sure how you come up with that point since most Americans are Christian and more than half of Americans are pro-choice. I suspect that you are creating a circular definition here - i.e. A Christian is, by your definition, one that is pro-life. If you like circular definitions, then so be it, but your definition would be ignored as illogical by the large percentage of Christians that ARE pro-choice, as well as by myself.","http://www.4forums.com/political/abortion-debates/12613-whick-abortion-law-would-you-propose.html",354563,57
"1-8817_61_57_2",8817,1,"2009-05-22 12:18:00",1142,759,354682,"2009-05-22 10:34:00",392521,41,57,"Heck, if the fetus considers him/herself a person, then he is a person in my eyes! emoticonXSmilie Of course, he would need a mind to be able to consider him/herself a person...",392517,2,8817,1,"Such is the beliefs of not only Esdraelon,... but seemingly a large number of those who find elective abortion as an affront to their religious doctrine.
The reactions to your comments should have been expected, Esdraelon. 
Were they?
I wonder if you would consider reading my views on religion and politics (posted here) and maybe telling me what you think. 
As for a response to your other responders?



I have linked to a post which shows my own outrage with ESD's remarks above,.... But I also have to ask what seems to me to be an obvious question;
""How can you so seriously feign being outraged at Esd's ""playing God"" and appointing him/herself as the final say in who is and who is not a ""Christian?"" Even as you yourselves take on that role as you deny the status of ""personhood"" to pre-birth children?""
I disagree with Esd's comments as much as you guys do,... but at least no-one is killed or denied their basic rights as a result of His/Her denials.
The same can not be said for yours.","http://www.4forums.com/political/abortion-debates/12613-whick-abortion-law-would-you-propose.html",354664,61
"1-8817_62_61_2",8817,1,"2009-05-22 12:22:00",759,1142,354683,"2009-05-22 12:18:00",392522,15,61,"--God
So much for arguing for someone else's rights by proxy, huh.",392521,2,8817,1,"Heck, if the fetus considers him/herself a person, then he is a person in my eyes! emoticonXSmilie Of course, he would need a mind to be able to consider him/herself a person...","http://www.4forums.com/political/abortion-debates/12613-whick-abortion-law-would-you-propose.html",354682,62
"1-8817_67_62_2",8817,1,"2009-05-22 13:03:00",1142,759,354693,"2009-05-22 12:22:00",392527,79,62,"YOU were the one making the comparison to whether or not people can consider themselves Christian despite being pro-choice. It was simply a logical extention of that comparison.
Of course, my own view of personhood doesn't require a mind to be as advanced as would be needed to recognize itself as a person. I just require ANY human mind - no matter how rudimentary - to logically see a living entity as a person.",392522,2,8817,1,"--God
So much for arguing for someone else's rights by proxy, huh.","http://www.4forums.com/political/abortion-debates/12613-whick-abortion-law-would-you-propose.html",354683,67
"1-8817_68_67_2",8817,1,"2009-05-22 13:11:00",759,1142,354695,"2009-05-22 13:03:00",392528,10,67,"""I just require"" = ""God wannabe""",392527,2,8817,1,"YOU were the one making the comparison to whether or not people can consider themselves Christian despite being pro-choice. It was simply a logical extention of that comparison.
Of course, my own view of personhood doesn't require a mind to be as advanced as would be needed to recognize itself as a person. I just require ANY human mind - no matter how rudimentary - to logically see a living entity as a person.","http://www.4forums.com/political/abortion-debates/12613-whick-abortion-law-would-you-propose.html",354693,68
"1-8817_78_68_2",8817,1,"2009-05-22 23:23:00",1142,759,354737,"2009-05-22 13:11:00",392538,149,68,"Each of us - both you and I included - have the right to our own views based on what we have found to be logical. Obviously, you and I disagree on the definition of person. That doesn't mean that either of us is ""playing God"" by holding that opinion. We could only be accused of playing God if we expected everyone else to agree with us because of an inherent feeling of superiority instead of through force of arguement. I always present my arguements and defend them point by point without running away from an uncomfortable point. That is not playing God. That is simply the process of engaging in debate. Do you think that people do not have the right to their own opinion? If so, then you are living in the wrong country.",392528,2,8817,1,"""I just require"" = ""God wannabe""","http://www.4forums.com/political/abortion-debates/12613-whick-abortion-law-would-you-propose.html",354695,78
"1-8817_79_78_2",8817,1,"2009-05-23 07:32:00",759,1142,354766,"2009-05-22 23:23:00",392539,102,78,"No AO, I agree with the definition of ""person"" as it applies to pre-birth children. If I had the time I would link to them yet again. You are the one who places a higher standard (brain activity) that is not a requirment of the definition ""human being."" So it is in that respect that YOU are playing God. 
A human fetus is BY DEFINITION a ""human individual being."" There is no requirment in the definition for an ability to think or feel pain.
Gotta go,..",392538,2,8817,1,"Each of us - both you and I included - have the right to our own views based on what we have found to be logical. Obviously, you and I disagree on the definition of person. That doesn't mean that either of us is ""playing God"" by holding that opinion. We could only be accused of playing God if we expected everyone else to agree with us because of an inherent feeling of superiority instead of through force of arguement. I always present my arguements and defend them point by point without running away from an uncomfortable point. That is not playing God. That is simply the process of engaging in debate. Do you think that people do not have the right to their own opinion? If so, then you are living in the wrong country.","http://www.4forums.com/political/abortion-debates/12613-whick-abortion-law-would-you-propose.html",354737,79
"1-8817_86_79_2",8817,1,"2009-05-23 20:26:00",1142,759,354813,"2009-05-23 07:32:00",392546,44,79,"We've already had these discussions on semantics in another thread and they have led nowhere so I have no desire to repeat them over again. Readers can judge each of our arguements on this subject for themselves by reading those earlier threads.",392539,2,8817,1,"No AO, I agree with the definition of ""person"" as it applies to pre-birth children. If I had the time I would link to them yet again. You are the one who places a higher standard (brain activity) that is not a requirment of the definition ""human being."" So it is in that respect that YOU are playing God. 
A human fetus is BY DEFINITION a ""human individual being."" There is no requirment in the definition for an ability to think or feel pain.
Gotta go,..","http://www.4forums.com/political/abortion-debates/12613-whick-abortion-law-would-you-propose.html",354766,86
"1-8817_87_86_2",8817,1,"2009-05-23 20:33:00",759,1142,354814,"2009-05-23 20:26:00",392547,114,86,"Semantics?
While I take offense at your claiming we are only arguing semantics; I do agree with you on one thing... Readers should read the earlier threads. Words have definitive meanings. Human, being, person, begin, etc. Each reader who truly cares about the issue should take the time an avail themselves of all the sources for information they can find, and educate themselves on what the meanings of those words are, and how those words apply to the beginnings of a new child's life and their right to the life they are living.
Can we at least agree on that much?",392546,2,8817,1,"We've already had these discussions on semantics in another thread and they have led nowhere so I have no desire to repeat them over again. Readers can judge each of our arguements on this subject for themselves by reading those earlier threads.","http://www.4forums.com/political/abortion-debates/12613-whick-abortion-law-would-you-propose.html",354813,87
"1-8817_88_87_2",8817,1,"2009-05-24 03:11:00",1142,759,354828,"2009-05-23 20:33:00",392548,109,87,"As people who know how to use dictionaries realize, words have multiple meanings where you have to look up the meaning most suitable to the context in which you are trying to use the word. These are basic concepts known by most people starting in early school years that you often fail to grasp, as shown by your posts. Your posts have shown that, first, you try to force the definition from one context to apply to another context and, second, you fail to fully defend your interpretation of the definition. Readers will be able to judge for themselves...",392547,2,8817,1,"Semantics?
While I take offense at your claiming we are only arguing semantics; I do agree with you on one thing... Readers should read the earlier threads. Words have definitive meanings. Human, being, person, begin, etc. Each reader who truly cares about the issue should take the time an avail themselves of all the sources for information they can find, and educate themselves on what the meanings of those words are, and how those words apply to the beginnings of a new child's life and their right to the life they are living.
Can we at least agree on that much?","http://www.4forums.com/political/abortion-debates/12613-whick-abortion-law-would-you-propose.html",354814,88
"1-8817_91_88_2",8817,1,"2009-05-24 07:29:00",759,1142,354851,"2009-05-24 03:11:00",392551,40,88,"The words mean what they mean. The facts are what they are. I think we both agree on that and I'm hoping you have no problem with encouraging others to educate themselves on what the facts are.",392548,2,8817,1,"As people who know how to use dictionaries realize, words have multiple meanings where you have to look up the meaning most suitable to the context in which you are trying to use the word. These are basic concepts known by most people starting in early school years that you often fail to grasp, as shown by your posts. Your posts have shown that, first, you try to force the definition from one context to apply to another context and, second, you fail to fully defend your interpretation of the definition. Readers will be able to judge for themselves...","http://www.4forums.com/political/abortion-debates/12613-whick-abortion-law-would-you-propose.html",354828,91
