"key","quote_source_post_discussion_id","posts_dataset_id","posts_timestamp","posts_author_id","quote_source_author_id","posts_native_post_id","quote_source_timestamp","post_text_id","Word_Count","quote_source_post_id","post_text","quote_source_text_id","Dialog_Turn","posts_discussion_id","quote_source_post_dataset_id","Fullquote_text","discussion_url","quote_source_native_post_id","posts_post_id"
"1-9582_11_10_1",9582,1,"2010-01-17 01:01:00",226,3062,386071,"2010-01-16 05:06:00",429593,116,10,"""Abortion is not murder. Murder is illegal. Since Abortion is legal, it cannot be murder.""
That's not a commonly used argument. You're just saying it is because it supports you. It's not the ""formal structure.""
I don't really have a firm opinion on abortion, but I don't like people with big egos and big attitudes. The ""mother's rights"" argument is used far more often.
Also, by calling everyone inferiors you really seem like a snob. And I read your website. It's a sack of horse ****, and you had no evidence for any of it.",429592,1,9582,1,"As usual I emerge triumphant. None of your inferiors have managed to put up even the slightest resistance to My Superior arguments.
I win.","http://www.4forums.com/political/abortion-debates/13780-semantic-games-murder.html",386018,11
"1-9582_20_11_1",9582,1,"2010-01-17 15:19:00",3062,226,386210,"2010-01-17 01:01:00",429602,95,11,"Yes it is. Pro-WTC murder supporters often claim that abortion cannot be murder because murder is illegal and abortion is legal.

Incorrect. It is a formal Truth-based notation of their argument.

My ""attitude"" is just what you see in anyone who has the correct and accurate information.
The mothers rights argument is based on human rights. They say that the womb-trapped child is not human, therefore her right trumps the child's right not to be brutally and callously murdered.

You are a supreme inferior.",429593,1,9582,1,"""Abortion is not murder. Murder is illegal. Since Abortion is legal, it cannot be murder.""
That's not a commonly used argument. You're just saying it is because it supports you. It's not the ""formal structure.""
I don't really have a firm opinion on abortion, but I don't like people with big egos and big attitudes. The ""mother's rights"" argument is used far more often.
Also, by calling everyone inferiors you really seem like a snob. And I read your website. It's a sack of horse ****, and you had no evidence for any of it.","http://www.4forums.com/political/abortion-debates/13780-semantic-games-murder.html",386071,20
"1-9582_21_20_1",9582,1,"2010-01-17 15:24:00",226,3062,386211,"2010-01-17 15:19:00",429603,152,20,"It's not because the Abortion discussion is wether or not abortion should be legal. There are tons of arguments used far more commonly, most often is the mother's right argument.

No, you are incorrect. The whole discussion is over wether or not abortion should be legal, not wether or not it is.

Big ego is not correct and accurate. You're just a loser who failed in life and now blames society because your frail ego is offended by the thought that you might not be better than everyone else.

And it's used far more often the legality argument, which is the point I'm trying to make here.

You are a supreme arrogant douchebag failure in life who believes in a bunch of mindless bull**** that you can't prove to make you feel superior to everyone else. Get a life.",429602,1,9582,1,"Yes it is. Pro-WTC murder supporters often claim that abortion cannot be murder because murder is illegal and abortion is legal.

Incorrect. It is a formal Truth-based notation of their argument.

My ""attitude"" is just what you see in anyone who has the correct and accurate information.
The mothers rights argument is based on human rights. They say that the womb-trapped child is not human, therefore her right trumps the child's right not to be brutally and callously murdered.

You are a supreme inferior.","http://www.4forums.com/political/abortion-debates/13780-semantic-games-murder.html",386210,21
"1-9582_25_21_1",9582,1,"2010-01-17 15:37:00",3062,226,386215,"2010-01-17 15:24:00",429607,122,21,"Does not matter, you are 100% wrong. Whether or not abortion is being discussed as to whether or not it should be illegal (only one tiny aspect), does nothing to negate the Truth regarding the OP.
You cannot say that because there are other arguments, that the argument in the OP is not True, it is. You are being illogical and irrational.
That argument (in the OP) is commonly used. It is false.
I know there are OTHER arguments, but that does not change the fact of the matter.
You are clearly dumb. You do not meet My Superior quality control standards. Goodbye.",429603,1,9582,1,"It's not because the Abortion discussion is wether or not abortion should be legal. There are tons of arguments used far more commonly, most often is the mother's right argument.

No, you are incorrect. The whole discussion is over wether or not abortion should be legal, not wether or not it is.

Big ego is not correct and accurate. You're just a loser who failed in life and now blames society because your frail ego is offended by the thought that you might not be better than everyone else.

And it's used far more often the legality argument, which is the point I'm trying to make here.

You are a supreme arrogant douchebag failure in life who believes in a bunch of mindless bull**** that you can't prove to make you feel superior to everyone else. Get a life.","http://www.4forums.com/political/abortion-debates/13780-semantic-games-murder.html",386211,25
"1-9582_26_25_1",9582,1,"2010-01-17 15:43:00",226,3062,386216,"2010-01-17 15:37:00",429608,249,25,"Well, I completely refuted you but somehow you're still right. I know that you're too arrogant to do this, but if you take the time to read posts on other threads made by pro-choicers, you will find that the mother's rights argument is used far more commonly. You're talking about something you don't even know what you're talking about.

No, you are being illogical and irrational. If you read other people's posts on the issue, you'll find that you're wrong.

It is not commonly used, read other people's posts on the issue and you'll find that I'm right.

The fact of the matter is that the other arguments are used far more commonly, you're just taking one, less commonly used argument and falsely saying that it's the formal structure of people who have the audacity to disagree with your royal highness. If your head shrinks enough to pull it out of your rectum so you can read what other people say, you'll find that I'm right.

I knew you'd dismiss me. Because it seems anyone who disagrees with you is inferior. 
Using your logic, you are inferior and stupid, and you can't read what I say. I know that no matter how bad I prove the stuff you vomit onto here to be the bull**** it is, you will always accuse me of being inferior.",429607,1,9582,1,"Does not matter, you are 100% wrong. Whether or not abortion is being discussed as to whether or not it should be illegal (only one tiny aspect), does nothing to negate the Truth regarding the OP.
You cannot say that because there are other arguments, that the argument in the OP is not True, it is. You are being illogical and irrational.
That argument (in the OP) is commonly used. It is false.
I know there are OTHER arguments, but that does not change the fact of the matter.
You are clearly dumb. You do not meet My Superior quality control standards. Goodbye.","http://www.4forums.com/political/abortion-debates/13780-semantic-games-murder.html",386215,26
