"key","quote_source_post_discussion_id","posts_dataset_id","posts_timestamp","posts_author_id","quote_source_author_id","posts_native_post_id","quote_source_timestamp","post_text_id","Word_Count","quote_source_post_id","post_text","quote_source_text_id","Dialog_Turn","posts_discussion_id","quote_source_post_dataset_id","Fullquote_text","discussion_url","quote_source_native_post_id","posts_post_id"
"1-10145_4_3_1",10145,1,"2010-10-06 10:00:00",2104,44,414430,"2010-10-06 09:05:00",460948,6,3,"Humm. Imagine that!!! :)",460947,1,10145,1,"Imaginary?","http://www.4forums.com/political/gun-control-debates/14661-victory-ours.html",414428,4
"1-10145_5_4_1",10145,1,"2010-10-06 10:08:00",44,2104,414431,"2010-10-06 10:00:00",460949,88,4,"This is just another attempt to demonize anyone that doesn't agree with your view that firearms should be totally unregulated and to suggest a hidden agenda that ultimately leads to confiscation of privately held firearms. You are the radical and in the minority among your fellow Americans. 
I support recent SCOTUS rulings but maintain that neither Heller nor McDonald will lead to much repeal of existing gun regulations. That's because firearm regulation is Constitutional.
You're a fine one to talk about sliming folks.",460948,1,10145,1,"Humm. Imagine that!!! :)","http://www.4forums.com/political/gun-control-debates/14661-victory-ours.html",414430,5
"1-10145_9_5_1",10145,1,"2010-10-06 10:49:00",2104,44,414435,"2010-10-06 10:08:00",460953,70,5,"I am not calling for laws to be repealed, but

In my best Rainman impression. Yeah, He is the RAdical. RADical. 
Yeah Radical! 
  Gallop In U.S., Record-Low Support for Stricter Gun Laws 
  Rasmussen 
  CNN Poll: Fewer Americans support stricter gun control laws 
Humm. That makes you guys the What? Say it with me. RADICAL! Yeah! RADICAL!",460949,1,10145,1,"This is just another attempt to demonize anyone that doesn't agree with your view that firearms should be totally unregulated and to suggest a hidden agenda that ultimately leads to confiscation of privately held firearms. You are the radical and in the minority among your fellow Americans. 
I support recent SCOTUS rulings but maintain that neither Heller nor McDonald will lead to much repeal of existing gun regulations. That's because firearm regulation is Constitutional.
You're a fine one to talk about sliming folks.","http://www.4forums.com/political/gun-control-debates/14661-victory-ours.html",414431,9
"1-10145_21_9_1",10145,1,"2010-10-06 13:40:00",44,2104,414458,"2010-10-06 10:49:00",460965,120,9,"from your link:
""Still, the decline in American favor for stricter gun laws doesn't mean people want to see restrictions lifted -- 46 percent want no change in the current law, while only 15 percent want gun laws that are less strict.""
sinjin - So that's 85% of Americans that either want gun regulations to be stricter or at least stay as they are now.
You are the minority in your support for repealing gun regulations.
You self-appointed keepers of the Constitution are the radicals, make no mistake.
And you're dishonest to boot by implying support for gun regulation is a minority position in the US. It's not.",460953,1,10145,1,"I am not calling for laws to be repealed, but

In my best Rainman impression. Yeah, He is the RAdical. RADical. 
Yeah Radical! 
  Gallop In U.S., Record-Low Support for Stricter Gun Laws 
  Rasmussen 
  CNN Poll: Fewer Americans support stricter gun control laws 
Humm. That makes you guys the What? Say it with me. RADICAL! Yeah! RADICAL!","http://www.4forums.com/political/gun-control-debates/14661-victory-ours.html",414435,21
"1-10145_29_21_1",10145,1,"2010-10-06 16:24:00",2104,44,414485,"2010-10-06 13:40:00",460973,99,21,"Some Voodoo logic of stealing Rights from people who own them, from Sinjin. 
Humm, That would have been really good for your RADICAL gun Grabbing position. However, and alas, to bad, I already said: 
While you have reported openly your, Junky like fixation of your Overwhelming and Burning yearning to create even more and more and more restrictions on a Fundamental, Inalienable, Original First Right, of We the People. You know. The Owners of those Rights! emoticonXSmilie
Just having fun with you Sinjin.",460965,1,10145,1,"from your link:
""Still, the decline in American favor for stricter gun laws doesn't mean people want to see restrictions lifted -- 46 percent want no change in the current law, while only 15 percent want gun laws that are less strict.""
sinjin - So that's 85% of Americans that either want gun regulations to be stricter or at least stay as they are now.
You are the minority in your support for repealing gun regulations.
You self-appointed keepers of the Constitution are the radicals, make no mistake.
And you're dishonest to boot by implying support for gun regulation is a minority position in the US. It's not.","http://www.4forums.com/political/gun-control-debates/14661-victory-ours.html",414458,29
