"key","quote_source_post_discussion_id","posts_dataset_id","posts_timestamp","posts_author_id","quote_source_author_id","posts_native_post_id","quote_source_timestamp","post_text_id","Word_Count","quote_source_post_id","post_text","quote_source_text_id","Dialog_Turn","posts_discussion_id","quote_source_post_dataset_id","Fullquote_text","discussion_url","quote_source_native_post_id","posts_post_id"
"1-10707_54_53_1",10707,1,"2012-01-03 13:47:00",682,507,446993,"2012-01-03 13:35:00",489642,64,53,"Since when you have had ""no trouble with concealed carry""? In at least one post previously you have made the claim that concealed carry is a bad idea. You have been called out for the fallacy of your ""perfect storm"" argument when it comes to regular people carrying firearms.
http://www.4forums.com/political/445154-post62.html

Are these not your own words?",489641,1,10707,1,"Yeah . . . I read the OP I have to say that I have no trouble with concealed carry. South Carolina's laws on concealed carry have their own hoops to jump through, which can be viewed here:
South Carolina Law Enforcement Division
Now, under such circumstances of high crime ebb and flow; I think that SC can do as they wish. The law does permit ""defense of others"", however I doubt very much that it includes openly shooting in defense of an unknown woman, at a purse snatcher running down the street. sinjin pointed out such a story, and the shooter was properly arrested. That story only adds to my argument of ""the perfect storm"" I've made on another thead . . . 
I share in that sheriff's outrage; and had she been packing, it might have been another story; but was she using equal force? (That's a matter that may come up if the perp is unarmed). The guy that got arressted in that story obvioulsy was not. On the other hand, the show of a weapon might have brought about a different outcome for that woman: and maybe not, who knows; some people are just crazy.
Anyway, those are my thoughts on the issue","http://www.4forums.com/political/gun-control-debates/15837-sheriff-time-citizens-arm-themselves.html",446989,54
"1-10707_56_54_1",10707,1,"2012-01-03 14:20:00",507,682,447004,"2012-01-03 13:47:00",489644,49,54,"I said: no problem with South Carolina didn't I . . . .
And no, my perfect storm is still a viable and provable argument: which I've done by referring to the article submitted by sinjin, so you lost there too.
cryminee sakes -",489642,1,10707,1,"Since when you have had ""no trouble with concealed carry""? In at least one post previously you have made the claim that concealed carry is a bad idea. You have been called out for the fallacy of your ""perfect storm"" argument when it comes to regular people carrying firearms.
http://www.4forums.com/political/445154-post62.html

Are these not your own words?","http://www.4forums.com/political/gun-control-debates/15837-sheriff-time-citizens-arm-themselves.html",446993,56
"1-10707_57_56_1",10707,1,"2012-01-03 14:25:00",682,507,447006,"2012-01-03 14:20:00",489645,73,56,"It is you who said concealed carry open to anyone other than the police is a bad idea because of how society is today. These were your words on December 12th of 2011. I have already presented your own statement as evidence to show a conflict with your latest statement. You are contradicting yourself and making a statement that is not in line with your previously held position.

",489644,1,10707,1,"I said: no problem with South Carolina didn't I . . . .
And no, my perfect storm is still a viable and provable argument: which I done by referring to the article submitted by sinjin, so you lost there too.
cryminee sakes - do you ever think, or do you just respond like an amoeba . . .","http://www.4forums.com/political/gun-control-debates/15837-sheriff-time-citizens-arm-themselves.html",447004,57
"1-10707_59_57_1",10707,1,"2012-01-03 15:54:00",507,682,447011,"2012-01-03 14:25:00",489647,12,57,"It is a bad idea; but that's in South Carolina.",489645,1,10707,1,"It is you who said concealed carry open to anyone other than the police is a bad idea because of how society is today. These were your words on December 12th of 2011. I have already presented your own statement as evidence to show a conflict with your latest statement. You are contradicting yourself and making a statement that is not in line with your previously held position.

","http://www.4forums.com/political/gun-control-debates/15837-sheriff-time-citizens-arm-themselves.html",447006,59
"1-10707_60_59_1",10707,1,"2012-01-03 16:04:00",682,507,447012,"2012-01-03 15:54:00",489648,55,59,"So now you are saying concealed carry permits, available to anyone who wants one -and legally able to acquire them, thus them being non-criminals- and not exclusive to the police or security agencies, is both a bad idea and a good idea at the same time? Highly contradictory.",489647,1,10707,1,"It is a bad idea; but that's in South Carolina.","http://www.4forums.com/political/gun-control-debates/15837-sheriff-time-citizens-arm-themselves.html",447011,60
"1-10707_5_4_2",10707,1,"2011-11-01 04:12:00",681,680,442230,"2011-10-31 20:18:00",489593,245,4,"Self defense has never been ""vigilantism"" and never will be.
That is another form of anti gun, anti Constitution propaganda spewed by grabbers and cops as a form of JOB PROTECTION. LEOs cannot protect you, we know it, they know it, the criminal justice system is a farce...admittedly so and it is used loosely as a form of job protection for cops and an excuse for poor criminal justice mistakes.
Everytime that word is used, you can bet one of the above loosers is using it to excuse their poor performance and an attempt to cover the fact that they are not doing the job, can't do the job and intend to hide the fact the 2A is in the BOR for just that purpose and individuals DO HAVE SUCH DUTIES AND RIGHTS which is why that right is now part and parcel of the XIVth Amendment of civil rights.
Anyone who uses that word in regard to a lawful and Constitutional right is suspect and admitting to propensity of criminal acts. You do have that RIGHT by law to defend yourself, others and property. It is a FUNDAMENTAL human right enshrined in the Supreme Law of the Land. The powers of force and arrest are not reserved for LEOs nor a determination by courts or power hungry or agenda based judges who ignore those rights.",489592,2,10707,1,"I think the officer on the street understands(or most)but it's the chiefs and higher ups that are kissing the a.s.s.'s of the grabbers that could care less as long as they get re-elected.emoticonXGood 
P.S. it almost does sound like he's ""endorsing vigilantism, or public executions of suspects""which is ok in that case.Buts that's just me though.","http://www.4forums.com/political/gun-control-debates/15837-sheriff-time-citizens-arm-themselves.html",442217,5
"1-10707_6_5_2",10707,1,"2011-11-01 16:08:00",680,681,442255,"2011-11-01 04:12:00",489594,97,5,"No he didn't come right out and endorse vigilantism.However there is a difference in some circumstances,like when you know he is guilty of rape,murder,child molestation and the like.But note the words almost sounded, and he wasn't judging at least on camera(to much).
Far as the grabbers go they will use anything they can to try and put their point across.It don't matter if it's a word or deed or something they thought Joe XXXX said down the street.:)",489593,2,10707,1,"Self defense has never been ""vigilantism"" and never will be.
That is another form of anti gun, anti Constitution propaganda spewed by grabbers and cops as a form of JOB PROTECTION. LEOs cannot protect you, we know it, they know it, the criminal justice system is a farce...admittedly so and it is used loosely as a form of job protection for cops and an excuse for poor criminal justice mistakes.
Everytime that word is used, you can bet one of the above loosers is using it to excuse their poor performance and an attempt to cover the fact that they are not doing the job, can't do the job and intend to hide the fact the 2A is in the BOR for just that purpose and individuals DO HAVE SUCH DUTIES AND RIGHTS which is why that right is now part and parcel of the XIVth Amendment of civil rights.
Anyone who uses that word in regard to a lawful and Constitutional right is suspect and admitting to propensity of criminal acts. You do have that RIGHT by law to defend yourself, others and property. It is a FUNDAMENTAL human right enshrined in the Supreme Law of the Land. The powers of force and arrest are not reserved for LEOs nor a determination by courts or power hungry or agenda based judges who ignore those rights.","http://www.4forums.com/political/gun-control-debates/15837-sheriff-time-citizens-arm-themselves.html",442230,6
"1-10707_7_6_2",10707,1,"2011-11-02 03:23:00",681,680,442280,"2011-11-01 16:08:00",489595,58,6,"At least get it right. He endorsed self-defense and admitted LEOs could not protect you. That is not ""vigilantism"" and never will be.
He did not endorse anyone being judge, jury and executioner nor did I see any mention of ""suspect"" in the article. Did I miss something?",489594,2,10707,1,"No he didn't come right out and endorse vigilantism.However there is a difference in some circumstances,like when you know he is guilty of rape,murder,child molestation and the like.But note the words almost sounded, and he wasn't judging at least on camera(to much).
Far as the grabbers go they will use anything they can to try and put their point across.It don't matter if it's a word or deed or something they thought Joe XXXX said down the street.:)","http://www.4forums.com/political/gun-control-debates/15837-sheriff-time-citizens-arm-themselves.html",442255,7
"1-10707_8_7_2",10707,1,"2011-11-02 13:54:00",680,681,442328,"2011-11-02 03:23:00",489596,111,7,"Wright said, ""It's too bad someone with a concealed weapons permit didn't walk by. That would fix it."" 'He said people are tired of doing the right thing and criminals getting away with their actions.'
And he is absolutely right. His reference to an animal?Right again.OK he did or does endorse self defence and admits LEO's can't be everywhere, and right again.If you are the one that comes across something like that happening, in essence you are judge, jury and executioner.
Gosh Doc do you think we are entertaining Brady?emoticonXGood",489595,2,10707,1,"At least get it right. He endorsed self-defense and admitted LEOs could not protect you. That is not ""vigilantism"" and never will be.
He did not endorse anyone being judge, jury and executioner nor did I see any mention of ""suspect"" in the article. Did I miss something?","http://www.4forums.com/political/gun-control-debates/15837-sheriff-time-citizens-arm-themselves.html",442280,8
"1-10707_10_8_2",10707,1,"2011-11-02 14:19:00",681,680,442335,"2011-11-02 13:54:00",489598,75,8,"Self defense includes yourself, third person and property. A sovereign citizen is the source from which all powers reside a LEO is given the duty to do that which citizens are not prepared to do, sometimes and often it is to draw a chalk outline of an innocent's dead body.

Since self defense is proscribed by law this is not vigilante conduct. In fact, it is your duty.",489596,2,10707,1,"Wright said, ""It's too bad someone with a concealed weapons permit didn't walk by. That would fix it."" 'He said people are tired of doing the right thing and criminals getting away with their actions.'
And he is absolutely right. His reference to an animal?Right again.OK he did or does endorse self defence and admits LEO's can't be everywhere, and right again.If you are the one that comes across something like that happening, in essence you are judge, jury and executioner.
Gosh Doc do you think we are entertaining Brady?emoticonXGood","http://www.4forums.com/political/gun-control-debates/15837-sheriff-time-citizens-arm-themselves.html",442328,10
