"key","quote_source_post_discussion_id","posts_dataset_id","posts_timestamp","posts_author_id","quote_source_author_id","posts_native_post_id","quote_source_timestamp","post_text_id","Word_Count","quote_source_post_id","post_text","quote_source_text_id","Dialog_Turn","posts_discussion_id","quote_source_post_dataset_id","Fullquote_text","discussion_url","quote_source_native_post_id","posts_post_id"
"1-10931_20_17_1",10931,1,"2012-04-20 10:44:00",123,681,452916,"2012-04-20 10:34:00",498906,39,17,"It wasn't necessary for President Obama to be in the military when he was coming up but he sure wouldn't have crapped out like George W. Bush and sent someone else to die in his place in Vietnam.",498903,1,10931,1,"Which branch of service was Obama in? I forgot emoticonXEmbarrassed","http://www.4forums.com/political/gun-control-debates/16353-losers-nra.html",452913,20
"1-10931_22_20_1",10931,1,"2012-04-20 10:51:00",681,123,452918,"2012-04-20 10:44:00",498908,29,20,"B.S. simone. He was the perfect age for Vietnam. Why hasn't he released his draft card? I know, they only sent them to citizens.",498906,1,10931,1,"It wasn't necessary for President Obama to be in the military when he was coming up but he sure wouldn't have crapped out like George W. Bush and sent someone else to die in his place in Vietnam.","http://www.4forums.com/political/gun-control-debates/16353-losers-nra.html",452916,22
"1-10931_23_22_1",10931,1,"2012-04-20 10:56:00",123,681,452919,"2012-04-20 10:51:00",498909,27,22,"President Obama was 14 years old when the War with Vietnam ended in 1961. Are you stupid or something? What is wrong with you?",498908,1,10931,1,"B.S. simone. He was the perfect age for Vietnam. Why hasn't he released his draft card? I know, they only sent them to citizens.","http://www.4forums.com/political/gun-control-debates/16353-losers-nra.html",452918,23
"1-10931_24_23_1",10931,1,"2012-04-20 10:59:00",681,123,452920,"2012-04-20 10:56:00",498910,19,23,"You better look again, the war in Vietnam wasn't even cranked up good until 68 or 69.",498909,1,10931,1,"President Obama was 14 years old when the War with Vietnam ended in 1961. Are you stupid or something? What is wrong with you?","http://www.4forums.com/political/gun-control-debates/16353-losers-nra.html",452919,24
"1-10931_29_24_1",10931,1,"2012-04-20 11:06:00",123,681,452926,"2012-04-20 10:59:00",498915,27,24,"My God! You're right! The Vietnam War ended in 1975.
But President Obama was born in 1961 and HE WAS 14 IN 1975.",498910,1,10931,1,"You better look again, the war in Vietnam wasn't even cranked up good until 68 or 69.","http://www.4forums.com/political/gun-control-debates/16353-losers-nra.html",452920,29
"1-10931_31_29_1",10931,1,"2012-04-20 11:08:00",681,123,452928,"2012-04-20 11:06:00",498917,23,29,"He was in Indonesia dear. Read his XXXX (my marks)
I thought he was as old as the devil??",498915,1,10931,1,"My God! You're right! The Vietnam War ended in 1975.
But President Obama was born in 1961 and HE WAS 14 IN 1975.","http://www.4forums.com/political/gun-control-debates/16353-losers-nra.html",452926,31
"1-10931_34_31_1",10931,1,"2012-04-20 11:13:00",123,681,452931,"2012-04-20 11:08:00",498920,15,31,"In 1975 President Obama was in Hawaii. He'd been there for several years.",498917,1,10931,1,"He was in Indonesia dear. Read his XXXX (my marks)
I thought he was as old as the devil??","http://www.4forums.com/political/gun-control-debates/16353-losers-nra.html",452928,34
"1-10931_30_25_2",10931,1,"2012-04-20 11:07:00",123,3351,452927,"2012-04-20 10:59:00",498916,14,25,"So tell me what this crapola has to do with SuperCreep Ted Nugent?",498911,2,10931,1,"Top this Simone sweetie.
MAIG
And this:
Racine mayor arrested in sex sting - JSOnline","http://www.4forums.com/political/gun-control-debates/16353-losers-nra.html",452921,30
"1-10931_35_30_2",10931,1,"2012-04-20 11:16:00",3351,123,452932,"2012-04-20 11:07:00",498921,183,30,"It's like this Simone sweetie. Follow the bullet points:


* He's a former mayor who told people they shouldn't be able to have a gun.

* He was actually busted on child sex charges.

* He's now a convicted felon.
Put simply Simone sweetie no matter who you hold up as an example of evil I'm gonna find somebody even wore to present in counter, and I'm gonna do it just for the **** of it. I'll find congressmen that tried to sell their seats to the highest bidder, I'll find mayors who are tied to child sex scandals, I'll find police chiefs that sold guns and drugs to criminals, I'll find liberal mothers that murdered their own newborn children and infants, I'll even find black fathers who ran out on their families and won't pay child support. If they exist and they're people you'd normally side with I'll find the worst of the worst and flaunt them in your face because niceness just doesn't seem to work on you.",498916,2,10931,1,"So tell me what this crapola has to do with SuperCreep Ted Nugent?","http://www.4forums.com/political/gun-control-debates/16353-losers-nra.html",452927,35
"1-10931_38_35_2",10931,1,"2012-04-20 11:19:00",123,3351,452935,"2012-04-20 11:16:00",498924,40,35,"Why are you coming up with this crapola? Who's talking about taking guns away from people?
I'm talking about a cowardly blowhard for the NRA that the NRA should repudiate, if the NRA had any integrity.",498921,2,10931,1,"It's like this Simone sweetie. Follow the bullet points:


* He's a former mayor who told people they shouldn't be able to have a gun.

* He was actually busted on child sex charges.

* He's now a convicted felon.
Put simply Simone sweetie no matter who you hold up as an example of evil I'm gonna find somebody even wore to present in counter, and I'm gonna do it just for the **** of it. I'll find congressmen that tried to sell their seats to the highest bidder, I'll find mayors who are tied to child sex scandals, I'll find police chiefs that sold guns and drugs to criminals, I'll find liberal mothers that murdered their own newborn children and infants, I'll even find black fathers who ran out on their families and won't pay child support. If they exist and they're people you'd normally side with I'll find the worst of the worst and flaunt them in your face because niceness just doesn't seem to work on you.","http://www.4forums.com/political/gun-control-debates/16353-losers-nra.html",452932,38
"1-10931_46_38_2",10931,1,"2012-04-20 11:30:00",3351,123,452945,"2012-04-20 11:19:00",498932,66,38,"The liberal mayor I just cited. He belongs to Bloomberg's liberal group of mayors who advocate stronger gun control laws that would make it harder for honest people to acquire them. Ergo a felon and a child rapist is advocating taking guns away from the people. Isn't it nice to know you have so much in common with somebody of such character?",498924,2,10931,1,"Why are you coming up with this crapola? Who's talking about taking guns away from people?
I'm talking about a cowardly blowhard for the NRA that the NRA should repudiate, if the NRA had any integrity.","http://www.4forums.com/political/gun-control-debates/16353-losers-nra.html",452935,46
"1-10931_48_46_2",10931,1,"2012-04-20 11:32:00",123,3351,452947,"2012-04-20 11:30:00",498934,11,46,"Do you have any clues about what you're talking about?",498932,2,10931,1,"The liberal mayor I just cited. He belongs to Bloomberg's liberal group of mayors who advocate stronger gun control laws that would make it harder for honest people to acquire them. Ergo a felon and a child rapist is advocating taking guns away from the people. Isn't it nice to know you have so much in common with somebody of such character?","http://www.4forums.com/political/gun-control-debates/16353-losers-nra.html",452945,48
"1-10931_51_48_2",10931,1,"2012-04-20 11:36:00",3351,123,452950,"2012-04-20 11:32:00",498937,118,48,"I have, but what about you? Do you know what you're talking about by praising liberals so openly and without exception? No political party is perfect but the way you talk about them one would think you believe liberal politicians are the holiest people on Earth even above the pope. And now here we've got a liberal who's convicted on child sex charges and will be a sex offender for the rest of his life and you're still standing up for him and denying his actions.
Funny how you decry somebody that was never convicted of pedophilia charges, but somebody that was convicted you don't even get mildly worked up about.",498934,2,10931,1,"Do you have any clues about what you're talking about?","http://www.4forums.com/political/gun-control-debates/16353-losers-nra.html",452947,51
"1-10931_52_51_2",10931,1,"2012-04-20 11:55:00",123,3351,452954,"2012-04-20 11:36:00",498938,24,51,"For chrissake! Do you really believe that President Obama is a liberal?
Do you have any idea what a liberal is?",498937,2,10931,1,"I have, but what about you? Do you know what you're talking about by praising liberals so openly and without exception? No political party is perfect but the way you talk about them one would think you believe liberal politicians are the holiest people on Earth even above the pope. And now here we've got a liberal who's convicted on child sex charges and will be a sex offender for the rest of his life and you're still standing up for him and denying his actions.
Funny how you decry somebody that was never convicted of pedophilia charges, but somebody that was convicted you don't even get mildly worked up about.","http://www.4forums.com/political/gun-control-debates/16353-losers-nra.html",452950,52
"1-10931_54_52_2",10931,1,"2012-04-20 12:05:00",3351,123,452959,"2012-04-20 11:55:00",498940,222,52,"I sure do but what about you Simone sweetie? Liberals believe in entitlement programs where the people get free money for doing nothing because somehow they're just entitled to free money. Liberals believe in removing personal responsibility and replacing the concept of doing the work yourself with a nanny-like system where your needs are provided for as if you were a child and can't take care of yourself. Liberals believe in reduced standards of moral decency where perverse acts replace the norm and have to be accepted in a public setting. Liberals believe religion should be done away with because it's archaic and it takes away from the belief in government being worth worshipping in its place. Liberals believe that government power comes first and constitutional rights come last as a matter of convenience. Liberals believe that government has a duty to attend to all the needs of the people as if they were helpless children who would die if left to their own devices and without oversight of their actions.
Of course you're not likely to believe anything that anybody says if it doesn't jive with your preconceived notions so you'll probably just XXXX this all off as delusional rantings because it's easier than addressing the shortcomings of what you so readily support.",498938,2,10931,1,"For chrissake! Do you really believe that President Obama is a liberal?
Do you have any idea what a liberal is?","http://www.4forums.com/political/gun-control-debates/16353-losers-nra.html",452954,54
"1-10931_104_103_3",10931,1,"2012-04-30 10:23:00",507,681,453937,"2012-04-28 06:31:00",498990,41,103,"More right-wing conspircay clap trap.
From the ATF: ATF Online - Firearms - Frequently Asked Questions - Conduct of Business (Licensees)
Q: What is my responsibility to respond to a request to trace a firearm?

",498989,3,10931,1,"Did you choose to ignore the ongoing, UNCONSTITUTIONAL and continuing abuses by atf outside the law I posted above?
Here it is again: BREAKING! Rep. Young wants ATF explanation about AK records checks - Seattle gun rights | Examiner.com
Clearly illegal, unlawful and unConstitutional acts are still ongoing. Runner under today's news says contempt of congress being prepared against Holder on F&F scam. 
Nope, it is not time to move on but to move forward!","http://www.4forums.com/political/gun-control-debates/16353-losers-nra.html",453772,104
"1-10931_105_104_3",10931,1,"2012-04-30 12:01:00",681,507,453949,"2012-04-30 10:23:00",498991,164,104,"They aren't ""tracing guns"" , that is not even the question. What they are doing is trying to seize the entire dealers' records which could only be useful for registration and that has been illegal at least since 1968.
Being the known apologist and unConstitutional advocate, you also misse Danny Rheberg's amendment to defund any such gathering of information. You don't call that a ""trace"". What needs doing is running a trace on all the Fast and Furious gun smuggling by the atf which seems certain now that Holder is going to be charged with contempt of Congress for witholding information. There are your crooks and gun smugglers along with the State Dept. whistle britches.
Bound volumes always stay with the dealer and never leave the shop. They can be examined on premises but cannot be taken from the shop under any circumstance and is a violation of law.",498990,3,10931,1,"More right-wing conspircay clap trap.
From the ATF: ATF Online - Firearms - Frequently Asked Questions - Conduct of Business (Licensees)
Q: What is my responsibility to respond to a request to trace a firearm?

","http://www.4forums.com/political/gun-control-debates/16353-losers-nra.html",453937,105
"1-10931_106_105_3",10931,1,"2012-04-30 14:00:00",507,681,453967,"2012-04-30 12:01:00",498992,46,105,"The article you sourced said ""copies"". Secondy Rheberg is a right-wing gun toting congressman.
So, on both of your assertions, you're left out in lala land again.
And I defy you to show that I support unconstitutional activity.",498991,3,10931,1,"They aren't ""tracing guns"" , that is not even the question. What they are doing is trying to seize the entire dealers' records which could only be useful for registration and that has been illegal at least since 1968.
Being the known apologist and unConstitutional advocate, you also misse Danny Rheberg's amendment to defund any such gathering of information. You don't call that a ""trace"". What needs doing is running a trace on all the Fast and Furious gun smuggling by the atf which seems certain now that Holder is going to be charged with contempt of Congress for witholding information. There are your crooks and gun smugglers along with the State Dept. whistle britches.
Bound volumes always stay with the dealer and never leave the shop. They can be examined on premises but cannot be taken from the shop under any circumstance and is a violation of law.","http://www.4forums.com/political/gun-control-debates/16353-losers-nra.html",453949,106
"1-10931_107_106_3",10931,1,"2012-04-30 14:18:00",681,507,453971,"2012-04-30 14:00:00",498993,77,106,"Here, I will post it again and maybe it will sink in:
http://www.4forums.com/political/gun...tml#post453658
What they are doing is a federal crime. You support it so you support UnConstitutional activity.
That plain enough?
We need atf's records they are illegally witholding from congress.
9 Supreme Court Justices must be ""right wing gun toting Justices according to you in the Heller decision.
but you were always in la la land....",498992,3,10931,1,"The article you sourced said ""copies"". Secondy Rheberg is a right-wing gun toting congressman.
So, on both of your assertions, you're left out in lala land again.
And I defy you to show that I support unconstitutional activity.","http://www.4forums.com/political/gun-control-debates/16353-losers-nra.html",453967,107
"1-10931_108_107_3",10931,1,"2012-04-30 14:31:00",507,681,453975,"2012-04-30 14:18:00",498994,49,107,"Just more of you nonssense again dude. From your OP:

And who said I support what the ATF is doing in Alaska?
And you can knock off the personal accusations anytime you'd like. You have no idea what I do and do not support.",498993,3,10931,1,"Here, I will post it again and maybe it will sink in:
http://www.4forums.com/political/gun...tml#post453658
What they are doing is a federal crime. You support it so you support UnConstitutional activity.
That plain enough?
We need atf's records they are illegally witholding from congress.
9 Supreme Court Justices must be ""right wing gun toting Justices according to you in the Heller decision.
but you were always in la la land....","http://www.4forums.com/political/gun-control-debates/16353-losers-nra.html",453971,108
"1-10931_109_108_3",10931,1,"2012-04-30 14:43:00",681,507,453977,"2012-04-30 14:31:00",498995,24,108,"Here it is again:

Looks like you are batting zero.
Pretend you are not defending unConstitutional acts.
As you were....",498994,3,10931,1,"Just more of you nonssense again dude. From your OP:

And who said I support what the ATF is doing in Alaska?
And you can knock off the personal accusations anytime you'd like. You have no idea what I do and do not support.","http://www.4forums.com/political/gun-control-debates/16353-losers-nra.html",453975,109
"1-10931_110_109_3",10931,1,"2012-04-30 16:36:00",507,681,453994,"2012-04-30 14:43:00",498996,68,109,"So, again . . . how does asking for copies turn into an illegal confiscation of bound legers? Secondly, from the ATF themselves; requested copies are manditory: it's the law.
So, now you have to credibly refute the proof that shows that you are wrong: what federal law says that asking for copies by a federal agency is illegal?",498995,3,10931,1,"Here it is again:

Looks like you are batting zero.
Pretend you are not defending unConstitutional acts.
As you were....","http://www.4forums.com/political/gun-control-debates/16353-losers-nra.html",453977,110
"1-10931_111_110_3",10931,1,"2012-04-30 18:03:00",681,507,454007,"2012-04-30 16:36:00",498997,80,110,"The answer is directly above this post of yourn. I have quoted the exact statutes before and you didn't read them or dismissed them
Who makes the law? Congress or the atf?
Congressman Young is right and you are way back on the hog.
That is why contempt of Congress is being pressed in Congress now against this rogue agency and also why the border State mutiple sales ""demand letter"" has been defunded.",498996,3,10931,1,"So, again . . . how does asking for copies turn into an illegal confiscation of bound legers? Secondly, from the ATF themselves; requested copies are manditory: it's the law.
So, now you have to credibly refute the proof that shows that you are wrong: what federal law says that asking for copies by a federal agency is illegal?","http://www.4forums.com/political/gun-control-debates/16353-losers-nra.html",453994,111
"1-10931_112_111_3",10931,1,"2012-04-30 18:18:00",507,681,454008,"2012-04-30 18:03:00",498998,26,111,"You've quoted no such stautes that I have seen, neither have you refuted my proof that says that you and Truth Detector are wrong.",498997,3,10931,1,"The answer is directly above this post of yourn. I have quoted the exact statutes before and you didn't read them or dismissed them
Who makes the law? Congress or the atf?
Congressman Young is right and you are way back on the hog.
That is why contempt of Congress is being pressed in Congress now against this rogue agency and also why the border State mutiple sales ""demand letter"" has been defunded.","http://www.4forums.com/political/gun-control-debates/16353-losers-nra.html",454007,112
"1-10931_113_112_3",10931,1,"2012-05-01 03:56:00",681,507,454025,"2012-04-30 18:18:00",498999,135,112,"What pray tell is your proof other than something you pulled out of your imaginary magic hat??
Where are your attending LINKS other than an active and flawed imagination?
The only thing I see are wild, unsubstantiated claims unsupported by any truth what-S0-ever.
I, on the other hand, quoted Congress, Laws made by Congress (the only branch with the power), and actions taken by them.
Nope, I have an affirmative defense and the burden of correcting your fantastic mood swings rests on you alone. You need prove by a perponderance of evidence that these congressmen are lying and quotes from the criminal atf are not in your favor as they are currently being charged with CONTEMPT OF CONGRESS.
Go fetch!",498998,3,10931,1,"You've quoted no such stautes that I have seen, neither have you refuted my proof that says that you and Truth Detector are wrong.","http://www.4forums.com/political/gun-control-debates/16353-losers-nra.html",454008,113
"1-10931_118_113_3",10931,1,"2012-05-01 10:56:00",507,681,454053,"2012-05-01 03:56:00",499004,112,113,"As usual you're diverting away from my argument. It is very clear: your own source says that the ATF asked for copies, not the volumes themselves. Moreover, I produced a proof that says sellers are bound by the law to produce any copies needed. There is nothing in your story that says these ATF officers were asking for the volumes themsevles to confiscate. Moreover, it is you who has to produce a statute that says a federal agency (the ATF) cannot ask for copies.
So, I think you better review your position because I've proved that you are wrong.",498999,3,10931,1,"What pray tell is your proof other than something you pulled out of your imaginary magic hat??
Where are your attending LINKS other than an active and flawed imagination?
The only thing I see are wild, unsubstantiated claims unsupported by any truth what-S0-ever.
I, on the other hand, quoted Congress, Laws made by Congress (the only branch with the power), and actions taken by them.
Nope, I have an affirmative defense and the burden of correcting your fantastic mood swings rests on you alone. You need prove by a perponderance of evidence that these congressmen are lying and quotes from the criminal atf are not in your favor as they are currently being charged with CONTEMPT OF CONGRESS.
Go fetch!","http://www.4forums.com/political/gun-control-debates/16353-losers-nra.html",454025,118
"1-10931_119_118_3",10931,1,"2012-05-01 13:24:00",681,507,454068,"2012-05-01 10:56:00",499005,237,118,"As usual, you don't have an argument, all you have is a lot of loose talk and no links. No proof, nothing but hot air.
I
Not true, read it again. Nonetheless, copies are beyond the law too. Read it again einstein.

No, you produced no proof, all you produced is more hot air out of that pie hole you use for a mouth, a big one at that.

That is in the same section you quoted in 922 and states that all approvals through the NICS check must be destroyed in 24 hours and no permanent records will exist execpt in gun shops and no permenant records nor data base (registration) is to be maintaine ""in any other place"". Congressman Young and Rheberg are correct. You are in la la land and completey lost.

You proved you are wrong as usual and lazy and mainly a walter mitty daydreamer without the fortitude to conduct your own research. This has been common knowledge for many, many years. You live a sheltered life and have done nothing to improve your grasp of past nor current affairs. I feel no sorrow for you, only disgust at your lack of honesty and infatuation of the misguided thoughts that must run through your skull.",499004,3,10931,1,"As usual you're diverting away from my argument. It is very clear: your own source says that the ATF asked for copies, not the volumes themselves. Moreover, I produced a proof that says sellers are bound by the law to produce any copies needed. There is nothing in your story that says these ATF officers were asking for the volumes themsevles to confiscate. Moreover, it is you who has to produce a statute that says a federal agency (the ATF) cannot ask for copies.
So, I think you better review your position because I've proved that you are wrong.","http://www.4forums.com/political/gun-control-debates/16353-losers-nra.html",454053,119
