"key","quote_source_post_discussion_id","posts_dataset_id","posts_timestamp","posts_author_id","quote_source_author_id","posts_native_post_id","quote_source_timestamp","post_text_id","Word_Count","quote_source_post_id","post_text","quote_source_text_id","Dialog_Turn","posts_discussion_id","quote_source_post_dataset_id","Fullquote_text","discussion_url","quote_source_native_post_id","posts_post_id"
"1-1131_118_117_1",1131,1,"2004-03-11 10:34:00",68,803,39214,"2004-03-10 18:33:00",47957,75,117,"You have so little faith. Yes, a very determined and very resourceful criminal can do just about everything, gun laws or no. However, having at least minimal security will prevent someone from simply walking in with a gun

Wait, don't you want to do away with all that ""legal hassle"" in the name of freedom? The only people I'm villifying are those who commit crimes.",47956,1,1131,1,"How many security fences are you going to have around schools? The fact is criminals will always get guns into a school no matter how many fences you put around it. You just do not want to admit this!
The fact is if you did allow people to carry guns at schools( now I said people not kids) most if not all people working for the schools would not carry them. Why simple most people do not want to deal with the legal hassle that comes with carrying a gun. This alone shoots down you rambo bs. So every time you vilify a law-abiding citizen for carrying a gun you just make yourself look foolish. Why? Simple because you have no documentation to prove there was ever a shootout that you rant and rave about!

What pattern? Gee the latest news release for columbine showing weapons and ammo and other stuff stated these two criminals had how many run ins with the laws resulting in their arrest? It was in the double digits!","http://www.4forums.com/political/gun-control-debates/1871-gun-free-zones.html",39103,118
"1-1131_119_118_1",1131,1,"2004-03-11 10:43:00",803,68,39218,"2004-03-11 10:34:00",47958,166,118,"You are the one that wants to fence off schools in the name of safety. You are the one that demands all law-abiding citizens be disarmed in the name of safety.
I pointed out that criminals will not obey the laws about gun free zones. I pointed out that law-abiding citizens will be the only people to obey gun free zones.

Just look back at your post to read how you vilified law-abiding citizens with guns!
Gun free zones will keep only law-abiding citizens from having guns in them. Criminals will simply walk into gun free zones with guns. Criminals will do this in many ways. If there is a fence around the gun free zone the criminal will simply throw the gun over the fence to another criminal. If there is a check point with a metal detector a criminal will create a disturbance to distract the security officer then walk past the check point.",47957,1,1131,1,"You have so little faith. Yes, a very determined and very resourceful criminal can do just about everything, gun laws or no. However, having at least minimal security will prevent someone from simply walking in with a gun

Wait, don't you want to do away with all that ""legal hassle"" in the name of freedom? The only people I'm villifying are those who commit crimes.","http://www.4forums.com/political/gun-control-debates/1871-gun-free-zones.html",39214,119
"1-1131_120_119_1",1131,1,"2004-03-11 10:49:00",68,803,39219,"2004-03-11 10:43:00",47959,134,119,"1. I never said I wanted to fence off schools. That was someone else.
2. I never said all citizens be disarmed. We are talking about certain places being gun-free.
3. Many schools are already fenced off. Why do they do this?

When has anyone said that criminals will obey gun free zones? You keep saying this, but no one has ever disagreed with you. You point out things that nobody disagrees with.

I must be blind. Where have I vilified law-abiding citizens. You think it's so easy to get around security ;) Perhaps if you try to ""create a disturbance"" to get a gun past security at an airport we'll see how far you get.",47958,1,1131,1,"You are the one that wants to fence off schools in the name of safety. You are the one that demands all law-abiding citizens be disarmed in the name of safety.
I pointed out that criminals will not obey the laws about gun free zones. I pointed out that law-abiding citizens will be the only people to obey gun free zones.

Just look back at your post to read how you vilified law-abiding citizens with guns!
Gun free zones will keep only law-abiding citizens from having guns in them. Criminals will simply walk into gun free zones with guns. Criminals will do this in many ways. If there is a fence around the gun free zone the criminal will simply throw the gun over the fence to another criminal. If there is a check point with a metal detector a criminal will create a disturbance to distract the security officer then walk past the check point.","http://www.4forums.com/political/gun-control-debates/1871-gun-free-zones.html",39218,120
"1-1131_121_120_1",1131,1,"2004-03-11 11:10:00",803,68,39225,"2004-03-11 10:49:00",47960,80,120,"Gun free zones will only disarm law-abiding citizens. Gun free zones will not disarm criminals since criminals will not obey gun free zones.
Want an example of a gun free zone failing to keep guns off of airplanes? The NYC airport where an airplane was discovered with drugs and guns on it!

Read back and to see how you vilify gun owners! I am not going to post your quotes vilify law-abiding gun owners.",47959,1,1131,1,"1. I never said I wanted to fence off schools. That was someone else.
2. I never said all citizens be disarmed. We are talking about certain places being gun-free.
3. Many schools are already fenced off. Why do they do this?

When has anyone said that criminals will obey gun free zones? You keep saying this, but no one has ever disagreed with you. You point out things that nobody disagrees with.

I must be blind. Where have I vilified law-abiding citizens. You think it's so easy to get around security ;) Perhaps if you try to ""create a disturbance"" to get a gun past security at an airport we'll see how far you get.","http://www.4forums.com/political/gun-control-debates/1871-gun-free-zones.html",39219,121
"1-1131_122_121_1",1131,1,"2004-03-11 11:21:00",68,803,39227,"2004-03-11 11:10:00",47961,50,121,"Have you put your chant to music yet?

Wow, I guess we should do away with security at airports, instead of finding out what failed and how to fix it.

And I assert that I have not villified gun owners in any of my posts :)",47960,1,1131,1,"Gun free zones will only disarm law-abiding citizens. Gun free zones will not disarm criminals since criminals will not obey gun free zones.
Want an example of a gun free zone failing to keep guns off of airplanes? The NYC airport where an airplane was discovered with drugs and guns on it!

Read back and to see how you vilify gun owners! I am not going to post your quotes vilify law-abiding gun owners.","http://www.4forums.com/political/gun-control-debates/1871-gun-free-zones.html",39225,122
"1-1131_2_1_2",1131,1,"2004-03-02 19:30:00",283,803,37599,"2004-03-02 16:41:00",47841,77,1,"Simply naming an area a gun free zone does not make it a gun free zone. If it is truely to be a gun free zone, the law must be enforced. To enforce the law, you must provide a means of security / controlled access to the zone, to screen for and prevent guns from entering the zone. If the law is enforced, the gun free zone will work.",47840,2,1131,1,"Why do gun free zones not work? Because criminals do not obey the laws against having guns in gun free zones.","http://www.4forums.com/political/gun-control-debates/1871-gun-free-zones.html",37559,2
"1-1131_7_2_2",1131,1,"2004-03-02 21:29:00",803,283,37617,"2004-03-02 19:30:00",47846,28,2,"You want kids to be placed in a prison for an education. Do you think they will really like to learn in that type of school?",47841,2,1131,1,"Simply naming an area a gun free zone does not make it a gun free zone. If it is truely to be a gun free zone, the law must be enforced. To enforce the law, you must provide a means of security / controlled access to the zone, to screen for and prevent guns from entering the zone. If the law is enforced, the gun free zone will work.","http://www.4forums.com/political/gun-control-debates/1871-gun-free-zones.html",37599,7
"1-1131_14_7_2",1131,1,"2004-03-03 10:17:00",283,803,37726,"2004-03-02 21:29:00",47853,214,7,"No I don't . I want children (at least my children and family) to be placed in a school where they do not have to worry about one of their classmates pulling out a tech 9 and going on a rampage in the library. I don't think that is too much to ask. I think eliminating the risk of this makes a school a much more effective place to learn. How many people do you think actually learned anything at Columbine the day they came back to school, or perhaps were they a little distracted. I'm all for the government giving you and like-minded extremists your own school (hell, even your own state...why not) and letting you all carry guns into schools and every other place you want to. As long as when a gunfight breaks out at your school in Rottencrotch Nebraska, I don't have to see all the parents on TV crying and bawling about how could this tragedy happen here, and saying that something should have been done, this never should have happened. I think there is a time and place for guns, but I don't think that guns belong in schools.",47846,2,1131,1,"You want kids to be placed in a prison for an education. Do you think they will really like to learn in that type of school?","http://www.4forums.com/political/gun-control-debates/1871-gun-free-zones.html",37617,14
"1-1131_15_14_2",1131,1,"2004-03-03 10:56:00",803,283,37743,"2004-03-03 10:17:00",47854,91,14,"Please demonstrate to us how running your gun free school would be different from how a prison is operated. You stated you wanted a fence with locked gates around the school. You wanted everybody searched before they entered school. You wanted all items searched before they entered school. This is how they operate prisons. Drugs and guns still make it into prisons. Let us not forget the airplane with the drugs and guns on it after all of the passengers were searched for weapons.",47853,2,1131,1,"No I don't . I want children (at least my children and family) to be placed in a school where they do not have to worry about one of their classmates pulling out a tech 9 and going on a rampage in the library. I don't think that is too much to ask. I think eliminating the risk of this makes a school a much more effective place to learn. How many people do you think actually learned anything at Columbine the day they came back to school, or perhaps were they a little distracted. I'm all for the government giving you and like-minded extremists your own school (hell, even your own state...why not) and letting you all carry guns into schools and every other place you want to. As long as when a gunfight breaks out at your school in Rottencrotch Nebraska, I don't have to see all the parents on TV crying and bawling about how could this tragedy happen here, and saying that something should have been done, this never should have happened. I think there is a time and place for guns, but I don't think that guns belong in schools.","http://www.4forums.com/political/gun-control-debates/1871-gun-free-zones.html",37726,15
"1-1131_16_15_2",1131,1,"2004-03-03 11:33:00",283,803,37755,"2004-03-03 10:56:00",47855,34,15,"Could I ask all viewing here...how many of you really need an explanation of this (other than Justanotherguy)? For some reason I am not surprised by his response.",47854,2,1131,1,"Please demonstrate to us how running your gun free school would be different from how a prison is operated. You stated you wanted a fence with locked gates around the school. You wanted everybody searched before they entered school. You wanted all items searched before they entered school. This is how they operate prisons. Drugs and guns still make it into prisons. Let us not forget the airplane with the drugs and guns on it after all of the passengers were searched for weapons.","http://www.4forums.com/political/gun-control-debates/1871-gun-free-zones.html",37743,16
"1-1131_17_16_2",1131,1,"2004-03-03 13:50:00",803,283,37782,"2004-03-03 11:33:00",47856,80,16,"So you want to run the schools like prison! Are you going to put armed tower guards around the school grounds? Not only does this sound like a prison, it sounds like that thing in Berlin. Berlin Wall a device used to keep people in. It also had armed guard towers. So to keep guns out of a gun free zone you would insist on a police force using guns to do this.",47855,2,1131,1,"Could I ask all viewing here...how many of you really need an explanation of this (other than Justanotherguy)? For some reason I am not surprised by his response.","http://www.4forums.com/political/gun-control-debates/1871-gun-free-zones.html",37755,17
"1-1131_18_17_2",1131,1,"2004-03-03 14:16:00",283,803,37792,"2004-03-03 13:50:00",47857,28,17,"Must you take everything to the extreme? I guess that would make you an extremist. We are talking about school security, not communist Berlin.",47856,2,1131,1,"So you want to run the schools like prison! Are you going to put armed tower guards around the school grounds? Not only does this sound like a prison, it sounds like that thing in Berlin. Berlin Wall a device used to keep people in. It also had armed guard towers. So to keep guns out of a gun free zone you would insist on a police force using guns to do this.","http://www.4forums.com/political/gun-control-debates/1871-gun-free-zones.html",37782,18
"1-1131_19_18_2",1131,1,"2004-03-03 14:22:00",803,283,37794,"2004-03-03 14:16:00",47858,71,18,"Extremes? Below is a quote from you!

Since you like having unarmed passengers fight armed terrorists. Do you want unarmed security officers to attack armed criminals attempting to enter gun free zones? 
So you just want check points and no fences? What is to prevent some one from walking between the check points if there is not an fence? Sound like the Berlin Wall.",47857,2,1131,1,"Must you take everything to the extreme? I guess that would make you an extremist. We are talking about school security, not communist Berlin.","http://www.4forums.com/political/gun-control-debates/1871-gun-free-zones.html",37792,19
"1-1131_21_20_3",1131,1,"2004-03-03 16:22:00",803,283,37813,"2004-03-03 15:51:00",47860,8,20,"So now you are calling yourself extreme?",47859,3,1131,1,"Yes, that is really an extremist view.","http://www.4forums.com/political/gun-control-debates/1871-gun-free-zones.html",37806,21
"1-1131_22_21_3",1131,1,"2004-03-03 16:41:00",283,803,37818,"2004-03-03 16:22:00",47861,26,21,"No it's called sarcasm, I expected that you would not understand...it was more for the benefit of others reading...not you.",47860,3,1131,1,"So now you are calling yourself extreme?","http://www.4forums.com/political/gun-control-debates/1871-gun-free-zones.html",37813,22
"1-1131_23_22_3",1131,1,"2004-03-03 16:46:00",803,283,37819,"2004-03-03 16:41:00",47862,22,22,"Without making a school operate like a prison how do you propose to make your gun free zone safe from criminals?",47861,3,1131,1,"No it's called sarcasm, I expected that you would not understand...it was more for the benefit of others reading...not you.","http://www.4forums.com/political/gun-control-debates/1871-gun-free-zones.html",37818,23
"1-1131_24_23_3",1131,1,"2004-03-03 17:45:00",283,803,37828,"2004-03-03 16:46:00",47863,9,23,"By enacting sensible yet effective methods of security.",47862,3,1131,1,"Without making a school operate like a prison how do you propose to make your gun free zone safe from criminals?","http://www.4forums.com/political/gun-control-debates/1871-gun-free-zones.html",37819,24
"1-1131_25_24_3",1131,1,"2004-03-03 18:45:00",803,283,37835,"2004-03-03 17:45:00",47864,70,24,"Dance around the issue all you want. The fact remains that no criminal will obey the gun free zones!
Your solution is to turn gun free zones into prisons for any law-abiding citizen that enters them. Once a law-abiding citizen enters a gun free zone, that law-abiding citizen will be at the mercy of armed criminals that DO NOT obey the gun free zones laws!",47863,3,1131,1,"By enacting sensible yet effective methods of security.","http://www.4forums.com/political/gun-control-debates/1871-gun-free-zones.html",37828,25
"1-1131_48_47_4",1131,1,"2004-03-04 12:22:00",803,283,38087,"2004-03-04 12:09:00",47887,59,47,"Gun free zones are known to criminals. That is why criminals go to gun free zones. Criminals do not have to worry about being confronted by armed law-abiding citizens.
Criminals will not obey these gun free zones. Was there not a school that a principal stopped a shooting by having his gun with him?",47886,4,1131,1,"Anyway...
Gun free zones serve 2 purposes. 
1. Making it known to EVERYONE that guns are not to be carried in the zone.
2. By labeling it as a gun free zone, people who violate the gun free zone are subject to increased penalty under law.
Making a gun free zone does nothing to prevent guns from entering it. Enforcing a gun free zone by means of security does. 
I agree with armed law enforcement in schools to provide protection. Teachers...that is a little different...I think there would need to be a mass concensus of teachers willing to carry, and then extensive training would be required. In the end, I think armed law enforcement would make much more economical sense. And I wonder, how many columbines we have to have before people understand that if we had been able to find a way to screen these children for guns prior to entering the school, this **** wouldn't have happened.","http://www.4forums.com/political/gun-control-debates/1871-gun-free-zones.html",38083,48
"1-1131_49_48_4",1131,1,"2004-03-04 12:29:00",283,803,38089,"2004-03-04 12:22:00",47888,62,48,"If you say so, sure. Is it not possible that if the gun had never entered the school in the first place, the principle would not have had to stop any shooting? Is it possible that if the principle had not been in the right place at the right time the shooting could have still taken place?",47887,4,1131,1,"Gun free zones are known to criminals. That is why criminals go to gun free zones. Criminals do not have to worry about being confronted by armed law-abiding citizens.
Criminals will not obey these gun free zones. Was there not a school that a principal stopped a shooting by having his gun with him?","http://www.4forums.com/political/gun-control-debates/1871-gun-free-zones.html",38087,49
"1-1131_50_49_4",1131,1,"2004-03-04 12:32:00",803,283,38091,"2004-03-04 12:29:00",47889,22,49,"It was a gun free zone. A criminal disobeyed the law and carried a gun into a gun free zones.",47888,4,1131,1,"If you say so, sure. Is it not possible that if the gun had never entered the school in the first place, the principle would not have had to stop any shooting? Is it possible that if the principle had not been in the right place at the right time the shooting could have still taken place?","http://www.4forums.com/political/gun-control-debates/1871-gun-free-zones.html",38089,50
"1-1131_51_50_4",1131,1,"2004-03-04 13:47:00",283,803,38108,"2004-03-04 12:32:00",47890,6,50,"Apparently so did the principal.",47889,4,1131,1,"It was a gun free zone. A criminal disobeyed the law and carried a gun into a gun free zones.","http://www.4forums.com/political/gun-control-debates/1871-gun-free-zones.html",38091,51
"1-1131_52_51_4",1131,1,"2004-03-04 13:55:00",803,283,38111,"2004-03-04 13:47:00",47891,65,51,"Where did the gun free zone start? It appears you feel that gun free zones should start at the very property line of the school. What kind of dangerous threat to the kids can you create with a large number of kids waiting at the check point on the property line to be searched and scanned prior they enter the school grounds.",47890,4,1131,1,"Apparently so did the principal.","http://www.4forums.com/political/gun-control-debates/1871-gun-free-zones.html",38108,52
"1-1131_53_52_4",1131,1,"2004-03-04 14:00:00",283,803,38118,"2004-03-04 13:55:00",47892,61,52,"I don't really know, as a matter of fact I do not even know if the case that you cite is true or not. If it is, perhaps you could post a link to the story about it. And it appears that you are making assumptions about what I think based on nothing factual at all.",47891,4,1131,1,"Where did the gun free zone start? It appears you feel that gun free zones should start at the very property line of the school. What kind of dangerous threat to the kids can you create with a large number of kids waiting at the check point on the property line to be searched and scanned prior they enter the school grounds.","http://www.4forums.com/political/gun-control-debates/1871-gun-free-zones.html",38111,53
"1-1131_54_53_4",1131,1,"2004-03-04 14:12:00",803,283,38125,"2004-03-04 14:00:00",47893,15,53,"Same kind of answer from you about the drugs and guns on that airplane.",47892,4,1131,1,"I don't really know, as a matter of fact I do not even know if the case that you cite is true or not. If it is, perhaps you could post a link to the story about it. And it appears that you are making assumptions about what I think based on nothing factual at all.","http://www.4forums.com/political/gun-control-debates/1871-gun-free-zones.html",38118,54
"1-1131_55_54_4",1131,1,"2004-03-04 14:16:00",283,803,38127,"2004-03-04 14:12:00",47894,9,54,"You brought it up, now show it.",47893,4,1131,1,"Same kind of answer from you about the drugs and guns on that airplane.","http://www.4forums.com/political/gun-control-debates/1871-gun-free-zones.html",38125,55
"1-1131_56_55_4",1131,1,"2004-03-04 14:24:00",803,283,38133,"2004-03-04 14:16:00",47895,60,55,"I posted the above. You responded to it as if it is true and now that you are losing your argument for gun free zones you try this.

I asked a question. Here I will post it again. Was there not a school that a principal stopped a shooting by having his gun with him?",47894,4,1131,1,"You brought it up, now show it.","http://www.4forums.com/political/gun-control-debates/1871-gun-free-zones.html",38127,56
"1-1131_87_86_5",1131,1,"2004-03-08 21:14:00",283,803,38783,"2004-03-08 20:37:00",47926,15,86,"Please stop calling people ""safety nazis"". I find that term offensive.",47925,5,1131,1,"Well if this is true as you claim then what kids are breaking this law? 
Criminals or law-abiding students?
More proof that gun free zones affect only the law-abiding citizens or students
The two examples you used were what? The kids doing the shootings had some problems with school bullies and the jocks. Nothing is done to deal with this problem. In fact the people demanding prison type schools for gun free schools use the same bulling tactic to press their demands. This also can be seen by one of the people for prison type schools response of bragging about having to defend him or herself with their bare hands. People that ask question of the safety Nazis plans for prison type schools are attack with insults in an attempt to pressure people into thinking like these frightened people.","http://www.4forums.com/political/gun-control-debates/1871-gun-free-zones.html",38779,87
"1-1131_88_87_5",1131,1,"2004-03-08 21:23:00",803,283,38784,"2004-03-08 21:14:00",47927,55,87,"You cannot defeat the facts about gun free zones’ failure to keep guns out of them so now you attack the messenger!
Gun free zones are obeyed by the law-abiding citizen. Criminals will not be stopped from taking guns into gun free zones because criminals do not obey laws!",47926,5,1131,1,"Please stop calling people ""safety nazis"". I find that term offensive.","http://www.4forums.com/political/gun-control-debates/1871-gun-free-zones.html",38783,88
"1-1131_91_88_5",1131,1,"2004-03-08 21:55:00",283,803,38792,"2004-03-08 21:23:00",47930,70,88,"I attacked nobody. I simply stated that I find the term ""safety nazi"" offensive. So don't use it. And WHAT FACTS?

emoticonXWow Just when I though I heard every illogical and contradictory statement you could make...you continue to amaze.

So you don't mind if a few innocent people die...just as long as we don't treat them like criminals?",47927,5,1131,1,"You cannot defeat the facts about gun free zones’ failure to keep guns out of them so now you attack the messenger!
Gun free zones are obeyed by the law-abiding citizen. Criminals will not be stopped from taking guns into gun free zones because criminals do not obey laws!","http://www.4forums.com/political/gun-control-debates/1871-gun-free-zones.html",38784,91
"1-1131_92_91_5",1131,1,"2004-03-08 22:06:00",803,283,38794,"2004-03-08 21:55:00",47931,99,91,"I find it offensive that you want to limit rights and yet you are not told to stop doing that! Every time you refer to armed citizens you use terms like Jeb, or idiot and no ones demand you to stop saying that. When people defending rights use terms like safety Nazis, you take offense in hopes to stop the safety Nazis from being exhibited in a bad light. 

The fact that criminals do not obey laws amazes you, figures!

Maybe freedom and responsibility are subjects you find hard to understand!",47930,5,1131,1,"I attacked nobody. I simply stated that I find the term ""safety nazi"" offensive. So don't use it. And WHAT FACTS?

emoticonXWow Just when I though I heard every illogical and contradictory statement you could make...you continue to amaze.

So you don't mind if a few innocent people die...just as long as we don't treat them like criminals?","http://www.4forums.com/political/gun-control-debates/1871-gun-free-zones.html",38792,92
"1-1131_93_92_5",1131,1,"2004-03-08 22:19:00",283,803,38796,"2004-03-08 22:06:00",47932,179,92,"What about the freedom of children to go to school without the fear of being gunned down at lunch? What about a parents freedom to feel that their kids are safe in our public schools? And do you contend that it is our childrens responsibility to die to ensure that kids are free to carry guns to school?

It is my right to present my side of the debate as I see fit, as long as I do not chose to use offensive terms directed at others...especially after they have told me that they consider them offensive. I have told you that I find the term ""safety nazi"" to be offensive. I have asked to to not use it when reffering to me or others that post on this forum. You do not need to continue to be offensive to present your side of the debate. Please do not use the term again. 

That's not what I said, nor what I was reffering to.",47931,5,1131,1,"I find it offensive that you want to limit rights and yet you are not told to stop doing that! Every time you refer to armed citizens you use terms like Jeb, or idiot and no ones demand you to stop saying that. When people defending rights use terms like safety Nazis, you take offense in hopes to stop the safety Nazis from being exhibited in a bad light. 

The fact that criminals do not obey laws amazes you, figures!

Maybe freedom and responsibility are subjects you find hard to understand!","http://www.4forums.com/political/gun-control-debates/1871-gun-free-zones.html",38794,93
"1-1131_94_93_5",1131,1,"2004-03-08 22:30:00",803,283,38797,"2004-03-08 22:19:00",47933,68,93,"Once again do gun free zones keep this from happening? No!
As for you chant about kids taking guns to school, the gun free zones do not stop this.

I find it offensive that you want to limit peoples right, please stop doing it!

So you slinking insults here is ok, it is not offensive for you to do that?",47932,5,1131,1,"What about the freedom of children to go to school without the fear of being gunned down at lunch? What about a parents freedom to feel that their kids are safe in our public schools? And do you contend that it is our childrens responsibility to die to ensure that kids are free to carry guns to school?

It is my right to present my side of the debate as I see fit, as long as I do not chose to use offensive terms directed at others...especially after they have told me that they consider them offensive. I have told you that I find the term ""safety nazi"" to be offensive. I have asked to to not use it when reffering to me or others that post on this forum. You do not need to continue to be offensive to present your side of the debate. Please do not use the term again. 

That's not what I said, nor what I was reffering to.","http://www.4forums.com/political/gun-control-debates/1871-gun-free-zones.html",38796,94
"1-1131_68_67_6",1131,1,"2004-03-05 17:27:00",614,803,38402,"2004-03-05 15:52:00",47907,59,67,"My idea would be:
Metal detectors and security.
This wouldn´t prevent school shootings as such but at least the maniacs couldn´t reach the inside that easy.
It also isn´t a nice imagination to have guarded school entrances but if necessary then it has to be done.",47906,6,1131,1,"Explain in detail how you would do this to make schools gun free zones.","http://www.4forums.com/political/gun-control-debates/1871-gun-free-zones.html",38397,68
"1-1131_69_68_6",1131,1,"2004-03-06 07:01:00",803,614,38459,"2004-03-05 17:27:00",47908,26,68,"Not well prepared plans on security. What is to prevent a person from going between the check points where the metal detectors are placed?",47907,6,1131,1,"My idea would be:
Metal detectors and security.
This wouldn´t prevent school shootings as such but at least the maniacs couldn´t reach the inside that easy.
It also isn´t a nice imagination to have guarded school entrances but if necessary then it has to be done.","http://www.4forums.com/political/gun-control-debates/1871-gun-free-zones.html",38402,69
"1-1131_70_69_6",1131,1,"2004-03-06 07:05:00",614,803,38461,"2004-03-06 07:01:00",47909,17,69,"With security I meant security agents. 
Sorry if it wasn´t that clear.",47908,6,1131,1,"Not well prepared plans on security. What is to prevent a person from going between the check points where the metal detectors are placed?","http://www.4forums.com/political/gun-control-debates/1871-gun-free-zones.html",38459,70
"1-1131_71_70_6",1131,1,"2004-03-06 07:19:00",803,614,38462,"2004-03-06 07:05:00",47910,8,70,"Are the agents at the metal detectors?",47909,6,1131,1,"With security I meant security agents. 
Sorry if it wasn´t that clear.","http://www.4forums.com/political/gun-control-debates/1871-gun-free-zones.html",38461,71
"1-1131_72_71_6",1131,1,"2004-03-06 08:05:00",614,803,38471,"2004-03-06 07:19:00",47911,64,71,"Yes and there also should be someone to watch out for people trying to get inside the school in a irregular way.
This again wouldn´t be guaranteed safety but a first step.
And if you´d start installing metal detectors you would certainly take care about any entrances that might be used to cheat the detectors.",47910,6,1131,1,"Are the agents at the metal detectors?","http://www.4forums.com/political/gun-control-debates/1871-gun-free-zones.html",38462,72
"1-1131_73_72_6",1131,1,"2004-03-06 09:35:00",803,614,38483,"2004-03-06 08:05:00",47912,27,72,"So you want security people at the metal detectors and patrolling the perimeter of the school? Do you want these security people armed or unarmed?",47911,6,1131,1,"Yes and there also should be someone to watch out for people trying to get inside the school in a irregular way.
This again wouldn´t be guaranteed safety but a first step.
And if you´d start installing metal detectors you would certainly take care about any entrances that might be used to cheat the detectors.","http://www.4forums.com/political/gun-control-debates/1871-gun-free-zones.html",38471,73
"1-1131_74_73_6",1131,1,"2004-03-06 16:14:00",614,803,38514,"2004-03-06 09:35:00",47913,54,73,"I´d like to see them unarmed but the effect would certainly be as if you had unarmed security at a bank or airport.
So yes, they had to be armed.
And no, this wouldn´t make it a prison if you hint on this.",47912,6,1131,1,"So you want security people at the metal detectors and patrolling the perimeter of the school? Do you want these security people armed or unarmed?","http://www.4forums.com/political/gun-control-debates/1871-gun-free-zones.html",38483,74
"1-1131_75_74_6",1131,1,"2004-03-07 06:06:00",803,614,38553,"2004-03-06 16:14:00",47914,11,74,"Is there going to be a fence around the school?",47913,6,1131,1,"I´d like to see them unarmed but the effect would certainly be as if you had unarmed security at a bank or airport.
So yes, they had to be armed.
And no, this wouldn´t make it a prison if you hint on this.","http://www.4forums.com/political/gun-control-debates/1871-gun-free-zones.html",38514,75
"1-1131_76_75_6",1131,1,"2004-03-07 06:26:00",614,803,38554,"2004-03-07 06:06:00",47915,29,75,"Maybe or a wall like it is already common for many schools right now.
You are only pointing towards the ""prison argument"" again, huh?",47914,6,1131,1,"Is there going to be a fence around the school?","http://www.4forums.com/political/gun-control-debates/1871-gun-free-zones.html",38553,76
"1-1131_77_76_6",1131,1,"2004-03-07 06:57:00",803,614,38558,"2004-03-07 06:26:00",47916,39,76,"Your gun free zones would be prisons for children to learn in. 
Even with all of your security devices guns would still get into to schools because criminals would not obey the law about gun free zones!",47915,6,1131,1,"Maybe or a wall like it is already common for many schools right now.
You are only pointing towards the ""prison argument"" again, huh?","http://www.4forums.com/political/gun-control-debates/1871-gun-free-zones.html",38554,77
"1-1131_78_77_6",1131,1,"2004-03-07 13:37:00",614,803,38576,"2004-03-07 06:57:00",47917,124,77,"As there won´t be armed guards in class rooms and it is about safety, I think children can differ from prison to school.

Criminals don´t obey laws.
But it will be a lot harder for them to take their guns to school and the average thug might consider to not take his gun with him at all.
School criminals (and I am not talking about something like Littleton) would commit less crimes at schools because they can´t threat others with guns anymore.
It is surely easier to get an armed criminal into a school if it is not a gun-free zone or would you even deny this?",47916,6,1131,1,"Your gun free zones would be prisons for children to learn in. 
Even with all of your security devices guns would still get into to schools because criminals would not obey the law about gun free zones!","http://www.4forums.com/political/gun-control-debates/1871-gun-free-zones.html",38558,78
"1-1131_83_78_6",1131,1,"2004-03-08 08:49:00",803,614,38648,"2004-03-07 13:37:00",47922,55,78,"Your security measures would have public schools a place “for education” operated like prisons! 

Criminals do not obey gun control laws that make schools a gun free zone! Law-abiding citizens are the only group of people affected by gun free zones!
Criminals prefer unarmed victims!",47917,6,1131,1,"As there won´t be armed guards in class rooms and it is about safety, I think children can differ from prison to school.
Criminals don´t obey laws.
But it will be a lot harder for them to take their guns to school and the average thug might consider to not take his gun with him at all. ?","http://www.4forums.com/political/gun-control-debates/1871-gun-free-zones.html",38576,83
