"key","quote_source_post_discussion_id","posts_dataset_id","posts_timestamp","posts_author_id","quote_source_author_id","posts_native_post_id","quote_source_timestamp","post_text_id","Word_Count","quote_source_post_id","post_text","quote_source_text_id","Dialog_Turn","posts_discussion_id","quote_source_post_dataset_id","Fullquote_text","discussion_url","quote_source_native_post_id","posts_post_id"
"1-1134_3_2_1",1134,1,"2004-03-03 13:57:00",803,283,37784,"2004-03-03 10:52:00",48055,57,2,"You do have a problem with this person defending himself or you would not be attacking him. Fear made him do this. The fear was created in him by the buglers. 
You want unarmed passengers to attack armed terrorists on airplanes, but you have a problem with a home owner killing buglers.",48054,1,1134,1,"I am not saying what the criminals did was right, but neither was what Mr. Martin did. I have no problem with him killing them both.","http://www.4forums.com/political/gun-control-debates/1874-tony-martin-refused-leave-because-risk-burglars.html",37740,3
"1-1134_4_3_1",1134,1,"2004-03-03 14:11:00",283,803,37788,"2004-03-03 13:57:00",48056,123,3,"I would prefer that terrorists not be armed on aircraft, that has been the point of what I have been trying to say. If I wanted unarmed passengers to attack armed terrorists, I would advocate finding terrorists, buying them tickets, and giving them guns before boarding. The point of it is that you do what you have to do. 
And I am not attacking him. I am simply responding to the previous post. I do not question his motives, I question his methods. I said that I have no problem with what he did, just how he went about it. Why must you attack me on every little point?",48055,1,1134,1,"You do have a problem with this person defending himself or you would not be attacking him. Fear made him do this. The fear was created in him by the buglers. 
You want unarmed passengers to attack armed terrorists on airplanes, but you have a problem with a home owner killing buglers.","http://www.4forums.com/political/gun-control-debates/1874-tony-martin-refused-leave-because-risk-burglars.html",37784,4
"1-1134_5_4_1",1134,1,"2004-03-03 14:28:00",803,283,37795,"2004-03-03 14:11:00",48057,84,4,"Fear created by buglers made the home owner do what he did! You have a problem because he shot them on their way out. I guess you have some way of knowing that these criminals would never return to once again create fear in the home owner. Making unarmed people live in fear is about all you demand of the law-abiding citizens. To bad you do not turn your attention to the criminals and leave the law-abiding citizens alone!",48056,1,1134,1,"I would prefer that terrorists not be armed on aircraft, that has been the point of what I have been trying to say. If I wanted unarmed passengers to attack armed terrorists, I would advocate finding terrorists, buying them tickets, and giving them guns before boarding. The point of it is that you do what you have to do. 
And I am not attacking him. I am simply responding to the previous post. I do not question his motives, I question his methods. I said that I have no problem with what he did, just how he went about it. Why must you attack me on every little point?","http://www.4forums.com/political/gun-control-debates/1874-tony-martin-refused-leave-because-risk-burglars.html",37788,5
"1-1134_6_5_1",1134,1,"2004-03-03 15:47:00",283,803,37805,"2004-03-03 14:28:00",48058,27,5,"You are not worth the debate. If you refuse to acknowledge anything I say, it is worthless to continue spitting it back to you.",48057,1,1134,1,"Fear created by buglers made the home owner do what he did! You have a problem because he shot them on their way out. I guess you have some way of knowing that these criminals would never return to once again create fear in the home owner. Making unarmed people live in fear is about all you demand of the law-abiding citizens. To bad you do not turn your attention to the criminals and leave the law-abiding citizens alone!","http://www.4forums.com/political/gun-control-debates/1874-tony-martin-refused-leave-because-risk-burglars.html",37795,6
"1-1134_7_6_1",1134,1,"2004-03-03 16:21:00",803,283,37812,"2004-03-03 15:47:00",48059,13,6,"Tuck tail and run when you cannot win your argument or debate!",48058,1,1134,1,"You are not worth the debate. If you refuse to acknowledge anything I say, it is worthless to continue spitting it back to you.","http://www.4forums.com/political/gun-control-debates/1874-tony-martin-refused-leave-because-risk-burglars.html",37805,7
"1-1134_8_7_1",1134,1,"2004-03-03 16:40:00",283,803,37817,"2004-03-03 16:21:00",48060,52,7,"That's not it at all. It just does absolutely no good to debate with you if you cannot logically debate back. I would bet that most rational, realistic, and sane people would say that I have already won the debate. Extremist logic does not impress me.",48059,1,1134,1,"Tuck tail and run when you cannot win your argument or debate!","http://www.4forums.com/political/gun-control-debates/1874-tony-martin-refused-leave-because-risk-burglars.html",37812,8
"1-1134_9_8_1",1134,1,"2004-03-03 16:49:00",803,283,37820,"2004-03-03 16:40:00",48061,38,8,"Extremist logic? You are the person that stated unarmed law-abiding passengers should attack armed terrorists!
You are the one that attacked a home owner for shooting two burglars that entered his home without his permission!",48060,1,1134,1,"That's not it at all. It just does absolutely no good to debate with you if you cannot logically debate back. I would bet that most rational, realistic, and sane people would say that I have already won the debate. Extremist logic does not impress me.","http://www.4forums.com/political/gun-control-debates/1874-tony-martin-refused-leave-because-risk-burglars.html",37817,9
