"key","quote_source_post_discussion_id","posts_dataset_id","posts_timestamp","posts_author_id","quote_source_author_id","posts_native_post_id","quote_source_timestamp","post_text_id","Word_Count","quote_source_post_id","post_text","quote_source_text_id","Dialog_Turn","posts_discussion_id","quote_source_post_dataset_id","Fullquote_text","discussion_url","quote_source_native_post_id","posts_post_id"
"1-1543_41_40_1",1543,1,"2004-06-25 06:46:00",419,27,55542,"2004-06-25 04:59:00",64539,66,40,"Nobody has been able to prove that non-gun owners are safer than gun owners.
Wow that is easy.
So if you can not prove things one way or the other why try to infringe on my rights?

You can say that about cars, you can say that about anything... to most libs 3000 on 911 IS not a big number.",64538,1,1543,1,"Nobody has been able to prove that gun owners are safer than non-gun owners.

You can play around with numbers to make the problem seem insignificant. I suppose you could also say that only 3,000 people died in 9/11 and use your logic to say that it's only a small problem. If thousands of people are being killed it's not a small problem. Perhaps if somebody in your family had died of gun violence you would have a different attitude. Those numbers would mean something to you.","http://www.4forums.com/political/gun-control-debates/2527-why-do-you-want-take-my-guns.html",55534,41
"1-1543_44_41_1",1543,1,"2004-06-27 06:05:00",27,419,55718,"2004-06-25 06:46:00",64542,36,41,"I didn't say that it can't be proven one way or the other. I just said you can't prove that gun owners are safer. And who's trying to infringe on another person's rights?",64539,1,1543,1,"Nobody has been able to prove that non-gun owners are safer than gun owners.
Wow that is easy.
So if you can not prove things one way or the other why try to infringe on my rights?

You can say that about cars, you can say that about anything... to most libs 3000 on 911 IS not a big number.","http://www.4forums.com/political/gun-control-debates/2527-why-do-you-want-take-my-guns.html",55542,44
"1-1543_47_44_1",1543,1,"2004-06-28 05:09:00",419,27,55812,"2004-06-27 06:05:00",64545,46,44,"Using illogic, skewed statistics, revisionist history all in an attempt to violate my constitutional rights, that would be you and other gun grabbers who are trying to infringe on law abiding citizens rights. At least have the courage to say it....",64542,1,1543,1,"I didn't say that it can't be proven one way or the other. I just said you can't prove that gun owners are safer. And who's trying to infringe on another person's rights?","http://www.4forums.com/political/gun-control-debates/2527-why-do-you-want-take-my-guns.html",55718,47
"1-1543_49_47_1",1543,1,"2004-06-28 06:30:00",27,419,55819,"2004-06-28 05:09:00",64547,41,47,"Oh, stop your witch hunt. Show me in the Constitution where it says that making an illogical argument is a violation of somebody's rights. Statistics and history that don't agree with your position are not necessarily skewed.",64545,1,1543,1,"Using illogic, skewed statistics, revisionist history all in an attempt to violate my constitutional rights, that would be you and other gun grabbers who are trying to infringe on law abiding citizens rights. At least have the courage to say it....","http://www.4forums.com/political/gun-control-debates/2527-why-do-you-want-take-my-guns.html",55812,49
"1-1543_51_49_1",1543,1,"2004-06-28 07:25:00",419,27,55832,"2004-06-28 06:30:00",64549,43,49,"Witch hunt.. You and your ilk are doing everything in your power to implement your ""victim disamament"" program in ""violation"" of my civil rights. No different than ""jim crow"" laws and other unconstitutional drivel..",64547,1,1543,1,"Oh, stop your witch hunt. Show me in the Constitution where it says that making an illogical argument is a violation of somebody's rights. Statistics and history that don't agree with your position are not necessarily skewed.","http://www.4forums.com/political/gun-control-debates/2527-why-do-you-want-take-my-guns.html",55819,51
