"key","quote_source_post_discussion_id","posts_dataset_id","posts_timestamp","posts_author_id","quote_source_author_id","posts_native_post_id","quote_source_timestamp","post_text_id","Word_Count","quote_source_post_id","post_text","quote_source_text_id","Dialog_Turn","posts_discussion_id","quote_source_post_dataset_id","Fullquote_text","discussion_url","quote_source_native_post_id","posts_post_id"
"1-173_68_67_1",173,1,"2003-09-06 23:16:00",27,18,14564,"2003-09-06 23:10:00",7999,58,67,"Why do you say that? I understand my own signature. I tried to make it very clear that it was just a misdemeanor so that you couldn't say that the court is just saying that felons can't have guns. The court did not recognize an individual right to own a gun in this case.",7998,1,173,1,"That was a misdemeanor, not a felony. The law is very clear. Only felony convictions take away your 2nd Amendment rights. 
You obviously do not understand your own signature.","http://www.4forums.com/political/gun-control-debates/274-consequences-gun-control.html",14563,68
"1-173_69_68_1",173,1,"2003-09-06 23:50:00",18,27,14568,"2003-09-06 23:16:00",8000,175,68,"No. No. No. Love got her gun and she got to keep it. The state kept the right to deny permits to felons. The state kept the right to deny permits when there are open warrents for arrest. 
The first case gave her the handgun. The appeal was about the right of the state to deny permits to people with an open arrest record. There were 3 charges against Love. One guilty plea to a misdemanor. Two open charges that were never cleared up. When she had a letter from the arresting Sherif stating that the open charges are OK and the guilty plea was a misdemanor, the state still denied the permit. The appeal decided that the state was OK to deny the permit due to the confusion and clerical error, but once it was properly cleared up, no one took her handgun way.
As I have said again, you do not understand your own signature.",7999,1,173,1,"Why do you say that? I understand my own signature. I tried to make it very clear that it was just a misdemeanor so that you couldn't say that the court is just saying that felons can't have guns. The court did not recognize an individual right to own a gun in this case.","http://www.4forums.com/political/gun-control-debates/274-consequences-gun-control.html",14564,69
"1-173_70_69_1",173,1,"2003-09-07 07:03:00",27,18,14575,"2003-09-06 23:50:00",8001,245,69,"I never said otherwise. I fail to see your point. Having a gun does not mean she had an individual and constitutional right to have it. You can own a car, but that does not mean that there is a constitutional and individual right to own a car. The federal appeals court specifically rejected her claim that she had ""an individual federal constitutional right to 'keep and bear' a handgun""

Are we debating the above issues? I thought that the issue we were discussing was the second amendment. 

Yes.
That's what the first case (the state case) was about. She won. Then she filed suit in a district court, ""alleging violations of substantive due process, a 'right to contract,' and the Second Amendment"". The district court dismissed the case. Love appealed the case to a federal appeals court. ""Citing law review articles, Love argues that she has an individual federal constitutional right to 'keep and bear' a handgun, and Maryland may not infringe upon this right. [16] She is wrong on both counts"" So not only did the federal appeals court reject the argument that Love's constitutional right had been infringed upon, they also rejected the argument that Love had an individual constitutional right to have a handgun.",8000,1,173,1,"No. No. No. Love got her gun and she got to keep it. The state kept the right to deny permits to felons. The state kept the right to deny permits when there are open warrents for arrest. 
The first case gave her the handgun. The appeal was about the right of the state to deny permits to people with an open arrest record. There were 3 charges against Love. One guilty plea to a misdemanor. Two open charges that were never cleared up. When she had a letter from the arresting Sherif stating that the open charges are OK and the guilty plea was a misdemanor, the state still denied the permit. The appeal decided that the state was OK to deny the permit due to the confusion and clerical error, but once it was properly cleared up, no one took her handgun way.
As I have said again, you do not understand your own signature.","http://www.4forums.com/political/gun-control-debates/274-consequences-gun-control.html",14568,70
"1-173_74_70_1",173,1,"2003-09-10 21:07:00",18,27,14847,"2003-09-07 07:03:00",8005,76,70,"Your point is moot and irrelavant. You have a Constitutional right to purchase a car for sale. Transactions and propterty owernship is protected under the Constitution. You do not have a Constitutional right to drive. There is no such thing as a right to drive. Driving is an activity that is licensed, regulated, and can be denied. Rights can not be denied, regulated, or licensed.",8001,1,173,1,"I never said otherwise. I fail to see your point. Having a gun does not mean she had an individual and constitutional right to have it. You can own a car, but that does not mean that there is a constitutional and individual right to own a car. .","http://www.4forums.com/political/gun-control-debates/274-consequences-gun-control.html",14575,74
"1-173_77_74_1",173,1,"2003-09-11 02:19:00",27,18,14862,"2003-09-10 21:07:00",8008,63,74,"Your point is moot and irrelevant. Again were talking about what the second amendment protects. Anyway, vehicles are registered. Unconstitutional?

Yeah the court ruled it was not an individual right. What if the Supreme Court doesn't agree to hear the case? Then no nail in no coffin. Don't count your eggs before they're hatched.",8005,1,173,1,"Your point is moot and irrelavant. You have a Constitutional right to purchase a car for sale. Transactions and propterty owernship is protected under the Constitution. You do not have a Constitutional right to drive. There is no such thing as a right to drive. Driving is an activity that is licensed, regulated, and can be denied. Rights can not be denied, regulated, or licensed.","http://www.4forums.com/political/gun-control-debates/274-consequences-gun-control.html",14847,77
"1-173_79_77_1",173,1,"2003-09-11 03:43:00",18,27,14864,"2003-09-11 02:19:00",8010,27,77,"Yes you are right there is no nail. If the court hears the case, it can ony go one way. You know it.",8008,1,173,1,"Your point is moot and irrelevant. Again were talking about what the second amendment protects. Anyway, vehicles are registered. Unconstitutional?

Yeah the court ruled it was not an individual right. What if the Supreme Court doesn't agree to hear the case? Then no nail in no coffin. Don't count your eggs before they're hatched.","http://www.4forums.com/political/gun-control-debates/274-consequences-gun-control.html",14862,79
"1-173_81_79_1",173,1,"2003-09-11 04:17:00",27,18,14866,"2003-09-11 03:43:00",8012,193,79,"Only one way? Federal Appeals Courts have rejected the argument that the second amendment protects an individual right several times in the past. And what has the Supreme Court done about it? Nothing. They've let the rulings of the lower courts stand. If the Supreme Court really thinks that the second amendment protects an individual right, why haven't they bothered to reverse any of the rulings of the lower courts? They've had several chances in the past. 
Anyway, if the Supreme Court agrees to hear the case and rules that the second amendment protects and individual right, I still don't think they would side with your extremist interpretation of the second amendment. They might say something like it's an individual right subject to reasonable regulation by the government. 

Again moot and irrelevant. You said that ""propterty owernship is protected under the Constitution."" You weren't just talking about the act of buying a car. Another thought comes to mind. People have the right to vote. People also have to register to vote. Unconstitutional?",8010,1,173,1,"Yes you are right there is no nail. If the court hears the case, it can ony go one way. You know it.","http://www.4forums.com/political/gun-control-debates/274-consequences-gun-control.html",14864,81
"1-173_87_81_1",173,1,"2003-09-11 20:43:00",18,27,14956,"2003-09-11 04:17:00",8018,34,81,"You register to vote is Constitutional. You can not be denied a vote when you register. Registration is to make sure you only get one vote and not more than one.",8012,1,173,1,"Only one way? Federal Appeals Courts have rejected the argument that the second amendment protects an individual right several times in the past. And what has the Supreme Court done about it? Nothing. They've let the rulings of the lower courts stand. If the Supreme Court really thinks that the second amendment protects an individual right, why haven't they bothered to reverse any of the rulings of the lower courts? They've had several chances in the past. 
Anyway, if the Supreme Court agrees to hear the case and rules that the second amendment protects and individual right, I still don't think they would side with your extremist interpretation of the second amendment. They might say something like it's an individual right subject to reasonable regulation by the government. 

Again moot and irrelevant. You said that ""propterty owernship is protected under the Constitution."" You weren't just talking about the act of buying a car. Another thought comes to mind. People have the right to vote. People also have to register to vote. Unconstitutional?","http://www.4forums.com/political/gun-control-debates/274-consequences-gun-control.html",14866,87
"1-173_103_101_2",173,1,"2003-09-22 10:02:00",419,27,16705,"2003-09-22 09:47:00",8034,149,101,"Its amazing at what level the antis will go to hide the truth!
""From the horses mouth""
Special Regulations for Military Firearms, Sporting and Hunting Guns
Due to the long tradition and the special organization of the Swiss armed forces as a militia army, special rules are applicable for army weapons. Between their regular annual service of two or three weeks per year, Swiss soldiers and officers keep their personal weapons at home. After they have left the army, they may keep those arms in order to continue practicing at rifle or pistol ranges managed by local communities. Special rules also govern hunting or sporting rifles.
I didn't put this in quotes but just in case you can not figure it out. I CUT AND PASTED IT FROM THE SWISS SITE LINKED ABOVE!
MOLON LABE!",8032,2,173,1,"""Although it's true that all Swiss males are subject to compulsory military service and every solidier is required to keep their service weapon(s) at home, that does not equate to there being a full-auto weapon in every Swiss home.... 14 per cent of Swiss households have a full-auto weapon in them. (With the 625,000 figure, it is 22 per cent.)""
http://www.guncite.com/swissgun.html","http://www.4forums.com/political/gun-control-debates/274-consequences-gun-control.html",16701,103
"1-173_104_103_2",173,1,"2003-09-22 10:12:00",27,419,16706,"2003-09-22 10:02:00",8035,36,103,"Yeah, I've seen that website. What's your point? You claimed that every Swiss household has a ""A FULLY AUTOMATIC MACHINE GUN"". Where on your website does it say that?",8034,2,173,1,"Its amazing at what level the antis will go to hide the truth!
""From the horses mouth""
Special Regulations for Military Firearms, Sporting and Hunting Guns
Due to the long tradition and the special organization of the Swiss armed forces as a militia army, special rules are applicable for army weapons. Between their regular annual service of two or three weeks per year, Swiss soldiers and officers keep their personal weapons at home. After they have left the army, they may keep those arms in order to continue practicing at rifle or pistol ranges managed by local communities. Special rules also govern hunting or sporting rifles.
I didn't put this in quotes but just in case you can not figure it out. I CUT AND PASTED IT FROM THE SWISS SITE LINKED ABOVE!
MOLON LABE!","http://www.4forums.com/political/gun-control-debates/274-consequences-gun-control.html",16705,104
"1-173_105_104_2",173,1,"2003-09-22 10:20:00",419,27,16709,"2003-09-22 10:12:00",8036,68,104,"You claimed what 14% or 22%?? Are we so out of logical argument that we have to nit pick at these small specifics? My point is outlined in bold above... That they all CAN bring home thier machine guns and KEEP them! 
You complain about ad hominen attacks in another thread and now you engage in one here about Jon Lott? Puleeze!",8035,2,173,1,"Yeah, I've seen that website. What's your point? You claimed that every Swiss household has a ""A FULLY AUTOMATIC MACHINE GUN"". Where on your website does it say that?","http://www.4forums.com/political/gun-control-debates/274-consequences-gun-control.html",16706,105
"1-173_107_105_2",173,1,"2003-09-22 10:24:00",27,419,16711,"2003-09-22 10:20:00",8038,87,105,"""14 per cent of Swiss households have a full-auto weapon in them. (With the 625,000 figure, it is 22 per cent.) This represents a maximum figure since a household could contain more than one soldier.""
http://www.guncite.com/swissgun.html 

Yeah I accept your claim that those who serve in the military can keep their assault rifles. I have no argument with that. I was just challenging your claim that every Swiss household has an an assault rifle in it.",8036,2,173,1,"You claimed what 14% or 22%?? Are we so out of logical argument that we have to nit pick at these small specifics? My point is outlined in bold above... That they all CAN bring home thier machine guns and KEEP them! 
You complain about ad hominen attacks in another thread and now you engage in one here about Jon Lott? Puleeze!","http://www.4forums.com/political/gun-control-debates/274-consequences-gun-control.html",16709,107
"1-173_108_107_2",173,1,"2003-09-22 10:34:00",419,27,16712,"2003-09-22 10:24:00",8039,153,107,"""If you don't mind me saying, I can see your out of Aces""..... Kenny rogers The Gambler
You havent backed up your claim about the NRA. You claimed 14%-22% based on military service and clearly not counting the fact that they CAN take home and keep thier FULLY AUTOMATIC MACHINE GUNS. You haven't explained the Newspeak of how by restricting freedom you are giving freedom. etc. etc. etc... Are you that out of logical argument that you zero in on one specific statment that although may not be exactly accurate due to some ignorance on my part which I since corrected that you feel a need to tack drive this irrelevant point? For what reason? 
Bottom line is you want to control me and I don't want to be controlled. That is a problem for you. 
MOLON LABE!",8038,2,173,1,"Yeah I accept your claim that those who serve in the military can keep their assault rifles. I have no argument with that. I was just challenging your claim that every Swiss household has an an assault rifle in it. On what basis are you making this claim?","http://www.4forums.com/political/gun-control-debates/274-consequences-gun-control.html",16711,108
