"key","quote_source_post_discussion_id","posts_dataset_id","posts_timestamp","posts_author_id","quote_source_author_id","posts_native_post_id","quote_source_timestamp","post_text_id","Word_Count","quote_source_post_id","post_text","quote_source_text_id","Dialog_Turn","posts_discussion_id","quote_source_post_dataset_id","Fullquote_text","discussion_url","quote_source_native_post_id","posts_post_id"
"1-49_60_57_1",49,1,"2003-07-08 10:02:00",444,328,11615,"2003-07-08 00:02:00",3387,48,57,"At last check the two people you mentioned do not live in America or hold American citizenship. 
As for access to wmd, per all of the news networks terrorist and the two people you mentioned all ready have access to these wmd in other countries!",3384,1,49,1,"For those who claim that the 2nd Am. protects even the right to have WMDs: surely Saddam Hussein and Kim Yong Il cannot be denied the same right, right?","http://www.4forums.com/political/gun-control-debates/56-second-amendment.html",11567,60
"1-49_61_60_1",49,1,"2003-07-08 11:35:00",328,444,11632,"2003-07-08 10:02:00",3388,48,60,"So what? That just means we have even less authority to regulate what they may or may not do.
Clearly, if we could not forbid Bill Gates to own nukes and ICBMs, we cannot forbid Kim Yong Il the same thing, either.",3387,1,49,1,"At last check the two people you mentioned do not live in America or hold American citizenship. 
As for access to wmd, per all of the news networks terrorist and the two people you mentioned all ready have access to these wmd in other countries!","http://www.4forums.com/political/gun-control-debates/56-second-amendment.html",11615,61
"1-49_62_61_1",49,1,"2003-07-08 12:45:00",444,328,11641,"2003-07-08 11:35:00",3389,112,61,"The 2nd amend only applies to Americans.
It is always interesting that gun haters throw out the nuke and missile scare tactic every time a person defends no limits on the right to bear arms. 
Has there ever been one recorded incident of an American citizen trying to purchase a nuke or missile? if the gun haters are going to use this scare tactic they should be able to produce one recorded incident of this happening. 
Has there ever been a crime committed with these items in America? 
No!
Will gun haters constantly chant this scare tactic to push for gun control laws? Yes!",3388,1,49,1,"So what? That just means we have even less authority to regulate what they may or may not do.
Clearly, if we could not forbid Bill Gates to own nukes and ICBMs, we cannot forbid Kim Yong Il the same thing, either.","http://www.4forums.com/political/gun-control-debates/56-second-amendment.html",11632,62
"1-49_63_62_1",49,1,"2003-07-08 14:37:00",328,444,11654,"2003-07-08 12:45:00",3390,39,62,"Of course there hasn't - because there is no way in hell you could ever legally do so.
It is not scare tactics. It is simply showing that you don't know what you are talking about.",3389,1,49,1,"It is always interesting that gun haters throw out the nuke and missile scare tactic every time a person defends no limits on the right to bear arms.
Has there ever been one recorded incident of an American citizen trying to purchase a nuke or missile?","http://www.4forums.com/political/gun-control-debates/56-second-amendment.html",11641,63
"1-49_64_63_1",49,1,"2003-07-08 14:59:00",444,328,11656,"2003-07-08 14:37:00",3391,243,63,"Since you stated they are illegal to own, please produce the law defending your claim. A very simple request.
Unlike you I am not trying to make my opponent look stupid. I admit when I do not know something. In this case I do not know of any laws prohibiting the ownership of nukes or icbm's. I do not know of this law simple because I have never checked into purchasing a nuke or icbm. I have never had the urge to own them seeing how they are rather costly to own, so I just never checked into the laws. Since you appear to be the expert on nukes and icbm's you must know the law. So would you please produce the law or web site where I could read it for myself.
For help you may want to check out the atf web site. Plus they do take questions. Now maybe the atf would not be the ones to ask seeing how nukes and icbm's are not guns. 
So who would you ask about this. 
One of the gun haters should know the law or where we can read it, since the gun haters chant this gun hater scare tactic all of the time.
Oh and if nukes and icbm's are illegal to own what is the point of gun haters asking this question?",3390,1,49,1,"Of course there hasn't - because there is no way in hell you could ever legally do so.
It is not scare tactics. It is simply showing that you don't know what you are talking about.","http://www.4forums.com/political/gun-control-debates/56-second-amendment.html",11654,64
"1-49_67_64_1",49,1,"2003-07-09 19:46:00",328,444,11737,"2003-07-08 14:59:00",3394,14,64,"Oh, no. Not your opponent. You are right about that.",3391,1,49,1,"Since you stated they are illegal to own, please produce the law defending your claim. A very simple request.
Unlike you I am not trying to make my opponent look stupid. I admit when I do not know something. In this case I do not know of any laws prohibiting the ownership of nukes or icbm's. I do not know of this law simple because I have never checked into purchasing a nuke or icbm. I have never had the urge to own them seeing how they are rather costly to own, so I just never checked into the laws. Since you appear to be the expert on nukes and icbm's you must know the law. So would you please produce the law or web site where I could read it for myself.
For help you may want to check out the atf web site. Plus they do take questions. Now maybe the atf would not be the ones to ask seeing how nukes and icbm's are not guns. 
So who would you ask about this. 
One of the gun haters should know the law or where we can read it, since the gun haters chant this gun hater scare tactic all of the time.
Oh and if nukes and icbm's are illegal to own what is the point of gun haters asking this question?","http://www.4forums.com/political/gun-control-debates/56-second-amendment.html",11656,67
