"key","quote_source_post_discussion_id","posts_dataset_id","posts_timestamp","posts_author_id","quote_source_author_id","posts_native_post_id","quote_source_timestamp","post_text_id","Word_Count","quote_source_post_id","post_text","quote_source_text_id","Dialog_Turn","posts_discussion_id","quote_source_post_dataset_id","Fullquote_text","discussion_url","quote_source_native_post_id","posts_post_id"
"1-751_24_23_1",751,1,"2003-11-25 05:41:00",18,283,23986,"2003-11-24 15:53:00",31466,29,23,"If I were on that jurry. I would not only find the man innocent, but I would give him a medal and a free steak dinner.",31465,1,751,1,"All I am saying is that he broke the law, he must pay the penalty. If you were in that situation and had a problem with it, it is your right to go to court and fight for what you believe in. If you can justify your actions, and a jury see's it your way, then good for you. But the law is the law. If you don't like it, work to change the law, however you still must abide by it until it is changed.","http://www.4forums.com/political/gun-control-debates/1227-geezer-pulls-his-gun-mugger.html",23920,24
"1-751_27_24_1",751,1,"2003-11-25 13:44:00",283,18,24043,"2003-11-25 05:41:00",31469,16,24,"Good for you. A real humanitarian...hard to find this day in age.",31466,1,751,1,"If I were on that jurry. I would not only find the man innocent, but I would give him a medal and a free steak dinner.","http://www.4forums.com/political/gun-control-debates/1227-geezer-pulls-his-gun-mugger.html",23986,27
"1-751_28_27_1",751,1,"2003-11-26 20:10:00",18,283,24209,"2003-11-25 13:44:00",31470,160,27,"Yes I believe it would be the most humanitarian thing to do. The old man has suffered enough. He survived a life and death struggle and nearly took a man's life. I guarantee you he will be having nightmares. Anything to do to assure him that he did the right thing to save his own life. Post traumatic stress is almost guaranteed, that is why police officers go to a desk job immediately after a shooting, even with no signs of post truamatic stress.
I also offer. If the crimanal is ever found, he should be sued to cover any future medical bills the old man may need for the rest of his life. Post traumatic stress is never 100% cured, it is for life.
Or
Let's do what the UK did and throw him in jail. Then he can have nightmares in prison cell.",31469,1,751,1,"Good for you. A real humanitarian...hard to find this day in age.","http://www.4forums.com/political/gun-control-debates/1227-geezer-pulls-his-gun-mugger.html",24043,28
"1-751_29_28_1",751,1,"2003-11-27 18:40:00",283,18,24351,"2003-11-26 20:10:00",31471,85,28,"If it is true that he was carrying a gun illegally, then he has committed a crime. He is not above the law, nor should anyone else be. Justice is supposed to be blind. Anyway, I do hope they catch the jackass that robbed him, then some good would come out of it. And it sounds like the criminal came closer to taking the old mans life than the old man did to killing the criminal.",31470,1,751,1,"Yes I believe it would be the most humanitarian thing to do. The old man has suffered enough. He survived a life and death struggle and nearly took a man's life. I guarantee you he will be having nightmares. Anything to do to assure him that he did the right thing to save his own life. Post traumatic stress is almost guaranteed, that is why police officers go to a desk job immediately after a shooting, even with no signs of post truamatic stress.
I also offer. If the crimanal is ever found, he should be sued to cover any future medical bills the old man may need for the rest of his life. Post traumatic stress is never 100% cured, it is for life.
Or
Let's do what the UK did and throw him in jail. Then he can have nightmares in prison cell.","http://www.4forums.com/political/gun-control-debates/1227-geezer-pulls-his-gun-mugger.html",24209,29
"1-751_30_29_1",751,1,"2003-11-27 19:35:00",18,283,24363,"2003-11-27 18:40:00",31472,104,29,"Granted he did break the law. Given what I know from the events, I would not convict him if I were on that jurry. How about you? Yes or No?
Not only would I not convict him, I would buy him a steak dinner.
Then If you agree with me, that you would not convict? Then what purpose does the law serve? It serves no purpose for good honest citizens.
If you do not agree with me, then off to jail with him. Let him have his nightmares in prison.",31471,1,751,1,"If it is true that he was carrying a gun illegally, then he has committed a crime. He is not above the law, nor should anyone else be. Justice is supposed to be blind. Anyway, I do hope they catch the jackass that robbed him, then some good would come out of it. And it sounds like the criminal came closer to taking the old mans life than the old man did to killing the criminal.","http://www.4forums.com/political/gun-control-debates/1227-geezer-pulls-his-gun-mugger.html",24351,30
