"key","quote_source_post_discussion_id","posts_dataset_id","posts_timestamp","posts_author_id","quote_source_author_id","posts_native_post_id","quote_source_timestamp","post_text_id","Word_Count","quote_source_post_id","post_text","quote_source_text_id","Dialog_Turn","posts_discussion_id","quote_source_post_dataset_id","Fullquote_text","discussion_url","quote_source_native_post_id","posts_post_id"
"1-7602_18_17_1",7602,1,"2008-01-31 09:01:00",44,429,299463,"2008-01-30 15:50:00",330068,154,17,"I tend to agree with most of your logic here although I think you overstate a bit. Banning legal ownership of human beings seems to have been mildly effective in this country. Additionally, I think there's a considerable difference between drugs and alcohol, which are rather easy to produce, and the manufacture of a quality sidearm. Countries which have chosen to ban the production and sale of handguns to the public have been successful in reducing gun violence as a consequence. There's no denying it.
Where I completely agree with you is that no amount of restriction on supply will of itself quelch demand. That would require a cultural shift in our country. We must choose not to embrace the traditon that teaches the virtues of being armed. Only then will the aberrations spawned by that tradition be diminished. Fat chance.",330067,1,7602,1,"Did Prohibition of alcohol do any good? Nope, just made the criminals all the more powerful. Did Prohibition of drugs do any good? Nope, just made the criminal all the more powerful. Will Prohibition of legal firearms do any good? Not a chance in hell.
Banning legal ownership has never, ever, EVER done anything toward ending the illegal use of something. Never has, never will. It's absolutely impossible and just shows far for withdrawn people are from the real world in their thinking.","http://www.4forums.com/political/gun-control-debates/10871-question-supporters-gun-control.html",299321,18
"1-7602_19_18_1",7602,1,"2008-01-31 09:07:00",429,44,299465,"2008-01-31 09:01:00",330069,203,18,"Well America isn't other countries. What worked for them won't work for us. Their background is one that places no value on rights, while we do; that's why so many people still come here. We're bordered by Canada and Mexico, we can't even stop illegal aliens from getting into this country, what's to stop illegal guns from crossing the border if demand gets high enough?
Then there's the fact that guns are stolen from the police, both officers and evidence storage rooms.
There's also the fact that even if only the police and military were allowed to have access to firearms, then there would still need to be manufacturing plants to crank out enough supply, and that supply would need to be stored somewhere. And any central storage location can become a target and broken into.

What in the hell does that mean? That would should no longer follow the concept that being armed allows us to better protect ourselves against violent attacks by the irrational percentage of the American population? Sounds an awful lot like a fancy ""be a victim"" speech to me.",330068,1,7602,1,"I tend to agree with most of your logic here although I think you overstate a bit. Banning legal ownership of human beings seems to have been mildly effective in this country. Additionally, I think there's a considerable difference between drugs and alcohol, which are rather easy to produce, and the manufacture of a quality sidearm. Countries which have chosen to ban the production and sale of handguns to the public have been successful in reducing gun violence as a consequence. There's no denying it.
Where I completely agree with you is that no amount of restriction on supply will of itself quelch demand. That would require a cultural shift in our country. We must choose not to embrace the traditon that teaches the virtues of being armed. Only then will the aberrations spawned by that tradition be diminished. Fat chance.","http://www.4forums.com/political/gun-control-debates/10871-question-supporters-gun-control.html",299463,19
"1-7602_20_19_1",7602,1,"2008-01-31 10:05:00",44,429,299481,"2008-01-31 09:07:00",330070,8,19,"My turn to ask what the hell?",330069,1,7602,1,"...being armed allows us to better protect ourselves against violent attacks by the irrational percentage of the American population?","http://www.4forums.com/political/gun-control-debates/10871-question-supporters-gun-control.html",299465,20
"1-7602_22_20_1",7602,1,"2008-01-31 10:28:00",429,44,299489,"2008-01-31 10:05:00",330072,15,20,"You explain the meaning of your statement, I'll explain the meaning of mine.",330070,1,7602,1,"My turn to ask what the hell?","http://www.4forums.com/political/gun-control-debates/10871-question-supporters-gun-control.html",299481,22
"1-7602_23_22_1",7602,1,"2008-01-31 10:43:00",44,429,299497,"2008-01-31 10:28:00",330073,31,22,"Our collective minds have to be disabused of the fantasy of the John Wayne/Clint Eastwood/Charles Bronson hero types. I don't see that happening anytime soon.",330072,1,7602,1,"You explain the meaning of your statement, I'll explain the meaning of mine.","http://www.4forums.com/political/gun-control-debates/10871-question-supporters-gun-control.html",299489,23
"1-7602_24_23_1",7602,1,"2008-01-31 10:50:00",429,44,299499,"2008-01-31 10:43:00",330074,170,23,"You statement makes even less sense now than the previous one did.
You think Americans want guns because we've got the mistaken belief that it's fun? You couldn't be further from the truth! For some people, being able to own a gun literally makes the difference between life and death! We don't carry a gun because it's a fun idea, we do it because the world is a dangerous and deadly place! The police aren't there to help you, it's not in their job description. You have to take care of yourself and look out for your own hyde, nobody else is going to be looking out for your own personal wellbeing.
You wanna get rid of the notion that Americans need guns? Start by getting rid of all violent criminals; the primary reason why we carry guns. Eliminate them from the equation, make them something that used to exist but no longer does.",330073,1,7602,1,"Our collective minds have to be disabused of the fantasy of the John Wayne/Clint Eastwood/Charles Bronson hero types. I don't see that happening anytime soon.","http://www.4forums.com/political/gun-control-debates/10871-question-supporters-gun-control.html",299497,24
"1-7602_27_24_1",7602,1,"2008-01-31 11:16:00",44,429,299507,"2008-01-31 10:50:00",330077,41,24,"The criminals love their guns for the same reason you do. They feel powerful with them. Countries with few guns still have criminals. What they don't have is the numbers of people killed every year with guns.",330074,1,7602,1,"You statement makes even less sense now than the previous one did.
You think Americans want guns because we've got the mistaken belief that it's fun? You couldn't be further from the truth! For some people, being able to own a gun literally makes the difference between life and death! We don't carry a gun because it's a fun idea, we do it because the world is a dangerous and deadly place! The police aren't there to help you, it's not in their job description. You have to take care of yourself and look out for your own hyde, nobody else is going to be looking out for your own personal wellbeing.
You wanna get rid of the notion that Americans need guns? Start by getting rid of all violent criminals; the primary reason why we carry guns. Eliminate them from the equation, make them something that used to exist but no longer does.","http://www.4forums.com/political/gun-control-debates/10871-question-supporters-gun-control.html",299499,27
"1-7602_29_27_1",7602,1,"2008-01-31 11:39:00",429,44,299515,"2008-01-31 11:16:00",330079,52,27,"My reason is that I'm confident enough to not feel helpless. I highly doubt criminals suffer from feelings of helplessness and that's why they choose to be armed. If anything it's to discourage anyone from trying to be a hero.

That doesn't necessarily make it a good thing.",330077,1,7602,1,"The criminals love their guns for the same reason you do. They feel powerful with them. Countries with few guns still have criminals. What they don't have is the numbers of people killed every year with guns.","http://www.4forums.com/political/gun-control-debates/10871-question-supporters-gun-control.html",299507,29
"1-7602_32_29_1",7602,1,"2008-01-31 13:03:00",44,429,299527,"2008-01-31 11:39:00",330082,77,29,"This makes no sense to me. Choosing not to carry a weapon is fulfilling a desire to feel helpless? That's just silly. I would submit you have issues of alienation and problems with a lack of empathy which manifest as a form of paranoia that is assuaged by fondling a device that can kill. Even you think you're psycho. 

Are you saying that lots of shootings can be a good thing?",330079,1,7602,1,"My reason is that I'm confident enough to not feel helpless. I highly doubt criminals suffer from feelings of helplessness and that's why they choose to be armed. If anything it's to discourage anyone from trying to be a hero.

That doesn't necessarily make it a good thing.","http://www.4forums.com/political/gun-control-debates/10871-question-supporters-gun-control.html",299515,32
"1-7602_35_32_1",7602,1,"2008-01-31 13:31:00",429,44,299538,"2008-01-31 13:03:00",330085,171,32,"Criminals carry a gun because they wish to control people and discourage heroic attempts against themselves. Citizens carry guns to protect themselves against criminals and for reassurance that they can take care of themselves, on their own.
Don't paint us all with the same stroke of the brush. Criminals and the law-abiding have guns for entirely different reasons.

I would submit that you can talk a big game, but know little of which you speak of.

Saying that there are less shooting deaths in areas with less guns is like saying there's less drunk driving in counties that observe Prohibition of alcohol; it's stating a simple fact, but taken completely out of context.
Less shootings doesn't amount to less deaths and murder. In Kenya many people are currently being brutally butchered by men armed with nothing but machetes. Does the fact that there are less guns than machetes involved in this genocidal movement make it a good thing?",330082,1,7602,1,"This makes no sense to me. Choosing not to carry a weapon is fulfilling a desire to feel helpless? That's just silly. I would submit you have issues of alienation and problems with a lack of empathy which manifest as a form of paranoia that is assuaged by fondling a device that can kill. Even you think you're psycho. 

Are you saying that lots of shootings can be a good thing?","http://www.4forums.com/political/gun-control-debates/10871-question-supporters-gun-control.html",299527,35
