"key","quote_source_post_discussion_id","posts_dataset_id","posts_timestamp","posts_author_id","quote_source_author_id","posts_native_post_id","quote_source_timestamp","post_text_id","Word_Count","quote_source_post_id","post_text","quote_source_text_id","Dialog_Turn","posts_discussion_id","quote_source_post_dataset_id","Fullquote_text","discussion_url","quote_source_native_post_id","posts_post_id"
"1-764_84_83_1",764,1,"2003-12-17 20:49:00",27,18,28153,"2003-12-16 19:37:00",32225,19,83,"The NRA has had quite a bit to say about gun-control policies in both Australia and the UK.",32224,1,764,1,"You've already defecated in your country with your gun control. Please do not defecate in mine. Please note, there are absolutely ZERO pro-gunners telling you what to do in your country or trying to bring any opinion of gun control to your country.
You are not here to bring a message. You are here trying to convince others you are right. So don't try to hide your feces wraped in some intellectual thought. You want a public policy and are trying to influence a public policy in this country. Your imperialism sickens me.","http://www.4forums.com/political/gun-control-debates/1261-whats-your-interpretation-second-amendment.html",27951,84
"1-764_85_84_1",764,1,"2003-12-17 21:44:00",18,27,28166,"2003-12-17 20:49:00",32226,191,84,"I sense you are so close to finally going pro-gun. You already have admitted that there are NRA policies that are ""sensible"". 
As long as you have been here:
1) You have seen anti-gun leadership attempt murder with hanguns
2) You have seen anti-gun leaders carry concealed guns.
3) You have seen anti-gun leaders buy guns
4) You have seen anti-gun academics get fired and awards removed for lying.
5) You have brought your own interpretations of research, only to find that your research does not support your notions. Remember the DOJ assault rifle study?
6) The law does not support your ideas.
The only thing you have to give up to become a pro-gunner is the idea to control criminal use of guns, you have to control good people with guns. Isn't that what gun control is about? Controling the criminals, by controling good people? Sound kind of stupid to me.
How about following NRA agenda and controling the criminal use of guns by controling CRIMINALS!",32225,1,764,1,"The NRA has had quite a bit to say about gun-control policies in both Australia and the UK.","http://www.4forums.com/political/gun-control-debates/1261-whats-your-interpretation-second-amendment.html",28153,85
"1-764_87_85_1",764,1,"2003-12-18 20:16:00",27,18,28402,"2003-12-17 21:44:00",32228,189,85,"Let me respond to a few of your objections. First you can't stereotype those who disagree with you based on a few examples. And so what if Sarah Brady bought a gun? Is she anti-gun because she believes in common sense gun-control laws? If I believe in common sense laws such as speed limits and stop signs does that make me anti-car? Would it surprise you if people who favor speed limits and stop signs often also own cars? You're the one who misinterpreted the DOJ assault rifle study. You claimed that the ban ""is only taking away weapons form people who will not use them in a crime.""
Yet the DOJ study said the effect of the ban was uncertain so how could you know for sure who the ban affected? You also falsely claimed that I said the ban was effective. So your above claim about research not supporting my notions is totally bogus to say the least. And what do you mean when you say the law does not support my ideas?",32226,1,764,1,"I sense you are so close to finally going pro-gun. You already have admitted that there are NRA policies that are ""sensible"". 
As long as you have been here:
1) You have seen anti-gun leadership attempt murder with hanguns
2) You have seen anti-gun leaders carry concealed guns.
3) You have seen anti-gun leaders buy guns
4) You have seen anti-gun academics get fired and awards removed for lying.
5) You have brought your own interpretations of research, only to find that your research does not support your notions. Remember the DOJ assault rifle study?
6) The law does not support your ideas.
The only thing you have to give up to become a pro-gunner is the idea to control criminal use of guns, you have to control good people with guns. Isn't that what gun control is about? Controling the criminals, by controling good people? Sound kind of stupid to me.
How about following NRA agenda and controling the criminal use of guns by controling CRIMINALS!","http://www.4forums.com/political/gun-control-debates/1261-whats-your-interpretation-second-amendment.html",28166,87
"1-764_88_87_1",764,1,"2003-12-19 07:27:00",18,27,28446,"2003-12-18 20:16:00",32229,195,87,"Hey we already have common sense gun laws. We do not need any more. What is needed is ENFORCEMENT of current gun laws. So what more can Sarah Brady do? Answer: BAN GUNS from good citizens.
A large part crime from in society does not come from good God fearing citizens. It comes from previous offenders and first offenders who have been poor, uneducated, unemployed, and under all sorts of approval for violence. Those common sense people, they are comming after ME. Those common sesne people aren't even trying to go after criminals. The focus is on ME and people like me.
Back in 1994 instead of passing a law to make good citizens wait for thier guns. How about passing a law that increases the penalties for violent criminals? Has any anti-gun legislation done that? Has any anti-gun leadership tired to do that? How about passing laws that increases the budget for law enforcement and prosecuters? What is the focus for Sarah Brady? Not budgets for law enforcement, it is ME.",32228,1,764,1,"Let me respond to a few of your objections. First you can't stereotype those who disagree with you based on a few examples. And so what if Sarah Brady bought a gun? Is she anti-gun because she believes in common sense gun-control laws? If I believe in common sense laws such as speed limits and stop signs does that make me anti-car? Would it surprise you if people who favor speed limits and stop signs often also own cars? You're the one who misinterpreted the DOJ assault rifle study. You claimed that the ban ""is only taking away weapons form people who will not use them in a crime.""
Yet the DOJ study said the effect of the ban was uncertain so how could you know for sure who the ban affected? You also falsely claimed that I said the ban was effective. So your above claim about research not supporting my notions is totally bogus to say the least. And what do you mean when you say the law does not support my ideas?","http://www.4forums.com/political/gun-control-debates/1261-whats-your-interpretation-second-amendment.html",28402,88
"1-764_89_88_1",764,1,"2003-12-20 03:11:00",27,18,28596,"2003-12-19 07:27:00",32230,41,88,"You complain about a 1994 law that made ""good citizens"" wait for their guns. This was the Brady Law. Yet in another thread you speak highly of the Brady Law because it was democratically made. 

http://4forums.com/political/showthr...?t=1205&page=4",32229,1,764,1,"Hey we already have common sense gun laws. We do not need any more. What is needed is ENFORCEMENT of current gun laws. So what more can Sarah Brady do? Answer: BAN GUNS from good citizens.
A large part crime from in society does not come from good God fearing citizens. It comes from previous offenders and first offenders who have been poor, uneducated, unemployed, and under all sorts of approval for violence. Those common sense people, they are comming after ME. Those common sesne people aren't even trying to go after criminals. The focus is on ME and people like me.
Back in 1994 instead of passing a law to make good citizens wait for thier guns. How about passing a law that increases the penalties for violent criminals? Has any anti-gun legislation done that? Has any anti-gun leadership tired to do that? How about passing laws that increases the budget for law enforcement and prosecuters? What is the focus for Sarah Brady? Not budgets for law enforcement, it is ME.","http://www.4forums.com/political/gun-control-debates/1261-whats-your-interpretation-second-amendment.html",28446,89
"1-764_90_89_1",764,1,"2003-12-23 12:14:00",18,27,28934,"2003-12-20 03:11:00",32231,204,89,"It is called tollerance. It is not an individual requirement in a democracy, but without it there is no democracy. Too bad so very few people who are anti-gunners can practice tollerance.
Please do not put such word in my mouth. You are almost implying that I approve of Brady law. I do not. I only approve of instant background checks and nothing else about Brady. The ONLY good thing about Brady is the instant background check and nothing else. Funny thing about Brady. The last bill before Congres which increased law enforcement budgets also had more gun control legislation with it. Of course Brady supported it. NRA said no. No to the bill because of more gun control. 
Not no to more law enforcement budget. That is typical of Brady trickery. Of course Brady milked as the NRA helping criminals and not helping police. The NRA is for increased law enforcement spending. Not increased law enforcement spending AND gun control on the same bill.
BTW in the other thread? Can you help point out which NRA policy is racist? and why?",32230,1,764,1,"You complain about a 1994 law that made ""good citizens"" wait for their guns. This was the Brady Law. Yet in another thread you speak highly of the Brady Law because it was democratically made. 

http://4forums.com/political/showthr...?t=1205&page=4","http://www.4forums.com/political/gun-control-debates/1261-whats-your-interpretation-second-amendment.html",28596,90
"1-764_91_90_1",764,1,"2004-01-06 03:51:00",27,18,30262,"2003-12-23 12:14:00",32232,159,90,"Yeah right. If only the NRA would do more than pay lip service to the idea enforcing gun control laws. Who is in charge of enforcing federal gun laws? The Bureau of Alcohol, Tobacco, and Firearms (the ATF). Who has been the number one enemy of the ATF over the years? The NRA. In the 1980's the NRA tried to convince President Reagan to abolish the ATF. In more recent years that have lobbied congress to decrease the budget of the ATF. 
"" 'The National Rifle Association, every year, is before the appropriations committees on Capitol Hill advocating that ATF's budget be cut. They know that ATF does not have the manpower or the money to do an adequate job enforcing our gun laws.' 
Why would they want their budget cut if they don't have an adequate budget?""
http://www.cbsnews.com/stories/2003/...in553147.shtml",32231,1,764,1,"It is called tollerance. It is not an individual requirement in a democracy, but without it there is no democracy. Too bad so very few people who are anti-gunners can practice tollerance.
Please do not put such word in my mouth. You are almost implying that I approve of Brady law. I do not. I only approve of instant background checks and nothing else about Brady. The ONLY good thing about Brady is the instant background check and nothing else. Funny thing about Brady. The last bill before Congres which increased law enforcement budgets also had more gun control legislation with it. Of course Brady supported it. NRA said no. No to the bill because of more gun control. 
Not no to more law enforcement budget. That is typical of Brady trickery. Of course Brady milked as the NRA helping criminals and not helping police. The NRA is for increased law enforcement spending. Not increased law enforcement spending AND gun control on the same bill.
BTW in the other thread? Can you help point out which NRA policy is racist? and why?","http://www.4forums.com/political/gun-control-debates/1261-whats-your-interpretation-second-amendment.html",28934,91
"1-764_66_63_2",764,1,"2003-12-10 19:55:00",18,31,26782,"2003-12-10 17:18:00",32207,83,63,"You keep forgetting, no one gave The People of the United States rights, they took them for themselves. No one gave them to us. The Bill of Rights is a declearation of what some of those rights are, which is very different from other bills of rights in other countires. (b)ills of rights in other countries are contracts/deals with authority. Our Bill of Rights makes no deals with no one.",32204,2,764,1,"The right to carry a gun is neither a 'natural right' as maintained by some people here or for hunting/personal protection....
it is granted by the constitution in defence of states against tyranny.","http://www.4forums.com/political/gun-control-debates/1261-whats-your-interpretation-second-amendment.html",26742,66
"1-764_67_66_2",764,1,"2003-12-11 02:50:00",31,18,26838,"2003-12-10 19:55:00",32208,153,66,"If it involves no compact between men, then it's hardly enforceable.
If I design a contract between me and no one, then who am I to seek justice from?
You have a very very silly notion of law.
You believe in natural rights that aren't natural. Staute laws that aren't enforceable on anyone; if that person (an individual) disagrees. Compacts that aren't binding on anyone.
You believe a statute written to enable you to defend your state, entitles you to defend yourself against the local mugger.
You believe that although this right states ""Shall not be infringed"" can be, so long as it's by commercial interests - such as on an aeroplane or a grocery shop - or a ballroom dancing hall.
That is probably the most sinuous application to laws I've ever heard of.",32207,2,764,1,"You keep forgetting, no one gave The People of the United States rights, they took them for themselves. No one gave them to us. The Bill of Rights is a declearation of what some of those rights are, which is very different from other bills of rights in other countires. (b)ills of rights in other countries are contracts/deals with authority. Our Bill of Rights makes no deals with no one.","http://www.4forums.com/political/gun-control-debates/1261-whats-your-interpretation-second-amendment.html",26782,67
"1-764_70_67_2",764,1,"2003-12-11 15:09:00",18,31,26935,"2003-12-11 02:50:00",32211,118,67,"The Bill of Rights is not a contract. Remember? No one gave the US citizens thier rights, we took them. We never asked or negotiated
for them. We took them. (b)ills of rights in other countries are contracts, not in the USA. Such a compact is NATURAL because it is not between men. The rights in the Bill of Rights are natural rights, isn't that what you want to hear? Natural rights are not granted between men. Similiar charters and bills such as in the UK were negotiated between kings and authority. The People in the USA mke no such deals.",32208,2,764,1,"If it involves no compact between men, then it's hardly enforceable.
.","http://www.4forums.com/political/gun-control-debates/1261-whats-your-interpretation-second-amendment.html",26838,70
"1-764_74_70_2",764,1,"2003-12-11 17:27:00",31,18,27012,"2003-12-11 15:09:00",32215,47,70,"If you 'took' them, how are they 'natural'?
You seem very confused.
Who was the 'Bill of Rights' taken from? Not from the Brits - you'd already won independence.
Your grasp on history is also shaky",32211,2,764,1,"The Bill of Rights is not a contract. Remember? No one gave the US citizens thier rights, we took them. We never asked or negotiated
for them. We took them. (b)ills of rights in other countries are contracts, not in the USA. Such a compact is NATURAL because it is not between men. The rights in the Bill of Rights are natural rights, isn't that what you want to hear? Natural rights are not granted between men. Similiar charters and bills such as in the UK were negotiated between kings and authority. The People in the USA mke no such deals.","http://www.4forums.com/political/gun-control-debates/1261-whats-your-interpretation-second-amendment.html",26935,74
"1-764_75_74_2",764,1,"2003-12-11 21:14:00",18,31,27053,"2003-12-11 17:27:00",32216,211,74,"May I suggest you take your anti-american axe to grind elsehwere? You are the empitome of a back seat driver. Not only do you want to tell us what to do, but you are doing it from several time zones. Please take your imperialism elsewhere. Your back seat imperialism is quite sickinging. Thank God that the you and the Aussies are militarily weak. Such imperialism would throw the world into slavery if the Aussies could build as many aircraft carriers as the USA.
You can not grasp the bill of rights because you have been sheep for so long under your government.
No the rights were not taken from the Brits. Specifically it was taken from the King of England. You do not know our history. The rights were taken from the King. The Bill of Rights are already in the basic Constitution. The authors of the Bill of Rights made the ammendments to be very explict. Instead of a vague notion of rights that are already in the Constitution, they made the rights more clear. That is why in your country your rights are always being modified to suit the political climate.",32215,2,764,1,"If you 'took' them, how are they 'natural'?
You seem very confused.
Who was the 'Bill of Rights' taken from? Not from the Brits - you'd already won independence.
Your grasp on history is also shaky","http://www.4forums.com/political/gun-control-debates/1261-whats-your-interpretation-second-amendment.html",27012,75
"1-764_134_133_3",764,1,"2004-01-28 08:15:00",419,36,32874,"2004-01-28 08:09:00",32275,44,133,"I am for NO LIMITS. (cept for felons and adjudicated crazies which loose thier constitutional rights anyway). It is the other side that won't outright say I am for total gun confiscation except for hollywood elite and police officers....",32274,3,764,1,"I am not making a mockery of the second ammendment (and so what if I am. Isn't free speech on the first ammendment?). I am actually asking a legitimate question and have yet to have it answered. WHERE DO WE DRAW THE LINE? The second ammendment sheds no light on this. If I was mocking anything it was that you were dodging the question because you want to say no limits although in face of something so obvious you are embarrassed at such a statement.","http://www.4forums.com/political/gun-control-debates/1261-whats-your-interpretation-second-amendment.html",32871,134
"1-764_135_134_3",764,1,"2004-01-28 08:18:00",36,419,32875,"2004-01-28 08:15:00",32276,24,134,"So you think it is wise that the individual citizens can own functional surface to air missiles, and/or nuclear weapons?",32275,3,764,1,"I am for NO LIMITS. (cept for felons and adjudicated crazies which loose thier constitutional rights anyway). It is the other side that won't outright say I am for total gun confiscation except for hollywood elite and police officers....","http://www.4forums.com/political/gun-control-debates/1261-whats-your-interpretation-second-amendment.html",32874,135
"1-764_136_135_3",764,1,"2004-01-28 08:22:00",419,36,32877,"2004-01-28 08:18:00",32277,99,135,"This is called extremist logic. First of all sams cost millions of dollars and people who can afford them probably can't afford that many, secondly these rich d00ds probably like thier freedom and would not be so inclined to use them. 3rdly how many individuals do you know can afford a billion dollar nuclear arms program and build, posses, and maintain a nuclear weapon? This is absurd rationing from the land of make believe. 
But to answer your question if the government can own it so should the people.",32276,3,764,1,"So you think it is wise that the individual citizens can own functional surface to air missiles, and/or nuclear weapons?","http://www.4forums.com/political/gun-control-debates/1261-whats-your-interpretation-second-amendment.html",32875,136
"1-764_137_136_3",764,1,"2004-01-28 11:28:00",36,419,32891,"2004-01-28 08:22:00",32278,228,136,"Rev: I agree that the logic is extreme. But then again, so is the position. ""If the government can own it so should the people."" One must look at the appropriate line to draw. I was actually answering Kelvin and not you.
He stated that I was mocking the second ammendment and I was not. I was pushing for an answer to my question. You have done so. You normally do. You do not engage in ad hominem generally. He does. 
My intention was to be extreme in the logic. It is necessary to consider. No right is absolute. Because one person's rights end where another begins. Even you agree to some limits (crazys and felons I believe you said). I am simply saying that limits that are reasonably imposed are okay.
As to the liklihood that anyone would have the money to produce such items. Good argument except people like the Rockefellers and Bill Gates etc, with megacorps at their disposal exist. 
The only limits I am in favor of are reasonable ones. I do not know where the line should be drawn. Kelvin doesn't either, but he would rather attack me than argue the actual point.",32277,3,764,1,"This is called extremist logic. First of all sams cost millions of dollars and people who can afford them probably can't afford that many, secondly these rich d00ds probably like thier freedom and would not be so inclined to use them. 3rdly how many individuals do you know can afford a billion dollar nuclear arms program and build, posses, and maintain a nuclear weapon? This is absurd rationing from the land of make believe. 
But to answer your question if the government can own it so should the people.","http://www.4forums.com/political/gun-control-debates/1261-whats-your-interpretation-second-amendment.html",32877,137
"1-764_138_137_3",764,1,"2004-01-28 11:53:00",419,36,32895,"2004-01-28 11:28:00",32279,220,137,"""Because one person's rights end where another begins."" This is at the heart of the argument. What rights of yours am I violating by owning, carrying or possessing a gun What rights are YOU violating by telling me I can not. See the difference one is liberty one is prohibition. 
What purpose would gates, the rockefellers etc have for purchasing such items? Again this makes no sense as this obviously would not help thier bottom line. Secondly Loreal, Boeing, Mcdonald douglas, ALL make missiles and other weapons and are corporations. Dyncorp the largest mercenary company based in the USA has access to all sorts of ""banned"" munitions but they aren't (as far as we know) killing americans on our streets. You or I will never have the funds to purchase such items and therefore I do not see its relavance to the 2nd amendment. As for governments and people having the same items... Governments are responsible for the killing of over 170 MILLION people over the last century. The ""people"" have killed far less. So who do you trust to be armed your neighbor or someone like hussein? (my own extremist logic)",32278,3,764,1,"Rev: I agree that the logic is extreme. But then again, so is the position. ""If the government can own it so should the people."" One must look at the appropriate line to draw. I was actually answering Kelvin and not you.
He stated that I was mocking the second ammendment and I was not. I was pushing for an answer to my question. You have done so. You normally do. You do not engage in ad hominem generally. He does. 
My intention was to be extreme in the logic. It is necessary to consider. No right is absolute. Because one person's rights end where another begins. Even you agree to some limits (crazys and felons I believe you said). I am simply saying that limits that are reasonably imposed are okay.
As to the liklihood that anyone would have the money to produce such items. Good argument except people like the Rockefellers and Bill Gates etc, with megacorps at their disposal exist. 
The only limits I am in favor of are reasonable ones. I do not know where the line should be drawn. Kelvin doesn't either, but he would rather attack me than argue the actual point.","http://www.4forums.com/political/gun-control-debates/1261-whats-your-interpretation-second-amendment.html",32891,138
"1-764_144_143_4",764,1,"2004-01-29 09:45:00",419,36,32972,"2004-01-29 08:50:00",32285,16,143,"Simple support and implement very severe punishment for violent crimes. That is the line.",32284,4,764,1,"I still ask the question, where do we draw the line. I notice not one of you advocating for unrestricted gun ownership has answered that question. In spite of claims such as felons who have not had their rights restored or insane people should not be allowed guns. You agree with some limits. It is inherent in your argument. No please answer my question..","http://www.4forums.com/political/gun-control-debates/1261-whats-your-interpretation-second-amendment.html",32966,144
"1-764_145_144_4",764,1,"2004-01-29 10:43:00",36,419,32976,"2004-01-29 09:45:00",32286,30,144,"Rev:
Please define what you mean. Also are there any statistics which show that severe punishment for the crime has prevented recidivism. My thinking is not.",32285,4,764,1,"Simple support and implement very severe punishment for violent crimes. That is the line.","http://www.4forums.com/political/gun-control-debates/1261-whats-your-interpretation-second-amendment.html",32972,145
"1-764_146_145_4",764,1,"2004-01-29 10:51:00",419,36,32978,"2004-01-29 10:43:00",32287,30,145,"Somebody commits a crime with a gun they get locked up for good... THe recidivism goes way down if you spend the rest of your life in jail.",32286,4,764,1,"Rev:
Please define what you mean. Also are there any statistics which show that severe punishment for the crime has prevented recidivism. My thinking is not.","http://www.4forums.com/political/gun-control-debates/1261-whats-your-interpretation-second-amendment.html",32976,146
"1-764_147_146_4",764,1,"2004-01-29 12:43:00",36,419,32991,"2004-01-29 10:51:00",32288,95,146,"Thank you for your clarification.
Now consider the supreme court decisions and legislation regarding ""cruel and unusual punishment.""
Is it logical to assume that your plan would actually be possible given that a 17 year old holding up a liquor store with a gun would then go to prison for life. This would likely fall under the condition of ""unusual."" 
In other words your plan won't work. I assume that you hold that part of the constitution in equally high regard to the second ammendment.",32287,4,764,1,"Somebody commits a crime with a gun they get locked up for good... THe recidivism goes way down if you spend the rest of your life in jail.","http://www.4forums.com/political/gun-control-debates/1261-whats-your-interpretation-second-amendment.html",32978,147
"1-764_150_147_4",764,1,"2004-01-30 05:11:00",419,36,33061,"2004-01-29 12:43:00",32291,112,147,"Taken in context of ""cruel and unusual"" punishment. I do not think locking up a violent criminal for life who takes anothers liberty away by making the choice to use a gun to do stick-ups is cruel and unusual. Just the same as if someone pulls a gun on you it is your right to pull your own gun and shoot him till he's dead. Is that cruel and unusual? I wonder what was considered ""cruel and unusual"" in colonial times.... hmmm.....
BTW my plan won't work? What of the gun grabbers plan? Show me where their plan worked?",32288,4,764,1,"Thank you for your clarification.
Now consider the supreme court decisions and legislation regarding ""cruel and unusual punishment.""
Is it logical to assume that your plan would actually be possible given that a 17 year old holding up a liquor store with a gun would then go to prison for life. This would likely fall under the condition of ""unusual."" 
In other words your plan won't work. I assume that you hold that part of the constitution in equally high regard to the second ammendment.","http://www.4forums.com/political/gun-control-debates/1261-whats-your-interpretation-second-amendment.html",32991,150
