"key","quote_source_post_discussion_id","posts_dataset_id","posts_timestamp","posts_author_id","quote_source_author_id","posts_native_post_id","quote_source_timestamp","post_text_id","Word_Count","quote_source_post_id","post_text","quote_source_text_id","Dialog_Turn","posts_discussion_id","quote_source_post_dataset_id","Fullquote_text","discussion_url","quote_source_native_post_id","posts_post_id"
"1-7780_126_123_1",7780,1,"2008-07-04 20:39:00",176,236,315167,"2008-07-04 18:18:00",339074,66,123,"Smiley, crimes matter, gun crimes don't. It doesn't matter, if they were shot, stabbed, beaten, poisened, or even bored to death. The point is, they're dead. It doesn't really matter how they got there. When Antis cite a drop in gun crime, the conveniently leave out the increase in other violent crime.",339071,1,7780,1,"I was merely trying to point out that your inane query as to why Ripskar was changing his position on whether criminals have guns was . . . well, inane.
As you seem to have grasped the difference now, I guess my job is done.
If you want some figures on gun crime in the UK try here.
You'll see that gun crime figures have decreased 3 years running.
If you look around you'll find things like:
Number of Deaths from Firearms Injury - United Kingdom, 1997 to 2006
Figures include deaths with a Coroner's verdict of accident, suicide,
homicide and undetermined intent.
Answer given on 25 October 2007
Year Number 
1997 198
1998 229
1999 207 
2000 204 
2001 193 
2002 181 
2003 187 
2004 191 
2005 185 
2006 210 
Ooh! And this site has some really interesting stats on it too. Just for comparison's sake.
Smiley","http://www.4forums.com/political/gun-control-debates/11119-guns-get-banned-people-will-die.html",315156,126
"1-7780_128_126_1",7780,1,"2008-07-05 05:22:00",236,176,315183,"2008-07-04 20:39:00",339076,99,126,"I agree, but the recent debate has been about the likelyhood of criminals in the UK actually carrying (and willing to use) guns. The stats I provided in the post you quoted give a fair idea of how small a number actually do. Nothing more, nothing less.
All I was initially trying to do was to get OX to see that his accusation that Ripskar was changing his story was ludicrous. Unfortunately, it took some time.
I have now completed this task. So I'm done here.
Smiley",339074,1,7780,1,"Smiley, crimes matter, gun crimes don't. It doesn't matter, if they were shot, stabbed, beaten, poisened, or even bored to death. The point is, they're dead. It doesn't really matter how they got there. When Antis cite a drop in gun crime, the conveniently leave out the increase in other violent crime.","http://www.4forums.com/political/gun-control-debates/11119-guns-get-banned-people-will-die.html",315167,128
"1-7780_131_128_1",7780,1,"2008-07-05 09:24:00",176,236,315196,"2008-07-05 05:22:00",339079,16,128,"Its funny that handgun crime has gone up since the ban, isn't it?
http://news.bbc.co.uk/2/hi/uk_news/1440764.stm",339076,1,7780,1,"I agree, but the recent debate has been about the likelyhood of criminals in the UK actually carrying (and willing to use) guns. The stats I provided in the post you quoted give a fair idea of how small a number actually do. Nothing more, nothing less.
All I was initially trying to do was to get OX to see that his accusation that Ripskar was changing his story was ludicrous. Unfortunately, it took some time.
I have now completed this task. So I'm done here.
Smiley","http://www.4forums.com/political/gun-control-debates/11119-guns-get-banned-people-will-die.html",315183,131
"1-7780_132_131_1",7780,1,"2008-07-05 09:29:00",236,176,315197,"2008-07-05 09:24:00",339080,9,131,"Very funny, and also 7 years old.",339079,1,7780,1,"Its funny that handgun crime has gone up since the ban, isn't it?
http://news.bbc.co.uk/2/hi/uk_news/1440764.stm","http://www.4forums.com/political/gun-control-debates/11119-guns-get-banned-people-will-die.html",315196,132
"1-7780_133_132_1",7780,1,"2008-07-05 09:32:00",176,236,315198,"2008-07-05 09:29:00",339081,21,132,"Seven years isn't too long ago. Nothing has changed. Guns were banned then, guns are banned now.",339080,1,7780,1,"Very funny, and also 7 years old.","http://www.4forums.com/political/gun-control-debates/11119-guns-get-banned-people-will-die.html",315197,133
"1-7780_134_133_1",7780,1,"2008-07-05 10:35:00",236,176,315203,"2008-07-05 09:32:00",339082,141,133,"But have the figures on hand guns involved in crime changed?
I don't know. To be honest I can't be bothered to research it.
But let's think about why the figures shot up shortly after the ban. Is it possible that much of this rise was due to the fact that possession of hand guns had become a crime in itself, and not just because their use in robberies had suddenly increase by 40%?
Could yet more be because people were trying to smuggle guns into the country? Another crime to boost the count.
It certainly can't be an increase across the board as :-

So rather than say. 'Look guns were banned and the figures went up,"" we should be asking why they went up.
Smiley",339081,1,7780,1,"Seven years isn't too long ago. Nothing has changed. Guns were banned then, guns are banned now.","http://www.4forums.com/political/gun-control-debates/11119-guns-get-banned-people-will-die.html",315198,134
"1-7780_136_134_1",7780,1,"2008-07-05 15:08:00",176,236,315220,"2008-07-05 10:35:00",339084,94,134,"I can't think of any reason why they would change, unless other factors besides guns were factored in, such as a recession. However my point was that it doesn't matter that it was seven years ago. It still happened. Not much has changed in seven years.

By gun crime, they meant violent gun crime.

See above.

It seems obvious why they went up. And what if they didn't go up? What if they stayed the same? Should guns still be banned?",339082,1,7780,1,"But have the figures on hand guns involved in crime changed?
I don't know. To be honest I can't be bothered to research it.
But let's think about why the figures shot up shortly after the ban. Is it possible that much of this rise was due to the fact that possession of hand guns had become a crime in itself, and not just because their use in robberies had suddenly increase by 40%?
Could yet more be because people were trying to smuggle guns into the country? Another crime to boost the count.
It certainly can't be an increase across the board as :-

So rather than say. 'Look guns were banned and the figures went up,"" we should be asking why they went up.
Smiley","http://www.4forums.com/political/gun-control-debates/11119-guns-get-banned-people-will-die.html",315203,136
"1-7780_102_101_2",7780,1,"2008-06-21 16:30:00",176,319,313815,"2008-06-21 13:35:00",339050,149,101,"And wouldn't you agree that this is bad? The mail men don't have guns to defend against shotgun wielding robbers, and store owners don't have any viable self defense weapons to defend themselves against armed robbers.

The whole point of a black market is to sell illegal things. Do you think that the black market drug dealers in the US get their drugs from legal sources too?

And if legal sources are banned, they will go to illegal sources, and guns will be smuggled into the UK.

And thats good, right? Because we all like to be beaten with crowbars and stabbed with knives, and also have no way to defend ourself. I would rather the burglar have a gun, and I have a gun, because chances are I'm much more trained than him.",339049,2,7780,1,"UK just the hard of understanding...emoticonXRolleyes 
REstrictions on the access to firearms took place in the UK specifically removing handguns from the Legal market and making it harder to obtain other firearms.
This has had the effects of a temporary increase in the theft of shotguns from farms which are then used in armed robberies, typically of Post Offices or armoured vans, (Corner shops and petrol stations subjected to armed robbery usually face knives or baseball bats) this crime is on the decrease generally due to the use of plastic. Credit card fraud is the growing crime in that area.
City gangs/drug dealers prefer handguns as they are easier to conceal and wield, these have become scarce but following American culture view such weapons as status enhancing. The result is that they often use the BB gun conversions which are prone to misfire.
The ""black market"" aquires its weapons from ostensibly legal sources, thus removing that link has a knock on effect. There aren't black market factories producing Brownings or Smith & Wessons, they ultimately come from a 'legal' source. 
Burglars usual armament is either a knife or crowbar, never a gun.
Just to repeat in case any more yanks want to try the fallacy of ""moving the goalposts"".
UK","http://www.4forums.com/political/gun-control-debates/11119-guns-get-banned-people-will-die.html",313794,102
"1-7780_104_102_2",7780,1,"2008-06-22 03:50:00",319,176,313841,"2008-06-21 16:30:00",339052,178,102,"Post Office staff usually sit behind bullet proof glass screens these days as do bank and building society personel for much the same reasons. the days of armed robbey in this sence are numbered.

NO
The purpose of the black market is to produce profit for indiviuals as per capitalist theory. Drugs,
bootleg liquer, and pirate CDs are commodities. 
Unless your ciminals are using Asian copies (unlikely) they originally came from a factory by one of the following companies;
Smith & Wesson;
http://www.smith-wesson.com/webapp/w...&content=11001
Browning;
http://www.browning.com/
Hekler & Koch;
http://www.hk-usa.com/

They try, X-ray machines as used at all ports and airports are rather good at detecting the metal guns are made of.
If the sale of slaves is banned in the US Yanks will simply have them smuggled in! 

I would rather be hospitalised by an intruder than killed. Murders by burglars are stupidly rare.
I don't think I've ever heard of anyone being shot by a burglar in the UK.",339050,2,7780,1,"And wouldn't you agree that this is bad? The mail men don't have guns to defend against shotgun wielding robbers, and store owners don't have any viable self defense weapons to defend themselves against armed robbers.

The whole point of a black market is to sell illegal things. Do you think that the black market drug dealers in the US get their drugs from legal sources too?

And if legal sources are banned, they will go to illegal sources, and guns will be smuggled into the UK.

And thats good, right? Because we all like to be beaten with crowbars and stabbed with knives, and also have no way to defend ourself. I would rather the burglar have a gun, and I have a gun, because chances are I'm much more trained than him.","http://www.4forums.com/political/gun-control-debates/11119-guns-get-banned-people-will-die.html",313815,104
"1-7780_105_104_2",7780,1,"2008-06-22 10:13:00",176,319,313855,"2008-06-22 03:50:00",339053,191,104,"Its sad that they even have to sit behind bullet proof glass. My point is criminals have guns in the UK, and criminals have guns in the US. No amount of laws will change that.

The fact that they come from companies do not matter, just as the factory that produces blank DVDs that bootlegged movies are burned onto doesn't matter. What matters is that criminals are still getting guns in the UK.

A slave is much harder to smuggle in than a gun. What makes you think they are going to just walk into an airport with a suitcase full of guns? Guns will be smuggled into the UK the same way drugs are smuggled into the US.

Being shot does not matter at all. Anti-Gun proponents think that a decrease in people getting shot is good, when they stupidly ignore the fact beatings, stabbings, hackings, etc. have gone up. Plus, there are still gangs that have guns in the UK. If dumb thugs can get guns, anyone can.
http://news.bbc.co.uk/2/hi/uk_news/e...re/7422983.stm",339052,2,7780,1,"Post Office staff usually sit behind bullet proof glass screens these days as do bank and building society personel for much the same reasons. the days of armed robbey in this sence are numbered.

NO
The purpose of the black market is to produce profit for indiviuals as per capitalist theory. Drugs,
bootleg liquer, and pirate CDs are commodities. 
Unless your ciminals are using Asian copies (unlikely) they originally came from a factory by one of the following companies;
Smith & Wesson;
http://www.smith-wesson.com/webapp/w...&content=11001
Browning;
http://www.browning.com/
Hekler & Koch;
http://www.hk-usa.com/

They try, X-ray machines as used at all ports and airports are rather good at detecting the metal guns are made of.
If the sale of slaves is banned in the US Yanks will simply have them smuggled in! 

I would rather be hospitalised by an intruder than killed. Murders by burglars are stupidly rare.
I don't think I've ever heard of anyone being shot by a burglar in the UK.","http://www.4forums.com/political/gun-control-debates/11119-guns-get-banned-people-will-die.html",313841,105
"1-7780_106_105_2",7780,1,"2008-06-22 12:03:00",319,176,313864,"2008-06-22 10:13:00",339054,47,105,"Usual method attempted is via the post or in container shipments, HM Customs & Excise X-rays all containers coming into the UK, they pick up guns, stolen cars, illegal immigrants etc.
Drugs don't show up, for that you need a dog.",339053,2,7780,1,"Its sad that they even have to sit behind bullet proof glass. My point is criminals have guns in the UK, and criminals have guns in the US. No amount of laws will change that.

The fact that they come from companies do not matter, just as the factory that produces blank DVDs that bootlegged movies are burned onto doesn't matter. What matters is that criminals are still getting guns in the UK.

A slave is much harder to smuggle in than a gun. What makes you think they are going to just walk into an airport with a suitcase full of guns? Guns will be smuggled into the UK the same way drugs are smuggled into the US.

Being shot does not matter at all. Anti-Gun proponents think that a decrease in people getting shot is good, when they stupidly ignore the fact beatings, stabbings, hackings, etc. have gone up. Plus, there are still gangs that have guns in the UK. If dumb thugs can get guns, anyone can.
http://news.bbc.co.uk/2/hi/uk_news/e...re/7422983.stm","http://www.4forums.com/political/gun-control-debates/11119-guns-get-banned-people-will-die.html",313855,106
"1-7780_107_106_2",7780,1,"2008-06-22 20:43:00",176,319,313899,"2008-06-22 12:03:00",339055,24,106,"And, making my point again, I still see a lot of drugs. Nothing is 100% or even close to it.",339054,2,7780,1,"Usual method attempted is via the post or in container shipments, HM Customs & Excise X-rays all containers coming into the UK, they pick up guns, stolen cars, illegal immigrants etc.
Drugs don't show up, for that you need a dog.","http://www.4forums.com/political/gun-control-debates/11119-guns-get-banned-people-will-die.html",313864,107
"1-7780_110_107_2",7780,1,"2008-06-23 12:06:00",319,176,313974,"2008-06-22 20:43:00",339058,33,107,"Completely contradicting your ""point"" the facts are that contrary to your opinion, criminals now find it harder to get guns which is the reason we see converted BB guns.",339055,2,7780,1,"And, making my point again, I still see a lot of drugs. Nothing is 100% or even close to it.","http://www.4forums.com/political/gun-control-debates/11119-guns-get-banned-people-will-die.html",313899,110
"1-7780_111_110_2",7780,1,"2008-06-23 19:11:00",176,319,314002,"2008-06-23 12:06:00",339059,147,110,"But converted BB guns aren't that great, are they? If a fundamental liberty is going to be taken away from our people, it better be for a damn good reason. Pointing to modified BB guns as proof that guns are now harder to find is moot, because we now must deal with those modified BB guns.
And this still does not explain the rise in handgun crime in the UK.
http://news.bbc.co.uk/2/hi/uk_news/1440764.stm
""The campaign's director, David Bredin, said: 'It is crystal clear from the research that the existing gun laws do not lead to crime reduction and a safer place.
'Policy makers have targeted the legitimate sporting and farming communities with ever-tighter laws but the research clearly demonstrates that it is illegal guns which are the real threat to public safety.' """,339058,2,7780,1,"Completely contradicting your ""point"" the facts are that contrary to your opinion, criminals now find it harder to get guns which is the reason we see converted BB guns.","http://www.4forums.com/political/gun-control-debates/11119-guns-get-banned-people-will-die.html",313974,111
