"key","quote_source_post_discussion_id","posts_dataset_id","posts_timestamp","posts_author_id","quote_source_author_id","posts_native_post_id","quote_source_timestamp","post_text_id","Word_Count","quote_source_post_id","post_text","quote_source_text_id","Dialog_Turn","posts_discussion_id","quote_source_post_dataset_id","Fullquote_text","discussion_url","quote_source_native_post_id","posts_post_id"
"1-8003_38_37_1",8003,1,"2008-08-02 10:07:00",413,697,318664,"2008-08-02 09:49:00",353418,108,37,"Just because we didn't get you out on the first day doesn't mean that we lost the war. Like ticks that've gotten their heads under the skin, it took time to get rid of the British that invaded our country.

I don't see how we're the problem, it's the criminals and the weak justice system that's the real problem. We're just made the scapegoat because we're convenient and easy to blame. It's a real ""elephant in the middle of the room"" situation, where everybody is aware of the problem existing, but nobody wants to approach the subject.",353417,1,8003,1,"You tried to invade Canada. We burned down the White House. Do you Americans not even study your own history?
Oh, and the problem in the US isn't guns. It's the gun nuts who think Rambo and John Wayne movies are documentaries.","http://www.4forums.com/political/gun-control-debates/11429-government-bans-guns.html",318661,38
"1-8003_39_38_1",8003,1,"2008-08-02 10:24:00",697,413,318669,"2008-08-02 10:07:00",353419,154,38,"OK, so we've established you're completely ignorant of your own country's history:
War of 1812

So you view Rambo and John Wayne movies as documentaries? 

I live in a city of approximately 250 000 people. There is not one area of the city where I'm afraid to walk at any time of the day or night and be held up at gunpoint. We have approximately 6-7 murders per year, of which about 5-6 are drunken partiers who get out of hand and stab someone in an altercation. I can't remember the last time a gun was used to commit a murder. How does this compare to a city the same size in the US?
As I said, it's not the guns that are the problem in the US, it's the ""gun culture"" and the gun nuts.",353418,1,8003,1,"Just because we didn't get you out on the first day doesn't mean that we lost the war. Like ticks that've gotten their heads under the skin, it took time to get rid of the British that invaded our country.

I don't see how we're the problem, it's the criminals and the weak justice system that's the real problem. We're just made the scapegoat because we're convenient and easy to blame. It's a real ""elephant in the middle of the room"" situation, where everybody is aware of the problem existing, but nobody wants to approach the subject.","http://www.4forums.com/political/gun-control-debates/11429-government-bans-guns.html",318664,39
"1-8003_40_39_1",8003,1,"2008-08-02 10:58:00",413,697,318679,"2008-08-02 10:24:00",353420,166,39,"My apologies. I thought we were talking about the battle in New Orleans where we kicked the British out...again.

No. Sylvester Stallone is an anti-gun liberal who I refuse to support, and I've never seen a John Wayne movie before.

I don't know. All I know is that I'm not afraid to go anywhere in the city I live. The only thing that I have to fear is the occasional rabid animal that might be on the loose.

If we're a gun culture because we have shootings, you're obviously a knife culture because you have so many stabbings. Or maybe you're a knife and excessive drunkeness culture instead.
The people that want to continue maintaining their rights can hardly be considered the problem. The ones that are the problem are the ones who can't understand why we don't blindly surrender our rights to let the government control and police us better.",353419,1,8003,1,"OK, so we've established you're completely ignorant of your own country's history:War of 1812","http://www.4forums.com/political/gun-control-debates/11429-government-bans-guns.html",318669,40
"1-8003_41_40_1",8003,1,"2008-08-02 11:10:00",697,413,318681,"2008-08-02 10:58:00",353421,31,40,"A battle does not a war make.

So why would you assume I was talking about you earlier?

Why is vigilantism a better alternative than a police force?",353420,1,8003,1,"My apologies. I thought we were talking about the battle in New Orleans where we kicked the British out...again.

No. Sylvester Stallone is an anti-gun liberal who I refuse to support, and I've never seen a John Wayne movie before.

I don't know. All I know is that I'm not afraid to go anywhere in the city I live. The only thing that I have to fear is the occasional rabid animal that might be on the loose.

If we're a gun culture because we have shootings, you're obviously a knife culture because you have so many stabbings. Or maybe you're a knife and excessive drunkeness culture instead.
The people that want to continue maintaining their rights can hardly be considered the problem. The ones that are the problem are the ones who can't understand why we don't blindly surrender our rights to let the government control and police us better.","http://www.4forums.com/political/gun-control-debates/11429-government-bans-guns.html",318679,41
"1-8003_42_41_1",8003,1,"2008-08-02 11:12:00",413,697,318683,"2008-08-02 11:10:00",353422,47,41,"Because the term ""gun nut"" has come to mean a disparaging remark about anybody that supports the individual rights interpretation of the Second Amendment, and favors gun ownership over gun bans.

Self-defense and the exercising of our rights doesn't qualify as vigilantism.",353421,1,8003,1,"A battle does not a war make.

So why would you assume I was talking about you earlier?

Why is vigilantism a better alternative than a police force?","http://www.4forums.com/political/gun-control-debates/11429-government-bans-guns.html",318681,42
"1-8003_43_42_1",8003,1,"2008-08-02 11:28:00",697,413,318688,"2008-08-02 11:12:00",353423,120,42,"Taking the law into your own hands does. You said ""The ones that are the problem are the ones who can't understand why we don't blindly surrender our rights to let the government control and police us better"". 
So, two questions:
1) I'm assuming by this you would rise up against an erosion of your personal rights and invasion of your privacy by the government. Since the Patriot Act, this is a daily occurence. How's the uprising going?
2) You are condoning vigilantism by saying it's a surrender of your rights to be policed. How is this a better, safer alternative to a police force?",353422,1,8003,1,"Because the term ""gun nut"" has come to mean a disparaging remark about anybody that supports the individual rights interpretation of the Second Amendment, and favors gun ownership over gun bans.

Self-defense and the exercising of our rights doesn't qualify as vigilantism.","http://www.4forums.com/political/gun-control-debates/11429-government-bans-guns.html",318683,43
"1-8003_45_43_1",8003,1,"2008-08-02 12:05:00",413,697,318692,"2008-08-02 11:28:00",353425,159,43,"So you think it's vigilantism to refuse and fight against the notion of a police state? A state where nobody is armed except for the police and the criminals, a place where rights don't exist and your privileges are determined by the police and what they decide is reasonable?
If this is what you're in favor of, then I always knew that you British were crazy compared to Americans. You're so wrapped up in the idea of the government taking care of you that you can't possibly see the forest through the trees. 
You can't own guns, you can't own knives, you're subject to extensive surveillance and the police have extensive authority to do as they please, with instructions to not save anyone if it could possibly put them in danger. You guys have become the world described by George Orwell, you just can't see it yet.",353423,1,8003,1,"Taking the law into your own hands does. You said ""The ones that are the problem are the ones who can't understand why we don't blindly surrender our rights to let the government control and police us better"". 
So, two questions:
1) I'm assuming by this you would rise up against an erosion of your personal rights and invasion of your privacy by the government. Since the Patriot Act, this is a daily occurence. How's the uprising going?
2) You are condoning vigilantism by saying it's a surrender of your rights to be policed. How is this a better, safer alternative to a police force?","http://www.4forums.com/political/gun-control-debates/11429-government-bans-guns.html",318688,45
"1-8003_47_45_1",8003,1,"2008-08-02 12:12:00",697,413,318695,"2008-08-02 12:05:00",353427,109,45,"Who said anything about a police state? You're the one arguing that citizens should have the right to act as the police. That would be vigilantism. Why do you support vigilantism?

I see you're geography is as poor as your history. Point out to me on a map where in the UK Saskatoon, Saskatchewan is located. 

You're so wrapped up in the romantic notion that guns are the solution to everything that you can't even see the root cause of gun violence.

And again, point out to me which part of the UK Saskatoon, Saskatchewan is located in.",353425,1,8003,1,"So you think it's vigilantism to refuse and fight against the notion of a police state? A state where nobody is armed except for the police and the criminals, a place where rights don't exist and your privileges are determined by the police and what they decide is reasonable?
If this is what you're in favor of, then I always knew that you British were crazy compared to Americans. You're so wrapped up in the idea of the government taking care of you that you can't possibly see the forest through the trees. 
You can't own guns, you can't own knives, you're subject to extensive surveillance and the police have extensive authority to do as they please, with instructions to not save anyone if it could possibly put them in danger. You guys have become the world described by George Orwell, you just can't see it yet.","http://www.4forums.com/political/gun-control-debates/11429-government-bans-guns.html",318692,47
"1-8003_49_47_1",8003,1,"2008-08-02 12:34:00",413,697,318700,"2008-08-02 12:12:00",353429,58,47,"You obviously couldn't read my quote properly, otherwise you would've understood that I was saying how the loss of our rights would result in a tyrannical police state where the government has total and complete power over everything that goes on.

The root cause is violent criminals that the courts won't keep off the streets.",353427,1,8003,1,"Who said anything about a police state? You're the one arguing that citizens should have the right to act as the police. That would be vigilantism. Why do you support vigilantism?

I see you're geography is as poor as your history. Point out to me on a map where in the UK Saskatoon, Saskatchewan is located. 

You're so wrapped up in the romantic notion that guns are the solution to everything that you can't even see the root cause of gun violence.

And again, point out to me which part of the UK Saskatoon, Saskatchewan is located in.","http://www.4forums.com/political/gun-control-debates/11429-government-bans-guns.html",318695,49
