"key","quote_source_post_discussion_id","posts_dataset_id","posts_timestamp","posts_author_id","quote_source_author_id","posts_native_post_id","quote_source_timestamp","post_text_id","Word_Count","quote_source_post_id","post_text","quote_source_text_id","Dialog_Turn","posts_discussion_id","quote_source_post_dataset_id","Fullquote_text","discussion_url","quote_source_native_post_id","posts_post_id"
"1-8011_23_22_1",8011,1,"2008-08-15 20:19:00",413,428,320479,"2008-08-15 18:49:00",353951,35,22,"And yet no sniper has ever blown a plane out of the sky with any kind of rifle. Disabling a plane that's sitting on the runway is completely different from skeet shooting it.",353950,1,8011,1,"In theory it is possible. Depends on the plane and where you hit it. Snipers disable vehicles and equipment with barrets.","http://www.4forums.com/political/gun-control-debates/11441-watergate-all-over-again.html",320466,23
"1-8011_38_23_1",8011,1,"2008-08-16 20:06:00",428,413,320556,"2008-08-15 20:19:00",353966,34,23,"Does the definition of ""in theory"" elude you? 
Explain to me how a plane who's engine has been disabled due to a .50 bullet will stay afloat for sometime.",353951,1,8011,1,"And yet no sniper hasever blown a plane out of the sky with any kind of rifle.","http://www.4forums.com/political/gun-control-debates/11441-watergate-all-over-again.html",320479,38
"1-8011_43_38_1",8011,1,"2008-08-17 07:40:00",413,428,320575,"2008-08-16 20:06:00",353971,38,38,"Show me that a .50 BMG round from a .50 caliber rifle can even reach the engine of a plane in flight in the first place, then we'll talk about ""in theory"".",353966,1,8011,1,"Does the definition of ""in theory"" elude you? 
Explain to me how a plane who's engine has been disabled due to a .50 bullet will stay afloat for sometime.","http://www.4forums.com/political/gun-control-debates/11441-watergate-all-over-again.html",320556,43
"1-8011_46_43_1",8011,1,"2008-08-17 15:50:00",428,413,320613,"2008-08-17 07:40:00",353974,41,43,"The Barrett M82 has a effective range of over a mile. Are you saying that planes never come within a mile of the ground?
Obviously the notion of ""in theory"" does in fact elude you.",353971,1,8011,1,"Show me that a .50 BMG round from a .50 caliber rifle can even reach the engine of a plane in flight in the first place, then we'll talk about ""in theory"".","http://www.4forums.com/political/gun-control-debates/11441-watergate-all-over-again.html",320575,46
"1-8011_47_46_1",8011,1,"2008-08-17 16:57:00",413,428,320622,"2008-08-17 15:50:00",353975,67,46,"Alright you wanna play hardball, then fine.
Get a map of your average airport, one of the big ones, and see exactly where a mile from the tarmac is and how far the shooter would have to be to actually be in range. Then show that security would never be able to spot the shooter long before he ever started firing.",353974,1,8011,1,"The Barrett M82 has a effective range of over a mile. Are you saying that planes never come within a mile of the ground?
Obviously the notion of ""in theory"" does in fact elude you.","http://www.4forums.com/political/gun-control-debates/11441-watergate-all-over-again.html",320613,47
"1-8011_48_47_1",8011,1,"2008-08-17 17:38:00",428,413,320625,"2008-08-17 16:57:00",353976,124,47,"Nice fallacy there. Instead of admitting that a .50 rifle can in fact hit a plane, you are now arguing that it is unlikely, an obvious fallacy of changing the subject. I never argued the practicality of actually taking down a plane. The only thing I argued was that it was in theory possible based on capabilities of the round and potential weapons. Since you keep refusing to maintain the discussion within capabilities, I have nothing more to say on that subject. However, you may want to take the same remedial reading comprehension course that Ethmi desperately needs to enroll in. 
Next time, try not to use such blatantly obvious fallacies.",353975,1,8011,1,"Alright you wanna play hardball, then fine.
Get a map of your average airport, one of the big ones, and see exactly where a mile from the tarmac is and how far the shooter would have to be to actually be in range. Then show that security would never be able to spot the shooter long before he ever started firing.","http://www.4forums.com/political/gun-control-debates/11441-watergate-all-over-again.html",320622,48
"1-8011_74_66_2",8011,1,"2008-08-18 18:23:00",413,428,320717,"2008-08-18 17:00:00",354002,34,66,"Prove it. I wanna see some actual evidence than any semi-auto AK-47 on the market is readily convertible to a full-auto machinegun by any gunsmith who has 15 minutes on their hands.",353994,2,8011,1,"Because it's ridiculously hard to pull it off. Ak-47s are available for sale and it takes about 15 minutes for a good gunsmith to change it from semi into a full auto. We know terrorists use those. Just because it is available and possible doesn't mean they will do it. We could build hundreds of neutron bombs to add to our nuclear stockpiles. It would be stupid and not useful, but we could do it based purely on the logic of availability. 

Everyone goes the path of least resistance or most bang for buck. 

Frankly, I wouldn't even bother unless I had an explosive .50 round. Then I'd just aim for the engine intakes after it was about 50~100 feet up. But last I recall, those are still illegal to own and sell to civilians.","http://www.4forums.com/political/gun-control-debates/11441-watergate-all-over-again.html",320706,74
"1-8011_75_74_2",8011,1,"2008-08-18 18:33:00",428,413,320718,"2008-08-18 18:23:00",354003,189,74,"I realize circumstantial won't help, so here's a few links.
http://www.hackcanada.com/ice3/misc/ak47mod.txt
http://www.keepshooting.com/booksand...ion_manual.htm
You can even buy a manual. 
http://www.gunsamerica.com/977003391...version_ak.htm
CD form too!
I'd be real hesitant to buy those. While I believe it is not illegal to sell or own instructions on making semis into full autos, actually doing it is illegal. Therefore who knows who's tracking sales on those websites. 
You really need to learn what ""Google"" is. 
Furthermore, your ""hasn't happened = impossible"" argument stinks.
And I didn't say any gunsmith. You need to be pretty good at what you do as well as have the capacity to machine some parts to pull this off.
You seem to be operating under the idea that I'm for banning such weapons. I'm not. I do think that weapons like SA-7s, TOW, RPG, PKUs, USAS-12s and similar should be banned, but what I really dislike is bad logic and bad arguments and you seem to have quite a large supply of them in this thread.",354002,2,8011,1,"Prove it. I wanna see some actual evidence than any semi-auto AK-47 on the market is readily convertible to a full-auto machinegun by any gunsmith who has 15 minutes on their hands.","http://www.4forums.com/political/gun-control-debates/11441-watergate-all-over-again.html",320717,75
"1-8011_78_75_2",8011,1,"2008-08-18 20:24:00",413,428,320728,"2008-08-18 18:33:00",354006,142,75,"No!
I want real and serious proof that a semi-auto AK-47 can easily be converted into a true machinegun and made to fire full-automatic. I want evidence of seized firearms being illegally modified in a way that their internals are exactly the same as their soviet cousins. Simply adding a twist-tie isn't good enough.
Simply showing that there's instructions on ""converting"" isn't proof enough that such a conversion is possible. The same was claimed of the AR-15, but I found more than enough proof to show that this was an outright lie.
How about this, how about you find some pictures of the internals of the soviet AKs and the semi-auto AKs and prove that they're similar enough that they can easily be modified in a way to match each other.",354003,2,8011,1,"I realize circumstantial won't help, so here's a few links.
http://www.hackcanada.com/ice3/misc/ak47mod.txt
http://www.keepshooting.com/booksand...ion_manual.htm
You can even buy a manual. 
http://www.gunsamerica.com/977003391...version_ak.htm
CD form too!
I'd be real hesitant to buy those. While I believe it is not illegal to sell or own instructions on making semis into full autos, actually doing it is illegal. Therefore who knows who's tracking sales on those websites. 
You really need to learn what ""Google"" is. 
Furthermore, your ""hasn't happened = impossible"" argument stinks.
And I didn't say any gunsmith. You need to be pretty good at what you do as well as have the capacity to machine some parts to pull this off.
You seem to be operating under the idea that I'm for banning such weapons. I'm not. I do think that weapons like SA-7s, TOW, RPG, PKUs, USAS-12s and similar should be banned, but what I really dislike is bad logic and bad arguments and you seem to have quite a large supply of them in this thread.","http://www.4forums.com/political/gun-control-debates/11441-watergate-all-over-again.html",320718,78
"1-8011_81_78_2",8011,1,"2008-08-19 00:29:00",428,413,320740,"2008-08-18 20:24:00",354009,154,78,"Define ""easily."" I never said that it could be easily done. I said that a good gunsmith could do it in 15 minutes, I later added that they'd need the ability to machine some parts. That CLEARLY removes a large number of gun owners from the picture. You are creating false arguments and attacking me on thing you fabricated. That is massively dishonest. You clearly ignored what I actually said. 

Perhaps if you bothered to read the links, you'd be arguing from a position other then of sheer and absolute ignorance. 

Such proof? Care to cite? Read the links and then decide. Don't decide and refuse to read the links. 

You really didn't open any of the links given to you did you?
I take it you're abandoning your ""never happened = impossible"" logic?",354006,2,8011,1,"No!
I want real and serious proof that a semi-auto AK-47 can easily be converted into a true machinegun and made to fire full-automatic. I want evidence of seized firearms being illegally modified in a way that their internals are exactly the same as their soviet cousins. Simply adding a twist-tie isn't good enough.
Simply showing that there's instructions on ""converting"" isn't proof enough that such a conversion is possible. The same was claimed of the AR-15, but I found more than enough proof to show that this was an outright lie.
How about this, how about you find some pictures of the internals of the soviet AKs and the semi-auto AKs and prove that they're similar enough that they can easily be modified in a way to match each other.","http://www.4forums.com/political/gun-control-debates/11441-watergate-all-over-again.html",320728,81
"1-8011_82_81_2",8011,1,"2008-08-19 06:37:00",413,428,320756,"2008-08-19 00:29:00",354010,205,81,"And 15 minutes suggests it's very easy to pull off. Any semi-auto could in theory be converted to full-auto if you have extensive knowledge of machining and a lathe and a machine shop for cutting the parts to exact specification, but your average person won't have this knowledge.

Then stop being so ambiguous in what you say.

Only one link provides any information. And that technique doesn't qualify as a true machinegun, a true machinegun wouldn't choke on hard primer ammunition.
Bump firing doesn't qualify as a machinegun.

People have been providing ""proof"" of Bigfoot, the Loch Ness monster, the Chupacabra and various other cryptids and legendary animals for decades, but this ""proof"" doesn't support their existence.
CNN had ""proof"" that the 1994 AWB covered ""real machineguns"" and the NRA was all over their asses the next day for lying to the public.
Kellerman ""proved"" that gun owners are 43 times more likely to kill a friend or loved one than a criminal if they had a gun in the house, but he still got debunked and his study discredited.",354009,2,8011,1,"Define ""easily."" I never said that it could be easily done. I said that a good gunsmith could do it in 15 minutes, I later added that they'd need the ability to machine some parts. That CLEARLY removes a large number of gun owners from the picture. You are creating false arguments and attacking me on thing you fabricated. That is massively dishonest. You clearly ignored what I actually said. 

Perhaps if you bothered to read the links, you'd be arguing from a position other then of sheer and absolute ignorance. 

Such proof? Care to cite? Read the links and then decide. Don't decide and refuse to read the links. 

You really didn't open any of the links given to you did you?
I take it you're abandoning your ""never happened = impossible"" logic?","http://www.4forums.com/political/gun-control-debates/11441-watergate-all-over-again.html",320740,82
"1-8011_83_82_2",8011,1,"2008-08-19 13:35:00",428,413,320814,"2008-08-19 06:37:00",354011,227,82,"Compared to actually making a gun from scratch yes. 

Hence why you'd go to a good gunsmith. Hence why I stated that in the first place. Why you deliberately chose to ignore it, well, that's something else. A few users can probably comment on that given your responses so far. 

It is not my fault you lack reading comprehension. I made it perfectly clear that it would require a good gunsmith with machine milling capabilities. Why you couldn't understand that the first two times, I don't know why.

Um, the issue was whether or not a Ak-47 can be illegally converted into an automatic. Whether or not it fits your definition of a true machine gun is irrelevant. And the US definition of machine gun is rather silly. Seriously, your use of changing the subject and other fallacies is quite dishonest.

lol. Your argument now is that it doesn't qualify as a true machine gun, while you ignore that it does go automatic.
Do you ever stay on your original argument? 
I see you won't even talk about the .50 caliber on a plane. 
You're more dishonest then Arch. 
I take it you're abandoning your ""never happened = impossible"" logic?",354010,2,8011,1,"And 15 minutes suggests it's very easy to pull off. Any semi-auto could in theory be converted to full-auto if you have extensive knowledge of machining and a lathe and a machine shop for cutting the parts to exact specification, but your average person won't have this knowledge.

Then stop being so ambiguous in what you say.

Only one link provides any information. And that technique doesn't qualify as a true machinegun, a true machinegun wouldn't choke on hard primer ammunition.
Bump firing doesn't qualify as a machinegun.

People have been providing ""proof"" of Bigfoot, the Loch Ness monster, the Chupacabra and various other cryptids and legendary animals for decades, but this ""proof"" doesn't support their existence.
CNN had ""proof"" that the 1994 AWB covered ""real machineguns"" and the NRA was all over their asses the next day for lying to the public.
Kellerman ""proved"" that gun owners are 43 times more likely to kill a friend or loved one than a criminal if they had a gun in the house, but he still got debunked and his study discredited.","http://www.4forums.com/political/gun-control-debates/11441-watergate-all-over-again.html",320756,83
"1-8011_62_48_3",8011,1,"2008-08-18 11:58:00",1063,428,320673,"2008-08-17 17:38:00",353990,56,48,"Obvious child, you are despicable. No matter how respectfully people respond to you, you continually insult them. You have PMed me several times calling me an ""idiot"", and your very signature is an attempt to make Archie look like a jerk. And everyone whines about my rudeness...",353976,3,8011,1,"Nice fallacy there. Instead of admitting that a .50 rifle can in fact hit a plane, you are now arguing that it is unlikely, an obvious fallacy of changing the subject. I never argued the practicality of actually taking down a plane. The only thing I argued was that it was in theory possible based on capabilities of the round and potential weapons. Since you keep refusing to maintain the discussion within capabilities, I have nothing more to say on that subject. However, you may want to take the same remedial reading comprehension course that Ethmi desperately needs to enroll in. 
Next time, try not to use such blatantly obvious fallacies.","http://www.4forums.com/political/gun-control-debates/11441-watergate-all-over-again.html",320625,62
"1-8011_64_62_3",8011,1,"2008-08-18 16:51:00",428,1063,320704,"2008-08-18 11:58:00",353992,58,62,"You're funny. And a feather weight. Omega is clearly resorting to deception. How you call that 'respectful' I don't know. If you look at the evolution forum, you'll understand the irony of my signature. 
The difference between you and I is that I get things right, you don't.",353990,3,8011,1,"Obvious child, you are despicable. No matter how respectfully people respond to you, you continually insult them. You have PMed me several times calling me an ""idiot"", and your very signature is an attempt to make Archie look like a jerk. And everyone whines about my rudeness...","http://www.4forums.com/political/gun-control-debates/11441-watergate-all-over-again.html",320673,64
"1-8011_69_64_3",8011,1,"2008-08-18 17:08:00",1063,428,320711,"2008-08-18 16:51:00",353997,64,64,"First off, when you mention every time he insulted you and compare it to the number of time you insulted him, then you can talk. Also, there is no excuse for mentioning in your sig. You may think you're intelligent, kid, but you act like a twelve-year-old.

That sure is an arrogant thing to say.",353992,3,8011,1,"You're funny. And a feather weight. Omega is clearly resorting to deception. How you call that 'respectful' I don't know. If you look at the evolution forum, you'll understand the irony of my signature. 
The difference between you and I is that I get things right, you don't.","http://www.4forums.com/political/gun-control-debates/11441-watergate-all-over-again.html",320704,69
"1-8011_73_69_3",8011,1,"2008-08-18 17:27:00",428,1063,320716,"2008-08-18 17:08:00",354001,78,69,"Aside from suggesting that he did not understand what 'in theory' meant, where did I actually insult him as a person? Or do you not know the difference between a person and their argument? 

I'm old and mature enough to appreciate irony. You clearly are not. 

So? Does it make is wrong? 
I see you refuse to post in the election forum. Why is that feather weight?",353997,3,8011,1,"First off, when you mention every time he insulted you and compare it to the number of time you insulted him, then you can talk. Also, there is no excuse for mentioning in your sig. You may think you're intelligent, kid, but you act like a twelve-year-old.

That sure is an arrogant thing to say.","http://www.4forums.com/political/gun-control-debates/11441-watergate-all-over-again.html",320711,73
"1-8011_77_73_3",8011,1,"2008-08-18 20:13:00",1063,428,320727,"2008-08-18 17:27:00",354005,236,73,"You've missed the Option C, haven't you?




And now for the posts...




And finally, the insults against Mega...


Almost the only thing you mentioned in one of your responses to mega is fallacy.
The taste of your own words is very bitter, isn't it?
Mega, did this immature brat PM you? If so, please post it!
There are also petty irritations that I will point out throughout this posts with underlining.

Yeah... nowhere does he directly say that it's impossible, he just asks a question. Will not, also usually means ""Won't usually"", not ""will never"". He never directly claims that it's impossible, and when he says ""not likely"", you accused him of changing the subject.

Where did this claim originate?

Another example of your rudeness and immaturity. All trivial, my point was not addressed (as expected). Show me one debate... just one debate, where you have not insulted anyone, have not continually said ""You're wrong"", and addressed all points, then maybe I'll think you're thirteen rather than twelve.
By the way, your debating style irritates me... by God, you could at least look up some synonyms for ""wrong"".",354001,3,8011,1,"Aside from suggesting that he did not understand what 'in theory' meant, where did I actually insult him as a person? Or do you not know the difference between a person and their argument? 

I'm old and mature enough to appreciate irony. You clearly are not. 

So? Does it make is wrong? 
I see you refuse to post in the election forum. Why is that feather weight?","http://www.4forums.com/political/gun-control-debates/11441-watergate-all-over-again.html",320716,77
