"key","quote_source_post_discussion_id","posts_dataset_id","posts_timestamp","posts_author_id","quote_source_author_id","posts_native_post_id","quote_source_timestamp","post_text_id","Word_Count","quote_source_post_id","post_text","quote_source_text_id","Dialog_Turn","posts_discussion_id","quote_source_post_dataset_id","Fullquote_text","discussion_url","quote_source_native_post_id","posts_post_id"
"1-8159_13_12_1",8159,1,"2008-09-30 20:46:00",413,44,325830,"2008-09-30 20:02:00",361173,47,12,"The belief that nobody needs to be armed because being the victim of a violent crime is too remote to justify an armed response, it what puts others at risk, because it's these people with these opinions that're usually in a position of authority.",361172,1,8159,1,"The frequency of legitimate ones doesn't warrant my walking around armed all the time IMO. How does my being unarmed put you at risk? Think I should be prepared to shoot someone for you in case of emergency? Touchee yourself.","http://www.4forums.com/political/gun-control-debates/11665-first-they-take-away-your-guns-then-they-take-away-your-freedom.html",325826,13
"1-8159_14_13_1",8159,1,"2008-10-01 08:39:00",44,413,325844,"2008-09-30 20:46:00",361174,55,13,"I didn't say nobody, I said I choose for myself not to be armed. Just respect my right to choose. 
And justifying ""armed response"" is not my point. Justifying full-time packing is. IMO advocating the arming of the average citizen in public is a societal step backwards.",361173,1,8159,1,"The belief that nobody needs to be armed because being the victim of a violent crime is too remote to justify an armed response, it what puts others at risk, because it's these people with these opinions that're usually in a position of authority.","http://www.4forums.com/political/gun-control-debates/11665-first-they-take-away-your-guns-then-they-take-away-your-freedom.html",325830,14
"1-8159_15_14_1",8159,1,"2008-10-01 09:46:00",413,44,325851,"2008-10-01 08:39:00",361175,95,14,"How? By acknowledging the fact that the cops can't possibly be there to protect you when you need them, and that being a victim and non-violence is a non-answer to the issue at hand?
I don't consider being able to defend yourself to be a step backwards, it's a step forward. Continuing to be a stupid sheep and believing ""I'll be alright, the police are going to protect me, that's what they're there for"" is a step backwards in development and a sign of stupidity.",361174,1,8159,1,"I didn't say nobody, I said I choose for myself not to be armed. Just respect my right to choose. 
And justifying ""armed response"" is not my point. Justifying full-time packing is. IMO advocating the arming of the average citizen in public is a societal step backwards.","http://www.4forums.com/political/gun-control-debates/11665-first-they-take-away-your-guns-then-they-take-away-your-freedom.html",325844,15
"1-8159_16_15_1",8159,1,"2008-10-01 11:25:00",44,413,325871,"2008-10-01 09:46:00",361176,66,15,"Try to resist the urge to put words in the mouths of others. To want to live without having to be forever prepared to kill is not stupid. Stupid is thinking the best way to have a peaceful society is to have everyone capable of dispensing lethal street justice as they see fit without regard to bystanders or the magnitude of the offense.",361175,1,8159,1,"How? By acknowledging the fact that the cops can't possibly be there to protect you when you need them, and that being a victim and non-violence is a non-answer to the issue at hand?
I don't consider being able to defend yourself to be a step backwards, it's a step forward. Continuing to be a stupid sheep and believing ""I'll be alright, the police are going to protect me, that's what they're there for"" is a step backwards in development and a sign of stupidity.","http://www.4forums.com/political/gun-control-debates/11665-first-they-take-away-your-guns-then-they-take-away-your-freedom.html",325851,16
"1-8159_27_16_1",8159,1,"2008-10-01 15:38:00",413,44,325922,"2008-10-01 11:25:00",361187,50,16,"Try to resist leaving the mouth open to facilitate words being put in.

Maybe not, but believing such is possible right now is stupid.

Peaceful societies have no criminals and no need for armed police. We have both, we're obviously not a peaceful society.",361176,1,8159,1,"Try to resist the urge to put words in the mouths of others. To want to live without having to be forever prepared to kill is not stupid. Stupid is thinking the best way to have a peaceful society is to have everyone capable of dispensing lethal street justice as they see fit without regard to bystanders or the magnitude of the offense.","http://www.4forums.com/political/gun-control-debates/11665-first-they-take-away-your-guns-then-they-take-away-your-freedom.html",325871,27
"1-8159_35_34_2",8159,1,"2008-10-03 10:10:00",44,2904,326196,"2008-10-02 14:54:00",361195,79,34,"Here we go. Listen, bumpkin, I couldn't care less what you personally think about California. Please keep out. Just keep telling yourself it's better where you are and I'll keep enjoying the weather, women and all the other things that your locale can't even begin to compete with. Clearly you're not cut out for civilized society. So just stick to your canned goods and ammo up there wherever you're surviving.",361194,2,8159,1,"Sinjin, I noticed all your geographic locations were in California, but most Americans could probably care less if California fell off in the ocean, well me for sure. Everything is illegal in California, the laws out there only work in favor of homo-sexuals and gun haters, and dont try to tell me this aint so because I tried living in California for a while. As far as deleating the 2nd amendment, you will never accomplish it. To many Americans will fight against abolishing any amendment to the constitution, and because the amendments are protected individual rights, if the government did try to remove even one of those rights, it would cause a massive revolution.","http://www.4forums.com/political/gun-control-debates/11665-first-they-take-away-your-guns-then-they-take-away-your-freedom.html",326057,35
"1-8159_37_35_2",8159,1,"2008-10-04 06:29:00",2904,44,326280,"2008-10-03 10:10:00",361197,76,35,"Well I see you have given me a little nickname, well I will return the favor tinkerbell. The state of California has nothing more and probably less than my state of Texas. California does have two things Texas doesnt, the most amount of anti-gun laws in America, and the distinction of being populated with more gays than anywhere else in America, guess we know why you like California tinkerbell.",361195,2,8159,1,"Here we go. Listen, bumpkin, I couldn't care less what you personally think about California. Please keep out. Just keep telling yourself it's better where you are and I'll keep enjoying the weather, women and all the other things that your locale can't even begin to compete with. Clearly you're not cut out for civilized society. So just stick to your canned goods and ammo up there wherever you're surviving.","http://www.4forums.com/political/gun-control-debates/11665-first-they-take-away-your-guns-then-they-take-away-your-freedom.html",326196,37
"1-8159_44_37_2",8159,1,"2008-10-04 11:54:00",44,2904,326314,"2008-10-04 06:29:00",361204,61,37,"Is it your intent to shame me by insinuating I'm gay? My wife would find that amusing. Even Texas would be culturally poorer without its gay residents. I'm guessing you have nothing to fear from most gay men. Are you another one of those guys that imagine themselves irresistible to gays? You rogue, you!",361197,2,8159,1,"Well I see you have given me a little nickname, well I will return the favor tinkerbell. The state of California has nothing more and probably less than my state of Texas. California does have two things Texas doesnt, the most amount of anti-gun laws in America, and the distinction of being populated with more gays than anywhere else in America, guess we know why you like California tinkerbell.","http://www.4forums.com/political/gun-control-debates/11665-first-they-take-away-your-guns-then-they-take-away-your-freedom.html",326280,44
"1-8159_45_44_2",8159,1,"2008-10-04 13:37:00",2904,44,326334,"2008-10-04 11:54:00",361205,122,44,"Was it your intention to insinuate that I am some kind of country bumpkin with no education, you know, kind of like Jethro Bodine or something, because thats how I interprited what you said. I am not trying to get into an arguement or make anybody mad, but if you cant take the heat, stay out of the kitchen. As far as calling you and Gallileo Bradys illegitimate children, I was only saying the you all post in agreement of eachother, and that your post are all similar in a way, not that you are actually his children. It was all meant to be in good humor, nothing else.",361204,2,8159,1,"Is it your intent to shame me by insinuating I'm gay? My wife would find that amusing. Even Texas would be culturally poorer without its gay residents. I'm guessing you have nothing to fear from most gay men. Are you another one of those guys that imagine themselves irresistible to gays? You rogue, you!","http://www.4forums.com/political/gun-control-debates/11665-first-they-take-away-your-guns-then-they-take-away-your-freedom.html",326314,45
"1-8159_46_45_2",8159,1,"2008-10-05 13:07:00",44,2904,326429,"2008-10-04 13:37:00",361206,21,45,"Then why don't we stick to the topics and not concern ourselves with geographic preferences or similarities between posters?emoticonXGood",361205,2,8159,1,"Was it your intention to insinuate that I am some kind of country bumpkin with no education, you know, kind of like Jethro Bodine or something, because thats how I interprited what you said. I am not trying to get into an arguement or make anybody mad, but if you cant take the heat, stay out of the kitchen. As far as calling you and Gallileo Bradys illegitimate children, I was only saying the you all post in agreement of eachother, and that your post are all similar in a way, not that you are actually his children. It was all meant to be in good humor, nothing else.","http://www.4forums.com/political/gun-control-debates/11665-first-they-take-away-your-guns-then-they-take-away-your-freedom.html",326334,46
