"key","quote_source_post_discussion_id","posts_dataset_id","posts_timestamp","posts_author_id","quote_source_author_id","posts_native_post_id","quote_source_timestamp","post_text_id","Word_Count","quote_source_post_id","post_text","quote_source_text_id","Dialog_Turn","posts_discussion_id","quote_source_post_dataset_id","Fullquote_text","discussion_url","quote_source_native_post_id","posts_post_id"
"1-8329_37_34_1",8329,1,"2011-06-06 05:33:00",191,44,431563,"2011-06-05 11:41:00",367514,16,34,"Enough with the one trick pony approach. You're not getting your universal background checks.",367511,1,8329,1,"When as high as 40% of all firearm transactions place no barrier to a felon being the buyer(secondary sales), then yes we effectively have no enforcement of the prohibition.
You have previously said that first we must establish we have a problem.
Done and done.","http://www.4forums.com/political/gun-control-debates/11915-why-america-has-such-big-problem-illegal-guns.html",431520,37
"1-8329_38_37_1",8329,1,"2011-06-06 07:57:00",44,191,431572,"2011-06-06 05:33:00",367515,114,37,"Six(?) states and counting IIRC. I would prefer a federal law myself. 

For whom do you speak, besides yourself of course?
Closing the “private sale loophole” for handgun sales would mean that all handgun buyers are treated equally, so that they would be subject to the same requirements whether they buy from a licensed gun shop, at a gun show, or from a private seller. This would help ensure that persons buying handguns are legally eligible to do so, and it would also help law enforcement track the owners of weapons used in crimes.
http://www.icpgv.org/pdf/policy1.pdf",367514,1,8329,1,"Enough with the one trick pony approach. You're not getting your universal background checks.","http://www.4forums.com/political/gun-control-debates/11915-why-america-has-such-big-problem-illegal-guns.html",431563,38
"1-8329_43_38_1",8329,1,"2011-06-06 08:39:00",191,44,431577,"2011-06-06 07:57:00",367520,103,38,"I wasn't referring to how many states have such laws in place. I was referring to how that's the only suggestion to whatever problem comes up for discussion.

It's been said before by others but I can't remember it off the top of my head. But where exactly is the legal basis for requiring private individuals to follow federal business operating guidelines and requirements? They have no affiliation with either the government or the federal businesses themselves to begin with. Do governments even have the constitutional authority to make such mandates and requirements in the first place?",367515,1,8329,1,"Six(?) states and counting IIRC. I would prefer a federal law myself. 

For whom do you speak, besides yourself of course?
Closing the “private sale loophole” for handgun sales would mean that all handgun buyers are treated equally, so that they would be subject to the same requirements whether they buy from a licensed gun shop, at a gun show, or from a private seller. This would help ensure that persons buying handguns are legally eligible to do so, and it would also help law enforcement track the owners of weapons used in crimes.
http://www.icpgv.org/pdf/policy1.pdf","http://www.4forums.com/political/gun-control-debates/11915-why-america-has-such-big-problem-illegal-guns.html",431572,43
"1-8329_47_43_1",8329,1,"2011-06-06 08:52:00",44,191,431581,"2011-06-06 08:39:00",367524,29,43,"In the absence of a SCOTUS challenge to the law, I'd hazard a yes, yes they do and yes they can.
Don't like our Constitution?",367520,1,8329,1,"I wasn't referring to how many states have such laws in place. I was referring to how that's the only suggestion to whatever problem comes up for discussion.

It's been said before by others but I can't remember it off the top of my head. But where exactly is the legal basis for requiring private individuals to follow federal business operating guidelines and requirements? They have no affiliation with either the government or the federal businesses themselves to begin with. Do governments even have the constitutional authority to make such mandates and requirements in the first place?","http://www.4forums.com/political/gun-control-debates/11915-why-america-has-such-big-problem-illegal-guns.html",431577,47
"1-8329_48_47_1",8329,1,"2011-06-06 09:49:00",191,44,431583,"2011-06-06 08:52:00",367525,184,47,"Your argument really doesn't hold water unless the seized and traced weapons contain the numerous stipulated features that California demands of the guns sold within their state.
Look at the abomination committed to the AR-15 to make it legal for sale in California. The buttstock is fused to the pistol grip as one integral piece, and the magazine can't be removed without a secondary tool. Nothing like that has turned up in recovered drug cartel arsenals or arms shipments.
The damn background checks and other requirements for purchase aren't what has keep the cartel out of California, it's the sheer amount of **** your state insists on peddling because other things are supposedly unsafe for sale there.
How many new model guns has California added to their safe handgun register for 2010 and 2011? When was the last time AK-47s were legal for sale there?

I don't like how ***holes decide to hold a kangaroo court simply because they weren't outright forbidden from doing something that was spelled out in an obvious manner.",367524,1,8329,1,"In the absence of a SCOTUS challenge to the law, I'd hazard a yes, yes they do and yes they can.
Don't like our Constitution?","http://www.4forums.com/political/gun-control-debates/11915-why-america-has-such-big-problem-illegal-guns.html",431581,48
"1-8329_51_48_1",8329,1,"2011-06-06 10:01:00",44,191,431587,"2011-06-06 09:49:00",367528,47,48,"I doubt we could get that specific of info online.

That's excellent but doesn't prove it's not the regulations at work. 

Making the same unsupported point over and over proves nothing.

IDK. 

There are mechanisms for testing laws. Go for it.",367525,1,8329,1,"Your argument really doesn't hold water unless the seized and traced weapons contain the numerous stipulated features that California demands of the guns sold within their state.
Look at the abomination committed to the AR-15 to make it legal for sale in California. The buttstock is fused to the pistol grip as one integral piece, and the magazine can't be removed without a secondary tool. Nothing like that has turned up in recovered drug cartel arsenals or arms shipments.
The damn background checks and other requirements for purchase aren't what has keep the cartel out of California, it's the sheer amount of **** your state insists on peddling because other things are supposedly unsafe for sale there.
How many new model guns has California added to their safe handgun register for 2010 and 2011? When was the last time AK-47s were legal for sale there?

I don't like how ***holes decide to hold a kangaroo court simply because they weren't outright forbidden from doing something that was spelled out in an obvious manner.","http://www.4forums.com/political/gun-control-debates/11915-why-america-has-such-big-problem-illegal-guns.html",431583,51
"1-8329_66_51_1",8329,1,"2011-06-06 13:09:00",191,44,431623,"2011-06-06 10:01:00",367543,171,51,"Your whole rebuttal looks suspiciously like a round about way of saying that you don't know whether it works or not, only that those in charge are telling you that it does work. That's not exactly a firm position to be arguing. You don't have the information asked of you but you expect us to believe the position of your state of California is correct? Never gonna happen.
As to where are the challenges regarding background checks? How do you propose launching a successful legal challenge when the courts can simply determine that no plaintiff has legal standing to challenge them in the first place? The use of circular logic (the plaintiff is a law abiding citizen and is free to buy a gun if he chooses, and can't object to the background check because he is law abiding and not subject to a prohibition of arms) by the courts tends to shut down these challenges without debate or review.",367528,1,8329,1,"I doubt we could get that specific of info online.

That's excellent but doesn't prove it's not the regulations at work. 

Making the same unsupported point over and over proves nothing.

IDK. 

There are mechanisms for testing laws. Go for it.","http://www.4forums.com/political/gun-control-debates/11915-why-america-has-such-big-problem-illegal-guns.html",431587,66
"1-8329_67_66_1",8329,1,"2011-06-06 13:23:00",44,191,431626,"2011-06-06 13:09:00",367544,38,66,"And this looks like the typical rantings of a conspiracy nut. All I said was that specific features the confiscated firearms possess might be difficult to ascertain through online sources.

Now that's a fair question.",367543,1,8329,1,"Your whole rebuttal looks suspiciously like a round about way of saying that you don't know whether it works or not, only that those in charge are telling you that it does work. That's not exactly a firm position to be arguing. You don't have the information asked of you but you expect us to believe the position of your state of California is correct? Never gonna happen.
As to where are the challenges regarding background checks? How do you propose launching a successful legal challenge when the courts can simply determine that no plaintiff has legal standing to challenge them in the first place? The use of circular logic (the plaintiff is a law abiding citizen and is free to buy a gun if he chooses, and can't object to the background check because he is law abiding and not subject to a prohibition of arms) by the courts tends to shut down these challenges without debate or review.","http://www.4forums.com/political/gun-control-debates/11915-why-america-has-such-big-problem-illegal-guns.html",431623,67
