"key","quote_source_post_discussion_id","posts_dataset_id","posts_timestamp","posts_author_id","quote_source_author_id","posts_native_post_id","quote_source_timestamp","post_text_id","Word_Count","quote_source_post_id","post_text","quote_source_text_id","Dialog_Turn","posts_discussion_id","quote_source_post_dataset_id","Fullquote_text","discussion_url","quote_source_native_post_id","posts_post_id"
"1-8530_21_19_1",8530,1,"2009-02-10 10:35:00",153,44,343520,"2009-02-10 09:39:00",379400,44,19,"No he wasn't, read the original link again. Man with 21 guns at airport: I'm law-abiding - Crime & courts- msnbc.com
He's only been charged with having a loaded weapon, he wasn't arrested for having a loaded weapon.",379398,1,8530,1,"He was arrested for having aloaded weapon in his car. That is breaking the law in Los Angeles.","http://www.4forums.com/political/gun-control-debates/12208-arrested.html",343505,21
"1-8530_23_21_1",8530,1,"2009-02-10 10:53:00",44,153,343525,"2009-02-10 10:35:00",379402,20,21,"There are eleven charges. You can be arrested for any or all of them including the loaded weapon.",379400,1,8530,1,"No he wasn't, read the original link again. Man with 21 guns at airport: I'm law-abiding - Crime & courts- msnbc.com
He's only been charged with having a loaded weapon, he wasn't arrested for having a loaded weapon.","http://www.4forums.com/political/gun-control-debates/12208-arrested.html",343520,23
"1-8530_24_23_1",8530,1,"2009-02-10 11:08:00",153,44,343531,"2009-02-10 10:53:00",379403,83,23,"He was arrested on suspicion of felony transportation of an ""assault rifle"". There was absolutely no mention of any charges on the weapons being loaded, that only surfaced afterward to justify the arrest and harassment of the individual.
Everyone involved is trying to paint this man out to be a dangerous individual because he had his guns at the airport, and they're using September 11th as an excuse to try and justify their petrifying fear.",379402,1,8530,1,"There are eleven charges. You can be arrested for any or all of them including the loaded weapon.","http://www.4forums.com/political/gun-control-debates/12208-arrested.html",343525,24
"1-8530_25_24_1",8530,1,"2009-02-10 11:25:00",44,153,343535,"2009-02-10 11:08:00",379404,77,24,"So you admit that the loaded weapon will get you arrested? LE doesn't get to justify arresting someone after the fact. 

Not dangerous, just stupid. Twenty-one weapons and a thousand rounds of ammo. Shouldn't that concern the airport cops?
I'm a little uncomfortable with guys hopped up on steroids rolling around town with that many weapons and that much ammo in the back of their trucks. Call me petrified.",379403,1,8530,1,"He was arrested onsuspicion of felony transportation of an ""assault rifle"". There was absolutely no mention of any charges on the weapons being loaded, that only surfaced afterward to justify the arrest and harassment of the individual.","http://www.4forums.com/political/gun-control-debates/12208-arrested.html",343531,25
"1-8530_27_25_1",8530,1,"2009-02-10 11:58:00",153,44,343542,"2009-02-10 11:25:00",379406,181,25,"I never said that. I said that the charge of having a loaded weapon wasn't what he was arrested for, he was arrested on suspicion of doing something wrong. He wasn't caught doing anything that was wrong in black and white terms, like stabbing somebody with a knife from behind. They thought that he might be doing something wrong, and they decided to treat him as if he did. The rest of these details are only now coming to the surface, after the fact.

Then what are they doing here?

No. And you know why? Because he wasn't trying to board a flight, and I didn't see any mention of him trying to take his collection inside the airport terminal for transport.

How about we just call you a hoplophobe and cut through all the static instead. You simply fear weapons of any sort, and the people who choose to own them, because you have a debilitating mental condition that doesn't reflect reality.",379404,1,8530,1,"So you admit that the loaded weapon will get you arrested? LE doesn't get to justify arresting someone after the fact. 

Not dangerous, just stupid. Twenty-one weapons and a thousand rounds of ammo. Shouldn't that concern the airport cops?
I'm a little uncomfortable with guys hopped up on steroids rolling around town with that many weapons and that much ammo in the back of their trucks. Call me petrified.","http://www.4forums.com/political/gun-control-debates/12208-arrested.html",343535,27
"1-8530_29_27_1",8530,1,"2009-02-10 12:56:00",44,153,343559,"2009-02-10 11:58:00",379408,75,27,"In black and white terms you can't carry a loaded weapon in your car in Los Angeles.

Releasing details .

How could they know his intentions? Maybe they figure you could do a lot of damage with all that hardware even without boarding a flight.

Simple terms for simple minds.

I suspect you haven't a clue about the ""reality"" in Los Angeles. The cops at LAX do.",379406,1,8530,1,"I never said that. I said that the charge of having a loaded weapon wasn't what he was arrested for, he was arrested on suspicion of doing something wrong. He wasn't caught doing anything that was wrong in black and white terms, like stabbing somebody with a knife from behind. They thought that he might be doing something wrong, and they decided to treat him as if he did. The rest of these details are only now coming to the surface, after the fact.

Then what are they doing here?

No. And you know why? Because he wasn't trying to board a flight, and I didn't see any mention of him trying to take his collection inside the airport terminal for transport.

How about we just call you a hoplophobe and cut through all the static instead. You simply fear weapons of any sort, and the people who choose to own them, because you have a debilitating mental condition that doesn't reflect reality.","http://www.4forums.com/political/gun-control-debates/12208-arrested.html",343542,29
"1-8530_30_29_1",8530,1,"2009-02-10 13:15:00",153,44,343567,"2009-02-10 12:56:00",379409,106,29,"And as Charlie explained already, a weapon isn't considered loaded until it has a round in the chamber.

Well if they didn't know his intentions, why did they automatically decide to treat him as a hostile threat? That's police brutality.

If that's the case then anybody driving a semi should be immediately hauled out of their truck and made to lay face down on the pavement with a gun to the back of their head, because of the damage they could cause with such an obscenely large vehicle.

If the shoe fits...

That's yet to be proven.",379408,1,8530,1,"In black and white terms you can't carry a loaded weapon in your car in Los Angeles.

Releasing details .

How could they know his intentions? Maybe they figure you could do a lot of damage with all that hardware even without boarding a flight.

Simple terms for simple minds.

I suspect you haven't a clue about the ""reality"" in Los Angeles. The cops at LAX do.","http://www.4forums.com/political/gun-control-debates/12208-arrested.html",343559,30
"1-8530_31_30_1",8530,1,"2009-02-10 13:27:00",44,153,343569,"2009-02-10 13:15:00",379410,56,30,"Considered by whom? Sounds like opinion not fact. 

They didn't hurt him so brutality it can't be. You're being silly. They treated him as they did because they have a duty to uphold.

I don't accept your parallel. Trucks do more than run people over. Guns only shoot.",379409,1,8530,1,"And as Charlie explained already, a weapon isn't considered loaded until it has a round in the chamber.

Well if they didn't know his intentions, why did they automatically decide to treat him as a hostile threat? That's police brutality.

If that's the case then anybody driving a semi should be immediately hauled out of their truck and made to lay face down on the pavement with a gun to the back of their head, because of the damage they could cause with such an obscenely large vehicle.

If the shoe fits...

That's yet to be proven.","http://www.4forums.com/political/gun-control-debates/12208-arrested.html",343567,31
"1-8530_35_31_1",8530,1,"2009-02-10 15:22:00",153,44,343606,"2009-02-10 13:27:00",379414,32,31,"How about harassment, does that term work better for you?

Too bad. Imagine the kind of damage that a terrorist could do with a hijacked gas tanker truck.",379410,1,8530,1,"Considered by whom? Sounds like opinion not fact. 

They didn't hurt him so brutality it can't be. You're being silly. They treated him as they did because they have a duty to uphold.

I don't accept your parallel. Trucks do more than run people over. Guns only shoot.","http://www.4forums.com/political/gun-control-debates/12208-arrested.html",343569,35
"1-8530_36_35_1",8530,1,"2009-02-10 15:33:00",44,153,343607,"2009-02-10 15:22:00",379415,37,35,"No, not really. How about, ""their job""? 

Threat fantasies are more your speciality.
Care to retract your ""one in the chamber"" BS? I didn't think so.",379414,1,8530,1,"How about harassment, does that term work better for you?

Too bad. Imagine the kind of damage that a terrorist could do with a hijacked gas tanker truck.","http://www.4forums.com/political/gun-control-debates/12208-arrested.html",343606,36
"1-8530_38_36_1",8530,1,"2009-02-10 16:11:00",153,44,343617,"2009-02-10 15:33:00",379417,149,36,"""Their job"" is not to go over the various laws and look for a technicality to arrest someone who's posing no threat to others. We don't need the police trying to make an arrest on the average Joe because of something that's only a technical error, such matters have them being too busy to arrest the real threats and known criminals when they stick their heads up.

You call my scenario a fantasy? What about your belief that this man's actions will pave the way for terrorists bent on destruction to transport their weapons through airports and not be arrested by the authorities just because they have paperwork present and ready?

Nope. Because if a round isn't in the chamber then the gun can't fire. And if it can't fire, then it isn't loaded. It's basic physics.",379415,1,8530,1,"No, not really. How about, ""their job""? 

Threat fantasies are more your speciality.
Care to retract your ""one in the chamber"" BS? I didn't think so.","http://www.4forums.com/political/gun-control-debates/12208-arrested.html",343607,38
"1-8530_32_31_2",8530,1,"2009-02-10 14:11:00",385,44,343580,"2009-02-10 13:27:00",379411,47,31,"What I stated is NOT opinion. It's a fact. A loaded firearm must have the magazine in the firearm for it to be considered loaded. LAPD or whoever else can pussyfoot around it all they want, but the fact remains the same.",379410,2,8530,1,"Considered by whom? Sounds like opinion not fact. 

They didn't hurt him so brutality it can't be. You're being silly. They treated him as they did because they have a duty to uphold.

I don't accept your parallel. Trucks do more than run people over. Guns only shoot.","http://www.4forums.com/political/gun-control-debates/12208-arrested.html",343569,32
"1-8530_33_32_2",8530,1,"2009-02-10 14:14:00",44,385,343581,"2009-02-10 14:11:00",379412,81,32,"Not quite the same thing. 
LAPD alleges that one of the 16 handguns locked under the bed cover was loaded. It doesn't say whether it was a revolver or an auto. I'm pretty sure LAPD officers understand what loaded means. Just having the ammo and weapon together is already illegal, even without the magazine in the weapon. Speaking of facts, where's the evidence that the weapon in question was in fact not loaded?",379411,2,8530,1,"What I stated is NOT opinion. It's a fact. A loaded firearm must have the magazine in the firearm for it to be considered loaded. LAPD or whoever else can pussyfoot around it all they want, but the fact remains the same.","http://www.4forums.com/political/gun-control-debates/12208-arrested.html",343580,33
"1-8530_37_33_2",8530,1,"2009-02-10 15:47:00",385,44,343613,"2009-02-10 14:14:00",379416,247,33,"You'd be amazed at just how ""dumb"" they can be. That other guy had the same thing happen to him. They found a ""shurukin (ninja star or something like that) in his house. That's what they said it was, but the judge did not agree with them (it was in fact a kinfe that circled around that made it look like a shurukin)and they blew that charge off. Also it is not illegal to have ammo and the weapon together. It is just recommended they separate them. So far we have no info on what weapon it was or whether it was truly loaded (like magazine in firearm or bullet in the chamber.) Another guy I meant a while back said he was stopped by cops had a MAK90 (illegal in CA) in his car...he was let go, because apparently the cop thought it was an sks...yup I much faith in them knowing what they are talking about.emoticonXRolleyes
About the bullet in chamber. Most guns when loaded will already have the bullet in the chamber when you pull the slide forward or ""close"" it. Hence it comes about as the same thing. You can, with some guns, take the magazine out but there might be a bullet left in the chamber.",379412,2,8530,1,"Not quite the same thing. 
LAPD alleges that one of the 16 handguns locked under the bed cover was loaded. It doesn't say whether it was a revolver or an auto. I'm pretty sure LAPD officers understand what loaded means. Just having the ammo and weapon together is already illegal, even without the magazine in the weapon. Speaking of facts, where's the evidence that the weapon in question was in fact not loaded?","http://www.4forums.com/political/gun-control-debates/12208-arrested.html",343581,37
"1-8530_39_37_2",8530,1,"2009-02-11 12:55:00",44,385,343719,"2009-02-10 15:47:00",379418,67,37,"Can you take the round out so that the clip is in, slide is forward, but the chamber's empty? I saw that in ""La Femme Nikita"" where she unsuccessfully attempts suicide with Bob's auto. He says he never keeps a round in the chamber in case someone gets your gun and tries to shoot you. Buys a little time.",379416,2,8530,1,"You'd be amazed at just how ""dumb"" they can be. That other guy had the same thing happen to him. They found a ""shurukin (ninja star or something like that) in his house. That's what they said it was, but the judge did not agree with them (it was in fact a kinfe that circled around that made it look like a shurukin)and they blew that charge off. Also it is not illegal to have ammo and the weapon together. It is just recommended they separate them. So far we have no info on what weapon it was or whether it was truly loaded (like magazine in firearm or bullet in the chamber.) Another guy I meant a while back said he was stopped by cops had a MAK90 (illegal in CA) in his car...he was let go, because apparently the cop thought it was an sks...yup I much faith in them knowing what they are talking about.emoticonXRolleyes
About the bullet in chamber. Most guns when loaded will already have the bullet in the chamber when you pull the slide forward or ""close"" it. Hence it comes about as the same thing. You can, with some guns, take the magazine out but there might be a bullet left in the chamber.","http://www.4forums.com/political/gun-control-debates/12208-arrested.html",343613,39
"1-8530_40_39_2",8530,1,"2009-02-11 13:49:00",385,44,343727,"2009-02-11 12:55:00",379419,43,39,"Well yes you can. The slide must be forward though. The gun will not strike the bullet unless unless you pull the slide back to chamber the round. Same thing applies to any other gun that has a magazine.",379418,2,8530,1,"Can you take the round out so that the clip is in, slide is forward, but the chamber's empty? I saw that in ""La Femme Nikita"" where she unsuccessfully attempts suicide with Bob's auto. He says he never keeps a round in the chamber in case someone gets your gun and tries to shoot you. Buys a little time.","http://www.4forums.com/political/gun-control-debates/12208-arrested.html",343719,40
