"key","quote_source_post_discussion_id","posts_dataset_id","posts_timestamp","posts_author_id","quote_source_author_id","posts_native_post_id","quote_source_timestamp","post_text_id","Word_Count","quote_source_post_id","post_text","quote_source_text_id","Dialog_Turn","posts_discussion_id","quote_source_post_dataset_id","Fullquote_text","discussion_url","quote_source_native_post_id","posts_post_id"
"1-8543_111_109_1",8543,1,"2009-01-30 16:18:00",44,153,342431,"2009-01-30 15:08:00",380308,71,109,"Only the 75% of households in the US that don't keep firearms.

The black market that gets its guns from the assembly lines as you. The black market where all the formerly legally registered weapons end up when stolen. The black market fed by unscrupulous licensed dealers more interested in profit than where the guns end up. The black market that is 80% domestically manufactured handguns.",380306,1,8543,1,"Well that's fine foryou, but what you know and what you feel isn't in step with the rest of society.","http://www.4forums.com/political/gun-control-debates/12229-question-anti-gun-self-image.html",342428,111
"1-8543_114_111_1",8543,1,"2009-01-30 17:14:00",153,44,342435,"2009-01-30 16:18:00",380311,188,111,"How did you arrive at that figure? A conservative estimate of firearms possession is 85 million out of 300 million, while a more liberal estimate suggests over 100 million. Both of those numbers are considerably higher than the figure of only 1 in 4 households having a gun.

Please explain. What assembly line do I get my guns from? I've always bought from licensed dealers. I was unaware that it was legal to get your guns directly from the factory that made them without going through a middle man.

So you admit that this problem exists.

What are the names of these dealers and what were the names of their businesses? In this day and age of knowing every possible detail about someone who's broken the law, surely this information and both freely and readily available to the public.
If we know that these corrupt dealers then exist, then some of them have been busted for their crimes, right? If so then what are their personal and business names?

Statistics please?",380308,1,8543,1,"Only the 75% of households in the US that don't keep firearms.

The black market that gets its guns from the assembly lines as you. The black market where all the formerly legally registered weapons end up when stolen. The black market fed by unscrupulous licensed dealers more interested in profit than where the guns end up. The black market that is 80% domestically manufactured handguns.","http://www.4forums.com/political/gun-control-debates/12229-question-anti-gun-self-image.html",342431,114
"1-8543_131_114_1",8543,1,"2009-01-31 12:41:00",44,153,342489,"2009-01-30 17:14:00",380328,80,114,"VPC - Press Release - (04/10/2007) - As NRA Meets in St. Louis, MO, This Week, New Comprehensive Survey Reveals That Gun Ownership Has Declined Dramatically Over Past 35 Years

Yes through middle men both you and criminals get their guns. Both are manufactured in the same places. Mostly in the US.

Only a few prosecutions a year but surprisingly large numbers of weapons moved. Don't you read the news?",380311,1,8543,1,"How did you arrive at that figure? A conservative estimate of firearms possession is 85 million out of 300 million, while a more liberal estimate suggests over 100 million. Both of those numbers are considerably higher than the figure of only 1 in 4 households having a gun.

Please explain. What assembly line do I get my guns from? I've always bought from licensed dealers. I was unaware that it was legal to get your guns directly from the factory that made them without going through a middle man.

So you admit that this problem exists.

What are the names of these dealers and what were the names of their businesses? In this day and age of knowing every possible detail about someone who's broken the law, surely this information and both freely and readily available to the public.
If we know that these corrupt dealers then exist, then some of them have been busted for their crimes, right? If so then what are their personal and business names?

Statistics please?","http://www.4forums.com/political/gun-control-debates/12229-question-anti-gun-self-image.html",342435,131
"1-8543_132_131_1",8543,1,"2009-01-31 14:51:00",153,44,342503,"2009-01-31 12:41:00",380329,158,131,"I've seen that survey, it's wrong. Gun ownership is higher now than it was 35 years ago. And the numbers have grown ever since Obama was the election, turning many people into first time gun owners.

Oh really? Well if criminals are getting their guns through licensed dealers, how come these records of sale aren't being used for the purpose of tracking down gang members who obviously bought their guns legally? Are the police just simply too incompetent to do anything?

So you actually don't have any names, suggesting that nobody has been prosecuted for supplying arms to criminals. If you don't have any names, that means there are no records, and if there are no records that means no charges were filed and nobody's actually gone to trial. That means there's no evidence of any dealers doing anything wrong.
Next argument.",380328,1,8543,1,"VPC - Press Release - (04/10/2007) - As NRA Meets in St. Louis, MO, This Week, New Comprehensive Survey Reveals That Gun Ownership Has Declined Dramatically Over Past 35 Years

Yes through middle men both you and criminals get their guns. Both are manufactured in the same places. Mostly in the US.

Only a few prosecutions a year but surprisingly large numbers of weapons moved. Don't you read the news?","http://www.4forums.com/political/gun-control-debates/12229-question-anti-gun-self-image.html",342489,132
"1-8543_135_132_1",8543,1,"2009-01-31 20:17:00",44,153,342528,"2009-01-31 14:51:00",380332,42,132,"Your turn. Evidence?

Because their sisters and girlfriends bought the guns. Plus there's the stolen weapon market. 

#686: 12-11-03 FEDERALLY LICENSED FIREARMS DEALER, STREET GANG MEMBERS CHARGED FOR ILLEGAL GUN TRAFFICKING CONSPIRACY",380329,1,8543,1,"I've seen that survey, it's wrong. Gun ownership is higher now than it was 35 years ago. And the numbers have grown ever since Obama was the election, turning many people into first time gun owners.

Oh really? Well if criminals are getting their guns through licensed dealers, how come these records of sale aren't being used for the purpose of tracking down gang members who obviously bought their guns legally? Are the police just simply too incompetent to do anything?

So you actually don't have any names, suggesting that nobody has been prosecuted for supplying arms to criminals. If you don't have any names, that means there are no records, and if there are no records that means no charges were filed and nobody's actually gone to trial. That means there's no evidence of any dealers doing anything wrong.
Next argument.","http://www.4forums.com/political/gun-control-debates/12229-question-anti-gun-self-image.html",342503,135
"1-8543_139_135_1",8543,1,"2009-02-01 08:43:00",153,44,342564,"2009-01-31 20:17:00",380336,90,135,"Well there you have it right there, the system is working; people break the law, they get caught and they get brought to justice. So what're you complaining about? Do you want it to be impossible for the laws to be broken? Do you want to shield the criminals from being apprehended and instead leave them free to roam the streets and remain in general public, through the process of making it not possible for them to get caught breaking the laws?",380332,1,8543,1,"Your turn. Evidence?

Because their sisters and girlfriends bought the guns. Plus there's the stolen weapon market. 

#686: 12-11-03 FEDERALLY LICENSED FIREARMS DEALER, STREET GANG MEMBERS CHARGED FOR ILLEGAL GUN TRAFFICKING CONSPIRACY","http://www.4forums.com/political/gun-control-debates/12229-question-anti-gun-self-image.html",342528,139
"1-8543_147_139_1",8543,1,"2009-02-02 08:09:00",44,153,342643,"2009-02-01 08:43:00",380344,41,139,"How do we know that any significant percentage of these crooked dealers are being prosecuted?
The rest of your convoluted post makes little sense to me. ""...the process of making it not possible..."" WTH?",380336,1,8543,1,"Well there you have it right there, the system is working; people break the law, they get caught and they get brought to justice. So what're you complaining about? Do you want it to be impossible for the laws to be broken? Do you want to shield the criminals from being apprehended and instead leave them free to roam the streets and remain in general public, through the process of making it not possible for them to get caught breaking the laws?","http://www.4forums.com/political/gun-control-debates/12229-question-anti-gun-self-image.html",342564,147
"1-8543_148_147_1",8543,1,"2009-02-02 09:49:00",153,44,342666,"2009-02-02 08:09:00",380345,100,147,"The claim is that most of the weapons on the streets are coming from a group of crooked dealers that make up 1% of all FFLs. How many FFLs are there in the country at the moment? What's 1% of that number?

Well they have to break the law and be caught in the process of doing it so we can shut them down. But if you try and put them in a squeeze play that undermines the power and authority of the ATF then you're in turn shielding the criminals from ever getting caught.",380344,1,8543,1,"How do we know that any significant percentage of these crooked dealers are being prosecuted?
The rest of your convoluted post makes little sense to me. ""...the process of making it not possible..."" WTH?","http://www.4forums.com/political/gun-control-debates/12229-question-anti-gun-self-image.html",342643,148
"1-8543_123_121_2",8543,1,"2009-01-30 21:07:00",153,435,342450,"2009-01-30 20:28:00",380320,174,121,"I'm sticking to reality, you and your party are the ones that keep diverting off to the side and confusing the issue.

The point is that the claim ""if this didn't exist"" doesn't work in the real world and should be abandoned entirely. Stop whining about ""if guns didn't exist"" because they're gonna continue to exist for many, many years. A large number of guns from 300 years ago still work today despite their age, and their overall quality was poor compared to today. The guns of the modern age are made of superior quality materials and crafting techniques, they might work 500 years from now.

First, define exactly what you consider ""sufficient regulation"". Second, you're wrong, no school shooting has been stopped by the tight regulation of firearms, the only time a school shooting has been stopped from reaching high levels is either when the active shooter has been killed or incapacitated.",380318,2,8543,1,"If you stuck to reality instead of diverting into these strawman rants, then I suppose your entertainment value would be less. The point is not sickness patterns, but lethal lead patterns, which occurrence is minimised by sufficient regulation.","http://www.4forums.com/political/gun-control-debates/12229-question-anti-gun-self-image.html",342448,123
"1-8543_129_123_2",8543,1,"2009-01-31 09:38:00",435,153,342477,"2009-01-30 21:07:00",380326,57,123,"Your reality must be different from the rest of us. That's why you went off about people being ill?

Irrelevant. Show where your imaginary ""If guns didn't exist"" claim was made in this thread by anyone but yourself, and that the quality of manufacture lessens the lethality of a gun.",380320,2,8543,1,"I'm sticking to reality, you and your party are the ones that keep diverting off to the side and confusing the issue.

The point is that the claim ""if this didn't exist"" doesn't work in the real world and should be abandoned entirely. Stop whining about ""if guns didn't exist"" because they're gonna continue to exist for many, many years. A large number of guns from 300 years ago still work today despite their age, and their overall quality was poor compared to today. The guns of the modern age are made of superior quality materials and crafting techniques, they might work 500 years from now.

First, define exactly what you consider ""sufficient regulation"". Second, you're wrong, no school shooting has been stopped by the tight regulation of firearms, the only time a school shooting has been stopped from reaching high levels is either when the active shooter has been killed or incapacitated.","http://www.4forums.com/political/gun-control-debates/12229-question-anti-gun-self-image.html",342450,129
"1-8543_130_129_2",8543,1,"2009-01-31 09:56:00",153,435,342478,"2009-01-31 09:38:00",380327,144,129,"Simply pointing out the fallacy of the tired of ""if nobody had guns"" and the ""if guns didn't exist"" type of arguing.
After all, if alcohol didn't exist then nobody would drive drunk.
If motor vehicles didn't exist then nobody would die from hit and run accidents.
If money didn't exist then nobody would be poor.
If computers and cameras didn't exist then nobody could exploit children in a sexual manner.
If flammable chemicals didn't exist then nobody could commit arson.
Do you see the fallacy of the whole ""if it didn't exist"" argument now?

Post #119.

Just because you dress it up in a different wording doesn't change the meaning of the phrase, it's still the tired old claim of ""if guns didn't exist...""",380326,2,8543,1,"Your reality must be different from the rest of us. That's why you went off about people being ill?

Irrelevant. Show where your imaginary ""If guns didn't exist"" claim was made in this thread by anyone but yourself, and that the quality of manufacture lessens the lethality of a gun.","http://www.4forums.com/political/gun-control-debates/12229-question-anti-gun-self-image.html",342477,130
"1-8543_133_130_2",8543,1,"2009-01-31 14:59:00",435,153,342504,"2009-01-31 09:56:00",380330,58,130,"Yes I did, why do you keep repeating it as above?

No, the strawman phrase you quoted is not there, try again.

Unlike you I understand the meaning of the words I use, and do not subsequently rephrase what is actually said into something different,as you have done here.",380327,2,8543,1,"Simply pointing out the fallacy of the tired of ""if nobody had guns"" and the ""if guns didn't exist"" type of arguing.
After all, if alcohol didn't exist then nobody would drive drunk.
If motor vehicles didn't exist then nobody would die from hit and run accidents.
If money didn't exist then nobody would be poor.
If computers and cameras didn't exist then nobody could exploit children in a sexual manner.
If flammable chemicals didn't exist then nobody could commit arson.
Do you see the fallacy of the whole ""if it didn't exist"" argument now?

Post #119.

Just because you dress it up in a different wording doesn't change the meaning of the phrase, it's still the tired old claim of ""if guns didn't exist...""","http://www.4forums.com/political/gun-control-debates/12229-question-anti-gun-self-image.html",342478,133
"1-8543_134_133_2",8543,1,"2009-01-31 17:00:00",153,435,342513,"2009-01-31 14:59:00",380331,212,133,"You said that ""If the killer had not had access to a gun, as in Oz and the UK, 32 people would not only be safe, but alive."" The question is how would you come to this?
First, you mention the UK, where absolutely nobody can own a handgun, suggesting a total ban on ownership or possession is what you believe would be an answer. The only way to ensure that is to destroy them, meaning that they would no longer exist.
How could the killer have not had access in the first place? He was never entered into the system, meaning that he could pass any background check that came up, just like most Americans. So unless you're talking about reforming the system, like the NICS Improvement Act was supposed to do, you're obviously talking about denying people their right to own guns in the first place.
Maybe I was wrong, maybe you weren't resorting to the tired of rhetoric of ""if guns didn't exist..."" maybe instead you were referring to ""if nobody could ever own a gun..."" which is just as bad.",380330,2,8543,1,"Yes I did, why do you keep repeating it as above?

No, the strawman phrase you quoted is not there, try again.

Unlike you I understand the meaning of the words I use, and do not subsequently rephrase what is actually said into something different,as you have done here.","http://www.4forums.com/political/gun-control-debates/12229-question-anti-gun-self-image.html",342504,134
"1-8543_150_143_3",8543,1,"2009-02-02 12:29:00",1069,153,342685,"2009-02-01 20:15:00",380347,29,143,"The thread entire.

Because airports are private property? Because the logistics of scanning over 400,000 commuters every day, plus tourists, etc, is near-impossible?",380340,3,8543,1,"We have such programs at every single airport. Nobody can fly without being searched, deprived of all liquid items over three ounces, have their shoes checked and their luggage x-rayed. This goes on every single day. If we can do that at airports why can't we implement a similar procedure for an entire city?
If such security measures wouldn't pass constitutional muster when it comes to the security of a city, then how can they be constitutional on a local level at airports?","http://www.4forums.com/political/gun-control-debates/12229-question-anti-gun-self-image.html",342621,150
"1-8543_151_150_3",8543,1,"2009-02-02 13:45:00",153,1069,342692,"2009-02-02 12:29:00",380348,158,150,"Cute, but not quite. The claim is that we want everybody to have guns. So I'd like to see some proof that gun owners have called for the repealing of the federal age limit that covers the purchase of firearms, and for the prohibited persons list that keeps felons, the insane, the drug addicted, and those that beat their wives, from legally buying guns.
If those of my chosen party have made the claims that we want criminals, terrorists and the others in these categories to have guns, then I'd like to see them. Otherwise the claim that we want everybody armed is nothing more than a lie.

The private property of whom?

We have security stops along the Mexican/American border to search for drugs and other contraband. How is it not possible on the way to and from DC?",380347,3,8543,1,"The thread entire.

Because airports are private property? Because the logistics of scanning over 400,000 commuters every day, plus tourists, etc, is near-impossible?","http://www.4forums.com/political/gun-control-debates/12229-question-anti-gun-self-image.html",342685,151
"1-8543_153_151_3",8543,1,"2009-02-02 14:47:00",1069,153,342702,"2009-02-02 13:45:00",380350,154,151,"Simple answer? DC has a lot less budget than the USA government.
More complex answer? Just looking at the commuters, there are over 400,000 people that come to work in DC every day (see link in my last post). Making the preposterous assumption that they all come in at a constant flow, just looking at 400,000 of them and assuming that you would only check them coming in, that's ~4.6 people admitted per second for every second of the working week.
Good luck with that. Good luck with convincing people that it's constitutional, as well - airports get away with it, but only because there is such a (largely unfounded) fear of death by terrorist that they can get away with something which is constitutionally shady. A quick search gave me two relevant results almost immediately.",380348,3,8543,1,"Cute, but not quite. The claim is that we want everybody to have guns. So I'd like to see some proof that gun owners have called for the repealing of the federal age limit that covers the purchase of firearms, and for the prohibited persons list that keeps felons, the insane, the drug addicted, and those that beat their wives, from legally buying guns.
If those of my chosen party have made the claims that we want criminals, terrorists and the others in these categories to have guns, then I'd like to see them. Otherwise the claim that we want everybody armed is nothing more than a lie.

The private property of whom?

We have security stops along the Mexican/American border to search for drugs and other contraband. How is it not possible on the way to and from DC?","http://www.4forums.com/political/gun-control-debates/12229-question-anti-gun-self-image.html",342692,153
"1-8543_156_153_3",8543,1,"2009-02-02 15:21:00",153,1069,342709,"2009-02-02 14:47:00",380353,128,153,"But the USA government is located in DC itself.

And it's reasons like that, that local prohibitions are nothing more than a waste of time and money and shouldn't be attempted, because actually trying to enforce it will be impossible. Local prohibitions rely on the honor system, and we all know how many honor murderers and gang members have to those who aren't in their specific group.

And yet nobody seems to be afraid of a suicide bomber blowing themselves up in the security line during that two hour wait, and taking out as many innocent people as possible. Things move so slow inside the airport that everybody is a target.

Well that's good news for many people.",380350,3,8543,1,"Simple answer? DC has a lot less budget than the USA government.
More complex answer? Just looking at the commuters, there are over 400,000 people that come to work in DC every day (see link in my last post). Making the preposterous assumption that they all come in at a constant flow, just looking at 400,000 of them and assuming that you would only check them coming in, that's ~4.6 people admitted per second for every second of the working week.
Good luck with that. Good luck with convincing people that it's constitutional, as well - airports get away with it, but only because there is such a (largely unfounded) fear of death by terrorist that they can get away with something which is constitutionally shady. A quick search gave me two relevant results almost immediately.","http://www.4forums.com/political/gun-control-debates/12229-question-anti-gun-self-image.html",342702,156
"1-8543_160_156_3",8543,1,"2009-02-02 16:21:00",1069,153,342716,"2009-02-02 15:21:00",380357,76,156,"So? The EU is located in Brussels, and the UK government is located in London. That doesn't mean that all of the money is spent on local issues.

Source?
It's entirely probable. However, to repeat yet again, no-one is claiming that gun control will prevent all gun crime - the black market included. What it will do is reduce supply - which is the whole point.",380353,3,8543,1,"But the USA government is located in DC itself.

And it's reasons like that, that local prohibitions are nothing more than a waste of time and money and shouldn't be attempted, because actually trying to enforce it will be impossible. Local prohibitions rely on the honor system, and we all know how many honor murderers and gang members have to those who aren't in their specific group.

And yet nobody seems to be afraid of a suicide bomber blowing themselves up in the security line during that two hour wait, and taking out as many innocent people as possible. Things move so slow inside the airport that everybody is a target.

Well that's good news for many people.","http://www.4forums.com/political/gun-control-debates/12229-question-anti-gun-self-image.html",342709,160
"1-8543_162_160_3",8543,1,"2009-02-02 16:38:00",153,1069,342719,"2009-02-02 16:21:00",380359,23,160,"But how much was it reduced though? What evidence supports the claim that fewer illegal importations have gotten into Great Britain?",380357,3,8543,1,"It's entirely probable. However, to repeat yet again, no-one is claiming that gun control will prevent all gun crime - the black market included. What itwill do is reduce supply - which is the whole point.","http://www.4forums.com/political/gun-control-debates/12229-question-anti-gun-self-image.html",342716,162
"1-8543_164_162_3",8543,1,"2009-02-02 16:51:00",1069,153,342721,"2009-02-02 16:38:00",380361,135,162,"It's not illegal importations which is the claim, it is all importations. Seeing as in the past prohibition of an item has resulted in a reduced supply of that item, I'd say it was just as much your burden to show that there's been an increase as it is mine to quantify the decrease. Without data either way - which I'm guessing neither of us have at the moment, as I don't have the time to run a search at the moment - all we are left with is the history of events such as the Prohibition.
...and before you say anything, the Prohibition did cut down on alcohol supply - it's simply that the home-brewed alternative ended up harming more people than the legal original.",380359,3,8543,1,"But how much was it reduced though? What evidence supports the claim that fewer illegal importations have gotten into Great Britain?","http://www.4forums.com/political/gun-control-debates/12229-question-anti-gun-self-image.html",342719,164
