"key","quote_source_post_discussion_id","posts_dataset_id","posts_timestamp","posts_author_id","quote_source_author_id","posts_native_post_id","quote_source_timestamp","post_text_id","Word_Count","quote_source_post_id","post_text","quote_source_text_id","Dialog_Turn","posts_discussion_id","quote_source_post_dataset_id","Fullquote_text","discussion_url","quote_source_native_post_id","posts_post_id"
"1-8616_17_16_1",8616,1,"2009-02-13 08:58:00",153,44,343915,"2009-02-13 08:37:00",384337,29,16,"What's so psychologically unhealthy about the shooting sports?

Pretend killing? Is that what it's being called now? Where exactly does the killing part come from?",384336,1,8616,1,"Different strokes I suppose. Many would argue that there are psychologically healthier sports for young people. Pretend killing is something my wife particularly loathes. I'm partial to martial arts but killing isn't really a big part of that.","http://www.4forums.com/political/gun-control-debates/12340-changing-culture-violence-key.html",343912,17
"1-8616_18_17_1",8616,1,"2009-02-13 09:05:00",44,153,343916,"2009-02-13 08:58:00",384338,97,17,"Nothing as far as target shooting or even hunting as far as I'm concerned. But simulating combat is another matter.

You've never seen kids play games that involve the idea of killing the other kid? Cops and robbers. Cowboys and Indians. Many parents don't allow their kids to play such games. My wife won't allow toy guns in the house. Neither will our local schools, daycare centers, etc. 
We are talking about changing the culture of violence. Guns have played a large role in that culture.",384337,1,8616,1,"What's so psychologically unhealthy about the shooting sports?

Pretend killing? Is that what it's being called now? Where exactly does the killing part come from?","http://www.4forums.com/political/gun-control-debates/12340-changing-culture-violence-key.html",343915,18
"1-8616_19_18_1",8616,1,"2009-02-13 09:15:00",153,44,343918,"2009-02-13 09:05:00",384339,92,18,"Can you show that a large percentage of the mass murderers in the last 20 years were raised around guns and taught shooting at a young age and other such stuff?
Anytime I look around all the infamous killers are inner city kids who never held a gun before in their lives until they decided that they wanted to go down in history as the one who killed the most. They had no prior experience, so I highly doubt access to firearms is the true source of blame.",384338,1,8616,1,"Nothing as far as target shooting or even hunting as far as I'm concerned. But simulating combat is another matter.

You've never seen kids play games that involve the idea of killing the other kid? Cops and robbers. Cowboys and Indians. Many parents don't allow their kids to play such games. My wife won't allow toy guns in the house. Neither will our local schools, daycare centers, etc. 
We are talking about changing the culture of violence. Guns have played a large role in that culture.","http://www.4forums.com/political/gun-control-debates/12340-changing-culture-violence-key.html",343916,19
"1-8616_20_19_1",8616,1,"2009-02-13 09:57:00",44,153,343924,"2009-02-13 09:15:00",384340,87,19,"I never mentioned anything about mass murderers. 

No previous experience with guns but access isn't an issue? You should listen to yourself sometime.
""The fact that most mass murders occur in rural areas has led experts to believe they are the result of families living in isolated surroundings. Some say that contributing to the mayhem is the ""settler"" mentality which has bred a macho culture, in which men can only express their anger through extreme violence.""
http://www.mayhem.net/Crime/murder2.html",384339,1,8616,1,"Can you show that a large percentage of the mass murderers in the last 20 years were raised around guns and taught shooting at a young age and other such stuff?
Anytime I look around all the infamous killers are inner city kids who never held a gun before in their lives until they decided that they wanted to go down in history as the one who killed the most. They had no prior experience, so I highly doubt access to firearms is the true source of blame.","http://www.4forums.com/political/gun-control-debates/12340-changing-culture-violence-key.html",343918,20
"1-8616_23_20_1",8616,1,"2009-02-13 11:07:00",153,44,343934,"2009-02-13 09:57:00",384343,74,20,"Because it's a losing argument for you.

Access in big cities is much more regulated than in rural areas. Yet the city boys who don't grow up shooting and can't get a gun without a lot of red tape tend to be the ones who kill more often than anyone from the country.

Get me a list to show how many killers came from urban environments as opposed to rural.",384340,1,8616,1,"I never mentioned anything about mass murderers. 

No previous experience with guns but access isn't an issue? You should listen to yourself sometime.
""The fact that most mass murders occur in rural areas has led experts to believe they are the result of families living in isolated surroundings. Some say that contributing to the mayhem is the ""settler"" mentality which has bred a macho culture, in which men can only express their anger through extreme violence.""
http://www.mayhem.net/Crime/murder2.html","http://www.4forums.com/political/gun-control-debates/12340-changing-culture-violence-key.html",343924,23
