"key","quote_source_post_discussion_id","posts_dataset_id","posts_timestamp","posts_author_id","quote_source_author_id","posts_native_post_id","quote_source_timestamp","post_text_id","Word_Count","quote_source_post_id","post_text","quote_source_text_id","Dialog_Turn","posts_discussion_id","quote_source_post_dataset_id","Fullquote_text","discussion_url","quote_source_native_post_id","posts_post_id"
"1-8860_7_6_1",8860,1,"2009-05-07 15:52:00",758,44,352847,"2009-05-07 15:31:00",394872,128,6,"(b) Arsenal License.--Section 923 of title 18, United States Code, as
amended by section 203(b), is amended by adding at the end the following new
subsection:
""(2) The holder of an arsenal license shall be subject to all obligations
and requirements pertaining to licensed dealers under this chapter."".
Section 923(g)(1)(B)(ii) of title 18, United States Code, is amended by
striking ""once during any twelve-month period"" and inserting ""3 times during
any 12-month period, or at any time with respect to records relating to a
firearm involved in a criminal investigation"".
",394871,1,8860,1,"Could you cite the portion of the Brady II that would authorize these unannounced searches?","http://www.4forums.com/political/gun-control-debates/12676-resonable-gun-control.html",352844,7
"1-8860_8_7_1",8860,1,"2009-05-07 16:46:00",44,758,352855,"2009-05-07 15:52:00",394873,145,7,"Thank you.
SEC. 110304. INSPECTION OF FIREARMS LICENSEES' INVENTORY AND RECORDS.
Section 923(g)(1)(B)(ii) of title 18, United States Code, is amended
to read as follows:
`(ii) for ensuring compliance with the record keeping
requirements of this chapter--
`(I) not more than once during any 12-month
period; or
`(II) at any time with respect to records relating
to a firearm involved in a criminal investigation
that is traced to the licensee.'.
sinjin - So the ""at any time"" portion applies only to ""a firearm involved in a criminal investigation"".

So this scenario is really nothing more than a bit of hysterical scare-mongering, isn't it?",394872,1,8860,1,"(b) Arsenal License.--Section 923 of title 18, United States Code, as
amended by section 203(b), is amended by adding at the end the following new
subsection:
""(2) The holder of an arsenal license shall be subject to all obligations
and requirements pertaining to licensed dealers under this chapter."".
Section 923(g)(1)(B)(ii) of title 18, United States Code, is amended by
striking ""once during any twelve-month period"" and inserting ""3 times during
any 12-month period, or at any time with respect to records relating to a
firearm involved in a criminal investigation"".
","http://www.4forums.com/political/gun-control-debates/12676-resonable-gun-control.html",352847,8
"1-8860_9_8_1",8860,1,"2009-05-07 16:58:00",758,44,352859,"2009-05-07 16:46:00",394874,40,8,"Nice try or did you miss the or? With the BATFE's track record there is no scare mongering. Or did you think they send you a card saying you have a 2 PM appointment on the 14th? ",394873,1,8860,1,"Thank you.
SEC. 110304. INSPECTION OF FIREARMS LICENSEES' INVENTORY AND RECORDS.
Section 923(g)(1)(B)(ii) of title 18, United States Code, is amended
to read as follows:
`(ii) for ensuring compliance with the record keeping
requirements of this chapter--
`(I) not more than once during any 12-month
period; or
`(II) at any time with respect to records relating
to a firearm involved in a criminal investigation
that is traced to the licensee.'.
sinjin - So the ""at any time"" portion applies only to ""a firearm involved in a criminal investigation"".

So this scenario is really nothing more than a bit of hysterical scare-mongering, isn't it?","http://www.4forums.com/political/gun-control-debates/12676-resonable-gun-control.html",352855,9
"1-8860_12_9_1",8860,1,"2009-05-07 17:07:00",44,758,352865,"2009-05-07 16:58:00",394877,53,9,"I didn't miss anything.
or
`(II) at any time with respect to records relating
to a firearm involved in a criminal investigation
that is traced to the licensee.'.
When are most gun dealer's licenses inspected? In the middle of the night? Get real.",394874,1,8860,1,"Nice try or did you miss the or? With the BATFE's track record there is no scare mongering. Or did you think they send you a card saying you have a 2 PM appointment on the 14th? ","http://www.4forums.com/political/gun-control-debates/12676-resonable-gun-control.html",352859,12
"1-8860_15_12_1",8860,1,"2009-05-07 17:17:00",758,44,352870,"2009-05-07 17:07:00",394880,92,12,"Evidently you did because you keep skipping over it. `(I) not more than once during any 12-month
period; or
That means 3 times per year or any time they investigate.
You are not a dealer just having to comply with all their requirements. Untill you can show exactly where it states ""only during business hours"" you are out to lunch. You should know better being a civil servant. If it is not specificly forbidden it is fair game. 
",394877,1,8860,1,"I didn't miss anything.
or
`(II) at any time with respect to records relating
to a firearm involved in a criminal investigation
that is traced to the licensee.'.
When are most gun dealer's licenses inspected? In the middle of the night? Get real.","http://www.4forums.com/political/gun-control-debates/12676-resonable-gun-control.html",352865,15
"1-8860_16_15_1",8860,1,"2009-05-07 17:26:00",44,758,352872,"2009-05-07 17:17:00",394881,53,15,"Yes, at any time when they are investigating a firearm used in a crime that is yours. What of it?

Until you can show that, in the absence of any criminal investigation, one could still expect a midnight visit crashing down your door, you're propagating hysteria.",394880,1,8860,1,"Evidently you did because you keep skipping over it. `(I) not more than once during any 12-month
period; or
That means 3 times per year or any time they investigate.
You are not a dealer just having to comply with all their requirements. Untill you can show exactly where it states ""only during business hours"" you are out to lunch. You should know better being a civil servant. If it is not specificly forbidden it is fair game. 
","http://www.4forums.com/political/gun-control-debates/12676-resonable-gun-control.html",352870,16
"1-8860_17_16_1",8860,1,"2009-05-07 17:50:00",758,44,352877,"2009-05-07 17:26:00",394882,118,16,"Now you are being obtuse on purpose. It is 3 times a year they can inspect you. It doesn't state only during business hours. Not any time they are investigating a crime. That is over and above the 3 visits. 
Maybe you think they are all nice guys but I wouldn't want one marrying my sister. Beside you don't get to define the situation. 
ATF abuse
BATF and the Night of Terror
BATF Jihad Against Custom Gunsmiths
Armed and Safe: The ATF--the legacy of abuse continues
Abuses of the Bureau of Alcohol, Tobacco, and Firearms
Abuses of the Bureau of Alcohol, Tobacco, and Firearms
",394881,1,8860,1,"Yes, at any time when they are investigating a firearm used in a crime that is yours. What of it?

Until you can show that, in the absence of any criminal investigation, one could still expect a midnight visit crashing down your door, you're propagating hysteria.","http://www.4forums.com/political/gun-control-debates/12676-resonable-gun-control.html",352872,17
"1-8860_13_11_2",8860,1,"2009-05-07 17:08:00",758,44,352866,"2009-05-07 17:06:00",394878,23,11,"Does it say that in the proposed law? In a word no, its entirely up to the boyos of Waco.",394876,2,8860,1,"Yes they can, but not ""at any time"". Sounds like you'd be given fair warning they're coming. What's wrong with demonstrating you still have all your guns and the supporting paperwork?","http://www.4forums.com/political/gun-control-debates/12676-resonable-gun-control.html",352864,13
"1-8860_14_13_2",8860,1,"2009-05-07 17:11:00",44,758,352867,"2009-05-07 17:08:00",394879,40,13,"I don't know who you mean in all honesty but you're beginning to sound like your typing from some compound somewhere. 
Are you defending David Koresh. Do you know what he was up to? Jesus man.",394878,2,8860,1,"Does it say that in the proposed law? In a word no, its entirely up to the boyos of Waco.","http://www.4forums.com/political/gun-control-debates/12676-resonable-gun-control.html",352866,14
"1-8860_18_14_2",8860,1,"2009-05-07 17:55:00",758,44,352878,"2009-05-07 17:11:00",394883,48,14,"Don't put words in my mouth. Did I state I was defending him? Not to mentiopn that is a strawman and its on fire. Yes the BATFE and FBI saved the children by making them into crispy critters. Your tax dollars at work. ",394879,2,8860,1,"I don't know who you mean in all honesty but you're beginning to sound like your typing from some compound somewhere. 
Are you defending David Koresh. Do you know what he was up to? Jesus man.","http://www.4forums.com/political/gun-control-debates/12676-resonable-gun-control.html",352867,18
"1-8860_19_18_2",8860,1,"2009-05-07 18:05:00",44,758,352879,"2009-05-07 17:55:00",394884,20,18,"The fault is the cult's, not those that came to enforce the law and were met with gunfire.",394883,2,8860,1,"Don't put words in my mouth. Did I state I was defending him? Not to mentiopn that is a strawman and its on fire. Yes the BATFE and FBI saved the children by making them into crispy critters. Your tax dollars at work. ","http://www.4forums.com/political/gun-control-debates/12676-resonable-gun-control.html",352878,19
"1-8860_21_19_2",8860,1,"2009-05-07 18:19:00",758,44,352883,"2009-05-07 18:05:00",394886,19,19,"Not to forget the BATFE went in with blazing guns. And what crimes did the children commit? ",394884,2,8860,1,"The fault is the cult's, not those that came to enforce the law and were met with gunfire.","http://www.4forums.com/political/gun-control-debates/12676-resonable-gun-control.html",352879,21
"1-8860_45_43_3",8860,1,"2009-05-08 11:33:00",44,2104,352983,"2009-05-08 11:03:00",394910,41,43,"What is a ""special privilege against"". Do I think firearms require more responsible handling and safety precautions than tableware? Yes.

I do secure household poisons and I don't advocate confiscation of all firearms. Next?",394908,3,8860,1,"Sinjin wants Special Privileges against the 2nd Amendment. He acknowledges that other things are dangerous, but does not advocate Safe Storage for them. Household poisons, propane used to make bombs, Knives Forks nor anything else. England even went as far as banning knives and swords, so I know that this is not just BS. He just wants a special Privilege against the 2nd Amendment.
I say lead by example. Sinjin do you lock up all of these? Why Not! When unattended, I think you should be made to lock them all up. And if you don't, punishment will be administered. I do not advocate Jail time, but you better watch out. I think OldSarge does! 
It is funny that we do we hear a peep out of the Anti-gunners about all of this below. Why? Because it did not happen with a gun! 
  From a study by the U of Tennessee medical school 
It should be noted that accidents with guns is way down as compared with the time of the writing of this.
  Firearm-Related Fatalities at Record Lows; -- Accidents Among Youths Down Significantly 
","http://www.4forums.com/political/gun-control-debates/12676-resonable-gun-control.html",352975,45
"1-8860_46_45_3",8860,1,"2009-05-08 11:45:00",2104,44,352989,"2009-05-08 11:33:00",394911,79,45,"England   Doctors' kitchen knives ban call 
  Britain to ban samurai swords! 

You asked me to humor you. You did not ask me to lay down while you walk roughshod over the 2nd Amendment. I am going to fight your Unconstitutional infringements!
But No. I mean Lock up, in a safe that I will consider worthy. Like you want us to do with your special privilege laws against the 2nd amendment.",394910,3,8860,1,"What is a ""special privilege against"". Do I think firearms require more responsible handling and safety precautions than tableware? Yes.

I do secure household poisons and I don't advocate confiscation of all firearms. Next?","http://www.4forums.com/political/gun-control-debates/12676-resonable-gun-control.html",352983,46
"1-8860_47_46_3",8860,1,"2009-05-08 11:50:00",44,2104,352990,"2009-05-08 11:45:00",394912,84,46,"Yes, I asked you to tell me what's unreasonable about your firearms being locked up when you're not home. You still haven't answered.
I asked what's unreasonable about registering all handguns and requiring the fingerprints and photos of purchasers? You still haven't answered. 
""I don't answer to the help"" is unresponsive IMO.

I will answer just as you show me statistics relating to household chemicals being stolen and subsequently used in the commission of crimes.",394911,3,8860,1,"England   Doctors' kitchen knives ban call 
  Britain to ban samurai swords! 

You asked me to humor you. You did not ask me to lay down while you walk roughshod over the 2nd Amendment. I am going to fight your Unconstitutional infringements!
But No. I mean Lock up, in a safe that I will consider worthy. Like you want us to do with your special privilege laws against the 2nd amendment.","http://www.4forums.com/political/gun-control-debates/12676-resonable-gun-control.html",352989,47
"1-8860_48_47_3",8860,1,"2009-05-08 12:04:00",2104,44,352994,"2009-05-08 11:50:00",394913,11,47,"I haven't answered? First of all you actually asked: 


",394912,3,8860,1,"Yes, I asked you to tell me what's unreasonable about your firearms being locked up when you're not home. You still haven't answered.
I asked what's unreasonable about registering all handguns and requiring the fingerprints and photos of purchasers? You still haven't answered. 
""I don't answer to the help"" is unresponsive IMO.

I will answer just as you show me statistics relating to household chemicals being stolen and subsequently used in the commission of crimes.","http://www.4forums.com/political/gun-control-debates/12676-resonable-gun-control.html",352990,48
"1-8860_49_48_3",8860,1,"2009-05-08 12:14:00",44,2104,352995,"2009-05-08 12:04:00",394914,64,48,"The first post responding to your mention of my proposals was this:

You digression into law suits or your inability to get insurance, jail time or poor people is diversionary.
I simply asked what is unreasonable about securing your firearms... period.
Stop bringing a bunch of other things into it to avoid having to give a simple answer.",394913,3,8860,1,"I haven't answered? First of all you actually asked: 


","http://www.4forums.com/political/gun-control-debates/12676-resonable-gun-control.html",352994,49
"1-8860_51_49_3",8860,1,"2009-05-08 12:22:00",2104,44,352997,"2009-05-08 12:14:00",394916,7,49,"Ah yes, but then I said 
",394914,3,8860,1,"The first post responding to your mention of my proposals was this:

You digression into law suits or your inability to get insurance, jail time or poor people is diversionary.
I simply asked what is unreasonable about securing your firearms... period.
Stop bringing a bunch of other things into it to avoid having to give a simple answer.","http://www.4forums.com/political/gun-control-debates/12676-resonable-gun-control.html",352995,51
"1-8860_53_51_3",8860,1,"2009-05-08 12:34:00",44,2104,353001,"2009-05-08 12:22:00",394918,10,51,"I still don't understand what the hell you meant.",394916,3,8860,1,"Ah yes, but then I said 
","http://www.4forums.com/political/gun-control-debates/12676-resonable-gun-control.html",352997,53
"1-8860_54_50_4",8860,1,"2009-05-08 12:36:00",44,2104,353003,"2009-05-08 12:18:00",394919,9,50,"And when stumped you quickly resort to insult.",394915,4,8860,1,"You didn't ask me. First problem. You changed from all guns, to now just Handguns. LOOPHOLE! These Scum Bags Have a loophole! 
Just like Sarah Brady. All we are asking is for a background check when someone buys a handgun. That is all we are asking. Now what do we have.
I seriously do not trust Anti-gun people further than I can throw them. All you are looking for is a way in! A first step to build upon. 

Well when God assigns you to give me my opinions, I'll take notice. But unless he does or if he does, they are called my opinions! Only he helps me with my ideas and opinions. Sorry man, just another example of you overstepping your boundaries. :)

I guess you want a special Privilege against the 2nd amendment then. Which ends up to be something you are not willing to do for the safety of our society, yourself. We have a word for that. What do we call someone like that, Boys and Girls? 
Now you might have an idea what our objection to your 2nd Amendment Special privilege might be.","http://www.4forums.com/political/gun-control-debates/12676-resonable-gun-control.html",352996,54
"1-8860_57_54_4",8860,1,"2009-05-08 12:59:00",2104,44,353012,"2009-05-08 12:36:00",394922,79,54,"You mean that after listening you lay out the same thing 5 times before, but this time I am stumped? No I am just tired.
Sorry sir, it is hypocritical, and you do not allow, nor do you care about my point of view either. I would have to conclude that the feelings are pretty much mutual! 
You can keep the Change and I will keep my Constitutional Rights! emoticonXSmilie",394919,4,8860,1,"And when stumped you quickly resort to insult.","http://www.4forums.com/political/gun-control-debates/12676-resonable-gun-control.html",353003,57
"1-8860_58_57_4",8860,1,"2009-05-08 13:03:00",44,2104,353015,"2009-05-08 12:59:00",394923,61,57,"No, I mean that you are unable to make a case that household chemicals present the same threat to society as firearms. I too find it tiresome to have to do battle with three or four of you simultaneously, all the while absorbing insults and dealing with hypothetical scenarios for which there is no clear likelihood indicated.",394922,4,8860,1,"You mean that after listening you lay out the same thing 5 times before, but this time I am stumped? No I am just tired.
Sorry sir, it is hypocritical, and you do not allow, nor do you care about my point of view either. I would have to conclude that the feelings are pretty much mutual! 
You can keep the Change and I will keep my Constitutional Rights! emoticonXSmilie","http://www.4forums.com/political/gun-control-debates/12676-resonable-gun-control.html",353012,58
"1-8860_59_58_4",8860,1,"2009-05-08 13:16:00",2104,44,353019,"2009-05-08 13:03:00",394924,186,58,"Lets see if I can put this the best way. It's the Constitution. It is not to be treated as lightly as one does non Constitutionally protected things.
There are approximately 300 Million firearms. Less then even one percent will ever be used in a crime. You only want to bring into our attention the bad that happens, and ignore the benefit they bring. You also want to ignore the fact that making a deal with you is not something that will be written in stone! If it were to come before the legislature, it will not be what you and we agree upon. These are some serious differences. 
Once a law is made it sets a standard for more and strengthening process to begin. But don't just take my word for that. 
  Nelson T. 'Pete' Shields Founder of Handgun Control, Inc.
I'm sorry Sinjin. I believe him! In all reality, what you want will not stop them, or mean squat to them either!",394923,4,8860,1,"No, I mean that you are unable to make a case that household chemicals present the same threat to society as firearms. I too find it tiresome to have to do battle with three or four of you simultaneously, all the while absorbing insults and dealing with hypothetical scenarios for which there is no clear likelihood indicated.","http://www.4forums.com/political/gun-control-debates/12676-resonable-gun-control.html",353015,59
"1-8860_60_59_4",8860,1,"2009-05-08 13:26:00",44,2104,353023,"2009-05-08 13:16:00",394925,57,59,"I don't think I am.

Are you completely unable to refrain from slippery slope arguments? You're making doom and gloom predictions again. How about you deal with the present for now? 

And how much progress have the Pete Shields of this nation made in the intervening 33 years? Very little actually.",394924,4,8860,1,"Lets see if I can put this the best way. It's the Constitution. It is not to be treated as lightly as one does non Constitutionally protected things.
There are approximately 300 Million firearms. Less then even one percent will ever be used in a crime. You only want to bring into our attention the bad that happens, and ignore the benefit they bring. You also want to ignore the fact that making a deal with you is not something that will be written in stone! If it were to come before the legislature, it will not be what you and we agree upon. These are some serious differences. 
Once a law is made it sets a standard for more and strengthening process to begin. But don't just take my word for that. 
  Nelson T. 'Pete' Shields Founder of Handgun Control, Inc.
I'm sorry Sinjin. I believe him! In all reality, what you want will not stop them, or mean squat to them either!","http://www.4forums.com/political/gun-control-debates/12676-resonable-gun-control.html",353019,60
