"key","quote_source_post_discussion_id","posts_dataset_id","posts_timestamp","posts_author_id","quote_source_author_id","posts_native_post_id","quote_source_timestamp","post_text_id","Word_Count","quote_source_post_id","post_text","quote_source_text_id","Dialog_Turn","posts_discussion_id","quote_source_post_dataset_id","Fullquote_text","discussion_url","quote_source_native_post_id","posts_post_id"
"1-9036_58_56_1",9036,1,"2009-07-22 04:40:00",681,435,361678,"2009-07-22 04:23:00",404317,91,56,"And that gun wasn't in control of the human? Was it a 'glock' shotgun? :) (eyes are blurry this morning)
Police shoot themselves and buddies quite often. You want that I should start posting some of those incidents or are you willing to let it go? I also have at my disposal quite a few stories of the K9 corps dying from neglect of their partners. We can post opposing stories all day long unless you have something of substance?",404315,1,9036,1,"""No Personal attacks, insults, name calling, offensive generalizations, or labeling.""
As you know the canine in question must be at least seventy years old in dog-years, so is unlikely to be around to face any charges. Declawing all animals likely to encounter a human with a gun, might prove logistically difficult, and still leaves a risk from animals without claws, or even limbs!
"" .... 1991, Nicosia, Cyprus: Under similar circumstances, an Iranian hunter was shot to death near Tehran by a snake that coiled around his shotgun as he pinned the reptile to the ground. Another hunter reported that the victim, named Ali, tried to catch the snake alive by pressing the butt of his shotgun behind its head. The snake coiled around the butt and pulled the trigger, shooting Ali in the head. .. "" 
The OP claimed that a gun was only capable of being operated under the control of a human. Despite the barrage of irrelevance and personal attacks from assorted grizzly collaborators I have demonstrated that this assertion is patently untrue.","http://www.4forums.com/political/gun-control-debates/13005-no-grey-area.html",361674,58
"1-9036_59_58_1",9036,1,"2009-07-22 05:41:00",435,681,361684,"2009-07-22 04:40:00",404318,33,58,"If the gun was under the control of the human, he would be alive. The rest of your post is not germane to the OP, and is therefore irrelevant.",404317,1,9036,1,"And that gun wasn't in control of the human? Was it a 'glock' shotgun? :) (eyes are blurry this morning)
Police shoot themselves and buddies quite often. You want that I should start posting some of those incidents or are you willing to let it go? I also have at my disposal quite a few stories of the K9 corps dying from neglect of their partners. We can post opposing stories all day long unless you have something of substance?","http://www.4forums.com/political/gun-control-debates/13005-no-grey-area.html",361678,59
"1-9036_60_59_1",9036,1,"2009-07-22 07:30:00",681,435,361690,"2009-07-22 05:41:00",404319,47,59,"Since neither incident took place in the United States, your post is not germane to the OP and is therefore irrelevant. ...as well as being incomplete and having your insinuations and definitions about proper control of the gun.
You are summarily dismissed!",404318,1,9036,1,"If the gun was under the control of the human, he would be alive. The rest of your post is not germane to the OP, and is therefore irrelevant.","http://www.4forums.com/political/gun-control-debates/13005-no-grey-area.html",361684,60
"1-9036_62_60_1",9036,1,"2009-07-22 08:59:00",435,681,361706,"2009-07-22 07:30:00",404321,104,60,"Too late. emoticonXRolleyes It may have escaped your notice but nowhere in the the OP are there any parochial limitations as to geography. However America is not immune to animals with guns!
"" PORTLAND, Ore. - A man who was accidentally shot by a 12-gauge shotgun on Saturday after his dog jumped into a boat is recovering. Matthew Marcum's legs and buttocks were injured in the bizarre incident and he was taken to Legacy Emanuel Hospital & Health Center in Portland.""
Man recovering after being shot by his dog - Animal weirdness- msnbc.com",404319,1,9036,1,"Since neither incident took place in the United States, your post is not germane to the OP and is therefore irrelevant. ...as well as being incomplete and having your insinuations and definitions about proper control of the gun.
You are summarily dismissed!","http://www.4forums.com/political/gun-control-debates/13005-no-grey-area.html",361690,62
"1-9036_64_62_1",9036,1,"2009-07-22 09:18:00",681,435,361710,"2009-07-22 08:59:00",404323,30,62,"As promised: Heat killed police dog left in car, report says - NOLA.com
Policeman kills partner.
How far are you willing to carry your childish non-sense?",404321,1,9036,1,"Too late. emoticonXRolleyes It may have escaped your notice but nowhere in the the OP are there any parochial limitations as to geography. However America is not immune to animals with guns!
"" PORTLAND, Ore. - A man who was accidentally shot by a 12-gauge shotgun on Saturday after his dog jumped into a boat is recovering. Matthew Marcum's legs and buttocks were injured in the bizarre incident and he was taken to Legacy Emanuel Hospital & Health Center in Portland.""
Man recovering after being shot by his dog - Animal weirdness- msnbc.com","http://www.4forums.com/political/gun-control-debates/13005-no-grey-area.html",361706,64
"1-9036_68_64_1",9036,1,"2009-07-22 11:52:00",435,681,361730,"2009-07-22 09:18:00",404327,22,64,"No Personal attacks, insults, name calling, offensive generalizations, or labeling.
Why do you hate the police?",404323,1,9036,1,"As promised: Heat killed police dog left in car, report says - NOLA.com
Policeman kills partner.
How far are you willing to carry your childish non-sense?","http://www.4forums.com/political/gun-control-debates/13005-no-grey-area.html",361710,68
"1-9036_70_68_1",9036,1,"2009-07-22 12:02:00",681,435,361736,"2009-07-22 11:52:00",404329,34,68,"No Personal attacks, insults, name calling, offensive generalizations, or labeling.
Why? Are you still beating your wife?
Does your mommy know you are on the computer?",404327,1,9036,1,"No Personal attacks, insults, name calling, offensive generalizations, or labeling.
Why do you hate the police?","http://www.4forums.com/political/gun-control-debates/13005-no-grey-area.html",361730,70
"1-9036_2_1_2",9036,1,"2009-07-20 15:58:00",435,2904,361428,"2009-07-20 14:02:00",404261,79,1,"Wrong. It is a precision machine designed to kill effectively. It can be operated by other than human means. 

Yes, you would be wrong. 

No, they don't. 

True, but nobody suggested there was such a grey area.

We accept your word.

I have never seen this, do you have examples?

So far as I am aware, nobody but you believes this to be the case.",404260,2,9036,1,"A firearm in mearley an inanimate piece of steel that has no mind of its own and cant function without the intervention of human control over it. So would I be wrong in the assumption than if a good person holds and uses a firearm, most likely it will only be used for good, just as if a bad person holds and controls the firearm it will most likely be used for something bad. So many of the anti-gun proponents basically claim that a firearm controls its owner rather than the other way around. So in essense there is no grey area in this, the person controls the firearm and is responsible for what he/she does with it. I have been around firearms my whole life and I have never once been a mindless ##### who is being contriolled by a firearm. So how is it that some claim that statistics show that people who own firearms are more than likely going to all of the sudden become some crazed lunatic who goes on a mass killing spree just for kicks. I would really like to know how something with no heartbeat or a brain has the intelligence to control a human being.emoticonXBanghead","http://www.4forums.com/political/gun-control-debates/13005-no-grey-area.html",361406,2
"1-9036_8_2_2",9036,1,"2009-07-20 18:30:00",2904,435,361448,"2009-07-20 15:58:00",404267,45,2,"We are not talking about its designed use as you claim, we are talking about the firearm being used by the type of individual using it, and anyway you slice it, a firearm can do nothing without human control over it.",404261,2,9036,1,"Wrong. It is a precision machine designed to kill effectively. It can be operated by other than human means. 

Yes, you would be wrong. 

No, they don't. 

True, but nobody suggested there was such a grey area.

We accept your word.

I have never seen this, do you have examples?

So far as I am aware, nobody but you believes this to be the case.","http://www.4forums.com/political/gun-control-debates/13005-no-grey-area.html",361428,8
"1-9036_10_8_2",9036,1,"2009-07-20 19:05:00",435,2904,361453,"2009-07-20 18:30:00",404269,13,8,"You may be, but I am shredding your rambling nonsense screed.",404267,2,9036,1,"We are not talking about its designed use as you claim, we are talking about the firearm being used by the type of individual using it, and anyway you slice it, a firearm can do nothing without human control over it.","http://www.4forums.com/political/gun-control-debates/13005-no-grey-area.html",361448,10
"1-9036_46_10_2",9036,1,"2009-07-21 15:25:00",2904,435,361622,"2009-07-20 19:05:00",404305,31,10,"If you want to have an adult debate we can do that, if you want to start with insults and name calling we can do that as well assclown.",404269,2,9036,1,"You may be, but I am shredding your rambling nonsense screed.","http://www.4forums.com/political/gun-control-debates/13005-no-grey-area.html",361453,46
"1-9036_49_46_2",9036,1,"2009-07-21 15:30:00",435,2904,361626,"2009-07-21 15:25:00",404308,33,46,"No Personal attacks, insults, name calling, offensive generalizations, or labeling.
Please report offensive posts or members. Someone insulting you is not an excuse for insulting them.",404305,2,9036,1,"If you want to have an adult debate we can do that, if you want to start with insults and name calling we can do that as well assclown.","http://www.4forums.com/political/gun-control-debates/13005-no-grey-area.html",361622,49
"1-9036_52_49_2",9036,1,"2009-07-21 15:54:00",2904,435,361629,"2009-07-21 15:30:00",404311,10,49,"so I guess that rule doesnt apply to you.",404308,2,9036,1,"No Personal attacks, insults, name calling, offensive generalizations, or labeling.
Please report offensive posts or members. Someone insulting you is not an excuse for insulting them.","http://www.4forums.com/political/gun-control-debates/13005-no-grey-area.html",361626,52
"1-9036_53_52_2",9036,1,"2009-07-21 17:09:00",435,2904,361632,"2009-07-21 15:54:00",404312,17,52,"It applies to everyone. Is this what you imagine ""adult debate"" to be?",404311,2,9036,1,"so I guess that rule doesnt apply to you.","http://www.4forums.com/political/gun-control-debates/13005-no-grey-area.html",361629,53
"1-9036_90_89_3",9036,1,"2009-07-24 13:20:00",746,681,362064,"2009-07-24 13:12:00",404349,19,89,"I haven't got much time for him but what has he being English got to do with it?",404348,3,9036,1,"Aww, he is just confused. He has nothing to offer and when he first read the topic he XXX-umed that it was going to be a discussion of his noggin.
The last thing we need is a damn limey board nanny.
Play the ball old chap and not the man - famous limey quote","http://www.4forums.com/political/gun-control-debates/13005-no-grey-area.html",362063,90
"1-9036_93_90_3",9036,1,"2009-07-24 13:29:00",681,746,362067,"2009-07-24 13:20:00",404352,123,90,"For one thing, he doesn't understand our system of government nor accept the Constitution. 
I opened the door metioning the farmer in England who shot yob perps on his property hoping for an answer. Evidently, no one knew that Tony Martin had been freed and his conviction overturned for defending his own property.
That was a good point at that time in the discussion but no further mention was made of it. I plainly asked for opinions, I didn't see you chime in either? He was busy belittling our gun laws and now he is playing the victim card and you choose now to pop up and stand and deliver? Jolly good show.",404349,3,9036,1,"I haven't got much time for him but what has he being English got to do with it?","http://www.4forums.com/political/gun-control-debates/13005-no-grey-area.html",362064,93
"1-9036_96_93_3",9036,1,"2009-07-24 13:52:00",746,681,362071,"2009-07-24 13:29:00",404355,39,93,"You didn't see me chime in because I didn't chime in.
I just noticed a post that was written by someone who gets his views on English people by watching Jeeves and Wooster on your public broadcasting .",404352,3,9036,1,"For one thing, he doesn't understand our system of government nor accept the Constitution. 
I opened the door metioning the farmer in England who shot yob perps on his property hoping for an answer. Evidently, no one knew that Tony Martin had been freed and his conviction overturned for defending his own property.
That was a good point at that time in the discussion but no further mention was made of it. I plainly asked for opinions, I didn't see you chime in either? He was busy belittling our gun laws and now he is playing the victim card and you choose now to pop up and stand and deliver? Jolly good show.","http://www.4forums.com/political/gun-control-debates/13005-no-grey-area.html",362067,96
"1-9036_98_96_3",9036,1,"2009-07-24 14:03:00",681,746,362074,"2009-07-24 13:52:00",404357,41,96,"No s**t? IOW you weren't interested in the topic either! :)
I get to watch you every day and believe it or not I have been in this business a long time and I have seen a lot emoticonXBouncer",404355,3,9036,1,"You didn't see me chime in because I didn't chime in.
I just noticed a post that was written by someone who gets his views on English people by watching Wooster and Jeeves on your public broadcasting .","http://www.4forums.com/political/gun-control-debates/13005-no-grey-area.html",362071,98
"1-9036_101_98_3",9036,1,"2009-07-24 14:15:00",746,681,362077,"2009-07-24 14:03:00",404360,47,98,"You are correct. I wasnt interested in the thread:)
I was just enraged with the possibility that Penfold was English.emoticonXBanghead
Apparently he is not so no harm done.
Actually The last of the summer wine is more of an accurate portrayal emoticonXHoho",404357,3,9036,1,"No s**t? IOW you weren't interested in the topic either! :)
I get to watch you every day and believe it or not I have been in this business a long time and I have seen a lot emoticonXBouncer","http://www.4forums.com/political/gun-control-debates/13005-no-grey-area.html",362074,101
"1-9036_154_152_4",9036,1,"2009-07-26 07:23:00",681,746,362261,"2009-07-26 07:17:00",404413,22,152,"Actually you seem to have more communication problems than that! I am ashamed you claim to be a mensa member emoticonXHoho",404411,4,9036,1,"Thank you for that Tither.
The fact is I am annoyed that he is lumping me in with Penfold ( when I never stated anything to support what he said) who is making judgements about gun law in the USA by making comparisons to Britain.
Actually I was under the wrong impression that Limey meant English rather than being British.
DJ doesn't seem to be able to read properly any way so he'll never know!","http://www.4forums.com/political/gun-control-debates/13005-no-grey-area.html",362259,154
"1-9036_155_154_4",9036,1,"2009-07-26 07:39:00",746,681,362265,"2009-07-26 07:23:00",404414,21,154,"Than what?
You should be ashamed about your lack reading skills and inate predudice. Not my Mensa certificate.",404413,4,9036,1,"Actually you seem to have more communication problems than that! I am ashamed you claim to be a mensa member emoticonXHoho","http://www.4forums.com/political/gun-control-debates/13005-no-grey-area.html",362261,155
"1-9036_157_155_4",9036,1,"2009-07-26 08:18:00",681,746,362271,"2009-07-26 07:39:00",404416,173,155,"There are plenty of names on there than yours and you even admitted you ""were not too smart"". I read your pedigree :)
Some of us are humble though and like a boxer we don't go by what the newspapers say about the opponent's history nor listen to brags about what he will do to us during the fight. Surely at some point you will be able to make your accomplishment evident? emoticonXSmilie I have glacoma and my vision is clouded most of the time so I am going to misspell words on occasion. I would make an exception between inate and inane though emoticonXSmilie Think about it.
You picked the wrong board to do so, however. If you don't have a dog in this fight nor a thesis to base your comments on either pro or con, you are going to get a definition of a troll and not a mensa member; that is the communication I was referring to...",404414,4,9036,1,"Than what?
You should be ashamed about your lack reading skills and inate predudice. Not my Mensa certificate.","http://www.4forums.com/political/gun-control-debates/13005-no-grey-area.html",362265,157
"1-9036_158_157_4",9036,1,"2009-07-26 08:48:00",746,681,362274,"2009-07-26 08:18:00",404417,219,157,"You really do not know what you are talking about do you!
Let me tell you one more time ...I do not have an opinion pro or con as to the Gun laws of the USA and unlike Penfold I DID NOT express one!
If you have a problem with Penfold take it out on Penfold dont associate me with him.
I say I am not smart. You say you are humble. That is a good thing because you have every reason to be humble.
My 'accomplishment' lies at the bottom of my drawer.
I mention the Mensa in my comments about myself because it is true and it reflects the fact that one can obtain a certificate without it actually meaning anything.
Irony ...heard of it?
I am sorry that you have glaucoma but my brother and late father had that disease and I can assure you that the fact that you jump to the wrong conclusions when you read my posts is not because of your condition.
Because I object to your obtuse and snide posts I am a troll am I?
You looked up my profile? I couldnt be bothered to look yours up. I know enough already.",404416,4,9036,1,"There are plenty of names on there than yours and you even admitted you ""were not too smart"". I read your pedigree :)
Some of us are humble though and like a boxer we don't go by what the newspapers say about the opponent's history nor listen to brags about what he will do to us during the fight. Surely at some point you will be able to make your accomplishment evident? emoticonXSmilie I have glacoma and my vision is clouded most of the time so I am going to misspell words on occasion. I would make an exception between inate and inane though emoticonXSmilie Think about it.
You picked the wrong board to do so, however. If you don't have a dog in this fight nor a thesis to base your comments on either pro or con, you are going to get a definition of a troll and not a mensa member; that is the communication I was referring to...","http://www.4forums.com/political/gun-control-debates/13005-no-grey-area.html",362271,158
"1-9036_159_158_4",9036,1,"2009-07-26 09:07:00",681,746,362282,"2009-07-26 08:48:00",404418,24,158,"Which makes it inane instead of innate! I accept your belief and truely believe they are inane in regards to the topic.",404417,4,9036,1,"You really do not know what you are talking about do you!
Let me tell you one more time ...I do not have an opinion pro or con as to the Gun laws of the USA and unlike Penfold I DID NOT express one!
If you have a problem with Penfold take it out on Penfold dont associate me with him.
I say I am not smart. You say you are humble. That is a good thing because you have every reason to be humble.
My 'accomplishment' lies at the bottom of my drawer.
I mention the Mensa in my comments about myself because it is true and it reflects the fact that one can obtain a certificate without it actually meaning anything.
Irony ...heard of it?
I am sorry that you have glaucoma but my brother and late father had that disease and I can assure you that the fact that you jump to the wrong conclusions when you read my posts is not because of your condition.
Because I object to your obtuse and snide posts I am a troll am I?
You looked up my profile? I couldnt be bothered to look yours up. I know enough already.","http://www.4forums.com/political/gun-control-debates/13005-no-grey-area.html",362274,159
"1-9036_160_159_4",9036,1,"2009-07-26 09:19:00",746,681,362288,"2009-07-26 09:07:00",404419,39,159,"So I made a typo and wrote inate instead of innate!
If it makes you feel better...
As for the topic...I think that you should be able to keep your pop gun. ok?",404418,4,9036,1,"Which makes it inane instead of innate! I accept your belief and truely believe they are inane in regards to the topic.","http://www.4forums.com/political/gun-control-debates/13005-no-grey-area.html",362282,160
"1-9036_161_160_4",9036,1,"2009-07-26 09:45:00",681,746,362292,"2009-07-26 09:19:00",404420,162,160,"Well, that is better but I didn't inherit it at birth and I don't think the defintion fits a stereotype so I can't be pigeonholed as an undesirable so it would be inane and not ""innate"".
10-4 on keeping our rights and my popgun. Truthfully I think you are a fine fellow and own up to mistakes and accept others views. As with Iangb you are stimulating to talk to. I think you would be welcome at my dinner table anytime! May God bless and keep you! I do this for fun and diversion so someone like yourself provides a nice diversion from the usual 'in the pits' we usually have on boards such as this. You have provided some humor and I hear you.
Now back to my assumed inane behavior : don't let the doorknob catch you in the rump on the way out :)",404419,4,9036,1,"So I made a typo and wrote inate instead of innate!
If it makes you feel better...
As for the topic...I think that you should be able to keep your pop gun. ok?","http://www.4forums.com/political/gun-control-debates/13005-no-grey-area.html",362288,161
"1-9036_162_161_4",9036,1,"2009-07-26 09:56:00",746,681,362296,"2009-07-26 09:45:00",404421,35,161,"You Sir, are a gentleman and a scholar!
I am proud to have my shortcomings pointed out by your good self!
God, guns and guts has indeed made America great!!",404420,4,9036,1,"Well, that is better but I didn't inherit it at birth and I don't think the defintion fits a stereotype so I can't be pigeonholed as an undesirable so it would be inane and not ""innate"".
10-4 on keeping our rights and my popgun. Truthfully I think you are a fine fellow and own up to mistakes and accept others views. As with Iangb you are stimulating to talk to. I think you would be welcome at my dinner table anytime! May God bless and keep you! I do this for fun and diversion so someone like yourself provides a nice diversion from the usual 'in the pits' we usually have on boards such as this. You have provided some humor and I hear you.
Now back to my assumed inane behavior : don't let the doorknob catch you in the rump on the way out :)","http://www.4forums.com/political/gun-control-debates/13005-no-grey-area.html",362292,162
"1-9036_163_162_4",9036,1,"2009-07-26 10:22:00",681,746,362306,"2009-07-26 09:56:00",404422,91,162,"And yourself! I merely took advatage of a simple error in the spirit of the moment to relieve some of the seriousness of the kinds of conflicts most folks take umbrage at. It would be difficult to call you anything but FRIEND from this point forward and my blessing is heart felt. I fear the coming years are going to bring great challenges and hardships and one can ever have enough friends.
Again, Grace, peace and blessings on you and your house. Amen!",404421,4,9036,1,"You Sir, are a gentleman and a scholar!
I am proud to have my shortcomings pointed out by your good self!
God, guns and guts has indeed made America great!!","http://www.4forums.com/political/gun-control-debates/13005-no-grey-area.html",362296,163
"1-9036_193_192_5",9036,1,"2009-07-28 01:44:00",681,1033,362568,"2009-07-28 01:13:00",404452,79,192,"So you are a minullas :) Here in Texas we call 'em varmints which they rightly are. The larger version often get a dose of lead around the chicken yard.
Did you come here to carry on the troll tendencies of your bretheren or are you big enough to speak for yourself on topic?
If you got something to screech about or complain about your diet the bird boards are -----------------------------> that way.",404451,5,9036,1,"You say countrymen as if the gun enthusiasts are the only people on earth.","http://www.4forums.com/political/gun-control-debates/13005-no-grey-area.html",362567,193
"1-9036_194_193_5",9036,1,"2009-07-28 02:15:00",1033,681,362570,"2009-07-28 01:44:00",404453,55,193,"Your comments are ridiculous and characteristic of a troll.
It’s one of the reasons no one will argue with you guys here.
There are plenty of people on the same side as Penfold.
You guys are living in a fantasy world if you think there are not.",404452,5,9036,1,"So you are a minullas :) Here in Texas we call 'em varmints which they rightly are. The larger version often get a dose of lead around the chicken yard.
Did you come here to carry on the troll tendencies of your bretheren or are you big enough to speak for yourself on topic?
If you got something to screech about or complain about your diet the bird boards are -----------------------------> that way.","http://www.4forums.com/political/gun-control-debates/13005-no-grey-area.html",362568,194
"1-9036_195_194_5",9036,1,"2009-07-28 02:26:00",681,1033,362571,"2009-07-28 02:15:00",404454,141,194,"It took you that long to come up with that off topic BS? emoticonXSmilie I doubt that will cut it around this bunch?
You chose your nom de guere unless you filched it from someone else?
There are getting to be a heap less that believe like your buddy; statistics from polls are running close to 80% of Americans believe what the 2A says, just as the SCOTUS determined, guns are an individual right!
If that is a fantasy world, not counting us/our military fighting evil tyrants all over the globe, maybe it is time you flap your wings and come see for yourself. I gotta warn you though, it won't be easy pickings like rats and small birds and I doubt you will get any chickens.",404453,5,9036,1,"Your comments are ridiculous and characteristic of a troll.
It’s one of the reasons no one will argue with you guys here.
There are plenty of people on the same side as Penfold.
You guys are living in a fantasy world if you think there are not.","http://www.4forums.com/political/gun-control-debates/13005-no-grey-area.html",362570,195
"1-9036_201_195_5",9036,1,"2009-07-28 03:06:00",1033,681,362580,"2009-07-28 02:26:00",404460,169,195,"Finding statistics that favor you side is only natural but hardly objective and will not ultimately help you with what you’re fighting for.
I was at one time a gun enthusiast but like all hobbies I have participated in eventually I moved on to something else.
I change my mind about guns several times largely from reading posts in gun control debates forum.
The last time I was pro gun I was convinced by a guy here that said simply, “Do you really want the government to start taking away your rights?”
It was the only argument I had encountered that was powerful enough to convince me.
I have of late changed my mind as you can tell because of posts like your first response to me, because you don’t appear to be very responsible, not exactly a guy who I want to have a gun.",404454,5,9036,1,"It took you that long to come up with that off topic BS? emoticonXSmilie I doubt that will cut it around this bunch?
You chose your nom de guere unless you filched it from someone else?
There are getting to be a heap less that believe like your buddy; statistics from polls are running close to 80% of Americans believe what the 2A says, just as the SCOTUS determined, guns are an individual right!
If that is a fantasy world, not counting us/our military fighting evil tyrants all over the globe, maybe it is time you flap your wings and come see for yourself. I gotta warn you though, it won't be easy pickings like rats and small birds and I doubt you will get any chickens.","http://www.4forums.com/political/gun-control-debates/13005-no-grey-area.html",362571,201
"1-9036_203_201_5",9036,1,"2009-07-28 03:13:00",681,1033,362582,"2009-07-28 03:06:00",404462,69,201,"Well, first off, this is a Republic and the Constitution is the supreme law of the land and you don't have a choice of who exercises their rights nor are you a medical doctor to determine responsibility. When you get old enough to think for yourself and make your own decisions and quit p*****g up a tree come on back and discuss the topic. emoticonXBouncer",404460,5,9036,1,"Finding statistics that favor you side is only natural but hardly objective and will not ultimately help you with what you’re fighting for.
I was at one time a gun enthusiast but like all hobbies I have participated in eventually I moved on to something else.
I change my mind about guns several times largely from reading posts in gun control debates forum.
The last time I was pro gun I was convinced by a guy here that said simply, “Do you really want the government to start taking away your rights?”
It was the only argument I had encountered that was powerful enough to convince me.
I have of late changed my mind as you can tell because of posts like your first response to me, because you don’t appear to be very responsible, not exactly a guy who I want to have a gun.","http://www.4forums.com/political/gun-control-debates/13005-no-grey-area.html",362580,203
