"key","quote_source_post_discussion_id","posts_dataset_id","posts_timestamp","posts_author_id","quote_source_author_id","posts_native_post_id","quote_source_timestamp","post_text_id","Word_Count","quote_source_post_id","post_text","quote_source_text_id","Dialog_Turn","posts_discussion_id","quote_source_post_dataset_id","Fullquote_text","discussion_url","quote_source_native_post_id","posts_post_id"
"1-9235_17_16_1",9235,1,"2009-09-22 15:19:00",153,44,371071,"2009-09-22 15:10:00",414943,85,16,"You'd be singing a different tune if the same practice was applied to matters like gun ownership, and you facing several hundred dollars worth of fines and court costs for choosing to not exercise your rights.
Voting is a right, you can't be compelled to practice a right at the command of the government. So in Australia voting isn't a right of the people, it's an obligation of the subjects, and a crime to not do your obligation.",414942,1,9235,1,"Talkin' out your XXX again I see. 
What happens if I do not vote?
Initially the Australian Electoral Commission will write to all apparent non-voters requesting that 
they either provide a reason for their failure to vote or pay a $20 penalty.
If, within 21 days, the apparent non-voter fails to reply, cannot provide a valid and sufficient reason or declines to pay the penalty, then prosecution proceedings may be instigated. If the matter is dealt with in court and the person is found guilty, he or she may be fined up to $50 plus court costs.
http://www.aec.gov.au/faqs/voting_au...o%20not%20vote","http://www.4forums.com/political/gun-control-debates/13324-little-beaten-path-but.html",371070,17
"1-9235_18_17_1",9235,1,"2009-09-22 15:29:00",44,153,371077,"2009-09-22 15:19:00",414944,88,17,"Why several hundred dollars? Inflation? And as you said, it's a right in the USA. Can't be compelled to exercise a right.

Now it's a butt duet.
Today
Australia is a federal, representative parliamentary democracy where citizens have the power to elect their representatives in parliament. 
Enrolling and voting is a right and a responsibility of each Australian citizen.
The effectiveness of our democracy depends on the active participation of all Australian citizens.
Australian voting history in action",414943,1,9235,1,"You'd be singing a different tune if the same practice was applied to matters like gun ownership, and you facing several hundred dollars worth of fines and court costs for choosing to not exercise your rights.
Voting is a right, you can't be compelled to practice a right at the command of the government. So in Australia voting isn't a right of the people, it's an obligation of the subjects, and a crime to not do your obligation.","http://www.4forums.com/political/gun-control-debates/13324-little-beaten-path-but.html",371071,18
"1-9235_21_18_1",9235,1,"2009-09-22 16:22:00",153,44,371090,"2009-09-22 15:29:00",414947,53,18,"Never read a court case before, have you?

It's a right here, but not in Australia.

Like you said, can't be compelled to exercise a right. So if you can be fined for not voting, that means it's not a right, but an obligation.",414944,1,9235,1,"Why several hundred dollars? Inflation? And as you said, it's a right in the USA. Can't be compelled to exercise a right.

Now it's a butt duet.
Today
Australia is a federal, representative parliamentary democracy where citizens have the power to elect their representatives in parliament. 
Enrolling and voting is a right and a responsibility of each Australian citizen.
The effectiveness of our democracy depends on the active participation of all Australian citizens.
Australian voting history in action","http://www.4forums.com/political/gun-control-debates/13324-little-beaten-path-but.html",371077,21
"1-9235_29_21_1",9235,1,"2009-09-23 10:15:00",44,153,371202,"2009-09-22 16:22:00",414955,34,21,"Not one setting the fine for not owning guns.

You're lying.

Not in the USA.

It means in Australia it's a right and a legal responsibility backed up by law.",414947,1,9235,1,"Never read a court case before, have you?

It's a right here, but not in Australia.

Like you said, can't be compelled to exercise a right. So if you can be fined for not voting, that means it's not a right, but an obligation.","http://www.4forums.com/political/gun-control-debates/13324-little-beaten-path-but.html",371090,29
"1-9235_32_29_1",9235,1,"2009-09-23 10:21:00",153,44,371205,"2009-09-23 10:15:00",414958,152,29,"Doesn't matter. It could be a matter of being compelled to own guns, or compelled to invoke your Fifth Amendment rights. What does matter is that I highly doubt you'd sit so idly by if you suddenly found yourself facing charges and fines for deciding that you weren't in the mood to exercise your constitutional rights.

You're calling me the liar here? How exactly am I lying by pointing out that facing legal penalties for not exercising a right, means that it's no right at all?

Not anywhere. If you can be compelled to do something by the government threatening to punish you then it's no right, it's an obligation that you owe those in office.

You really have no understanding of the concept of a ""right"" do you? Otherwise you wouldn't be making these blatantly ignorant statements.",414955,1,9235,1,"Not one setting the fine for not owning guns.

You're lying.

Not in the USA.

It means in Australia it's a right and a legal responsibility backed up by law.","http://www.4forums.com/political/gun-control-debates/13324-little-beaten-path-but.html",371202,32
"1-9235_33_32_1",9235,1,"2009-09-23 10:31:00",44,153,371206,"2009-09-23 10:21:00",414959,124,32,"But this is what you said and to which I was responding. 

Now of course it doesn't matter since there is no such case I could have read.

That ain't likely to happen in the USA.

Means to whom? You? Apparently Australians, other than our resident Crocodile Dumbdee, disagree with your assessment of their rights. It doesn't cease to be a right because you don't agree with regulation associated with its exercise. Sound familiar? Just as the Japanese Constitution doesn't cease to be a constitution because you don't care for some features. 

Large peaceful assemblies require permits. Do you still have a right to assemble?

Sticks and stones, boy.",414958,1,9235,1,"Doesn't matter. It could be a matter of being compelled to own guns, or compelled to invoke your Fifth Amendment rights. What does matter is that I highly doubt you'd sit so idly by if you suddenly found yourself facing charges and fines for deciding that you weren't in the mood to exercise your constitutional rights.

You're calling me the liar here? How exactly am I lying by pointing out that facing legal penalties for not exercising a right, means that it's no right at all?

Not anywhere. If you can be compelled to do something by the government threatening to punish you then it's no right, it's an obligation that you owe those in office.

You really have no understanding of the concept of a ""right"" do you? Otherwise you wouldn't be making these blatantly ignorant statements.","http://www.4forums.com/political/gun-control-debates/13324-little-beaten-path-but.html",371205,33
"1-9235_65_63_2",9235,1,"2009-09-24 10:46:00",153,44,371403,"2009-09-24 10:07:00",414991,55,63,"Being fined for not exercising a ""right"" means that it's an obligation of the people, not a true right. A right is something that belongs to the people to be used against the government, not for the government to use against the people to make them comply with orders.",414989,2,9235,1,"I disagree. One could deprive you of a chance to exercise a right. 
The other simply discourages you from being lazy and/or apathetic, a privilege you can pay for if you so choose.","http://www.4forums.com/political/gun-control-debates/13324-little-beaten-path-but.html",371398,65
"1-9235_66_65_2",9235,1,"2009-09-24 10:56:00",44,153,371406,"2009-09-24 10:46:00",414992,73,65,"Repeating your personally tailored definition of a ""right"" makes it no truer this time than last. One exercises their right to free speech only when one speaks out ""against the government""? How about assembly? Only when plotting ""against the government""? You have some silly notions.
In effect you're arguing for rights without responsibility or duty. 
Sure you wanna do that?",414991,2,9235,1,"Being fined for not exercising a ""right"" means that it's an obligation of the people, not a true right. A right is something that belongs to the people to be used against the government, not for the government to use against the people to make them comply with orders.","http://www.4forums.com/political/gun-control-debates/13324-little-beaten-path-but.html",371403,66
"1-9235_67_66_2",9235,1,"2009-09-24 11:09:00",153,44,371408,"2009-09-24 10:56:00",414993,160,66,"No I'm arguing that when the government can punish you for not exercising your rights, then it's no right at all, rather it's an obligation that you owe the government.
This whole standard you seem to be in support of, how it's in effect a crime to not enjoy the protections guaranteed to you by your nation's constitution because failure to do so in detrimental to government authority, is highly disturbing.
Back to the hypothetical situation. If you could be slapped with fines of anywhere between several hundred and several thousand dollars, because you refused to own a gun, would you still see no problem with it? I don't care if there's no court standing for the situation, that's irrelevant to the issue at hand. How would you really feel about the standard of punishment for ignoring your own rights if the practice was applied to you?",414992,2,9235,1,"Repeating your personally tailored definition of a ""right"" makes it no truer this time than last. One exercises their right to free speech only when one speaks out ""against the government""? How about assembly? Only when plotting ""against the government""? You have some silly notions.
In effect you're arguing for rights without responsibility or duty. 
Sure you wanna do that?","http://www.4forums.com/political/gun-control-debates/13324-little-beaten-path-but.html",371406,67
"1-9235_69_67_2",9235,1,"2009-09-24 12:54:00",44,153,371421,"2009-09-24 11:09:00",414995,180,67,"Third time and still only personal opinion.

Near full paticipation in the election process is a worthy objective. The ""authority"" of the government isn't diminished by lack of voluntary participation as we have in the US. 

Let's set aside the fact that you've mutiplied the fine from 15 to 150 times the fine in Australia for not voting. Of course you could have said a million dollar fine and most would have a problem with that.
First, I have a few questions.
I'd like to know on what grounds I would be fined? 
How is my choice to not own weapons a failure to participate in the Democratic process like not voting would be? 
How does my choice serve to reflect poorly on our leaders and their mandate? 
What if I were a serving member of the military or Nat'l Guard? 
What if I had religious or philosophical objections to possessing firearms? 
Would you violate one of my rights to compel me to exercise another?",414993,2,9235,1,"No I'm arguing that when the government can punish you for not exercising your rights, then it's no right at all, rather it's an obligation that you owe the government.
This whole standard you seem to be in support of, how it's in effect a crime to not enjoy the protections guaranteed to you by your nation's constitution because failure to do so in detrimental to government authority, is highly disturbing.
Back to the hypothetical situation. If you could be slapped with fines of anywhere between several hundred and several thousand dollars, because you refused to own a gun, would you still see no problem with it? I don't care if there's no court standing for the situation, that's irrelevant to the issue at hand. How would you really feel about the standard of punishment for ignoring your own rights if the practice was applied to you?","http://www.4forums.com/political/gun-control-debates/13324-little-beaten-path-but.html",371408,69
"1-9235_77_69_2",9235,1,"2009-09-24 15:41:00",153,44,371442,"2009-09-24 12:54:00",415003,145,69,"And court cases are a matter of opinion as well. Only difference is I'm not in an appointed position. What's your point?

And as other have said, there's no way to make people actually vote, only attend. So what good comes from forcing people to exercise their ""right"" under threat of judicial persecution, if you can't actually make them do it in full?

Irrelevant fact.

Failure to participate in a government mandated activity, in accordance with government passed law.

It's the exercising of a right in a manner that you choose, which is at issue here.

Did I say that it did?

What of it?

Are such objections being honored in Australia?

The government seems to have no objection with requiring such as it is now.",414995,2,9235,1,"Third time and still only personal opinion.

Near full paticipation in the election process is a worthy objective. The ""authority"" of the government isn't diminished by lack of voluntary participation as we have in the US. 

Let's set aside the fact that you've mutiplied the fine from 15 to 150 times the fine in Australia for not voting. Of course you could have said a million dollar fine and most would have a problem with that.
First, I have a few questions.
I'd like to know on what grounds I would be fined? 
How is my choice to not own weapons a failure to participate in the Democratic process like not voting would be? 
How does my choice serve to reflect poorly on our leaders and their mandate? 
What if I were a serving member of the military or Nat'l Guard? 
What if I had religious or philosophical objections to possessing firearms? 
Would you violate one of my rights to compel me to exercise another?","http://www.4forums.com/political/gun-control-debates/13324-little-beaten-path-but.html",371421,77
"1-9235_38_33_3",9235,1,"2009-09-23 12:11:00",758,44,371226,"2009-09-23 10:31:00",414964,21,33,"And here you were crying about names and insults. I thought you were supposed to be above all that?",414959,3,9235,1,"Apparently Australians, other than our resident Crocodile Dumbdee, disagree with your assessment of their rights.
Sticks and stones, boy.","http://www.4forums.com/political/gun-control-debates/13324-little-beaten-path-but.html",371206,38
"1-9235_43_38_3",9235,1,"2009-09-23 14:28:00",44,758,371244,"2009-09-23 12:11:00",414969,42,38,"I said I try harder not to than you Dave, not that I can always resist the urge. Especially when it's really funny. Nozza1 was getting lippy with me but I guess he won't be any longer.",414964,3,9235,1,"And here you were crying about names and insults. I thought you were supposed to be above all that?","http://www.4forums.com/political/gun-control-debates/13324-little-beaten-path-but.html",371226,43
"1-9235_44_43_3",9235,1,"2009-09-23 14:38:00",758,44,371247,"2009-09-23 14:28:00",414970,5,43,"Splain Dave there Slimjim.",414969,3,9235,1,"I said I try harder not to than you Dave, not that I can always resist the urge. Especially when it's really funny. Nozza1 was getting lippy with me but I guess he won't be any longer.","http://www.4forums.com/political/gun-control-debates/13324-little-beaten-path-but.html",371244,44
"1-9235_45_44_3",9235,1,"2009-09-23 15:10:00",44,758,371251,"2009-09-23 14:38:00",414971,16,44,"Air Force retired after 22+ years? Born February 1960? Ain't that you?",414970,3,9235,1,"Splain Dave there Slimjim.","http://www.4forums.com/political/gun-control-debates/13324-little-beaten-path-but.html",371247,45
"1-9235_46_45_3",9235,1,"2009-09-23 15:30:00",758,44,371253,"2009-09-23 15:10:00",414972,13,45,"Not even close. Army retired after 30. Born Nov 1941. ",414971,3,9235,1,"Air Force retired after 22+ years? Born February 1960? Ain't that you?","http://www.4forums.com/political/gun-control-debates/13324-little-beaten-path-but.html",371251,46
"1-9235_49_46_3",9235,1,"2009-09-23 17:10:00",44,758,371277,"2009-09-23 15:30:00",414975,27,46,"My apologies. I must be confusing you with a younger ""OldSarge"" from your home state.emoticonXClown
Thank you for your service.emoticonXHoho",414972,3,9235,1,"Not even close. Army retired after 30. Born Nov 1941. ","http://www.4forums.com/political/gun-control-debates/13324-little-beaten-path-but.html",371253,49
"1-9235_51_49_3",9235,1,"2009-09-23 18:28:00",758,44,371300,"2009-09-23 17:10:00",414977,45,49,"Well since the steel industry died seems a lot of us elect to go for the military. If I had it to do over I'd go Air Force tho. Better billets, better food and definately better duty stations! Your very welcomeemoticonXHoho",414975,3,9235,1,"My apologies. I must be confusing you with a younger ""OldSarge"" from your home state.emoticonXClown
Thank you for your service.emoticonXHoho","http://www.4forums.com/political/gun-control-debates/13324-little-beaten-path-but.html",371277,51
"1-9235_62_51_3",9235,1,"2009-09-24 10:01:00",44,758,371396,"2009-09-23 18:28:00",414988,23,51,"I chose the Navy because I love being on water and you could expect to catch a tan with certain ratings.emoticonXSmilie",414977,3,9235,1,"Well since the steel industry died seems a lot of us elect to go for the military. If I had it to do over I'd go Air Force tho. Better billets, better food and definately better duty stations! Your very welcomeemoticonXHoho","http://www.4forums.com/political/gun-control-debates/13324-little-beaten-path-but.html",371300,62
"1-9235_99_98_4",9235,1,"2009-09-28 10:30:00",681,320,371822,"2009-09-28 10:23:00",415025,102,98,"Well yeah, it is a definition of why they exist and as a part of the Constitution and the source of those rights they cannot be diminished nor removed by any branch of government. I would say that it is statutory precedent. You may have different thoughts? They saw fit to list some rights that are given by a greater power and would exist whether they were written or not.
You like Dr. Williams I see. He has some excellent synopsis columns on his site that go back quite a ways. Want a link?",415024,4,9235,1,"You're still missing my point. The Preamble is NOT law. It is an introduction to laws that follow.","http://www.4forums.com/political/gun-control-debates/13324-little-beaten-path-but.html",371821,99
"1-9235_100_99_4",9235,1,"2009-09-28 10:58:00",320,681,371827,"2009-09-28 10:30:00",415026,114,99,"The reason that I’m careful in making the point that the Preamble isn’t law is because liberals love to state that “promote the general welfare” gives them authority to enact social engineering legislation that is outside of the scope of the Constitution. Promoting the general welfare does NOT mean enriching individuals with monetary rewards for doing nothing. 

I’ve been a fan of WW and Thomas Sowell for decades, I’d love to have the link. His story of the first Thanksgiving is one of my favorites. Thanks.",415025,4,9235,1,"Well yeah, it is a definition of why they exist and as a part of the Constitution and the source of those rights they cannot be diminished nor removed by any branch of government. I would say that it is statutory precedent. You may have different thoughts? They saw fit to list some rights that are given by a greater power and would exist whether they were written or not.
You like Dr. Williams I see. He has some excellent synopsis columns on his site that go back quite a ways. Want a link?","http://www.4forums.com/political/gun-control-debates/13324-little-beaten-path-but.html",371822,100
"1-9235_101_100_4",9235,1,"2009-09-28 12:04:00",681,320,371837,"2009-09-28 10:58:00",415027,193,100,"Yeah? Well tell them that is found in the Declaration of Independence and not in the Constitution. 

Here is (a) link to Walter Williams website on JFPO...AS well as some others that are interesting reading by scholars of the Constitution.
The Constitutional Society is located here in Texas and has a wealth of things to enrich your understanding of document and history, you can find almost any answer there. The National Archives and Records Administration is also an excellent site and maintained by the government.
Walter Williams archive
Walter Williams Archives
That is one. Townhall is another place that posts his insight. It goes back by year and may have more articles under his name there as well as a link to those archives.
Constitution Society Home Page
Constitution Society Home Page
http://www.chuckbaldwinlive.com/
Chuck Baldwin's home page
The Federalist Society
The Federalist Society
Sorry it took so long but I have been up to my elbows in dough...no, not that kind, the stuff you make bread from :) Today is my bread and pastries day :)",415026,4,9235,1,"The reason that I’m careful in making the point that the Preamble isn’t law is because liberals love to state that “promote the general welfare” gives them authority to enact social engineering legislation that is outside of the scope of the Constitution. Promoting the general welfare does NOT mean enriching individuals with monetary rewards for doing nothing. 

I’ve been a fan of WW and Thomas Sowell for decades, I’d love to have the link. His story of the first Thanksgiving is one of my favorites. Thanks.","http://www.4forums.com/political/gun-control-debates/13324-little-beaten-path-but.html",371827,101
"1-9235_102_101_4",9235,1,"2009-09-28 13:38:00",320,681,371843,"2009-09-28 12:04:00",415028,22,101,"emoticonXConfused

It's there in my copy. ;)

Thanks for the links. Are you a baker by profession or hobby?",415027,4,9235,1,"Yeah? Well tell them that is found in the Declaration of Independence and not in the Constitution. 

Here is (a) link to Walter Williams website on JFPO...AS well as some others that are interesting reading by scholars of the Constitution.
The Constitutional Society is located here in Texas and has a wealth of things to enrich your understanding of document and history, you can find almost any answer there. The National Archives and Records Administration is also an excellent site and maintained by the government.
Walter Williams archive
Walter Williams Archives
That is one. Townhall is another place that posts his insight. It goes back by year and may have more articles under his name there as well as a link to those archives.
Constitution Society Home Page
Constitution Society Home Page
http://www.chuckbaldwinlive.com/
Chuck Baldwin's home page
The Federalist Society
The Federalist Society
Sorry it took so long but I have been up to my elbows in dough...no, not that kind, the stuff you make bread from :) Today is my bread and pastries day :)","http://www.4forums.com/political/gun-control-debates/13324-little-beaten-path-but.html",371837,102
"1-9235_103_102_4",9235,1,"2009-09-28 14:09:00",681,320,371851,"2009-09-28 13:38:00",415029,241,102,"That is why I quoted the preamble to the BOR. Congress has its' powers enumerated in article 1, section 8. Any claim to the contrary and not withstanding. If it isn't enumerated, they don't have it.
[quote}Thanks for the links. Are you a baker by profession or hobby?[/QUOTE]
Necessity, we like homemade stuff and I enjoy cooking because it is relaxing. If you ever met some of the folks that have come visiting, they can attest to that :) I cook quite a bit when I have time and the older I get the more time I have. Outside of that there are plenty of chores around the ranchocita plus my regular duties which I have slacked off on quite a bunch :) I found a fondness for good books and rocking chairs and an occasional round of golf or a bit of fishing but sometimes after I forget how much of a chore that is, the rocking chair and spittoon look more attractive ;)
The computer is a hobby. Took it up after a bout with cancer to occupy my time during recovery and have met some darn fine folks that are like minded that I enjoy quite a bit. Old fashioned, the kitchen and dining table are the visiting spots for us still anyhow.",415028,4,9235,1,"emoticonXConfused
It's there in my copy. ;)","http://www.4forums.com/political/gun-control-debates/13324-little-beaten-path-but.html",371843,103
"1-9235_90_89_5",9235,1,"2009-09-28 08:55:00",2104,320,371795,"2009-09-28 08:52:00",415016,14,89,"I am confused by that statement JP. Intent is everything, no?",415015,5,9235,1,"The Preamble ISN’T statute law. It is boilerplate that acts as an introduction to the meat and potatoes contained in the BOR. Other than it being used by the SCOTUS to argue the intent of our FF, it serves little additional purpose.","http://www.4forums.com/political/gun-control-debates/13324-little-beaten-path-but.html",371793,90
"1-9235_91_90_5",9235,1,"2009-09-28 09:12:00",320,2104,371798,"2009-09-28 08:55:00",415017,69,90,"Hardly. The ""devil's in the details."" The Preamble is just an introduction to the actual provisions that are written into the Constitution. Think of it this way :
""Dearly beloved, we are gathered here this day to join this man and this woman in Holy Matrimony"" is the equivalent to the Preamble. It introduces the purpose of what follows.",415016,5,9235,1,"I am confused by that statement JP. Intent is everything, no?","http://www.4forums.com/political/gun-control-debates/13324-little-beaten-path-but.html",371795,91
"1-9235_92_91_5",9235,1,"2009-09-28 09:57:00",2104,320,371811,"2009-09-28 09:12:00",415018,21,91,"Yeah. I think I get that, but what Doc said was, 
That is why I was confused.",415017,5,9235,1,"Hardly. The ""devil's in the details."" The Preamble is just an introduction to the actual provisions that are written into the Constitution. Think of it this way :
""Dearly beloved, we are gathered here this day to join this man and this woman in Holy Matrimony"" is the equivalent to the Preamble. It introduces the purpose of what follows.","http://www.4forums.com/political/gun-control-debates/13324-little-beaten-path-but.html",371798,92
"1-9235_93_92_5",9235,1,"2009-09-28 10:03:00",320,2104,371812,"2009-09-28 09:57:00",415019,114,92,"I was responding to this part:
""I have posted that Preamble several times and it needs reading. Any post in conflict with that Preamble is blantantly unConstitutional. Any 'bill' passed outside of those enumerated powers are unConstitutional. Any claims made that are in conflict are unConstitutional. Government is a servant as the quote by Dr. Williams stated. Any pretense that conflicts with either Preamble or Oath or enumerated powers are unConstitutional.""
Specifically, the Preamble has no legal teeth. That was my only point. I agree with Doc's sentiment, I was just being overly technical, I guess. ;)",415018,5,9235,1,"Yeah. I think I get that, but what Doc said was, 
That is why I was confused.","http://www.4forums.com/political/gun-control-debates/13324-little-beaten-path-but.html",371811,93
"1-9235_94_93_5",9235,1,"2009-09-28 10:06:00",2104,320,371814,"2009-09-28 10:03:00",415020,8,93,"That clears it all up! Thanks!",415019,5,9235,1,"I was responding to this part:
""I have posted that Preamble several times and it needs reading. Any post in conflict with that Preamble is blantantly unConstitutional. Any 'bill' passed outside of those enumerated powers are unConstitutional. Any claims made that are in conflict are unConstitutional. Government is a servant as the quote by Dr. Williams stated. Any pretense that conflicts with either Preamble or Oath or enumerated powers are unConstitutional.""
Specifically, the Preamble has no legal teeth. That was my only point. I agree with Doc's sentiment, I was just being overly technical, I guess. ;)","http://www.4forums.com/political/gun-control-debates/13324-little-beaten-path-but.html",371812,94
