"key","quote_source_post_discussion_id","posts_dataset_id","posts_timestamp","posts_author_id","quote_source_author_id","posts_native_post_id","quote_source_timestamp","post_text_id","Word_Count","quote_source_post_id","post_text","quote_source_text_id","Dialog_Turn","posts_discussion_id","quote_source_post_dataset_id","Fullquote_text","discussion_url","quote_source_native_post_id","posts_post_id"
"1-9320_8_7_1",9320,1,"2009-10-12 10:50:00",758,439,374089,"2009-10-12 10:29:00",417683,70,7,"Since the BATFE is not taking any action here there must be a series of flaws in the report. If crimes were committed as claimed then why no action? BATFE claims straw purchasers are the major problem yet no arrests and prosecutions, why? Do you think its all a put up publicity stunt to grab attention and deflect blame away from Bloomberg's XXXX poor performance?",417682,1,9320,1,"Doing a little research is better than making assumptions-
""A team of 40 private investigators supervised by the
global firm, Kroll, Inc. worked for four months to capture
video of gun shows. Licensed as private investigators in
17 different states, these men and women have more than
460 years of combined law enforcement experience and
included many retired federal agents and police officers.""
http://www.gunshowundercover.org/ima...ver_report.pdf

Less than 1%? That would mean that NYC would have to have been very, very ""lucky"" to have come into contact with private sellers willing to engage in illegal transactions 63% of the time. It would be like presenting you with a pack of 3000 cards of which 25 are aces and giving you 30 tries to draw cards at random. The chances of you drawing aces 63% or more of the time are very, very small. 
Another disturbing fact according to the report:
""16 of 17 – 94% – of licensed dealers approached by our investigators at gun shows were willing to sell to someone who appeared to be a straw purchaser.""

Read the report and its policy recommendations. The answers are there.","http://www.4forums.com/political/gun-control-debates/13437-new-york-citys-undercover-investigation-gun-shows.html",374077,8
"1-9320_9_8_1",9320,1,"2009-10-12 11:08:00",439,758,374094,"2009-10-12 10:50:00",417684,86,8,"The report is very recent. Lack of action by the ATF within a few days of a report being released is not evidence of anything. Secondly, the ATF can't just walk into a gun show and randomly choose people to investigate. They have to have specific information about the identity of people suspected of breaking the law at gun shows before investigating. So unless they are given such information about the sellers in the NYC report they can't do anything.",417683,1,9320,1,"Since the BATFE is not taking any action here there must be a series of flaws in the report. If crimes were committed as claimed then why no action? BATFE claims straw purchasers are the major problem yet no arrests and prosecutions, why? Do you think its all a put up publicity stunt to grab attention and deflect blame away from Bloomberg's XXXX poor performance?","http://www.4forums.com/political/gun-control-debates/13437-new-york-citys-undercover-investigation-gun-shows.html",374089,9
"1-9320_11_9_1",9320,1,"2009-10-12 11:20:00",758,439,374097,"2009-10-12 11:08:00",417686,119,9,"You know you are full of it when you claim they can't just walk into a gun show. Strange that can can do just that at a licensed dealers. What would be so very different than checking licensed dealers at a gun shop and investigating the same at a show? Go back to the Brady bunch and see if they have any facts that prevent the BATF from doing any thing. Try again Brady as your logic and facts just don't hold up. 
edit: The BATFE checks paperwork as part of their investigations. Federal laws are not suspended at gun shows as you would have the uneducated and ill informed believe.",417684,1,9320,1,"The report is very recent. Lack of action by the ATF within a few days of a report being released is not evidence of anything. Secondly, the ATF can't just walk into a gun show and randomly choose people to investigate. They have to have specific information about the identity of people suspected of breaking the law at gun shows before investigating. So unless they are given such information about the sellers in the NYC report they can't do anything.","http://www.4forums.com/political/gun-control-debates/13437-new-york-citys-undercover-investigation-gun-shows.html",374094,11
"1-9320_19_11_1",9320,1,"2009-10-13 04:47:00",439,758,374168,"2009-10-12 11:20:00",417694,73,11,"""Under current practice guidelines, ATF agents
must have a specific person under suspicion to
conduct a criminal investigation at a gun show. ATF
agents’ discretion should be broadened to allow
investigations when intelligence, arrest debriefings,
and cooperating witnesses suggest that a particular
show is a site of problematic firearms sales – even
when intelligence does not identify an individual
suspect.""
http://www.gunshowundercover.org/ima...ver_report.pdf",417686,1,9320,1,"You know you are full of it when you claim they can't just walk into a gun show. Strange that can can do just that at a licensed dealers. What would be so very different than checking licensed dealers at a gun shop and investigating the same at a show? Go back to the Brady bunch and see if they have any facts that prevent the BATF from doing any thing. Try again Brady as your logic and facts just don't hold up. 
edit: The BATFE checks paperwork as part of their investigations. Federal laws are not suspended at gun shows as you would have the uneducated and ill informed believe.","http://www.4forums.com/political/gun-control-debates/13437-new-york-citys-undercover-investigation-gun-shows.html",374097,19
"1-9320_21_19_1",9320,1,"2009-10-13 05:03:00",758,439,374171,"2009-10-13 04:47:00",417696,42,19,"You expect us to believe the clown or clowns that wrote your article are more knowledgeable about what the BATFE can and cannot do? I didn't think anyone was dumb enough to fall for that. Apparently I was wrong.",417694,1,9320,1,"""Under current practice guidelines, ATF agents
must have a specific person under suspicion to
conduct a criminal investigation at a gun show. ATF
agents’ discretion should be broadened to allow
investigations when intelligence, arrest debriefings,
and cooperating witnesses suggest that a particular
show is a site of problematic firearms sales – even
when intelligence does not identify an individual
suspect.""
http://www.gunshowundercover.org/ima...ver_report.pdf","http://www.4forums.com/political/gun-control-debates/13437-new-york-citys-undercover-investigation-gun-shows.html",374168,21
"1-9320_31_21_1",9320,1,"2009-10-14 03:24:00",439,758,374254,"2009-10-13 05:03:00",417706,12,21,"These ""clowns"" appear to be more knowledgeable than you.",417696,1,9320,1,"You expect us to believe the clown or clowns that wrote your article are more knowledgeable about what the BATFE can and cannot do? I didn't think anyone was dumb enough to fall for that. Apparently I was wrong.","http://www.4forums.com/political/gun-control-debates/13437-new-york-citys-undercover-investigation-gun-shows.html",374171,31
"1-9320_37_31_1",9320,1,"2009-10-14 06:10:00",758,439,374274,"2009-10-14 03:24:00",417712,9,31,"Appearances are deceiving especially to the slow ones.",417706,1,9320,1,"These ""clowns"" appear to be more knowledgeable than you.","http://www.4forums.com/political/gun-control-debates/13437-new-york-citys-undercover-investigation-gun-shows.html",374254,37
