"key","quote_source_post_discussion_id","posts_dataset_id","posts_timestamp","posts_author_id","quote_source_author_id","posts_native_post_id","quote_source_timestamp","post_text_id","Word_Count","quote_source_post_id","post_text","quote_source_text_id","Dialog_Turn","posts_discussion_id","quote_source_post_dataset_id","Fullquote_text","discussion_url","quote_source_native_post_id","posts_post_id"
"1-9392_7_2_1",9392,1,"2009-11-05 14:00:00",758,44,376902,"2009-11-05 09:28:00",421327,37,2,"Gee in addition to being the board monitor now you are into mental health coordinator. You tell me if there is a gun control issue. I just tossed it up for chits and grins. ",421322,1,9392,1,"It would appear that while Mr. Zielinski was convicted of ""unarmed robbery"", he did in fact use a knife to commit the robbery and pled guilty to a lesser charge. The fact that he is being required to post a bond to cover the opposing sides legal costs would either suggest the judge hopes to thwart the case or seriously doubts Mr. Zielinski's chances.
Hopefully, high bond will prevent robber&#39;s lawsuit - The Macomb Daily Opinion: Breaking news coverage for Macomb County, Michigan 
Is there a gun conrol issue here?
Why ask me to corroborate? You seem to be developing an unhealthy fixation. 
Better chill before you throw a rod. We're just talkin' here.","http://www.4forums.com/political/gun-control-debates/13538-just-when-ya-thought-couldnt-get-wackier.html",376868,7
"1-9392_8_7_1",9392,1,"2009-11-05 14:20:00",44,758,376906,"2009-11-05 14:00:00",421328,57,7,"This would be the ""Gun Control Debates"" section. 
As far as mental health, your uniform hostility towards me seems out of proportion to our differences of opinion.

Did you think I'd side with the robber? Why would you think that? 
Again with the desperate need to justify your contempt.",421327,1,9392,1,"Gee in addition to being the board monitor now you are into mental health coordinator. You tell me if there is a gun control issue. I just tossed it up for chits and grins. ","http://www.4forums.com/political/gun-control-debates/13538-just-when-ya-thought-couldnt-get-wackier.html",376902,8
"1-9392_9_8_1",9392,1,"2009-11-05 14:49:00",758,44,376909,"2009-11-05 14:20:00",421329,117,8,"You really should do some thing about those feelings of inferiorty. You need to learn to read the black part and not read any thing into it. Your perceived idea of contempt I don't have any control over. Tighten up, get a grip and drive on. 
I didn't think any thing beyond the stupidity of allowing a felon to sue over actions he caused in becoming a felon. As to gun control it is fuel for the gun control crowd aka the pro slavery crowd. If there was more of it, then the poor misunderstood felon wouldn't have been shot. Hope that answers your question monitor dude. ",421328,1,9392,1,"This would be the ""Gun Control Debates"" section. 
As far as mental health, your uniform hostility towards me seems out of proportion to our differences of opinion.

Did you think I'd side with the robber? Why would you think that? 
Again with the desperate need to justify your contempt.","http://www.4forums.com/political/gun-control-debates/13538-just-when-ya-thought-couldnt-get-wackier.html",376906,9
"1-9392_10_9_1",9392,1,"2009-11-05 15:02:00",44,758,376912,"2009-11-05 14:49:00",421330,30,9,"You're a great help in that department. 

That little saying wasn't clever the first time you used it. 

Not really. Why address me by name then?",421329,1,9392,1,"You really should do some thing about those feelings of inferiorty. You need to learn to read the black part and not read any thing into it. Your perceived idea of contempt I don't have any control over. Tighten up, get a grip and drive on. 
I didn't think any thing beyond the stupidity of allowing a felon to sue over actions he caused in becoming a felon. As to gun control it is fuel for the gun control crowd aka the pro slavery crowd. If there was more of it, then the poor misunderstood felon wouldn't have been shot. Hope that answers your question monitor dude. ","http://www.4forums.com/political/gun-control-debates/13538-just-when-ya-thought-couldnt-get-wackier.html",376909,10
"1-9392_12_10_1",9392,1,"2009-11-05 15:07:00",758,44,376914,"2009-11-05 15:02:00",421332,26,10,"Well perhaps I should run future posts thru you for approval then? Trying to keep it light but you aren't taking it that way.",421330,1,9392,1,"You're a great help in that department.
Am I supposed to be? I must be missing some thing here.
That little saying wasn't clever the first time you used it. 
It wasn't meant to be clever. It was meant to be taken literally.
Not really. Why address me by name then?","http://www.4forums.com/political/gun-control-debates/13538-just-when-ya-thought-couldnt-get-wackier.html",376912,12
"1-9392_14_12_1",9392,1,"2009-11-05 15:16:00",44,758,376917,"2009-11-05 15:07:00",421334,14,12,"I guess I didn't. If you were then I appreciate it.emoticonXGood",421332,1,9392,1,"Well perhaps I should run future posts thru you for approval then? Trying to keep it light but you aren't taking it that way.","http://www.4forums.com/political/gun-control-debates/13538-just-when-ya-thought-couldnt-get-wackier.html",376914,14
