"key","quote_source_post_discussion_id","posts_dataset_id","posts_timestamp","posts_author_id","quote_source_author_id","posts_native_post_id","quote_source_timestamp","post_text_id","Word_Count","quote_source_post_id","post_text","quote_source_text_id","Dialog_Turn","posts_discussion_id","quote_source_post_dataset_id","Fullquote_text","discussion_url","quote_source_native_post_id","posts_post_id"
"1-9646_106_105_1",9646,1,"2010-02-09 14:11:00",681,44,389801,"2010-02-09 13:51:00",434620,69,105,"http://www.4forums.com/political/388643-post47.html
You didn't say ""except for shotguns"" in any post you have made on registration, safety course ""when you get your 2A rights"" or as a defense to the illegal kalifornia 'assault rifle ban' which garnered some of those from people who refused to give 'em back. Every session on gun grabbing you keep posting the same tired LIES.",434619,1,9646,1,"You're a liar. I've never said anything close to what you're implying and 
I have never discussed any need of registering shotguns.
Quote me saying what you suggest I believe, I dare you.
You should stick to reposting the same stats over and over.
If you've got something to say to me, please address me and not a third party.","http://www.4forums.com/political/gun-control-debates/13860-burglary-victims-attacked-every-30-minutes.html",389797,106
"1-9646_107_106_1",9646,1,"2010-02-09 14:14:00",44,681,389802,"2010-02-09 14:11:00",434621,25,106,"There's nothing at all about registration in the post you linked.
Let's see some of my posts calling for registration of all firearms.",434620,1,9646,1,"http://www.4forums.com/political/388643-post47.html
You didn't say ""except for shotguns"" in any post you have made on registration, safety course ""when you get your 2A rights"" or as a defense to the illegal kalifornia 'assault rifle ban' which garnered some of those from people who refused to give 'em back. Every session on gun grabbing you keep posting the same tired LIES.","http://www.4forums.com/political/gun-control-debates/13860-burglary-victims-attacked-every-30-minutes.html",389801,107
"1-9646_108_107_1",9646,1,"2010-02-09 14:24:00",681,44,389805,"2010-02-09 14:14:00",434622,16,107,"Click down to 48, I thought the post at the top went with it.


",434621,1,9646,1,"There's nothing at all about registration in the post you linked.
Let's see some of my posts calling for registration of all firearms.","http://www.4forums.com/political/gun-control-debates/13860-burglary-victims-attacked-every-30-minutes.html",389802,108
"1-9646_109_108_1",9646,1,"2010-02-09 14:29:00",44,681,389806,"2010-02-09 14:24:00",434623,37,108,"I see you talking about registration in Germany. Nowhere do I talk about the need for registration, 
although you've botched the quoting function in your post above and made it look like I did.

",434622,1,9646,1,"Click down to 48, I thought the post at the top went with it.


","http://www.4forums.com/political/gun-control-debates/13860-burglary-victims-attacked-every-30-minutes.html",389805,109
"1-9646_110_109_1",9646,1,"2010-02-09 14:34:00",681,44,389808,"2010-02-09 14:29:00",434624,79,109,"Easy enough to go to the link!
You said ""it might pose some problems for the straw purchaser"". You were talking about theft/loss and REGISTRATION!
You also asked the question about the German constitution, the reply from me was that it was the REGISTRATION that caused the gun grab problems, in every country they invaded.
Don't tell me you aren't an advocate of registration and hence confiscation. emoticonXCensored",434623,1,9646,1,"I seeyou talking about registration in Germany. Nowhere do I talk about the need for registration., although you've botched the quoting function and made it look like I did.","http://www.4forums.com/political/gun-control-debates/13860-burglary-victims-attacked-every-30-minutes.html",389806,110
"1-9646_111_110_1",9646,1,"2010-02-09 14:41:00",44,681,389809,"2010-02-09 14:34:00",434625,71,110,"Birds of a feather I guess. Nowhere do I mention registration in that entire thread. You lie. 

I asked you to show where the RKBA is in the German Constitution since you meant to compare the U.S.A. to Germany with respect to private ownership of firearms.

I'm not, so there. You guys are hell on strawmen but not so much with real adversaries.",434624,1,9646,1,"Easy enough to go to the link!
You said ""it might pose some problems for the straw purchaser"". You were talking about theft/loss and REGISTRATION!
You also asked the question about the German constitution, the reply from me was that it was the REGISTRATION that caused the gun grab problems, in every country they invaded.
Don't tell me you aren't an advocate of registration and hence confiscation. emoticonXCensored","http://www.4forums.com/political/gun-control-debates/13860-burglary-victims-attacked-every-30-minutes.html",389808,111
"1-9646_112_111_1",9646,1,"2010-02-09 14:48:00",681,44,389811,"2010-02-09 14:41:00",434626,116,111,"yOU LIE by denying that one must have the serial numbers, ie registration to be able to link guns to the original purchaser. All one needs to do is click on your name and review all posts by you. 

Except we were not discussing the Geman constitution. We were talking about REGISTRATION. It was easy enough to use the list in their country and any country they invaded.
[/QUOTE]I'm not, so there. You guys are hell on strawmen but not so much with real adversaries.[/QUOTE]
MORE like a devious eel. And is that your 25 grams worth?",434625,1,9646,1,"Birds of a feather I guess. Nowhere do I mention registration in that entire thread. You lie. 

I asked you to show where the RKBA is in the German Constitution since you meant to compare the U.S.A. to Germany with respect to private ownership of firearms.

I'm not, so there. You guys are hell on strawmen but not so much with real adversaries.","http://www.4forums.com/political/gun-control-debates/13860-burglary-victims-attacked-every-30-minutes.html",389809,112
"1-9646_114_112_1",9646,1,"2010-02-09 15:01:00",44,681,389818,"2010-02-09 14:48:00",434628,76,112,"So finding the original purchaser by way of the FFL, using the serial number and the manufacturer, requires registration? 
You know better since it's done in states without any registration requirements. 

No, you introduced registration, not me. You wanted to talk registration, I only mentioned my support for mandatory theft/loss reporting and background checks for all transfers of ownership. Neither require registration to implement.",434626,1,9646,1,"yOU LIE by denying that one must have the serial numbers, ie registration to be able to link guns to the original purchaser. All one needs to do is click on your name and review all posts by you. 

Except we were not discussing the Geman constitution. We were talking about REGISTRATION. It was easy enough to use the list in their country and any country they invaded.
[/QUOTE]I'm not, so there. You guys are hell on strawmen but not so much with real adversaries.[/QUOTE]
MORE like a devious eel. And is that your 25 grams worth?","http://www.4forums.com/political/gun-control-debates/13860-burglary-victims-attacked-every-30-minutes.html",389811,114
"1-9646_116_114_1",9646,1,"2010-02-09 15:09:00",681,44,389820,"2010-02-09 15:01:00",434630,91,114,"And you were told repeatedly that there is no requirement for sale of private property neither is there a provision for non FFL holders to even access the system. It is against the law for a person to access the system if they do not hold an FFL. 

See above slow crawler! Most States do not require registration like kalifornia. Don't repeat the lie. We know what happened on the 'assault weapon ban' in kalifornia and we know what is going on now.",434628,1,9646,1,"So finding the original purchaser by way of the FFL, using the serial number and the manufacturer, requires registration? You know better since it's done in states without any registration requirements.","http://www.4forums.com/political/gun-control-debates/13860-burglary-victims-attacked-every-30-minutes.html",389818,116
"1-9646_117_116_1",9646,1,"2010-02-09 15:14:00",44,681,389821,"2010-02-09 15:09:00",434631,51,116,"All sales(including secondary) in CA must go through a FFL IIRC. 
All buyers must submit to a NICS check. 
There is an exception for relative to relative transfers. 
I would see this as the law of the land.
Post McDonald, of course.",434630,1,9646,1,"And you were told repeatedly that there is no requirement for sale of private property neither is there a provision for non FFL holders to even access the system. It is against the law for a person to access the system if they do not hold an FFL. 

See above slow crawler! Most States do not require registration like kalifornia. Don't repeat the lie. We know what happened on the 'assault weapon ban' in kalifornia and we know what is going on now.","http://www.4forums.com/political/gun-control-debates/13860-burglary-victims-attacked-every-30-minutes.html",389820,117
"1-9646_118_117_1",9646,1,"2010-02-09 15:27:00",681,44,389824,"2010-02-09 15:14:00",434632,87,117,"You think? emoticonXGood
I helped a buddy who sold guns in his store. Since FFL is exactly what it says, FEDERAL, it sure doesn't apply in Texas and a dealer would have a heck of a time explaining his inventory record to justify your sale.
Post McDonld and Pre McDonald of course.
Look for ATF to lose quite a bit of their suborned authority. Agents are testifying about the faulty records that can't be justified as we speak. :)",434631,1,9646,1,"All sales(including secondary) in CA must go through a FFL IIRC. 
All buyers must submit to a NICS check. 
There is an exception for relative to relative transfers. 
I would see this as the law of the land.
Post McDonald, of course.","http://www.4forums.com/political/gun-control-debates/13860-burglary-victims-attacked-every-30-minutes.html",389821,118
"1-9646_140_136_2",9646,1,"2010-02-17 05:19:00",681,44,390881,"2010-02-13 11:29:00",434654,189,136,"Your 'thinking' is WRONG. There is no profit selling horse apples for human consumption.
Here is what sinjin is attempting to do with the 2A in kalifornia which, as he says, ""he would be happy to have in all 50 States""!
None of this is acceptable and is repugnant to the Rule of Law.
Sinjin is quite content to register all firearms as has every dictator in history prior to confiscation. His compliments to the current system in kalifornia is nothing short of complete advocacy of registration and confiscation of privately owned firearms. What he doesn't want you to know is the depth of lawlesness and infringement is already in effect and is only working to punish innocent people and has nothing to do with crime control...it is all about ultimate disarmament and loss of Second Amendment rights. There is a word for these people, now what was that? Hummmm
The eTrace Fraud Exposed

Police Commander (Retired)
Have officials 'willfully conspired' to cover up ATF record errors?

",434650,2,9646,1,"@Bryan
Thinking out loud myself and without specific information, I'd think that the database controlled by the ""government"" 
only links a weapon's serial number to the unique DROS transaction number. In order for law enforcement to 
correlate that to an owner would require a visit to the FFL, just as with the original first owner. 
Maybe that's why they call it a ""Dealer's Record of Sale"".
Btw I finished Zacks' ""The Pirate Coast"" and enjoyed it. Thanks again.","http://www.4forums.com/political/gun-control-debates/13860-burglary-victims-attacked-every-30-minutes.html",390280,140
"1-9646_143_140_2",9646,1,"2010-02-17 10:59:00",44,681,390916,"2010-02-17 05:19:00",434657,24,140,"I won't hold my breath awaiting a retraction of this piece of balderdash you've composed. Guess we'll chalk it up to puffery.",434654,2,9646,1,"Your 'thinking' is WRONG. There is no profit selling horse apples for human consumption.
Here is what sinjin is attempting to do with the 2A in kalifornia which, as he says, ""he would be happy to have in all 50 States""!
None of this is acceptable and is repugnant to the Rule of Law.
Sinjin is quite content to register all firearms as has every dictator in history prior to confiscation. His compliments to the current system in kalifornia is nothing short of complete advocacy of registration and confiscation of privately owned firearms. What he doesn't want you to know is the depth of lawlesness and infringement is already in effect and is only working to punish innocent people and has nothing to do with crime control...it is all about ultimate disarmament and loss of Second Amendment rights. There is a word for these people, now what was that? Hummmm
The eTrace Fraud Exposed

Police Commander (Retired)
Have officials 'willfully conspired' to cover up ATF record errors?

","http://www.4forums.com/political/gun-control-debates/13860-burglary-victims-attacked-every-30-minutes.html",390881,143
"1-9646_144_143_2",9646,1,"2010-02-17 11:09:00",681,44,390917,"2010-02-17 10:59:00",434658,49,143,"Nah, we won't. You said it yourself when you said you would settle for kalifornia style laws. Registration at the national level is what you were advocating just like the scheme in kalifornia. We will leave it as it is, ...the truth.",434657,2,9646,1,"I won't hold my breath awaiting a retraction of this piece of balderdash you've composed. Guess we'll chalk it up to puffery.","http://www.4forums.com/political/gun-control-debates/13860-burglary-victims-attacked-every-30-minutes.html",390916,144
"1-9646_145_144_2",9646,1,"2010-02-17 11:17:00",44,681,390918,"2010-02-17 11:09:00",434659,38,144,"I support documentation of all transfers of ownership, records to be maintained by the FFL, just as they already do with their new sales. 
The rest is a product of your demonstrably overactive imagination.",434658,2,9646,1,"Nah, we won't. You said it yourself when you said you would settle for kalifornia style laws. Registration at the national level is what you were advocating just like the scheme in kalifornia. We will leave it as it is, ...the truth.","http://www.4forums.com/political/gun-control-debates/13860-burglary-victims-attacked-every-30-minutes.html",390917,145
"1-9646_146_145_2",9646,1,"2010-02-17 11:25:00",681,44,390919,"2010-02-17 11:17:00",434660,92,145,"That got shot down in the mid to late 90's. One of the largest firearm dealers in Texas and quite a few more were actually for it until their business suffered as customers refused to buy from them and they quickly changed their views. 
I guess you can prove that such a mandate would be constitutional or you are willing to take it to court on your own dime? You can research it and find the answer for yourself...I paid attention when it was an issue :)",434659,2,9646,1,"I support documentation of all transfers of ownership, records to be maintained by the FFL, just as they already do with their new sales. 
The rest is a product of your demonstrably overactive imagination.","http://www.4forums.com/political/gun-control-debates/13860-burglary-victims-attacked-every-30-minutes.html",390918,146
"1-9646_147_145_3",9646,1,"2010-02-17 11:28:00",681,44,390920,"2010-02-17 11:17:00",434661,34,145,"What's the matter? The e-trace isn't good enough for you? emoticonXBouncer
When are you going to realize all that stuff has been tried before and it didn't work or was unconstitutional?",434659,3,9646,1,"I support documentation of all transfers of ownership, records to be maintained by the FFL, just as they already do with their new sales. 
The rest is a product of your demonstrably overactive imagination.","http://www.4forums.com/political/gun-control-debates/13860-burglary-victims-attacked-every-30-minutes.html",390918,147
"1-9646_151_147_3",9646,1,"2010-02-17 13:55:00",44,681,390944,"2010-02-17 11:28:00",434665,11,147,"Documenting secondary transfers of ownership has not been ruled unConstitutional.",434661,3,9646,1,"What's the matter? The e-trace isn't good enough for you? emoticonXBouncer
When are you going to realize all that stuff has been tried before and it didn't work or was unconstitutional?","http://www.4forums.com/political/gun-control-debates/13860-burglary-victims-attacked-every-30-minutes.html",390920,151
"1-9646_152_151_3",9646,1,"2010-02-17 14:04:00",681,44,390946,"2010-02-17 13:55:00",434666,28,151,"That is because it hasn't been challenged in court...yet.
What glowing success stories do you have for us about the effectiveness of that baloney :p",434665,3,9646,1,"Documenting secondary transfers of ownership has not been ruled unConstitutional.","http://www.4forums.com/political/gun-control-debates/13860-burglary-victims-attacked-every-30-minutes.html",390944,152
"1-9646_155_152_3",9646,1,"2010-02-17 14:35:00",44,681,390950,"2010-02-17 14:04:00",434669,26,152,"Not yet. Is a challenge in the works?

The honor system as applied to ""prohibited persons"" would appear to have shortcomings.",434666,3,9646,1,"That is because it hasn't been challenged in court...yet.
What glowing success stories do you have for us about the effectiveness of that baloney :p","http://www.4forums.com/political/gun-control-debates/13860-burglary-victims-attacked-every-30-minutes.html",390946,155
"1-9646_157_155_3",9646,1,"2010-02-17 14:43:00",681,44,390953,"2010-02-17 14:35:00",434671,49,155,"I would expect one after April :) Unless it is voluntarily dropped.
You know it is unconstitutional to require a felon to incriminate himself; how many times does it take to sink in?
By law, the constitution, who would a prohibited person be?",434669,3,9646,1,"Not yet. Is a challenge in the works?

The honor system as applied to ""prohibited persons"" would appear to have shortcomings.","http://www.4forums.com/political/gun-control-debates/13860-burglary-victims-attacked-every-30-minutes.html",390950,157
"1-9646_158_157_3",9646,1,"2010-02-17 14:55:00",44,681,390956,"2010-02-17 14:43:00",434672,12,157,"Requiring NCIS background checks has not been ruled as compelling self-incrimination.",434671,3,9646,1,"I would expect one after April :) Unless it is voluntarily dropped.
You know it is unconstitutional to require a felon to incriminate himself; how many times does it take to sink in?
By law, the constitution, who would a prohibited person be?","http://www.4forums.com/political/gun-control-debates/13860-burglary-victims-attacked-every-30-minutes.html",390953,158
"1-9646_159_158_3",9646,1,"2010-02-17 15:00:00",681,44,390957,"2010-02-17 14:55:00",434673,47,158,"Is a felon legally able and entitled to defend himself in his own home?
I doubt you know any rulings dealing with criminals and the NICS check?
When are you going to pony up with some court cases instead of ""you think?""",434672,3,9646,1,"Requiring NCIS background checks has not been ruled as compelling self-incrimination.","http://www.4forums.com/political/gun-control-debates/13860-burglary-victims-attacked-every-30-minutes.html",390956,159
"1-9646_160_159_3",9646,1,"2010-02-17 15:13:00",44,681,390961,"2010-02-17 15:00:00",434674,7,159,"Of course. 

Let's discuss them.",434673,3,9646,1,"Is a felon legally able and entitled to defend himself in his own home?
I doubt you know any rulings dealing with criminals and the NICS check?
When are you going to pony up with some court cases instead of ""you think?""","http://www.4forums.com/political/gun-control-debates/13860-burglary-victims-attacked-every-30-minutes.html",390957,160
"1-9646_161_160_3",9646,1,"2010-02-17 15:23:00",681,44,390963,"2010-02-17 15:13:00",434675,56,160,"Get to it then, all you have been posting is time worn cliches. 
Demonstrate why you deserve respect by actual facts and some extent of knowledge of what you are talking about instead of merely putting up a front and asking or repeating catty one liners. You want respect? Earn it!",434674,3,9646,1,"Of course. 

Let's discuss them.","http://www.4forums.com/political/gun-control-debates/13860-burglary-victims-attacked-every-30-minutes.html",390961,161
"1-9646_162_161_3",9646,1,"2010-02-17 15:25:00",44,681,390964,"2010-02-17 15:23:00",434676,8,161,"First ruling you'd like to discuss?
LINK",434675,3,9646,1,"Get to it then, all you have been posting is time worn cliches. 
Demonstrate why you deserve respect by actual facts and some extent of knowledge of what you are talking about instead of merely putting up a front and asking or repeating catty one liners. You want respect? Earn it!","http://www.4forums.com/political/gun-control-debates/13860-burglary-victims-attacked-every-30-minutes.html",390963,162
"1-9646_166_162_3",9646,1,"2010-02-18 06:00:00",681,44,391024,"2010-02-17 15:25:00",434680,143,162,"If you are 50 as you once told Sarge, you would have been 8 years old when the '68 GCA was passed. I doubt you even have knowledge of the bill sponsor, history nor the SOURCE used to create the bill? 

None of those are ""rulings"". You insist on pawing your way through in a muddle as usual? 
Here is the answer to one of your taunts in a previous post:
Officer's Facebook post draws gun rights fire | Politics and Law - CNET News

Bryan, it is a shame the NRA retained the same lawyer responsible for inclusion or retention of the language in Heller. Now he gets 10 minutes of oral arguement time in McDonald. I may well consider what I will do with my lifetime membership...",434676,3,9646,1,"First ruling you'd like to discuss?
LINK","http://www.4forums.com/political/gun-control-debates/13860-burglary-victims-attacked-every-30-minutes.html",390964,166
