"key","quote_source_post_discussion_id","posts_dataset_id","posts_timestamp","posts_author_id","quote_source_author_id","posts_native_post_id","quote_source_timestamp","post_text_id","Word_Count","quote_source_post_id","post_text","quote_source_text_id","Dialog_Turn","posts_discussion_id","quote_source_post_dataset_id","Fullquote_text","discussion_url","quote_source_native_post_id","posts_post_id"
"1-9738_17_15_1",9738,1,"2010-03-02 09:23:00",153,44,393056,"2010-03-02 08:53:00",439517,13,15,"Seems fashionable to smoke marijuana in CA.

Cops do it routinely.",439515,1,9738,1,"Nothing at all. 

You think open carrying of loaded handguns in public will become fashionable in CA? 
I think if anyone took to this they'd find themselves asked to leave establishments routinely. 

I'm not against concealed carry in principle but open carry seems silly to me. I smell posers.","http://www.4forums.com/political/gun-control-debates/13982-another-observation.html",393051,17
"1-9738_20_17_1",9738,1,"2010-03-02 12:38:00",44,153,393072,"2010-03-02 09:23:00",439520,19,17,"I don't see the relation to open carry. 

Think of it like a toolbelt for a carpenter.",439517,1,9738,1,"Seems fashionable to smoke marijuana in CA.

Cops do it routinely.","http://www.4forums.com/political/gun-control-debates/13982-another-observation.html",393056,20
"1-9738_22_20_1",9738,1,"2010-03-02 12:48:00",153,44,393074,"2010-03-02 12:38:00",439522,42,20,"Open carry is legal. Marijuana isn't. Yet marijuana seems to be more tolerated in California.
Following that line of reasoning, California is more tolerate of the law being broken than they are of the law being followed.",439520,1,9738,1,"I don't see the relation to open carry. 

Think of it like a toolbelt for a carpenter.","http://www.4forums.com/political/gun-control-debates/13982-another-observation.html",393072,22
"1-9738_26_22_1",9738,1,"2010-03-02 13:46:00",44,153,393089,"2010-03-02 12:48:00",439526,20,22,"I guess most Californians find pot smokers less threatening than guys displaying guns in public. Crazy, huh?",439522,1,9738,1,"Open carry is legal. Marijuana isn't. Yet marijuana seems to be more tolerated in California.
Following that line of reasoning, California is more tolerate of the law being broken than they are of the law being followed.","http://www.4forums.com/political/gun-control-debates/13982-another-observation.html",393074,26
"1-9738_28_26_1",9738,1,"2010-03-02 13:56:00",153,44,393092,"2010-03-02 13:46:00",439528,50,26,"The problem is that marijuana is still illegal, regardless of public support for it. It's got a long history of being illegal.
So what's really crazy is that your state is more supportive of people committing felonies than it is of people exercising a constitutional right.",439526,1,9738,1,"I guess most Californians find pot smokers less threatening than guys displaying guns in public. Crazy, huh?","http://www.4forums.com/political/gun-control-debates/13982-another-observation.html",393089,28
"1-9738_31_21_2",9738,1,"2010-03-03 02:15:00",681,44,393121,"2010-03-02 12:40:00",439531,102,21,"subject to ""police power"" has never been acceptable as a ""reasonable standard"" and upheld by the ruling in People v Zerillo and restated in the the McDonald arguments and Heller.
Now copy that down and paste it on your computer screen so you will not have to ask again. Rights are not subject to getting permission from local government agencies before they are independently used as an individual right. Ditto for storage requirements. 
People v Zerillo held that 'a constitutional right cannot be made subject to the will of the Sheriff""!",439521,2,9738,1,"What about regulations concerning the documentation of firearm sales?","http://www.4forums.com/political/gun-control-debates/13982-another-observation.html",393073,31
"1-9738_40_31_2",9738,1,"2010-03-03 10:32:00",44,681,393162,"2010-03-03 02:15:00",439540,49,31,"What's this to due with convicted felons losing their RKBA through due process? I'm not seeing your point unless you're defending the right of someone, convicted of a felony with a gun, to get his guns back after doing his time. Is that it?",439531,2,9738,1,"subject to ""police power"" has never been acceptable as a ""reasonable standard"" and upheld by the ruling in People v Zerillo and restated in the the McDonald arguments and Heller.
People v Zerillo held that 'a constitutional right cannot be made subject to the will of the Sheriff""!","http://www.4forums.com/political/gun-control-debates/13982-another-observation.html",393121,40
"1-9738_42_40_2",9738,1,"2010-03-03 10:36:00",681,44,393164,"2010-03-03 10:32:00",439542,18,40,"Deja vu all over again?
You having another groundhog day or been sucking the pot pipe?",439540,2,9738,1,"What's this to due with convicted felons losing their RKBA through due process? I'm not seeing your point unless you're defending the right of someone, convicted of a felony with a gun, to get his guns back after doing his time. Is that it?","http://www.4forums.com/political/gun-control-debates/13982-another-observation.html",393162,42
"1-9738_51_42_2",9738,1,"2010-03-03 11:04:00",44,681,393174,"2010-03-03 10:36:00",439551,25,42,"I've given you no reason to insult me. Why don't you try to keep a civil tongue in your head for a change.",439542,2,9738,1,"Deja vu all over again?
You having another groundhog day or been sucking the pot pipe?","http://www.4forums.com/political/gun-control-debates/13982-another-observation.html",393164,51
"1-9738_53_51_2",9738,1,"2010-03-03 11:08:00",681,44,393177,"2010-03-03 11:04:00",439553,80,51,"It was neither! It is a valid point just as you keep shoving your load of cow patties and horse apple quality of kalifornia laws on the other states it is a valid reminder that you state, kalifornia, has legalized dope. It is a felony in most States.
Your insistence on all 50 States to follow kalifornia gun laws is a bigger insult to us/ME than your legalizing dope. How's that?",439551,2,9738,1,"I've given you no reason to insult me. Why don't you try to keep a civil tongue in your head for a change.","http://www.4forums.com/political/gun-control-debates/13982-another-observation.html",393174,53
"1-9738_55_53_2",9738,1,"2010-03-03 11:16:00",44,681,393179,"2010-03-03 11:08:00",439555,36,53,"Marijuana is not ""legal"" in CA except for medicinal purposes as recommended by a physician. Recreational use is still illegal.
And many states have laws similar to CA concerning secondary sales.",439553,2,9738,1,"It was neither! It is a valid point just as you keep shoving your load of cow patties and horse apple quality of kalifornia laws on the other states it is a valid reminder that you state, kalifornia, has legalized dope. It is a felony in most States.
Your insistence on all 50 States to follow kalifornia gun laws is a bigger insult to us/ME than your legalizing dope. How's that?","http://www.4forums.com/political/gun-control-debates/13982-another-observation.html",393177,55
"1-9738_60_55_2",9738,1,"2010-03-03 11:22:00",681,44,393184,"2010-03-03 11:16:00",439560,48,55,"Bryan wrote a scholarly piece on that to explain it to you. It is registration! What were you told about that? And why do you keep asking the same dumb questions? About 10 times of the same answer seems like would be sufficient.",439555,2,9738,1,"Marijuana is not ""legal"" in CA except for medicinal purposes as recommended by a physician. Recreational use is still illegal.
And many states have laws similar to CA concerning secondary sales.","http://www.4forums.com/political/gun-control-debates/13982-another-observation.html",393179,60
"1-9738_63_60_2",9738,1,"2010-03-03 11:27:00",44,681,393187,"2010-03-03 11:22:00",439563,54,60,"He said that the CA DROS system amounts to registration if they keep a database that links weapon to owner. I agreed and said I don't support the system in its present form if that's the case. Neither of us nor you has verified that this is in fact the case.",439560,2,9738,1,"Bryan wrote a scholarly piece on that to explain it to you. It is registration! What were you told about that? And why do you keep asking the same dumb questions? About 10 times of the same answer seems like would be sufficient.","http://www.4forums.com/political/gun-control-debates/13982-another-observation.html",393184,63
"1-9738_67_63_2",9738,1,"2010-03-03 11:33:00",681,44,393191,"2010-03-03 11:27:00",439567,98,63,"The states are going to be bound by incorporation of the civil right which would exist even if there was not a 2A. Read the transcript! It is still an infringement and 'guessing that it is not registration' will not save it. It is abuse and infringement and an unfunded mandate. A license nor a fee can be demanded for a right freely stated in the Constitution. It has NO REDEEMING VALUE.
If it did, kalifornia would be crowing about it. It doesn't and they aren't crowing.",439563,2,9738,1,"He said that the CA DROS system amounts to registration if they keep a database that links weapon to owner. I agreed and said I don't support the system in its present form if that's the case. Neither of us nor you has verified that this is in fact the case.","http://www.4forums.com/political/gun-control-debates/13982-another-observation.html",393187,67
"1-9738_68_67_2",9738,1,"2010-03-03 11:36:00",44,681,393192,"2010-03-03 11:33:00",439568,13,67,"Tell it to the judge. We'll all stand by the ruling.",439567,2,9738,1,"The states are going to be bound by incorporation of the civil right which would exist even if there was not a 2A. Read the transcript! It is still an infringement and 'guessing that it is not registration' will not save it. It is abuse and infringement and an unfunded mandate. A license nor a fee can be demanded for a right freely stated in the Constitution. It has NO REDEEMING VALUE.
If it did, kalifornia would be crowing about it. It doesn't and they aren't crowing.","http://www.4forums.com/political/gun-control-debates/13982-another-observation.html",393191,68
"1-9738_70_68_2",9738,1,"2010-03-03 11:41:00",681,44,393194,"2010-03-03 11:36:00",439570,19,68,"Already been done and of course you will have to abide by it or face the consequences. emoticonXClown",439568,2,9738,1,"Tell it to the judge. We'll all stand by the ruling.","http://www.4forums.com/political/gun-control-debates/13982-another-observation.html",393192,70
"1-9738_76_60_3",9738,1,"2010-03-03 13:57:00",44,681,393214,"2010-03-03 11:22:00",439576,53,60,"DROS submittals for long guns do not include the make, model and serial number of the firearm. 
Through the system, one can request a list of guns one owns, but for long guns you'll just see how many.
Turns out Bryan was wrong.
Registration it ain't.",439560,3,9738,1,"Bryan wrote a scholarly piece on that to explain it to you. It is registration! What were you told about that? And why do you keep asking the same dumb questions? About 10 times of the same answer seems like would be sufficient.","http://www.4forums.com/political/gun-control-debates/13982-another-observation.html",393184,76
"1-9738_84_76_3",9738,1,"2010-03-04 05:38:00",681,44,393266,"2010-03-03 13:57:00",439584,48,76,"Downright avoidance and telling the truth is what?
All the info you stated DOES APPLY TO HANDGUNS and you just completed a lie by omission! 
Your ploy to play pro gunner, pro rights failed miserably.
Bryan is right despite your obfuscations pleading otherwise.",439576,3,9738,1,"DROS submittals for long guns do not include the make, model and serial number of the firearm. 
Through the system, one can request a list of guns one owns, but for long guns you'll just see how many.
Turns out Bryan was wrong.
Registration it ain't.","http://www.4forums.com/political/gun-control-debates/13982-another-observation.html",393214,84
"1-9738_86_84_3",9738,1,"2010-03-04 11:27:00",44,681,393341,"2010-03-04 05:38:00",439586,53,84,"CA registers handguns. We all know that. The question was about long guns. 
I'm gonna investigate further to find out if they can provide one with a record of long guns associated with one's name. 
Maybe they can't. The form and website are unclear in this regard.",439584,3,9738,1,"Downright avoidance and telling the truth is what?
All the info you stated DOES APPLY TO HANDGUNS and you just completed a lie by omission! 
Your ploy to play pro gunner, pro rights failed miserably.
Bryan is right despite your obfuscations pleading otherwise.","http://www.4forums.com/political/gun-control-debates/13982-another-observation.html",393266,86
"1-9738_90_86_3",9738,1,"2010-03-04 12:20:00",681,44,393349,"2010-03-04 11:27:00",439590,113,86,"The question was guns period. Now you try to gloss over your faux pa on registering only handguns trying to save the registration of ""long guns""? ROFLMAO So we have long guns and then short guns huh? LOL 
{QUOTE]I'm gonna investigate further to find out if they can provide one with a record of long guns associated with one's name. 
Maybe they can't. The form and website are unclear in this regard.[/QUOTE]
I doubt any evidence would correct your thoughts even if you did manage to reword what is written somehow. Thanks for the laughs slim.",439586,3,9738,1,"CA registers handguns. We all know that. The question was about long guns. 
I'm gonna investigate further to find out if they can provide one with a record of long guns associated with one's name. 
Maybe they can't. The form and website are unclear in this regard.","http://www.4forums.com/political/gun-control-debates/13982-another-observation.html",393341,90
"1-9738_92_90_3",9738,1,"2010-03-04 14:30:00",44,681,393371,"2010-03-04 12:20:00",439592,28,90,"Why would we be discussing whether DROS constitutes registration for all guns including handguns? 
Handguns were registered in CA prior to the DROS system being instituted.",439590,3,9738,1,"The question was guns period. Now you try to gloss over your faux pa on registering only handguns trying to save the registration of ""long guns""? ROFLMAO So we have long guns and then short guns huh? LOL 
{QUOTE]I'm gonna investigate further to find out if they can provide one with a record of long guns associated with one's name. 
Maybe they can't. The form and website are unclear in this regard.[/QUOTE]
I doubt any evidence would correct your thoughts even if you did manage to reword what is written somehow. Thanks for the laughs slim.","http://www.4forums.com/political/gun-control-debates/13982-another-observation.html",393349,92
