"key","quote_source_post_discussion_id","posts_dataset_id","posts_timestamp","posts_author_id","quote_source_author_id","posts_native_post_id","quote_source_timestamp","post_text_id","Word_Count","quote_source_post_id","post_text","quote_source_text_id","Dialog_Turn","posts_discussion_id","quote_source_post_dataset_id","Fullquote_text","discussion_url","quote_source_native_post_id","posts_post_id"
"1-9803_6_5_1",9803,1,"2010-03-25 15:43:00",153,439,395953,"2010-03-25 14:36:00",442175,179,5,"We could ask you the same thing. Why do you constantly try and oversimplify things by claiming that gun control will work, while at the same time not discussing matters relating to income, surroundings, upbringing, recidivism rates, prison sentences and other such matters? 

Without guns? Like guns somehow suddenly stop existing?
The answer would be no, and it'll always be no.

We're you just talking about oversimplification?
I see you conveniently leave out the in depth issues that contribute to how other nations work. Police powers, government oversight, economy, the rights of the people, etc.
Why do you choose to believe that the gun laws are the sole determining factor that make all the difference?

You don't seem all that upset over eight children being murdered. Why, is the number too low before you get your dander up?
Does the anti-gun crowd have a threshold of death that has to be reached before there's outcry over it?",442174,1,9803,1,"Why do people on the pro-gun side continuously try to oversimplify the issue? No one is really arguing that there would be zero murder without guns. The question is would there be less murders without guns. In developed nations with stricter gun laws there are less murders. At any rate, I don't think you can draw such conclusions based on one incident.","http://www.4forums.com/political/gun-control-debates/14057-8-killed-5-wounded-outside-school.html",395940,6
"1-9803_7_6_1",9803,1,"2010-03-25 16:10:00",439,153,395961,"2010-03-25 15:43:00",442176,148,6,"Given that this is the gun control forum, it seems logical to focus on gun control rather than other factors relevant to the crime rate. This is just a slimy attempt by you to misrepresent my position. 

An attempt by you to dodge the main point.

So how do ""Police powers, government oversight, economy, the rights of the people"" account for the lower homicide rates among other developed nations? If you have an actual argument to make then make it. Otherwise, stop trying to muddy the waters. 

Another slimy attempt by you to misrepresent my position. Of course eight children being murdered is a horrible tragedy but statistically it doesn't tell us anything. You and your comrades might want to educate yourselves about the meaning of ""statistical significance"" before responding.",442175,1,9803,1,"We could ask you the same thing. Why do you constantly try and oversimplify things by claiming that gun control will work, while at the same time not discussing matters relating to income, surroundings, upbringing, recidivism rates, prison sentences and other such matters? 

Without guns? Like guns somehow suddenly stop existing?
The answer would be no, and it'll always be no.

We're you just talking about oversimplification?
I see you conveniently leave out the in depth issues that contribute to how other nations work. Police powers, government oversight, economy, the rights of the people, etc.
Why do you choose to believe that the gun laws are the sole determining factor that make all the difference?

You don't seem all that upset over eight children being murdered. Why, is the number too low before you get your dander up?
Does the anti-gun crowd have a threshold of death that has to be reached before there's outcry over it?","http://www.4forums.com/political/gun-control-debates/14057-8-killed-5-wounded-outside-school.html",395953,7
"1-9803_9_7_1",9803,1,"2010-03-25 16:40:00",153,439,395968,"2010-03-25 16:10:00",442178,151,7,"It's completely illogical.

Then better define your position.

What's the main point in this case?

It has absolutely everything to do with supposedly lower homicide rates. If there's a low homicide rate in one selected country, and the police have the authority to beat a confession out of you and make annual inspections of your home, then those are facts that the people need to be aware of. You can't just claim ""Country A has more gun control and a lower homicide rate than Country B does"" and leave it at that. You've got to give absolutely every single fact available if you ever hope to draw a proper comparison.

And statistically a school massacre by someone with a concealed carry permit is just short of being nonexistent, but that fact still doesn't mean a thing to you.",442176,1,9803,1,"Given that this is the gun control forum, it seems logical to focus on gun control rather than other factors relevant to the crime rate. This is just a slimy attempt by you to misrepresent my position. 

An attempt by you to dodge the main point.

So how do ""Police powers, government oversight, economy, the rights of the people"" account for the lower homicide rates among other developed nations? If you have an actual argument to make then make it. Otherwise, stop trying to muddy the waters. 

Another slimy attempt by you to misrepresent my position. Of course eight children being murdered is a horrible tragedy but statistically it doesn't tell us anything. You and your comrades might want to educate yourselves about the meaning of ""statistical significance"" before responding.","http://www.4forums.com/political/gun-control-debates/14057-8-killed-5-wounded-outside-school.html",395961,9
"1-9803_10_9_1",9803,1,"2010-03-25 18:04:00",439,153,395975,"2010-03-25 16:40:00",442179,143,9,"So what's the purpose of having a crime forum on this site if the gun control forum was meant to be a place to focus on all factors relevant to crime?

I've already taken those factors into consideration and don't see any significant difference between the US and other developed nations that would account for the big difference in homicide rates. Do you have an actual argument to make- such as pointing out specific factors (besides gun control) about specific nations and explaining how those factors account for the difference in homicide rates or are you unable to defend your claims?

I've discussed the findings of certain scholars about concealed carry that were based on statistics over a number of years- not on just one incident. Your continual straw man arguments are getting tiresome.",442178,1,9803,1,"It's completelyillogical.","http://www.4forums.com/political/gun-control-debates/14057-8-killed-5-wounded-outside-school.html",395968,10
"1-9803_14_10_1",9803,1,"2010-03-27 06:14:00",153,439,396120,"2010-03-25 18:04:00",442183,121,10,"You don't see any significant differences? How ignorant are you, really?
You don't see a difference between America's legal system, where the people have a great deal of constitutional protections against police intrusion, and countries like Germany or Australia, where such protections don't exist?
How about Japan, where suspects can be denied legal council on the basis it'll interfere with an investigation, and the police are allowed to use physical torture to obtain a confession?

Statistics be damned. Not one of the 48 states that allow for concealed carry in one form or another, has so much as even proposed a bill to dissolve their concealed carry system.",442179,1,9803,1,"So what's the purpose of having a crime forum on this site if the gun control forum was meant to be a place to focus on all factors relevant to crime?

I've already taken those factors into consideration and don't see any significant difference between the US and other developed nations that would account for the big difference in homicide rates. Do you have an actual argument to make- such as pointing out specific factors (besides gun control) about specific nations and explaining how those factors account for the difference in homicide rates or are you unable to defend your claims?

I've discussed the findings of certain scholars about concealed carry that were based on statistics over a number of years- not on just one incident. Your continual straw man arguments are getting tiresome.","http://www.4forums.com/political/gun-control-debates/14057-8-killed-5-wounded-outside-school.html",395975,14
