"key","quote_source_post_discussion_id","posts_dataset_id","posts_timestamp","posts_author_id","quote_source_author_id","posts_native_post_id","quote_source_timestamp","post_text_id","Word_Count","quote_source_post_id","post_text","quote_source_text_id","Dialog_Turn","posts_discussion_id","quote_source_post_dataset_id","Fullquote_text","discussion_url","quote_source_native_post_id","posts_post_id"
"1-9810_79_78_1",9810,1,"2010-04-07 07:52:00",226,123,397460,"2010-04-07 07:49:00",442447,17,78,"I see. Some people can carry firearms and others cannot. Is that about right?",442446,1,9810,1,"Perhaps she feels the need to protect herself and her hubby from another gun nut?","http://www.4forums.com/political/gun-control-debates/14073-talk-violence-succession.html",397458,79
"1-9810_83_79_1",9810,1,"2010-04-07 10:35:00",123,226,397494,"2010-04-07 07:52:00",442451,55,79,"No, but I can certainly understand why Mrs. Brady packs heat.
She's got a lot of nutsy people gunning for her and her husband. Quite apparent self-defense is a good reason to pack heat. At least, she's not a paranoid nut who startles when he sees a strange face.",442447,1,9810,1,"I see. Some people can carry firearms and others cannot. Is that about right?","http://www.4forums.com/political/gun-control-debates/14073-talk-violence-succession.html",397460,83
"1-9810_84_83_1",9810,1,"2010-04-07 10:52:00",226,123,397501,"2010-04-07 10:35:00",442452,42,83,"If self-defense is a good reason to carry firearms, then do you think ordinary citizens shouldn't be allowed to? And what makes you think gun owners are ""paranoid nuts who startle when they see a strange face?""",442451,1,9810,1,"No, but I can certainly understand why Mrs. Brady packs heat.
She's got a lot of nutsy people gunning for her and her husband. Quite apparent self-defense is a good reason to pack heat. At least, she's not a paranoid nut who startles when he sees a strange face.","http://www.4forums.com/political/gun-control-debates/14073-talk-violence-succession.html",397494,84
"1-9810_90_84_1",9810,1,"2010-04-08 09:05:00",123,226,397596,"2010-04-07 10:52:00",442458,35,84,"I rather think that I am an ordinary citizen and I see no reason for me to pack heat. But then, I'm not a hysterical fraidy-cat who startles at a strange face.",442452,1,9810,1,"If self-defense is a good reason to carry firearms, then do you think ordinary citizens shouldn't be allowed to? And what makes you think gun owners are ""paranoid nuts who startle when they see a strange face?""","http://www.4forums.com/political/gun-control-debates/14073-talk-violence-succession.html",397501,90
"1-9810_93_90_1",9810,1,"2010-04-09 04:31:00",226,123,397660,"2010-04-08 09:05:00",442461,157,90,"Sarah Brady has no reason to fear gun owners. Only ignorance could make someone afraid of a typical gun owner, even someone who stands so firmly against the right to own a firearm. I see you've been fed enough Brady propaganda; you've been taught that the more helpless you are, the safer you are from criminals.

Once again, what makes you think gun owners are? Owning a firearm is not about fear, but preperation. Does owning a fire extinguisher make you some ""fraidy-cat"" who constantly worries about your house burning down? No, you're just prepared in case a fire starts and you need to put it out.
""A gun is like a tourniquet. You don't need one very often, but when you do need one you need it very badly, and very quickly.""
~ Arthur Jones",442458,1,9810,1,"I rather think that I am an ordinary citizen and I see no reason for me to pack heat. But then, I'm not a hysterical fraidy-cat who startles at a strange face.","http://www.4forums.com/political/gun-control-debates/14073-talk-violence-succession.html",397596,93
